v -1.2965675592422485 -0.3352164626121521 0.34578004479408264
v -1.3147873878479004 -0.3262190818786621 0.5473989844322205
v -1.1686328649520874 -0.6747104525566101 0.5601726770401001
v -1.157002568244934 -0.6679957509040833 0.35797786712646484
v -0.9399077296257019 -0.975529670715332 0.5473990440368652
v -0.9385898113250732 -0.9552522301673889 0.34578007459640503
v -1.1802630424499512 -0.681425154209137 0.7623675465583801
v -1.3330069780349731 -0.31722167134284973 0.7490179538726807
v -0.9412256479263306 -0.9958071112632751 0.7490179538726807
v -1.1918931007385254 -0.688139796257019 0.9645624160766602
v -1.351226568222046 -0.30822429060935974 0.9506369233131409
v -0.9425434470176697 -1.0160844326019287 0.9506369233131409
v -1.2035232782363892 -0.6948544979095459 1.1667572259902954
v -1.3694463968276978 -0.29922693967819214 1.1522557735443115
v -0.9438613653182983 -1.0363620519638062 1.1522557735443115
v -1.2151535749435425 -0.701569139957428 1.3689520359039307
v -1.38766610622406 -0.290229469537735 1.353874683380127
v -0.945179283618927 -1.056639313697815 1.3538748025894165
v -0.9385898113250732 -0.9552522301673889 0.34578007459640503
v -0.9399077296257019 -0.975529670715332 0.5473990440368652
v -0.6441993117332458 -1.2081763744354248 0.5099484324455261
v -0.656213641166687 -1.1774098873138428 0.3100179433822632
v -0.30165958404541016 -1.356796145439148 0.4503730237483978
v -0.3291178047657013 -1.3193289041519165 0.25312864780426025
v 0.06436797231435776 -1.4112608432769775 0.3727329671382904
v 0.020407039672136307 -1.371338129043579 0.1789890080690384
v 0.4289391338825226 -1.36785888671875 0.28231915831565857
v 0.3685411214828491 -1.329892635345459 0.0926516056060791
v 0.767208993434906 -1.2295476198196411 0.18529316782951355
v 0.6915597915649414 -1.1978174448013306 1.3940172038928722e-07
v 1.0561250448226929 -1.0057530403137207 0.08826718479394913
v 0.9674497246742249 -0.9841129779815674 -0.09265133738517761
v -0.6321848630905151 -1.2389429807662964 0.7098788619041443
v -0.9412256479263306 -0.9958071112632751 0.7490179538726807
v -0.2742014229297638 -1.3942633867263794 0.6476174592971802
v 0.10832890123128891 -1.4511836767196655 0.5664768815040588
v 0.48933708667755127 -1.4058247804641724 0.47198668122291565
v 0.8428581357002258 -1.261277675628662 0.37058618664741516
v 1.1448003053665161 -1.027393102645874 0.2691856920719147
v -0.6201703548431396 -1.2697094678878784 0.9098092913627625
v -0.9425434470176697 -1.0160844326019287 0.9506369233131409
v -0.24674327671527863 -1.4317305088043213 0.8448618650436401
v 0.15228977799415588 -1.491106390953064 0.7602208256721497
v 0.5497350692749023 -1.4437906742095947 0.6616542935371399
v 0.9185072779655457 -1.293007731437683 0.5558792352676392
v 1.2334754467010498 -1.049033284187317 0.4501042664051056
v -0.6081559658050537 -1.30047607421875 1.1097396612167358
v -0.9438613653182983 -1.0363620519638062 1.1522557735443115
v -0.2192850559949875 -1.4691977500915527 1.0421063899993896
v 0.19625070691108704 -1.5310293436050415 0.9539648294448853
v 0.6101329922676086 -1.4817568063735962 0.8513217568397522
v 0.994156539440155 -1.324737787246704 0.7411722540855408
v 1.3221508264541626 -1.0706733465194702 0.6310226917266846
v -0.5961415767669678 -1.331242561340332 1.309670090675354
v -0.945179283618927 -1.056639313697815 1.3538748025894165
v -0.19182685017585754 -1.5066649913787842 1.2393507957458496
v 0.2402116358280182 -1.5709519386291504 1.1477086544036865
v 0.6705309748649597 -1.5197227001190186 1.0409893989562988
v 1.0698057413101196 -1.3564677238464355 0.9264653325080872
v 1.4108260869979858 -1.0923131704330444 0.8119412660598755
v 0.9385898113250732 -0.9552521705627441 0.34578004479408264
v 0.9399076104164124 -0.975529670715332 0.5473989248275757
v 1.1686327457427979 -0.6747105717658997 0.5601726174354553
v 1.157002568244934 -0.667995810508728 0.35797786712646484
v 1.3147872686386108 -0.3262192904949188 0.5473990440368652
v 1.2965675592422485 -0.3352165222167969 0.34578004479408264
v 1.180262804031372 -0.681425154209137 0.7623674869537354
v 0.9412254691123962 -0.9958071112632751 0.7490179538726807
v 1.3330068588256836 -0.3172217309474945 0.7490179538726807
v 1.1918929815292358 -0.6881399154663086 0.9645623564720154
v 0.9425433278083801 -1.0160844326019287 0.9506368041038513
v 1.351226568222046 -0.3082243502140045 0.9506368041038513
v 1.2035232782363892 -0.6948544979095459 1.1667571067810059
v 0.9438613653182983 -1.0363620519638062 1.1522557735443115
v 1.3694462776184082 -0.2992270290851593 1.1522557735443115
v 1.2151533365249634 -0.7015692591667175 1.3689520359039307
v 0.9451790452003479 -1.0566394329071045 1.353874683380127
v 1.38766610622406 -0.2902296185493469 1.353874683380127
v 1.2965675592422485 -0.3352165222167969 0.34578004479408264
v 1.3147872686386108 -0.3262192904949188 0.5473990440368652
v 1.3684111833572388 0.04619525372982025 0.5099482536315918
v 1.3477736711502075 0.020407214760780334 0.3100179135799408
v 1.3258496522903442 0.4171532094478607 0.45037299394607544
v 1.307131290435791 0.3746400773525238 0.2531285881996155
v 1.190003752708435 0.7613747119903564 0.37273287773132324
v 1.1774100065231323 0.7033420205116272 0.1789889931678772
v 0.9701308012008667 1.0554015636444092 0.2823191285133362
v 0.9674503207206726 0.9841123223304749 0.09265156090259552
v 0.6812148094177246 1.2791961431503296 0.18529319763183594
v 0.6915603876113892 1.1978169679641724 1.2111664204894623e-07
v 0.3429451584815979 1.4175076484680176 0.08826711773872375
v 0.3685418963432312 1.3298923969268799 -0.09265132993459702
v 1.3890483379364014 0.07198328524827957 0.7098787426948547
v 1.3330068588256836 -0.3172217309474945 0.7490179538726807
v 1.3445680141448975 0.4596662223339081 0.6476174592971802
v 1.2025972604751587 0.8194073438644409 0.5664768218994141
v 0.972811222076416 1.1266906261444092 0.47198668122291565
v 0.6708692908287048 1.3605753183364868 0.3705861568450928
v 0.31734830141067505 1.5051227807998657 0.2691856622695923
v 1.409685492515564 0.09777136892080307 0.9098092913627625
v 1.351226568222046 -0.3082243502140045 0.9506368041038513
v 1.3632864952087402 0.5021793246269226 0.8448618054389954
v 1.2151910066604614 0.8774400353431702 0.7602207660675049
v 0.9754915833473206 1.1979796886444092 0.6616542339324951
v 0.6605236530303955 1.441954493522644 0.5558791160583496
v 0.29175156354904175 1.5927377939224243 0.4501042068004608
v 1.4303230047225952 0.12355940043926239 1.1097396612167358
v 1.3694462776184082 -0.2992270290851593 1.1522557735443115
v 1.382004976272583 0.5446923971176147 1.0421062707901
v 1.2277848720550537 0.9354726076126099 0.9539647102355957
v 0.9781724810600281 1.2692689895629883 0.8513216972351074
v 0.650178074836731 1.5233337879180908 0.741172194480896
v 0.2661547362804413 1.680352807044983 0.6310226917266846
v 1.4509605169296265 0.14934749901294708 1.309670090675354
v 1.38766610622406 -0.2902296185493469 1.353874683380127
v 1.4007234573364258 0.5872055292129517 1.23935067653656
v 1.240378499031067 0.9935053586959839 1.1477086544036865
v 0.9808527827262878 1.3405580520629883 1.0409891605377197
v 0.639832615852356 1.6047128438949585 0.9264651536941528
v 0.24055784940719604 1.7679678201675415 0.8119411468505859
v 0.35797789692878723 1.2904685735702515 0.34578004479408264
v 0.3748796880245209 1.3017488718032837 0.5473989248275757
v 1.4533996761656454e-07 1.3494209051132202 0.5601726770401001
v 1.4533996761656454e-07 1.335991382598877 0.3579777777194977
v -0.3748795986175537 1.3017488718032837 0.5473989248275757
v -0.3579777479171753 1.2904688119888306 0.34578001499176025
v 1.9378661875180114e-07 1.3628501892089844 0.7623674869537354
v 0.3917815685272217 1.3130288124084473 0.7490178346633911
v -0.3917813301086426 1.3130288124084473 0.7490179538726807
v 1.4533996761656454e-07 1.376279592514038 0.9645623564720154
v 0.40868332982063293 1.3243086338043213 0.9506367444992065
v -0.408683180809021 1.3243087530136108 0.9506368041038513
v 1.9378661875180114e-07 1.3897089958190918 1.1667572259902954
v 0.42558521032333374 1.335588812828064 1.1522557735443115
v -0.4255850613117218 1.3355889320373535 1.1522557735443115
v 9.689330937590057e-08 1.403138279914856 1.3689520359039307
v 0.4424870014190674 1.3468687534332275 1.353874683380127
v -0.44248685240745544 1.346868872642517 1.353874683380127
v -0.3579777479171753 1.2904688119888306 0.34578001499176025
v -0.3748795986175537 1.3017488718032837 0.5473989248275757
v -0.7242118120193481 1.1619813442230225 0.5099483728408813
v -0.6915599703788757 1.1570026874542236 0.3100178837776184
v -1.024190068244934 0.9396429061889648 0.45037299394607544
v -0.9780134558677673 0.9446888566017151 0.25312861800193787
v -1.2543716430664062 0.6498863101005554 0.37273290753364563
v -1.1978169679641724 0.6679960489273071 0.1789890080690384
v -1.399069905281067 0.3124573826789856 0.2823191285133362
v -1.3359915018081665 0.34578046202659607 0.0926516130566597
v -1.4484238624572754 -0.049648575484752655 0.18529318273067474
v -1.3831201791763306 5.48052753401862e-07 1.6956329318418284e-07
v -1.3990702629089355 -0.4117545187473297 0.08826719224452972
v -1.3359917402267456 -0.3457794487476349 -0.09265127032995224
v -0.756863534450531 1.166959524154663 0.7098787426948547
v -0.3917813301086426 1.3130288124084473 0.7490179538726807
v -1.0703667402267456 0.9345971941947937 0.6476174592971802
v -1.3109263181686401 0.6317763328552246 0.5664768815040588
v -1.4621483087539673 0.2791341543197632 0.47198668122291565
v -1.5137276649475098 -0.09929769486188889 0.37058621644973755
v -1.462148666381836 -0.47772955894470215 0.2691856920719147
v -0.7895152568817139 1.1719379425048828 0.9098091721534729
v -0.408683180809021 1.3243087530136108 0.9506368041038513
v -1.1165432929992676 0.9295511245727539 0.8448618650436401
v -1.3674808740615845 0.6136664748191833 0.7602208256721497
v -1.5252268314361572 0.24581094086170197 0.6616542339324951
v -1.5790311098098755 -0.14894676208496094 0.5558792352676392
v -1.5252271890640259 -0.5437045097351074 0.4501042664051056
v -0.8221672773361206 1.1769165992736816 1.1097396612167358
v -0.4255850613117218 1.3355889320373535 1.1522557735443115
v -1.1627200841903687 0.924505352973938 1.0421063899993896
v -1.4240355491638184 0.5955566763877869 0.9539648294448853
v -1.5883053541183472 0.2124878466129303 0.8513217568397522
v -1.6443349123001099 -0.1985958367586136 0.7411723136901855
v -1.5883057117462158 -0.6096794605255127 0.6310226917266846
v -0.8548190593719482 1.1818950176239014 1.309670090675354
v -0.44248685240745544 1.346868872642517 1.353874683380127
v -1.2088967561721802 0.919459342956543 1.23935067653656
v -1.4805902242660522 0.577446699142456 1.1477086544036865
v -1.651383876800537 0.1791645884513855 1.0409893989562988
v -1.7096384763717651 -0.2482450008392334 0.9264653325080872
v -1.6513841152191162 -0.6756545305252075 0.8119412064552307
vn -0.9193238019943237 -0.387967586517334 -0.06576357036828995
vn -0.9193238615989685 -0.3879675567150116 -0.06576332449913025
vn -0.8641215562820435 -0.49890071153640747 -0.06627213954925537
vn -0.8641214966773987 -0.49890077114105225 -0.06627225875854492
vn -0.7146331071853638 -0.6955079436302185 -0.07462070137262344
vn -0.7146331071853638 -0.6955078840255737 -0.07462076097726822
vn -0.8641215562820435 -0.49890071153640747 -0.06627172231674194
vn -0.9193238615989685 -0.3879674971103668 -0.06576292216777802
vn -0.7146331071853638 -0.6955079436302185 -0.0746203064918518
vn -0.8641215562820435 -0.4989006519317627 -0.06627193093299866
vn -0.9193238615989685 -0.3879675567150116 -0.06576322019100189
vn -0.7146331667900085 -0.6955079436302185 -0.07462046295404434
vn -0.8641215562820435 -0.49890074133872986 -0.06627210229635239
vn -0.9193238019943237 -0.38796761631965637 -0.06576328724622726
vn -0.7146331071853638 -0.6955079436302185 -0.07462068647146225
vn -0.8641215562820435 -0.49890071153640747 -0.06627179682254791
vn -0.9193238615989685 -0.387967586517334 -0.0657629445195198
vn -0.7146331667900085 -0.6955079436302185 -0.07462045550346375
vn -0.7146331071853638 -0.6955078840255737 -0.07462076097726822
vn -0.7146331071853638 -0.6955079436302185 -0.07462070137262344
vn -0.5213662981987 -0.8475594520568848 -0.09909728169441223
vn -0.5213662385940552 -0.8475594520568848 -0.0990973711013794
vn -0.2974916994571686 -0.9446932673454285 -0.1380339413881302
vn -0.29749172925949097 -0.9446932673454285 -0.1380339115858078
vn -0.05826644226908684 -0.980289876461029 -0.18877750635147095
vn -0.058266375213861465 -0.980289876461029 -0.18877750635147095
vn 0.18000726401805878 -0.9519234299659729 -0.24786968529224396
vn 0.1800071895122528 -0.9519233107566833 -0.24786990880966187
vn 0.40109124779701233 -0.8615269660949707 -0.31128302216529846
vn 0.4010911285877228 -0.8615269064903259 -0.31128326058387756
vn 0.5014658570289612 -0.7951841950416565 -0.34090182185173035
vn 0.5014657974243164 -0.7951841354370117 -0.34090203046798706
vn -0.5213661193847656 -0.8475594520568848 -0.09909708797931671
vn -0.7146331071853638 -0.6955079436302185 -0.0746203064918518
vn -0.29749172925949097 -0.9446931481361389 -0.1380339115858078
vn -0.05826640874147415 -0.980289876461029 -0.18877726793289185
vn 0.1800074279308319 -0.9519234299659729 -0.24786916375160217
vn 0.4010913670063019 -0.8615269660949707 -0.3112826645374298
vn 0.5014658570289612 -0.7951842546463013 -0.3409017324447632
vn -0.5213662981987 -0.8475594520568848 -0.09909725189208984
vn -0.7146331667900085 -0.6955079436302185 -0.07462046295404434
vn -0.29749181866645813 -0.9446931481361389 -0.13803410530090332
vn -0.05826645344495773 -0.9802897572517395 -0.18877755105495453
vn 0.18000739812850952 -0.9519234299659729 -0.24786953628063202
vn 0.40109118819236755 -0.8615269660949707 -0.31128302216529846
vn 0.5014656186103821 -0.7951842546463013 -0.34090203046798706
vn -0.5213662981987 -0.8475594520568848 -0.09909731894731522
vn -0.7146331071853638 -0.6955079436302185 -0.07462068647146225
vn -0.29749172925949097 -0.9446931481361389 -0.13803397119045258
vn -0.058266423642635345 -0.980289876461029 -0.1887773722410202
vn 0.18000739812850952 -0.9519234299659729 -0.24786947667598724
vn 0.4010913670063019 -0.8615269660949707 -0.31128278374671936
vn 0.5014658570289612 -0.7951843738555908 -0.34090155363082886
vn -0.5213661193847656 -0.8475594520568848 -0.09909714013338089
vn -0.7146331667900085 -0.6955079436302185 -0.07462045550346375
vn -0.2974916398525238 -0.9446932673454285 -0.13803362846374512
vn -0.05826626718044281 -0.9802899956703186 -0.1887766718864441
vn 0.18000759184360504 -0.9519234299659729 -0.24786877632141113
vn 0.40109172463417053 -0.8615270853042603 -0.3112821578979492
vn 0.5014662742614746 -0.7951843738555908 -0.34090089797973633
vn 0.7956516742706299 -0.6021739840507507 -0.06576348841190338
vn 0.7956517338752747 -0.6021739840507507 -0.0657631978392601
vn 0.8641214966773987 -0.498900830745697 -0.06627187132835388
vn 0.8641213774681091 -0.4989009201526642 -0.06627224385738373
vn 0.9596440196037292 -0.271136611700058 -0.07462035119533539
vn 0.9596440196037292 -0.27113649249076843 -0.07462085038423538
vn 0.8641214966773987 -0.498900830745697 -0.06627168506383896
vn 0.7956517934799194 -0.602173924446106 -0.0657629445195198
vn 0.959644079208374 -0.27113643288612366 -0.07462011277675629
vn 0.8641214966773987 -0.498900830745697 -0.06627205014228821
vn 0.795651912689209 -0.6021738648414612 -0.06576336920261383
vn 0.959644079208374 -0.2711363136768341 -0.07462047040462494
vn 0.8641215562820435 -0.4989006519317627 -0.06627200543880463
vn 0.795651912689209 -0.6021738052368164 -0.06576322019100189
vn 0.959644079208374 -0.27113646268844604 -0.07462074607610703
vn 0.8641214966773987 -0.498900830745697 -0.06627179682254791
vn 0.795651912689209 -0.6021738648414612 -0.06576274335384369
vn 0.9596440196037292 -0.2711365222930908 -0.07462085038423538
vn 0.9596440196037292 -0.27113649249076843 -0.07462085038423538
vn 0.9596440196037292 -0.271136611700058 -0.07462035119533539
vn 0.9946910738945007 -0.02773662656545639 -0.09909698367118835
vn 0.9946910738945007 -0.02773670293390751 -0.09909751266241074
vn 0.9668741822242737 0.21471130847930908 -0.1380336880683899
vn 0.9668741822242737 0.21471120417118073 -0.1380341351032257
vn 0.8780890703201294 0.4396848976612091 -0.1887771487236023
vn 0.8780890703201294 0.43968477845191956 -0.18877746164798737
vn 0.7343860864639282 0.6318528056144714 -0.24786920845508575
vn 0.7343860864639282 0.6318526864051819 -0.24786940217018127
vn 0.5455586910247803 0.7781186699867249 -0.3112828731536865
vn 0.5455586314201355 0.7781187295913696 -0.3112829327583313
vn 0.43791723251342773 0.8318740725517273 -0.3409020006656647
vn 0.437917023897171 0.8318740725517273 -0.3409020006656647
vn 0.9946910738945007 -0.027736544609069824 -0.0990966260433197
vn 0.959644079208374 -0.27113643288612366 -0.07462011277675629
vn 0.9668743014335632 0.2147112339735031 -0.13803350925445557
vn 0.8780890703201294 0.4396849572658539 -0.18877704441547394
vn 0.7343860864639282 0.6318528652191162 -0.24786905944347382
vn 0.5455588102340698 0.7781186699867249 -0.3112826645374298
vn 0.43791720271110535 0.8318741321563721 -0.3409017324447632
vn 0.9946910738945007 -0.027736611664295197 -0.09909713268280029
vn 0.959644079208374 -0.2711363136768341 -0.07462047040462494
vn 0.9668743014335632 0.2147110551595688 -0.13803403079509735
vn 0.8780890107154846 0.4396847188472748 -0.18877767026424408
vn 0.734386146068573 0.6318525671958923 -0.24786972999572754
vn 0.5455588102340698 0.7781185507774353 -0.3112829625606537
vn 0.43791699409484863 0.8318741917610168 -0.34090179204940796
vn 0.9946910738945007 -0.027736729010939598 -0.0990975946187973
vn 0.959644079208374 -0.27113646268844604 -0.07462074607610703
vn 0.9668741822242737 0.2147110402584076 -0.13803425431251526
vn 0.8780890703201294 0.4396846890449524 -0.18877755105495453
vn 0.734386146068573 0.6318526268005371 -0.24786962568759918
vn 0.5455586314201355 0.7781186699867249 -0.3112829029560089
vn 0.4379168450832367 0.8318741917610168 -0.3409017324447632
vn 0.9946910738945007 -0.027736732736229897 -0.09909769147634506
vn 0.9596440196037292 -0.2711365222930908 -0.07462085038423538
vn 0.9668741822242737 0.21471112966537476 -0.13803419470787048
vn 0.878089189529419 0.43968480825424194 -0.1887771040201187
vn 0.734386146068573 0.6318528056144714 -0.24786894023418427
vn 0.5455586314201355 0.778118908405304 -0.31128254532814026
vn 0.4379167854785919 0.8318743705749512 -0.34090152382850647
vn 0.12367197871208191 0.9901415705680847 -0.06576399505138397
vn 0.12367195636034012 0.9901416897773743 -0.06576330214738846
vn -0.0 0.9978016018867493 -0.06627191603183746
vn -0.0 0.9978014826774597 -0.06627263873815536
vn -0.24501077830791473 0.9666444063186646 -0.07462027668952942
vn -0.24501068890094757 0.9666444063186646 -0.0746210366487503
vn -0.0 0.9978016018867493 -0.0662715956568718
vn 0.12367194145917892 0.9901416897773743 -0.06576284766197205
vn -0.24501089751720428 0.9666444063186646 -0.07462003082036972
vn -0.0 0.9978016018867493 -0.06627212464809418
vn 0.1236720010638237 0.9901415705680847 -0.06576329469680786
vn -0.2450108677148819 0.9666444063186646 -0.0746208131313324
vn -0.0 0.9978016018867493 -0.06627192348241806
vn 0.12367205321788788 0.9901416897773743 -0.06576316058635712
vn -0.2450108379125595 0.9666444063186646 -0.07462058961391449
vn -0.0 0.9978016018867493 -0.06627157330513
vn 0.12367205321788788 0.9901416897773743 -0.06576281040906906
vn -0.24501080811023712 0.9666444063186646 -0.0746200680732727
vn -0.24501068890094757 0.9666444063186646 -0.0746210366487503
vn -0.24501077830791473 0.9666444063186646 -0.07462027668952942
vn -0.4733249247074127 0.8752960562705994 -0.09909708052873611
vn -0.4733249843120575 0.8752960562705994 -0.09909757226705551
vn -0.6693825125694275 0.7299820184707642 -0.13803407549858093
vn -0.6693825125694275 0.7299819588661194 -0.13803420960903168
vn -0.8198226094245911 0.5406051278114319 -0.1887774020433426
vn -0.8198225498199463 0.5406051278114319 -0.1887776255607605
vn -0.914393424987793 0.3200708329677582 -0.2478693127632141
vn -0.914393424987793 0.3200708031654358 -0.24786947667598724
vn -0.9466498494148254 0.08340837061405182 -0.3112829625606537
vn -0.9466498494148254 0.08340831845998764 -0.3112829029560089
vn -0.9393825531005859 -0.03668992593884468 -0.3409021198749542
vn -0.9393826127052307 -0.036689914762973785 -0.34090203046798706
vn -0.47332489490509033 0.8752961158752441 -0.0990966260433197
vn -0.24501089751720428 0.9666444063186646 -0.07462003082036972
vn -0.6693824529647827 0.7299821376800537 -0.13803352415561676
vn -0.8198227286338806 0.5406051278114319 -0.1887771338224411
vn -0.9143935441970825 0.3200708031654358 -0.24786917865276337
vn -0.946649968624115 0.08340837806463242 -0.3112827241420746
vn -0.9393826127052307 -0.036689989268779755 -0.34090182185173035
vn -0.4733247458934784 0.8752961158752441 -0.09909746795892715
vn -0.2450108677148819 0.9666444063186646 -0.0746208131313324
vn -0.6693823337554932 0.7299821376800537 -0.13803410530090332
vn -0.8198226094245911 0.5406050682067871 -0.18877752125263214
vn -0.914393424987793 0.32007086277008057 -0.24786944687366486
vn -0.9466498494148254 0.083408422768116 -0.31128281354904175
vn -0.9393826127052307 -0.03668986260890961 -0.34090179204940796
vn -0.4733247458934784 0.8752961158752441 -0.09909746795892715
vn -0.2450108379125595 0.9666444063186646 -0.07462058961391449
vn -0.6693823933601379 0.7299820184707642 -0.13803428411483765
vn -0.8198225498199463 0.5406051278114319 -0.1887776255607605
vn -0.914393424987793 0.3200708031654358 -0.24786950647830963
vn -0.9466498494148254 0.08340836316347122 -0.31128281354904175
vn -0.9393826127052307 -0.036689918488264084 -0.3409017026424408
vn -0.47332489490509033 0.8752961158752441 -0.09909672290086746
vn -0.24501080811023712 0.9666444063186646 -0.0746200680732727
vn -0.6693825721740723 0.7299820184707642 -0.1380336731672287
vn -0.8198227286338806 0.5406050086021423 -0.188777357339859
vn -0.9143935441970825 0.32007068395614624 -0.2478693276643753
vn -0.946649968624115 0.0834081694483757 -0.3112824857234955
vn -0.9393828511238098 -0.0366901271045208 -0.3409014046192169
vt 0.0072768330574035645 0.9999997019767761
vt 0.007276952266693115 0.7999997138977051
vt 0.1295109987258911 0.7999997735023499
vt 0.12951087951660156 0.9999997615814209
vt 0.25174522399902344 0.7999998331069946
vt 0.2517451047897339 0.9999998211860657
vt 0.1295109987258911 0.5999997854232788
vt 0.007276952266693115 0.599999725818634
vt 0.25174522399902344 0.5999997854232788
vt 0.12951111793518066 0.399999737739563
vt 0.007277071475982666 0.399999737739563
vt 0.2517452836036682 0.39999979734420776
vt 0.12951111793518066 0.19999974966049194
vt 0.007277071475982666 0.19999969005584717
vt 0.251745343208313 0.19999980926513672
vt 0.12951141595840454 -2.384185791015625e-07
vt 0.007277190685272217 -2.384185791015625e-07
vt 0.25174546241760254 -1.1920928955078125e-07
vt 0.25748854875564575 0.9999998211860657
vt 0.2574886083602905 0.7999998331069946
vt 0.3797227740287781 0.7999998331069946
vt 0.3797226548194885 0.9999998211860657
vt 0.5019569396972656 0.7999998927116394
vt 0.5019568204879761 0.9999998807907104
vt 0.6241910457611084 0.7999998927116394
vt 0.6241909265518188 0.9999999403953552
vt 0.746425211429596 0.7999999523162842
vt 0.7464251518249512 0.9999999403953552
vt 0.8686593174934387 0.800000011920929
vt 0.868659257888794 1.0
vt 0.9908934235572815 0.8000000715255737
vt 0.9908934235572815 1.0
vt 0.37972283363342285 0.5999997854232788
vt 0.2574886679649353 0.5999997854232788
vt 0.5019569396972656 0.5999999046325684
vt 0.6241910457611084 0.5999999046325684
vt 0.7464252710342407 0.5999999642372131
vt 0.8686593770980835 0.6000000238418579
vt 0.9908934235572815 0.6000000238418579
vt 0.3797228932380676 0.39999985694885254
vt 0.25748878717422485 0.39999979734420776
vt 0.5019570589065552 0.39999985694885254
vt 0.624191164970398 0.3999999165534973
vt 0.7464253902435303 0.3999999761581421
vt 0.8686594367027283 0.3999999761581421
vt 0.990893542766571 0.40000003576278687
vt 0.3797228932380676 0.19999980926513672
vt 0.25748878717422485 0.19999980926513672
vt 0.5019570589065552 0.1999998688697815
vt 0.624191164970398 0.19999992847442627
vt 0.7464253902435303 0.19999992847442627
vt 0.868659496307373 0.19999998807907104
vt 0.990893542766571 0.20000004768371582
vt 0.3797230124473572 -1.1920928955078125e-07
vt 0.25748884677886963 -1.1920928955078125e-07
vt 0.5019571781158447 -1.1920928955078125e-07
vt 0.6241912841796875 0.0
vt 0.746425449848175 0.0
vt 0.8686595559120178 0.0
vt 0.9908937811851501 5.960464477539063e-08
vt 0.0072768330574035645 0.9999997019767761
vt 0.007276952266693115 0.7999997138977051
vt 0.1295109987258911 0.7999997735023499
vt 0.12951087951660156 0.9999997615814209
vt 0.25174522399902344 0.7999998331069946
vt 0.2517451047897339 0.9999998211860657
vt 0.1295109987258911 0.5999997854232788
vt 0.007276952266693115 0.599999725818634
vt 0.25174522399902344 0.5999997854232788
vt 0.12951111793518066 0.399999737739563
vt 0.007277071475982666 0.399999737739563
vt 0.2517452836036682 0.39999979734420776
vt 0.12951111793518066 0.19999974966049194
vt 0.007277071475982666 0.19999969005584717
vt 0.251745343208313 0.19999980926513672
vt 0.12951141595840454 -2.384185791015625e-07
vt 0.007277190685272217 -2.384185791015625e-07
vt 0.25174546241760254 -1.1920928955078125e-07
vt 0.25748854875564575 0.9999998211860657
vt 0.2574886083602905 0.7999998331069946
vt 0.3797227740287781 0.7999998331069946
vt 0.3797226548194885 0.9999998211860657
vt 0.5019569396972656 0.7999998927116394
vt 0.5019568204879761 0.9999998807907104
vt 0.6241910457611084 0.7999998927116394
vt 0.6241909265518188 0.9999999403953552
vt 0.746425211429596 0.7999999523162842
vt 0.7464251518249512 0.9999999403953552
vt 0.8686593174934387 0.800000011920929
vt 0.868659257888794 1.0
vt 0.9908934235572815 0.8000000715255737
vt 0.9908934235572815 1.0
vt 0.37972283363342285 0.5999997854232788
vt 0.2574886679649353 0.5999997854232788
vt 0.5019569396972656 0.5999999046325684
vt 0.6241910457611084 0.5999999046325684
vt 0.7464252710342407 0.5999999642372131
vt 0.8686593770980835 0.6000000238418579
vt 0.9908934235572815 0.6000000238418579
vt 0.3797228932380676 0.39999985694885254
vt 0.25748878717422485 0.39999979734420776
vt 0.5019570589065552 0.39999985694885254
vt 0.624191164970398 0.3999999165534973
vt 0.7464253902435303 0.3999999761581421
vt 0.8686594367027283 0.3999999761581421
vt 0.990893542766571 0.40000003576278687
vt 0.3797228932380676 0.19999980926513672
vt 0.25748878717422485 0.19999980926513672
vt 0.5019570589065552 0.1999998688697815
vt 0.624191164970398 0.19999992847442627
vt 0.7464253902435303 0.19999992847442627
vt 0.868659496307373 0.19999998807907104
vt 0.990893542766571 0.20000004768371582
vt 0.3797230124473572 -1.1920928955078125e-07
vt 0.25748884677886963 -1.1920928955078125e-07
vt 0.5019571781158447 -1.1920928955078125e-07
vt 0.6241912841796875 0.0
vt 0.746425449848175 0.0
vt 0.8686595559120178 0.0
vt 0.9908937811851501 5.960464477539063e-08
vt 0.0072768330574035645 0.9999997019767761
vt 0.007276952266693115 0.7999997138977051
vt 0.1295109987258911 0.7999997735023499
vt 0.12951087951660156 0.9999997615814209
vt 0.25174522399902344 0.7999998331069946
vt 0.2517451047897339 0.9999998211860657
vt 0.1295109987258911 0.5999997854232788
vt 0.007276952266693115 0.599999725818634
vt 0.25174522399902344 0.5999997854232788
vt 0.12951111793518066 0.399999737739563
vt 0.007277071475982666 0.399999737739563
vt 0.2517452836036682 0.39999979734420776
vt 0.12951111793518066 0.19999974966049194
vt 0.007277071475982666 0.19999969005584717
vt 0.251745343208313 0.19999980926513672
vt 0.12951141595840454 -2.384185791015625e-07
vt 0.007277190685272217 -2.384185791015625e-07
vt 0.25174546241760254 -1.1920928955078125e-07
vt 0.25748854875564575 0.9999998211860657
vt 0.2574886083602905 0.7999998331069946
vt 0.3797227740287781 0.7999998331069946
vt 0.3797226548194885 0.9999998211860657
vt 0.5019569396972656 0.7999998927116394
vt 0.5019568204879761 0.9999998807907104
vt 0.6241910457611084 0.7999998927116394
vt 0.6241909265518188 0.9999999403953552
vt 0.746425211429596 0.7999999523162842
vt 0.7464251518249512 0.9999999403953552
vt 0.8686593174934387 0.800000011920929
vt 0.868659257888794 1.0
vt 0.9908934235572815 0.8000000715255737
vt 0.9908934235572815 1.0
vt 0.37972283363342285 0.5999997854232788
vt 0.2574886679649353 0.5999997854232788
vt 0.5019569396972656 0.5999999046325684
vt 0.6241910457611084 0.5999999046325684
vt 0.7464252710342407 0.5999999642372131
vt 0.8686593770980835 0.6000000238418579
vt 0.9908934235572815 0.6000000238418579
vt 0.3797228932380676 0.39999985694885254
vt 0.25748878717422485 0.39999979734420776
vt 0.5019570589065552 0.39999985694885254
vt 0.624191164970398 0.3999999165534973
vt 0.7464253902435303 0.3999999761581421
vt 0.8686594367027283 0.3999999761581421
vt 0.990893542766571 0.40000003576278687
vt 0.3797228932380676 0.19999980926513672
vt 0.25748878717422485 0.19999980926513672
vt 0.5019570589065552 0.1999998688697815
vt 0.624191164970398 0.19999992847442627
vt 0.7464253902435303 0.19999992847442627
vt 0.868659496307373 0.19999998807907104
vt 0.990893542766571 0.20000004768371582
vt 0.3797230124473572 -1.1920928955078125e-07
vt 0.25748884677886963 -1.1920928955078125e-07
vt 0.5019571781158447 -1.1920928955078125e-07
vt 0.6241912841796875 0.0
vt 0.746425449848175 0.0
vt 0.8686595559120178 0.0
vt 0.9908937811851501 5.960464477539063e-08

g fengdun5
s 1
usemtl fengdun5
f 3/3/3 2/2/2 1/1/1 
f 4/4/4 3/3/3 1/1/1 
f 5/5/5 3/3/3 4/4/4 
f 6/6/6 5/5/5 4/4/4 
f 3/3/3 7/7/7 2/2/2 
f 7/7/7 8/8/8 2/2/2 
f 9/9/9 7/7/7 3/3/3 
f 5/5/5 9/9/9 3/3/3 
f 7/7/7 10/10/10 8/8/8 
f 10/10/10 11/11/11 8/8/8 
f 12/12/12 10/10/10 7/7/7 
f 9/9/9 12/12/12 7/7/7 
f 10/10/10 13/13/13 11/11/11 
f 13/13/13 14/14/14 11/11/11 
f 15/15/15 13/13/13 10/10/10 
f 12/12/12 15/15/15 10/10/10 
f 13/13/13 16/16/16 14/14/14 
f 16/16/16 17/17/17 14/14/14 
f 18/18/18 16/16/16 13/13/13 
f 15/15/15 18/18/18 13/13/13 
f 21/21/21 20/20/20 19/19/19 
f 22/22/22 21/21/21 19/19/19 
f 23/23/23 21/21/21 22/22/22 
f 24/24/24 23/23/23 22/22/22 
f 25/25/25 23/23/23 24/24/24 
f 26/26/26 25/25/25 24/24/24 
f 27/27/27 25/25/25 26/26/26 
f 28/28/28 27/27/27 26/26/26 
f 29/29/29 27/27/27 28/28/28 
f 30/30/30 29/29/29 28/28/28 
f 31/31/31 29/29/29 30/30/30 
f 32/32/32 31/31/31 30/30/30 
f 21/21/21 33/33/33 20/20/20 
f 33/33/33 34/34/34 20/20/20 
f 35/35/35 33/33/33 21/21/21 
f 23/23/23 35/35/35 21/21/21 
f 36/36/36 35/35/35 23/23/23 
f 25/25/25 36/36/36 23/23/23 
f 37/37/37 36/36/36 25/25/25 
f 27/27/27 37/37/37 25/25/25 
f 38/38/38 37/37/37 27/27/27 
f 29/29/29 38/38/38 27/27/27 
f 39/39/39 38/38/38 29/29/29 
f 31/31/31 39/39/39 29/29/29 
f 33/33/33 40/40/40 34/34/34 
f 40/40/40 41/41/41 34/34/34 
f 42/42/42 40/40/40 33/33/33 
f 35/35/35 42/42/42 33/33/33 
f 43/43/43 42/42/42 35/35/35 
f 36/36/36 43/43/43 35/35/35 
f 44/44/44 43/43/43 36/36/36 
f 37/37/37 44/44/44 36/36/36 
f 45/45/45 44/44/44 37/37/37 
f 38/38/38 45/45/45 37/37/37 
f 46/46/46 45/45/45 38/38/38 
f 39/39/39 46/46/46 38/38/38 
f 40/40/40 47/47/47 41/41/41 
f 47/47/47 48/48/48 41/41/41 
f 49/49/49 47/47/47 40/40/40 
f 42/42/42 49/49/49 40/40/40 
f 50/50/50 49/49/49 42/42/42 
f 43/43/43 50/50/50 42/42/42 
f 51/51/51 50/50/50 43/43/43 
f 44/44/44 51/51/51 43/43/43 
f 52/52/52 51/51/51 44/44/44 
f 45/45/45 52/52/52 44/44/44 
f 53/53/53 52/52/52 45/45/45 
f 46/46/46 53/53/53 45/45/45 
f 47/47/47 54/54/54 48/48/48 
f 54/54/54 55/55/55 48/48/48 
f 56/56/56 54/54/54 47/47/47 
f 49/49/49 56/56/56 47/47/47 
f 57/57/57 56/56/56 49/49/49 
f 50/50/50 57/57/57 49/49/49 
f 58/58/58 57/57/57 50/50/50 
f 51/51/51 58/58/58 50/50/50 
f 59/59/59 58/58/58 51/51/51 
f 52/52/52 59/59/59 51/51/51 
f 60/60/60 59/59/59 52/52/52 
f 53/53/53 60/60/60 52/52/52 
f 63/63/63 62/62/62 61/61/61 
f 64/64/64 63/63/63 61/61/61 
f 65/65/65 63/63/63 64/64/64 
f 66/66/66 65/65/65 64/64/64 
f 63/63/63 67/67/67 62/62/62 
f 67/67/67 68/68/68 62/62/62 
f 69/69/69 67/67/67 63/63/63 
f 65/65/65 69/69/69 63/63/63 
f 67/67/67 70/70/70 68/68/68 
f 70/70/70 71/71/71 68/68/68 
f 72/72/72 70/70/70 67/67/67 
f 69/69/69 72/72/72 67/67/67 
f 70/70/70 73/73/73 71/71/71 
f 73/73/73 74/74/74 71/71/71 
f 75/75/75 73/73/73 70/70/70 
f 72/72/72 75/75/75 70/70/70 
f 73/73/73 76/76/76 74/74/74 
f 76/76/76 77/77/77 74/74/74 
f 78/78/78 76/76/76 73/73/73 
f 75/75/75 78/78/78 73/73/73 
f 81/81/81 80/80/80 79/79/79 
f 82/82/82 81/81/81 79/79/79 
f 83/83/83 81/81/81 82/82/82 
f 84/84/84 83/83/83 82/82/82 
f 85/85/85 83/83/83 84/84/84 
f 86/86/86 85/85/85 84/84/84 
f 87/87/87 85/85/85 86/86/86 
f 88/88/88 87/87/87 86/86/86 
f 89/89/89 87/87/87 88/88/88 
f 90/90/90 89/89/89 88/88/88 
f 91/91/91 89/89/89 90/90/90 
f 92/92/92 91/91/91 90/90/90 
f 81/81/81 93/93/93 80/80/80 
f 93/93/93 94/94/94 80/80/80 
f 95/95/95 93/93/93 81/81/81 
f 83/83/83 95/95/95 81/81/81 
f 96/96/96 95/95/95 83/83/83 
f 85/85/85 96/96/96 83/83/83 
f 97/97/97 96/96/96 85/85/85 
f 87/87/87 97/97/97 85/85/85 
f 98/98/98 97/97/97 87/87/87 
f 89/89/89 98/98/98 87/87/87 
f 99/99/99 98/98/98 89/89/89 
f 91/91/91 99/99/99 89/89/89 
f 93/93/93 100/100/100 94/94/94 
f 100/100/100 101/101/101 94/94/94 
f 102/102/102 100/100/100 93/93/93 
f 95/95/95 102/102/102 93/93/93 
f 103/103/103 102/102/102 95/95/95 
f 96/96/96 103/103/103 95/95/95 
f 104/104/104 103/103/103 96/96/96 
f 97/97/97 104/104/104 96/96/96 
f 105/105/105 104/104/104 97/97/97 
f 98/98/98 105/105/105 97/97/97 
f 106/106/106 105/105/105 98/98/98 
f 99/99/99 106/106/106 98/98/98 
f 100/100/100 107/107/107 101/101/101 
f 107/107/107 108/108/108 101/101/101 
f 109/109/109 107/107/107 100/100/100 
f 102/102/102 109/109/109 100/100/100 
f 110/110/110 109/109/109 102/102/102 
f 103/103/103 110/110/110 102/102/102 
f 111/111/111 110/110/110 103/103/103 
f 104/104/104 111/111/111 103/103/103 
f 112/112/112 111/111/111 104/104/104 
f 105/105/105 112/112/112 104/104/104 
f 113/113/113 112/112/112 105/105/105 
f 106/106/106 113/113/113 105/105/105 
f 107/107/107 114/114/114 108/108/108 
f 114/114/114 115/115/115 108/108/108 
f 116/116/116 114/114/114 107/107/107 
f 109/109/109 116/116/116 107/107/107 
f 117/117/117 116/116/116 109/109/109 
f 110/110/110 117/117/117 109/109/109 
f 118/118/118 117/117/117 110/110/110 
f 111/111/111 118/118/118 110/110/110 
f 119/119/119 118/118/118 111/111/111 
f 112/112/112 119/119/119 111/111/111 
f 120/120/120 119/119/119 112/112/112 
f 113/113/113 120/120/120 112/112/112 
f 123/123/123 122/122/122 121/121/121 
f 124/124/124 123/123/123 121/121/121 
f 125/125/125 123/123/123 124/124/124 
f 126/126/126 125/125/125 124/124/124 
f 123/123/123 127/127/127 122/122/122 
f 127/127/127 128/128/128 122/122/122 
f 129/129/129 127/127/127 123/123/123 
f 125/125/125 129/129/129 123/123/123 
f 127/127/127 130/130/130 128/128/128 
f 130/130/130 131/131/131 128/128/128 
f 132/132/132 130/130/130 127/127/127 
f 129/129/129 132/132/132 127/127/127 
f 130/130/130 133/133/133 131/131/131 
f 133/133/133 134/134/134 131/131/131 
f 135/135/135 133/133/133 130/130/130 
f 132/132/132 135/135/135 130/130/130 
f 133/133/133 136/136/136 134/134/134 
f 136/136/136 137/137/137 134/134/134 
f 138/138/138 136/136/136 133/133/133 
f 135/135/135 138/138/138 133/133/133 
f 141/141/141 140/140/140 139/139/139 
f 142/142/142 141/141/141 139/139/139 
f 143/143/143 141/141/141 142/142/142 
f 144/144/144 143/143/143 142/142/142 
f 145/145/145 143/143/143 144/144/144 
f 146/146/146 145/145/145 144/144/144 
f 147/147/147 145/145/145 146/146/146 
f 148/148/148 147/147/147 146/146/146 
f 149/149/149 147/147/147 148/148/148 
f 150/150/150 149/149/149 148/148/148 
f 151/151/151 149/149/149 150/150/150 
f 152/152/152 151/151/151 150/150/150 
f 141/141/141 153/153/153 140/140/140 
f 153/153/153 154/154/154 140/140/140 
f 155/155/155 153/153/153 141/141/141 
f 143/143/143 155/155/155 141/141/141 
f 156/156/156 155/155/155 143/143/143 
f 145/145/145 156/156/156 143/143/143 
f 157/157/157 156/156/156 145/145/145 
f 147/147/147 157/157/157 145/145/145 
f 158/158/158 157/157/157 147/147/147 
f 149/149/149 158/158/158 147/147/147 
f 159/159/159 158/158/158 149/149/149 
f 151/151/151 159/159/159 149/149/149 
f 153/153/153 160/160/160 154/154/154 
f 160/160/160 161/161/161 154/154/154 
f 162/162/162 160/160/160 153/153/153 
f 155/155/155 162/162/162 153/153/153 
f 163/163/163 162/162/162 155/155/155 
f 156/156/156 163/163/163 155/155/155 
f 164/164/164 163/163/163 156/156/156 
f 157/157/157 164/164/164 156/156/156 
f 165/165/165 164/164/164 157/157/157 
f 158/158/158 165/165/165 157/157/157 
f 166/166/166 165/165/165 158/158/158 
f 159/159/159 166/166/166 158/158/158 
f 160/160/160 167/167/167 161/161/161 
f 167/167/167 168/168/168 161/161/161 
f 169/169/169 167/167/167 160/160/160 
f 162/162/162 169/169/169 160/160/160 
f 170/170/170 169/169/169 162/162/162 
f 163/163/163 170/170/170 162/162/162 
f 171/171/171 170/170/170 163/163/163 
f 164/164/164 171/171/171 163/163/163 
f 172/172/172 171/171/171 164/164/164 
f 165/165/165 172/172/172 164/164/164 
f 173/173/173 172/172/172 165/165/165 
f 166/166/166 173/173/173 165/165/165 
f 167/167/167 174/174/174 168/168/168 
f 174/174/174 175/175/175 168/168/168 
f 176/176/176 174/174/174 167/167/167 
f 169/169/169 176/176/176 167/167/167 
f 177/177/177 176/176/176 169/169/169 
f 170/170/170 177/177/177 169/169/169 
f 178/178/178 177/177/177 170/170/170 
f 171/171/171 178/178/178 170/170/170 
f 179/179/179 178/178/178 171/171/171 
f 172/172/172 179/179/179 171/171/171 
f 180/180/180 179/179/179 172/172/172 
f 173/173/173 180/180/180 172/172/172 

