v -0.10643981397151947 0.7540006041526794 0.18648836016654968
v 0.03675689548254013 0.7184240818023682 0.1435585469007492
v 0.01395416259765625 0.5597503781318665 0.07198832184076309
v -0.05764404311776161 0.580980122089386 0.07623056322336197
v -0.18264052271842957 0.48440027236938477 0.05693156272172928
v -0.3564329445362091 0.5553052425384521 0.17559371888637543
v -0.1619320660829544 0.4135972261428833 0.042783383280038834
v -0.31501585245132446 0.42021194100379944 0.1147039458155632
v -0.14425720274448395 0.07583249360322952 -0.0034191941376775503
v -0.07655257731676102 0.23811867833137512 0.00018029689090326428
v 0.21296386420726776 0.710327684879303 0.17869777977466583
v 0.1020577996969223 0.5592336058616638 0.07188507914543152
v 0.34459853172302246 0.5195866823196411 0.16939261555671692
v 0.16787505149841309 0.46663111448287964 0.053380850702524185
v 0.13820494711399078 0.37403127551078796 0.03487715497612953
v 0.2852581739425659 0.34217527508735657 0.09341121464967728
v 0.15362487733364105 0.09205227345228195 -0.00017808913253247738
v 0.07238814979791641 0.24622857570648193 0.0018008470069617033
v -0.0039581297896802425 0.20130354166030884 -0.0133827468380332
v 0.0009315490606240928 0.0037918135058134794 -0.03849956765770912
v -0.008848266676068306 0.3999073803424835 0.006269354838877916
v 0.15362487733364105 0.09205227345228195 -0.00017808913253247738
v 0.24860580265522003 -0.12223789095878601 0.010183434002101421
v -0.005915469024330378 -0.26917764544487 -0.05003567412495613
v 0.0009315490606240928 0.0037918135058134794 -0.03849956765770912
v 0.2852581739425659 0.34217527508735657 0.09341121464967728
v 0.46802255511283875 0.29397857189178467 0.15177872776985168
v 0.24860580265522003 -0.12223789095878601 0.010183434002101421
v 0.15362487733364105 0.09205227345228195 -0.00017808913253247738
v 0.34459853172302246 0.5195866823196411 0.16939261555671692
v 0.5669357776641846 0.5899528861045837 0.2835354208946228
v 0.46802255511283875 0.29397857189178467 0.15177872776985168
v 0.2852581739425659 0.34217527508735657 0.09341121464967728
v 0.21296386420726776 0.710327684879303 0.17869777977466583
v 0.3475167453289032 0.909748375415802 0.33675041794776917
v 0.5669357776641846 0.5899528861045837 0.2835354208946228
v 0.34459853172302246 0.5195866823196411 0.16939261555671692
v 0.03675689548254013 0.7184240818023682 0.1435585469007492
v 0.053801048547029495 0.9232439994812012 0.2781776487827301
v 0.3475167453289032 0.909748375415802 0.33675041794776917
v 0.21296386420726776 0.710327684879303 0.17869777977466583
v -0.10643981397151947 0.7540006041526794 0.18648836016654968
v -0.18489055335521698 0.9825459122657776 0.34973639249801636
v 0.053801048547029495 0.9232439994812012 0.2781776487827301
v 0.03675689548254013 0.7184240818023682 0.1435585469007492
v -0.3564329445362091 0.5553052425384521 0.17559371888637543
v -0.6015987396240234 0.6494913101196289 0.2938718795776367
v -0.18489055335521698 0.9825459122657776 0.34973639249801636
v -0.10643981397151947 0.7540006041526794 0.18648836016654968
v -0.31501585245132446 0.42021194100379944 0.1147039458155632
v -0.5325615406036377 0.4240562617778778 0.1872711479663849
v -0.6015987396240234 0.6494913101196289 0.2938718795776367
v -0.3564329445362091 0.5553052425384521 0.17559371888637543
v -0.14425720274448395 0.07583249360322952 -0.0034191941376775503
v -0.24792754650115967 -0.1492743045091629 0.004780893214046955
v -0.5325615406036377 0.4240562617778778 0.1872711479663849
v -0.31501585245132446 0.42021194100379944 0.1147039458155632
v 0.0009315490606240928 0.0037918135058134794 -0.03849956765770912
v -0.005915469024330378 -0.26917764544487 -0.05003567412495613
v -0.24792754650115967 -0.1492743045091629 0.004780893214046955
v -0.14425720274448395 0.07583249360322952 -0.0034191941376775503
v 0.68532395362854 0.3566560745239258 0.13323615491390228
v 0.697028636932373 0.20883800089359283 0.0929027646780014
v 0.5355308055877686 0.17561398446559906 0.03261839225888252
v 0.5317769646644592 0.2502690553665161 0.03536372259259224
v 0.39785119891166687 0.3353111445903778 0.02287452667951584
v 0.4140971004962921 0.525540292263031 0.13628074526786804
v 0.3373083174228668 0.2918046712875366 0.013718647882342339
v 0.2969825565814972 0.4399391710758209 0.08499953895807266
v 0.022718485444784164 0.16118378937244415 -0.00872052926570177
v 0.1981709748506546 0.1517137736082077 -0.016493020579218864
v 0.7507718205451965 0.040932945907115936 0.12852263450622559
v 0.5645557045936584 0.09242697805166245 0.03255157545208931
v 0.6149830222129822 -0.1470596343278885 0.13259583711624146
v 0.4983491003513336 -0.0009690928272902966 0.02057671546936035
v 0.40015387535095215 -0.0043953582644462585 0.008602199144661427
v 0.4233414828777313 -0.15222342312335968 0.06922312080860138
v 0.13797666132450104 -0.11398608237504959 -0.006623073481023312
v 0.2557999789714813 0.01412911992520094 -0.015444289892911911
v 0.18699517846107483 0.07069266587495804 -0.027445001527667046
v 0.001336087821982801 -0.0005136017571203411 -0.038670580834150314
v 0.3733200430870056 0.14213615655899048 -0.02174721099436283
v 0.13797666132450104 -0.11398608237504959 -0.006623073481023312
v -0.03092850372195244 -0.2748521864414215 0.018717434257268906
v -0.25828155875205994 -0.08556145429611206 -0.031065277755260468
v 0.001336087821982801 -0.0005136017571203411 -0.038670580834150314
v 0.4233414828777313 -0.15222342312335968 0.06922312080860138
v 0.44312384724617004 -0.3391638994216919 0.1308220773935318
v -0.03092850372195244 -0.2748521864414215 0.018717434257268906
v 0.13797666132450104 -0.11398608237504959 -0.006623073481023312
v 0.6149830222129822 -0.1470596343278885 0.13259583711624146
v 0.7631397843360901 -0.3303528428077698 0.24153152108192444
v 0.44312384724617004 -0.3391638994216919 0.1308220773935318
v 0.4233414828777313 -0.15222342312335968 0.06922312080860138
v 0.7507718205451965 0.040932945907115936 0.12852263450622559
v 0.9937126636505127 -0.015488147735595703 0.272224098443985
v 0.7631397843360901 -0.3303528428077698 0.24153152108192444
v 0.6149830222129822 -0.1470596343278885 0.13259583711624146
v 0.697028636932373 0.20883800089359283 0.0929027646780014
v 0.9041294455528259 0.2643892765045166 0.21285012364387512
v 0.9937126636505127 -0.015488147735595703 0.272224098443985
v 0.7507718205451965 0.040932945907115936 0.12852263450622559
v 0.68532395362854 0.3566560745239258 0.13323615491390228
v 0.8846189975738525 0.5107840895652771 0.28008100390434265
v 0.9041294455528259 0.2643892765045166 0.21285012364387512
v 0.697028636932373 0.20883800089359283 0.0929027646780014
v 0.4140971004962921 0.525540292263031 0.13628074526786804
v 0.4282873570919037 0.7907897233963013 0.24767377972602844
v 0.8846189975738525 0.5107840895652771 0.28008100390434265
v 0.68532395362854 0.3566560745239258 0.13323615491390228
v 0.2969825565814972 0.4399391710758209 0.08499953895807266
v 0.2324988692998886 0.6478993892669678 0.15711946785449982
v 0.4282873570919037 0.7907897233963013 0.24767377972602844
v 0.4140971004962921 0.525540292263031 0.13628074526786804
v 0.022718485444784164 0.16118378937244415 -0.00872052926570177
v -0.22304992377758026 0.1838226616382599 0.015221222303807735
v 0.2324988692998886 0.6478993892669678 0.15711946785449982
v 0.2969825565814972 0.4399391710758209 0.08499953895807266
v 0.001336087821982801 -0.0005136017571203411 -0.038670580834150314
v -0.25828155875205994 -0.08556145429611206 -0.031065277755260468
v -0.22304992377758026 0.1838226616382599 0.015221222303807735
v 0.022718485444784164 0.16118378937244415 -0.00872052926570177
v 0.4930925667285919 -0.5863009691238403 0.16653884947299957
v 0.36609840393066406 -0.6290671229362488 0.09132243692874908
v 0.3037261962890625 -0.4744827151298523 0.036249976605176926
v 0.3721895217895508 -0.45265424251556396 0.05701766535639763
v 0.4181877672672272 -0.3013276159763336 0.07458619773387909
v 0.5771006941795349 -0.28436437249183655 0.22876448929309845
v 0.36281099915504456 -0.2528606951236725 0.05953746289014816
v 0.47574567794799805 -0.18658752739429474 0.16679690778255463
v 0.15931496024131775 0.019459610804915428 0.028503822162747383
v 0.19984950125217438 -0.1502629816532135 0.0064841266721487045
v 0.21559040248394012 -0.7270897030830383 0.0819348618388176
v 0.2335682362318039 -0.5230369567871094 0.01427547913044691
v 0.001311439205892384 -0.6441042423248291 0.05040154233574867
v 0.1304231435060501 -0.4811859428882599 -0.015035423450171947
v 0.10300914198160172 -0.3862394392490387 -0.020608143880963326
v -0.04227769747376442 -0.45320314168930054 0.0011470079189166427
v -0.06800737231969833 -0.15992514789104462 -0.04328048601746559
v 0.08618859946727753 -0.23995518684387207 -0.02940794825553894
v 0.12308650463819504 -0.15827730298042297 -0.022713081911206245
v 0.008082861080765724 0.003636700799688697 -0.03766834735870361
v 0.2396664023399353 -0.32004982233047485 -0.013101167045533657
v -0.06800737231969833 -0.15992514789104462 -0.04328048601746559
v -0.27035433053970337 -0.04118118807673454 -0.0454234778881073
v -0.14404375851154327 0.23062460124492645 -0.032540395855903625
v 0.008082861080765724 0.003636700799688697 -0.03766834735870361
v -0.04227769747376442 -0.45320314168930054 0.0011470079189166427
v -0.2254081815481186 -0.5267630815505981 0.014736389741301537
v -0.27035433053970337 -0.04118118807673454 -0.0454234778881073
v -0.06800737231969833 -0.15992514789104462 -0.04328048601746559
v 0.001311439205892384 -0.6441042423248291 0.05040154233574867
v -0.15347956120967865 -0.8461332321166992 0.10176142305135727
v -0.2254081815481186 -0.5267630815505981 0.014736389741301537
v -0.04227769747376442 -0.45320314168930054 0.0011470079189166427
v 0.21559040248394012 -0.7270897030830383 0.0819348618388176
v 0.19831149280071259 -0.9930360913276672 0.1906898319721222
v -0.15347956120967865 -0.8461332321166992 0.10176142305135727
v 0.001311439205892384 -0.6441042423248291 0.05040154233574867
v 0.36609840393066406 -0.6290671229362488 0.09132243692874908
v 0.4491901993751526 -0.8296443819999695 0.2063378542661667
v 0.19831149280071259 -0.9930360913276672 0.1906898319721222
v 0.21559040248394012 -0.7270897030830383 0.0819348618388176
v 0.4930925667285919 -0.5863009691238403 0.16653884947299957
v 0.66087406873703 -0.7583585381507874 0.3317144811153412
v 0.4491901993751526 -0.8296443819999695 0.2063378542661667
v 0.36609840393066406 -0.6290671229362488 0.09132243692874908
v 0.5771006941795349 -0.28436437249183655 0.22876448929309845
v 0.8062913417816162 -0.24649043381214142 0.3990708589553833
v 0.66087406873703 -0.7583585381507874 0.3317144811153412
v 0.4930925667285919 -0.5863009691238403 0.16653884947299957
v 0.47574567794799805 -0.18658752739429474 0.16679690778255463
v 0.6380740404129028 -0.08234706521034241 0.29085472226142883
v 0.8062913417816162 -0.24649043381214142 0.3990708589553833
v 0.5771006941795349 -0.28436437249183655 0.22876448929309845
v 0.15931496024131775 0.019459610804915428 0.028503822162747383
v 0.10856445878744125 0.25783148407936096 0.07423226535320282
v 0.6380740404129028 -0.08234706521034241 0.29085472226142883
v 0.47574567794799805 -0.18658752739429474 0.16679690778255463
v 0.008082861080765724 0.003636700799688697 -0.03766834735870361
v -0.14404375851154327 0.23062460124492645 -0.032540395855903625
v 0.10856445878744125 0.25783148407936096 0.07423226535320282
v 0.15931496024131775 0.019459610804915428 0.028503822162747383
v -0.27661067247390747 -0.5968313217163086 0.1144639402627945
v -0.36241602897644043 -0.49985671043395996 0.09543821215629578
v -0.2747925817966461 -0.392592191696167 0.03912022337317467
v -0.2347085177898407 -0.44183698296546936 0.033962398767471313
v -0.10209032148122787 -0.4315812289714813 0.007954713888466358
v -0.006840634159743786 -0.5751012563705444 0.08604696393013
v -0.08337610960006714 -0.3707786202430725 0.001219608704559505
v 0.025253817439079285 -0.4549296796321869 0.0448128767311573
v 0.06401742249727249 -0.1212383359670639 -0.021853122860193253
v -0.061300985515117645 -0.20320887863636017 -0.018093623220920563
v -0.4792851507663727 -0.41398394107818604 0.14475616812705994
v -0.3361193835735321 -0.3504331409931183 0.048725031316280365
v -0.479934424161911 -0.21697770059108734 0.15923991799354553
v -0.33871081471443176 -0.25253939628601074 0.04416770860552788
v -0.27457454800605774 -0.1999366581439972 0.02912973053753376
v -0.3580399751663208 -0.11348680406808853 0.09596488624811172
v -0.1517522782087326 0.008366505615413189 0.012906995601952076
v -0.16918563842773438 -0.13840661942958832 -0.0007136010681279004
v -0.09519404917955399 -0.14167343080043793 -0.020044907927513123
v -0.0050703720189630985 0.0014825331745669246 -0.032531384378671646
v -0.18621177971363068 -0.2850700616836548 -0.012213477864861488
v -0.1517522782087326 0.008366505615413189 0.012906995601952076
v -0.11410900205373764 0.2026032656431198 0.0409310907125473
v 0.1305515170097351 0.19065116345882416 -0.03173071891069412
v -0.0050703720189630985 0.0014825331745669246 -0.032531384378671646
v -0.3580399751663208 -0.11348680406808853 0.09596488624811172
v -0.4585936963558197 0.0013687761966139078 0.16725479066371918
v -0.11410900205373764 0.2026032656431198 0.0409310907125473
v -0.1517522782087326 0.008366505615413189 0.012906995601952076
v -0.479934424161911 -0.21697770059108734 0.15923991799354553
v -0.6615543365478516 -0.17180418968200684 0.2770225703716278
v -0.4585936963558197 0.0013687761966139078 0.16725479066371918
v -0.3580399751663208 -0.11348680406808853 0.09596488624811172
v -0.4792851507663727 -0.41398394107818604 0.14475616812705994
v -0.6588281393051147 -0.5051104426383972 0.2846094071865082
v -0.6615543365478516 -0.17180418968200684 0.2770225703716278
v -0.479934424161911 -0.21697770059108734 0.15923991799354553
v -0.36241602897644043 -0.49985671043395996 0.09543821215629578
v -0.4640214443206787 -0.6482500433921814 0.20240241289138794
v -0.6588281393051147 -0.5051104426383972 0.2846094071865082
v -0.4792851507663727 -0.41398394107818604 0.14475616812705994
v -0.27661067247390747 -0.5968313217163086 0.1144639402627945
v -0.32099437713623047 -0.809894859790802 0.23411597311496735
v -0.4640214443206787 -0.6482500433921814 0.20240241289138794
v -0.36241602897644043 -0.49985671043395996 0.09543821215629578
v -0.006840634159743786 -0.5751012563705444 0.08604696393013
v 0.12703557312488556 -0.7687528133392334 0.15501874685287476
v -0.32099437713623047 -0.809894859790802 0.23411597311496735
v -0.27661067247390747 -0.5968313217163086 0.1144639402627945
v 0.025253817439079285 -0.4549296796321869 0.0448128767311573
v 0.18031059205532074 -0.5677751302719116 0.08199062198400497
v 0.12703557312488556 -0.7687528133392334 0.15501874685287476
v -0.006840634159743786 -0.5751012563705444 0.08604696393013
v 0.06401742249727249 -0.1212383359670639 -0.021853122860193253
v 0.24555297195911407 -0.013432311825454235 -0.01700982265174389
v 0.18031059205532074 -0.5677751302719116 0.08199062198400497
v 0.025253817439079285 -0.4549296796321869 0.0448128767311573
v -0.0050703720189630985 0.0014825331745669246 -0.032531384378671646
v 0.1305515170097351 0.19065116345882416 -0.03173071891069412
v 0.24555297195911407 -0.013432311825454235 -0.01700982265174389
v 0.06401742249727249 -0.1212383359670639 -0.021853122860193253
v -0.7683729529380798 0.09191375225782394 0.12561555206775665
v -0.694352924823761 0.2205183207988739 0.085667185485363
v -0.5416466593742371 0.15680170059204102 0.027010632678866386
v -0.580642819404602 0.09302163124084473 0.029542148113250732
v -0.5178190469741821 -0.05273428186774254 0.018025653436779976
v -0.6395305395126343 -0.200437992811203 0.13063979148864746
v -0.4432028830051422 -0.05093546211719513 0.009582865051925182
v -0.4940570294857025 -0.19585222005844116 0.08074446767568588
v -0.10951481759548187 -0.12037114799022675 -0.00947041530162096
v -0.24903368949890137 -0.013693712651729584 -0.018855853006243706
v -0.6444694995880127 0.3895988464355469 0.12134117633104324
v -0.5187430381774902 0.24187783896923065 0.026949021965265274
v -0.4264020323753357 0.4683853089809418 0.12731394171714783
v -0.41130685806274414 0.28169092535972595 0.015906797721982002
v -0.32814791798591614 0.2291543334722519 0.004864899907261133
v -0.26457908749580383 0.36449354887008667 0.06575824320316315
v -0.04967522993683815 0.1719006448984146 -0.007536316756159067
v -0.21911397576332092 0.13244189321994781 -0.017888803035020828
v -0.19403855502605438 0.04691105708479881 -0.029432421550154686
v -0.00044208584586158395 0.0010793964611366391 -0.03867947682738304
v -0.3882654905319214 0.09290795773267746 -0.025719914585351944
v -0.04967522993683815 0.1719006448984146 -0.007536316756159067
v 0.18025630712509155 0.20966975390911102 0.019922727718949318
v 0.26186588406562805 -0.07494868338108063 -0.028357066214084625
v -0.00044208584586158395 0.0010793964611366391 -0.03867947682738304
v -0.26457908749580383 0.36449354887008667 0.06575824320316315
v -0.17616577446460724 0.5302265286445618 0.1277918666601181
v 0.18025630712509155 0.20966975390911102 0.019922727718949318
v -0.04967522993683815 0.1719006448984146 -0.007536316756159067
v -0.4264020323753357 0.4683853089809418 0.12731394171714783
v -0.4465416371822357 0.7035687565803528 0.23546624183654785
v -0.17616577446460724 0.5302265286445618 0.1277918666601181
v -0.26457908749580383 0.36449354887008667 0.06575824320316315
v -0.6444694995880127 0.3895988464355469 0.12134117633104324
v -0.814735472202301 0.5734773278236389 0.2629460096359253
v -0.4465416371822357 0.7035687565803528 0.23546624183654785
v -0.4264020323753357 0.4683853089809418 0.12731394171714783
v -0.694352924823761 0.2205183207988739 0.085667185485363
v -0.897885262966156 0.2916405498981476 0.20348182320594788
v -0.814735472202301 0.5734773278236389 0.2629460096359253
v -0.6444694995880127 0.3895988464355469 0.12134117633104324
v -0.7683729529380798 0.09191375225782394 0.12561555206775665
v -1.0212674140930176 0.07727225869894028 0.270070880651474
v -0.897885262966156 0.2916405498981476 0.20348182320594788
v -0.694352924823761 0.2205183207988739 0.085667185485363
v -0.6395305395126343 -0.200437992811203 0.13063979148864746
v -0.8018009662628174 -0.4112785756587982 0.24101002514362335
v -1.0212674140930176 0.07727225869894028 0.270070880651474
v -0.7683729529380798 0.09191375225782394 0.12561555206775665
v -0.4940570294857025 -0.19585222005844116 0.08074446767568588
v -0.558677613735199 -0.40380191802978516 0.15277211368083954
v -0.8018009662628174 -0.4112785756587982 0.24101002514362335
v -0.6395305395126343 -0.200437992811203 0.13063979148864746
v -0.10951481759548187 -0.12037114799022675 -0.00947041530162096
v 0.08051095902919769 -0.27751195430755615 0.0166988093405962
v -0.558677613735199 -0.40380191802978516 0.15277211368083954
v -0.4940570294857025 -0.19585222005844116 0.08074446767568588
v -0.00044208584586158395 0.0010793964611366391 -0.03867947682738304
v 0.26186588406562805 -0.07494868338108063 -0.028357066214084625
v 0.08051095902919769 -0.27751195430755615 0.0166988093405962
v -0.10951481759548187 -0.12037114799022675 -0.00947041530162096
vn 0.20469437539577484 -0.48288968205451965 0.851421058177948
vn -0.0315483957529068 -0.4659472107887268 0.8842499256134033
vn -0.030988354235887527 -0.41755589842796326 0.908122718334198
vn 0.13403187692165375 -0.4389616847038269 0.8884526491165161
vn 0.32420414686203003 -0.30169880390167236 0.8965876698493958
vn 0.3800187110900879 -0.36334216594696045 0.8506281971931458
vn 0.31572437286376953 -0.1314995139837265 0.9396945834159851
vn 0.4316147565841675 -0.1539866030216217 0.8888176679611206
vn 0.23565123975276947 -0.10783381760120392 0.9658365845680237
vn 0.2378959357738495 -0.10737860202789307 0.9653369188308716
vn -0.28543293476104736 -0.4037551283836365 0.8692007064819336
vn -0.19766005873680115 -0.3858039975166321 0.9011580348014832
vn -0.4252453148365021 -0.2807014286518097 0.8604494333267212
vn -0.3420775234699249 -0.24218086898326874 0.9079269766807556
vn -0.30823570489883423 -0.13848507404327393 0.941176176071167
vn -0.41334351897239685 -0.14629003405570984 0.8987470865249634
vn -0.2310813069343567 -0.12300097942352295 0.9651281237602234
vn -0.22566604614257812 -0.12254034727811813 0.9664670825004578
vn 0.0010765728075057268 -0.10786915570497513 0.9941645264625549
vn 0.0028205986600369215 -0.11264573782682419 0.9936311841011047
vn 0.005036438815295696 -0.20473447442054749 0.9788045883178711
vn -0.21266789734363556 -0.04082004725933075 0.9762715101242065
vn -0.21266791224479675 -0.04082004725933075 0.9762715101242065
vn -0.21266791224479675 -0.040820054709911346 0.9762715101242065
vn -0.21266794204711914 -0.040820054709911346 0.9762715101242065
vn -0.35821402072906494 -0.13722994923591614 0.9234991073608398
vn -0.35821402072906494 -0.13722993433475494 0.9234991669654846
vn -0.35821402072906494 -0.13722993433475494 0.9234991669654846
vn -0.35821402072906494 -0.13722994923591614 0.9234991073608398
vn -0.36483076214790344 -0.26917651295661926 0.8913150429725647
vn -0.3648308217525482 -0.26917651295661926 0.8913150429725647
vn -0.36483076214790344 -0.26917651295661926 0.8913150429725647
vn -0.3648308217525482 -0.2691764831542969 0.8913151025772095
vn -0.3759409189224243 -0.36291512846946716 0.8526200652122498
vn -0.3759409189224243 -0.36291512846946716 0.8526200652122498
vn -0.3759409189224243 -0.3629150986671448 0.8526201248168945
vn -0.3759409189224243 -0.3629150986671448 0.8526201248168945
vn -0.18933340907096863 -0.5282584428787231 0.8277052044868469
vn -0.18933343887329102 -0.5282584428787231 0.8277052044868469
vn -0.18933342397212982 -0.5282584428787231 0.8277052044868469
vn -0.18933343887329102 -0.5282584428787231 0.8277052044868469
vn 0.11050809919834137 -0.5522851943969727 0.8262983560562134
vn 0.11050809919834137 -0.5522851347923279 0.8262983560562134
vn 0.11050809919834137 -0.5522851943969727 0.8262983560562134
vn 0.11050809174776077 -0.5522851943969727 0.8262983560562134
vn 0.27953264117240906 -0.4565184414386749 0.8446611166000366
vn 0.27953261137008667 -0.4565184414386749 0.8446611166000366
vn 0.27953264117240906 -0.4565184414386749 0.8446611166000366
vn 0.27953264117240906 -0.4565184414386749 0.8446611166000366
vn 0.3011423647403717 -0.3243323266506195 0.8967283964157104
vn 0.3011423647403717 -0.3243323266506195 0.8967283964157104
vn 0.3011423647403717 -0.3243323266506195 0.8967283964157104
vn 0.3011423647403717 -0.3243323266506195 0.8967283964157104
vn 0.3316582441329956 -0.14098060131072998 0.932806134223938
vn 0.3316582441329956 -0.14098060131072998 0.932806134223938
vn 0.331658273935318 -0.14098060131072998 0.932806134223938
vn 0.3316582441329956 -0.14098060131072998 0.932806134223938
vn 0.20166024565696716 -0.05129728093743324 0.9781113266944885
vn 0.20166024565696716 -0.05129728466272354 0.9781113266944885
vn 0.20166021585464478 -0.05129728093743324 0.9781113266944885
vn 0.20166021585464478 -0.05129728093743324 0.9781113266944885
vn -0.3291163742542267 -0.33427694439888 0.8831428289413452
vn -0.390174925327301 -0.10525482147932053 0.9147047996520996
vn -0.3429296016693115 -0.08904970437288284 0.9351307153701782
vn -0.309059739112854 -0.2521483600139618 0.9170078039169312
vn -0.11579678952693939 -0.3852650225162506 0.9155118465423584
vn -0.158067524433136 -0.4595337510108948 0.8739813566207886
vn 0.04417553171515465 -0.3193822205066681 0.9465957283973694
vn 0.05851033702492714 -0.43728378415107727 0.897418200969696
vn 0.04131656512618065 -0.23541416227817535 0.971016526222229
vn 0.042463500052690506 -0.2373887300491333 0.9704862236976624
vn -0.4177726209163666 0.15438897907733917 0.8953379392623901
vn -0.36938565969467163 0.07843775302171707 0.9259599447250366
vn -0.34953373670578003 0.32704153656959534 0.8779920339584351
vn -0.28233253955841064 0.2626678943634033 0.9226559400558472
vn -0.17133788764476776 0.26621779799461365 0.9485628604888916
vn -0.2166871577501297 0.361647367477417 0.9067843556404114
vn -0.12935523688793182 0.19925910234451294 0.9713717103004456
vn -0.12701964378356934 0.19434218108654022 0.9726752638816833
vn -0.035437390208244324 -0.013743414543569088 0.9992774128913879
vn -0.039377763867378235 -0.016995541751384735 0.9990798234939575
vn -0.12616725265979767 -0.050207916647195816 0.9907376170158386
vn -0.045209601521492004 0.20963680744171143 0.9767335653305054
vn -0.04520959407091141 0.20963680744171143 0.9767335653305054
vn -0.04520958662033081 0.20963677763938904 0.9767335653305054
vn -0.04520959034562111 0.20963677763938904 0.9767335653305054
vn -0.18806858360767365 0.3133125305175781 0.930841326713562
vn -0.18806858360767365 0.31331250071525574 0.930841326713562
vn -0.18806858360767365 0.3133125305175781 0.930841326713562
vn -0.18806856870651245 0.31331250071525574 0.930841326713562
vn -0.31642454862594604 0.2746943235397339 0.9079749584197998
vn -0.3164246082305908 0.2746943533420563 0.9079749584197998
vn -0.31642457842826843 0.2746943235397339 0.9079749584197998
vn -0.3164246082305908 0.2746943533420563 0.9079749584197998
vn -0.4108041226863861 0.2529265582561493 0.8759384155273438
vn -0.4108041226863861 0.2529265284538269 0.8759384155273438
vn -0.41080406308174133 0.2529265582561493 0.8759384751319885
vn -0.41080406308174133 0.2529265582561493 0.8759384751319885
vn -0.5053339004516602 0.021260028705000877 0.8626619577407837
vn -0.5053339004516602 0.021260028705000877 0.8626619577407837
vn -0.5053339004516602 0.021260028705000877 0.8626619577407837
vn -0.5053339004516602 0.021260028705000877 0.8626619577407837
vn -0.4275534451007843 -0.26931583881378174 0.8629409074783325
vn -0.4275534749031067 -0.26931583881378174 0.8629409074783325
vn -0.4275533854961395 -0.26931583881378174 0.8629409074783325
vn -0.4275533854961395 -0.26931583881378174 0.8629409074783325
vn -0.2797030806541443 -0.3961354196071625 0.8745530247688293
vn -0.2797030806541443 -0.3961354196071625 0.8745530247688293
vn -0.2797030806541443 -0.3961354196071625 0.8745530247688293
vn -0.2797030806541443 -0.3961354196071625 0.8745530247688293
vn -0.14478692412376404 -0.3710971176624298 0.9172369837760925
vn -0.14478692412376404 -0.3710971176624298 0.9172369837760925
vn -0.14478692412376404 -0.3710970878601074 0.9172369837760925
vn -0.14478692412376404 -0.3710971176624298 0.9172369837760925
vn 0.04014822468161583 -0.3377254605293274 0.940388023853302
vn 0.04014822468161583 -0.3377254605293274 0.940388023853302
vn 0.04014822095632553 -0.3377254903316498 0.9403879642486572
vn 0.04014822468161583 -0.3377254903316498 0.9403879642486572
vn 0.08387675136327744 -0.18420469760894775 0.9793024659156799
vn 0.08387675136327744 -0.18420471251010895 0.9793024659156799
vn 0.08387675136327744 -0.18420471251010895 0.9793024659156799
vn 0.08387674391269684 -0.18420471251010895 0.9793024659156799
vn -0.5906456112861633 0.11737954616546631 0.7983481884002686
vn -0.3990155756473541 0.22886908054351807 0.8879220485687256
vn -0.3752734959125519 0.1848965436220169 0.9082857966423035
vn -0.5152841806411743 0.11415643244981766 0.8493824005126953
vn -0.5872799754142761 -0.10425771027803421 0.802640974521637
vn -0.6596875786781311 -0.07675903290510178 0.7476097941398621
vn -0.488478422164917 -0.24543724954128265 0.837346613407135
vn -0.5848026871681213 -0.2821260690689087 0.7605331540107727
vn -0.4156275689601898 -0.22497807443141937 0.8812710046768188
vn -0.41705599427223206 -0.22650107741355896 0.8802053928375244
vn -0.15873348712921143 0.32251599431037903 0.9331597089767456
vn -0.22333654761314392 0.25317636132240295 0.9412876963615417
vn 0.02556958980858326 0.30227094888687134 0.9528790712356567
vn -0.02602233737707138 0.21592502295970917 0.9760631322860718
vn 0.002038150792941451 0.10690746456384659 0.994266927242279
vn 0.08811578899621964 0.17963670194149017 0.9797787070274353
vn -0.054211780428886414 0.04697217419743538 0.9974240660667419
vn -0.05846705287694931 0.0433366522192955 0.9973482489585876
vn -0.23447085916996002 -0.09982506930828094 0.9669841527938843
vn -0.23855416476726532 -0.09682730585336685 0.9662899971008301
vn -0.29158860445022583 -0.02071547880768776 0.9563195109367371
vn -0.022696679458022118 -0.03189767524600029 0.9992334246635437
vn -0.022696681320667267 -0.03189767524600029 0.9992334246635437
vn -0.022696681320667267 -0.03189767524600029 0.9992334246635437
vn -0.022696679458022118 -0.03189767524600029 0.9992334246635437
vn 0.04544167220592499 0.1369999647140503 0.989528238773346
vn 0.04544167220592499 0.1369999647140503 0.989528238773346
vn 0.045441679656505585 0.1369999647140503 0.989528238773346
vn 0.045441675931215286 0.1369999647140503 0.989528238773346
vn -0.020904574543237686 0.25355246663093567 0.967095673084259
vn -0.020904574543237686 0.25355246663093567 0.9670957326889038
vn -0.020904574543237686 0.25355246663093567 0.967095673084259
vn -0.020904574543237686 0.25355246663093567 0.967095673084259
vn -0.06023929640650749 0.34288933873176575 0.9374423623085022
vn -0.060239288955926895 0.34288933873176575 0.9374423623085022
vn -0.06023930385708809 0.3428893983364105 0.9374423623085022
vn -0.06023930385708809 0.3428893983364105 0.9374423623085022
vn -0.3005945384502411 0.3776715099811554 0.87578946352005
vn -0.3005945384502411 0.3776715099811554 0.8757894039154053
vn -0.3005945086479187 0.3776715099811554 0.8757894039154053
vn -0.3005944788455963 0.3776715397834778 0.87578946352005
vn -0.5521953105926514 0.23065578937530518 0.8011729717254639
vn -0.5521953105926514 0.23065578937530518 0.8011729717254639
vn -0.5521953105926514 0.23065581917762756 0.8011729717254639
vn -0.5521953105926514 0.23065578937530518 0.8011729717254639
vn -0.6334263682365417 0.055680494755506516 0.7717970609664917
vn -0.6334263682365417 0.055680494755506516 0.7717970609664917
vn -0.6334264278411865 0.055680494755506516 0.7717970609664917
vn -0.6334264278411865 0.055680494755506516 0.7717970609664917
vn -0.5822422504425049 -0.07313437014818192 0.8097192645072937
vn -0.5822422504425049 -0.07313437014818192 0.8097192645072937
vn -0.5822422504425049 -0.07313437014818192 0.8097192645072937
vn -0.5822422504425049 -0.07313437014818192 0.8097192645072937
vn -0.5054746270179749 -0.24532832205295563 0.8272299766540527
vn -0.5054746270179749 -0.24532832205295563 0.8272299766540527
vn -0.5054746270179749 -0.24532832205295563 0.8272299766540527
vn -0.5054746270179749 -0.24532829225063324 0.8272300362586975
vn -0.35773321986198425 -0.25415605306625366 0.8985719680786133
vn -0.35773321986198425 -0.25415605306625366 0.8985719680786133
vn -0.35773324966430664 -0.2541560232639313 0.8985719680786133
vn -0.35773324966430664 -0.2541560232639313 0.8985719680786133
vn 0.17270015180110931 0.41533055901527405 0.8931266665458679
vn 0.35954612493515015 0.26612430810928345 0.8943737745285034
vn 0.3335776627063751 0.22392283380031586 0.9157425761222839
vn 0.20873838663101196 0.33565452694892883 0.9185664653778076
vn -0.024367516860365868 0.3276899456977844 0.944471001625061
vn -0.03889909014105797 0.4146820306777954 0.909134566783905
vn -0.1103566586971283 0.1780502051115036 0.9778136014938354
vn -0.19673773646354675 0.26683127880096436 0.9434486031532288
vn -0.055986449122428894 0.11103542149066925 0.9922382235527039
vn -0.05812544748187065 0.11196721345186234 0.9920104742050171
vn 0.5314671397209167 0.07525810599327087 0.8437291979789734
vn 0.4518100619316101 0.1057620719075203 0.8858227729797363
vn 0.5758316516876221 -0.10287509113550186 0.8110700249671936
vn 0.4895349144935608 -0.09361263364553452 0.8669441938400269
vn 0.40569013357162476 -0.1638469099998474 0.8992050886154175
vn 0.4929993152618408 -0.21117258071899414 0.844012975692749
vn 0.3355097472667694 -0.13632334768772125 0.9321207404136658
vn 0.3309114873409271 -0.1338377296924591 0.934122622013092
vn 0.13874654471874237 -0.022763246670365334 0.9900662899017334
vn 0.13997749984264374 -0.017801253125071526 0.9899946451187134
vn 0.1891210824251175 0.060884006321430206 0.9800644516944885
vn 0.27475738525390625 -0.19495193660259247 0.9415424466133118
vn 0.27475735545158386 -0.19495193660259247 0.9415424466133118
vn 0.27475738525390625 -0.19495193660259247 0.9415424466133118
vn 0.27475738525390625 -0.19495193660259247 0.9415424466133118
vn 0.4445909559726715 -0.19071853160858154 0.8751944303512573
vn 0.44459107518196106 -0.19071853160858154 0.8751944303512573
vn 0.44459107518196106 -0.19071853160858154 0.8751944303512573
vn 0.4445910155773163 -0.19071853160858154 0.8751944303512573
vn 0.5221748352050781 -0.08219573646783829 0.8488682508468628
vn 0.5221748352050781 -0.08219573646783829 0.8488682508468628
vn 0.5221748352050781 -0.08219573646783829 0.8488682508468628
vn 0.5221748352050781 -0.08219572901725769 0.8488682508468628
vn 0.581300675868988 -0.006881938315927982 0.8136597275733948
vn 0.581300675868988 -0.006881938315927982 0.8136597275733948
vn 0.5813007354736328 -0.006881939247250557 0.8136597275733948
vn 0.5813007354736328 -0.006881939247250557 0.8136597275733948
vn 0.5198200345039368 0.23590800166130066 0.8210570216178894
vn 0.519819974899292 0.23590801656246185 0.8210569620132446
vn 0.5198200345039368 0.23590800166130066 0.8210570216178894
vn 0.5198200345039368 0.23590800166130066 0.8210570216178894
vn 0.28728342056274414 0.4228174090385437 0.859472930431366
vn 0.28728336095809937 0.4228174090385437 0.859472930431366
vn 0.28728339076042175 0.4228174090385437 0.859472930431366
vn 0.28728336095809937 0.4228173792362213 0.859472930431366
vn 0.09582991898059845 0.4360693097114563 0.8947961926460266
vn 0.09582991898059845 0.4360693097114563 0.8947961926460266
vn 0.09582991898059845 0.4360693097114563 0.8947961926460266
vn 0.09582991898059845 0.4360692799091339 0.8947961926460266
vn 0.007379625458270311 0.3334560990333557 0.9427367448806763
vn 0.007379625458270311 0.3334560990333557 0.9427367448806763
vn 0.007379626389592886 0.3334560990333557 0.9427367448806763
vn 0.007379625458270311 0.3334560990333557 0.9427367448806763
vn -0.11860775947570801 0.19550254940986633 0.9735044836997986
vn -0.11860775947570801 0.19550254940986633 0.9735044836997986
vn -0.11860774457454681 0.19550254940986633 0.9735044836997986
vn -0.11860775947570801 0.19550256431102753 0.9735044836997986
vn -0.059132542461156845 0.044198255985975266 0.9972711801528931
vn -0.05913253501057625 0.04419825226068497 0.9972711801528931
vn -0.05913253501057625 0.044198255985975266 0.9972711801528931
vn -0.05913253501057625 0.044198255985975266 0.9972711801528931
vn 0.45173966884613037 0.09290637075901031 0.887299120426178
vn 0.3728109896183014 -0.13061468303203583 0.9186684489250183
vn 0.32445597648620605 -0.1173253059387207 0.9385963082313538
vn 0.3885641098022461 0.03644941747188568 0.9207004308700562
vn 0.30395179986953735 0.25532227754592896 0.9178364872932434
vn 0.38112151622772217 0.29274851083755493 0.8769519329071045
vn 0.13438232243061066 0.2911263406276703 0.9471994638442993
vn 0.1894560605287552 0.3964771330356598 0.8982830047607422
vn 0.08919019997119904 0.22021211683750153 0.9713659286499023
vn 0.08936060965061188 0.22248822450637817 0.9708313941955566
vn 0.2494763731956482 -0.3607044219970703 0.8986956477165222
vn 0.252013236284256 -0.2706167995929718 0.9291156530380249
vn 0.09598001837730408 -0.4649190902709961 0.8801352381706238
vn 0.07631616294384003 -0.373757541179657 0.9243814945220947
vn -0.017619414255023003 -0.3140748143196106 0.9492347836494446
vn -0.03353489190340042 -0.4185696542263031 0.9075653553009033
vn -0.014784689992666245 -0.23504464328289032 0.9718721508979797
vn -0.013955652713775635 -0.22966335713863373 0.9731700420379639
vn 0.027401072904467583 -0.006089318078011274 0.9996059536933899
vn 0.032490555197000504 -0.0056238556280732155 0.9994561672210693
vn 0.12297850847244263 -0.027117764577269554 0.9920387864112854
vn -0.09019191563129425 -0.19618479907512665 0.9764102101325989
vn -0.09019192308187485 -0.19618481397628784 0.9764102101325989
vn -0.09019192308187485 -0.19618481397628784 0.9764102101325989
vn -0.09019192308187485 -0.19618481397628784 0.9764102101325989
vn -0.03016810491681099 -0.3624524474143982 0.9315138459205627
vn -0.03016810491681099 -0.3624524474143982 0.9315139055252075
vn -0.03016810491681099 -0.3624524474143982 0.9315138459205627
vn -0.03016810119152069 -0.3624524176120758 0.9315139055252075
vn 0.09784147888422012 -0.40294167399406433 0.909980833530426
vn 0.09784147888422012 -0.40294164419174194 0.909980833530426
vn 0.09784147143363953 -0.40294164419174194 0.909980833530426
vn 0.09784147888422012 -0.4029417037963867 0.909980833530426
vn 0.18837761878967285 -0.4382269084453583 0.878903329372406
vn 0.18837760388851166 -0.4382268786430359 0.878903329372406
vn 0.18837761878967285 -0.4382269084453583 0.878903329372406
vn 0.18837760388851166 -0.4382268786430359 0.878903329372406
vn 0.3971422612667084 -0.30015507340431213 0.867285966873169
vn 0.39714229106903076 -0.30015507340431213 0.867285966873169
vn 0.3971422612667084 -0.30015507340431213 0.867285966873169
vn 0.3971422612667084 -0.30015507340431213 0.867285966873169
vn 0.4966391623020172 -0.01628125086426735 0.8678044080734253
vn 0.4966391623020172 -0.01628125086426735 0.8678044080734253
vn 0.4966391921043396 -0.01628125086426735 0.8678044080734253
vn 0.4966391623020172 -0.01628125086426735 0.8678044080734253
vn 0.4458644390106201 0.17183132469654083 0.8784525394439697
vn 0.4458644390106201 0.17183132469654083 0.8784525394439697
vn 0.44586440920829773 0.17183130979537964 0.8784525394439697
vn 0.4458644390106201 0.17183133959770203 0.8784525394439697
vn 0.3198981285095215 0.22728566825389862 0.9197860956192017
vn 0.3198980987071991 0.22728563845157623 0.9197860956192017
vn 0.3198980987071991 0.22728566825389862 0.9197860956192017
vn 0.3198981285095215 0.22728568315505981 0.9197860956192017
vn 0.14810585975646973 0.3039943277835846 0.9410908818244934
vn 0.14810585975646973 0.3039943277835846 0.9410908818244934
vn 0.14810585975646973 0.3039943277835846 0.9410908818244934
vn 0.14810585975646973 0.3039943277835846 0.9410908818244934
vn 0.025095941498875618 0.20191389322280884 0.9790816903114319
vn 0.025095941498875618 0.20191389322280884 0.9790816903114319
vn 0.02509593777358532 0.20191389322280884 0.9790816903114319
vn 0.025095941498875618 0.20191389322280884 0.9790816903114319
vt 0.15683871507644653 0.06107056140899658
vt 0.23449555039405823 0.06653928756713867
vt 0.23855847120285034 0.15045392513275146
vt 0.19973018765449524 0.14771968126296997
vt 0.14462809264659882 0.20840716361999512
vt 0.046634431928396225 0.18244576454162598
vt 0.16199584305286407 0.24087119102478027
vt 0.08137005567550659 0.24737387895584106
vt 0.20275388658046722 0.4024195671081543
vt 0.22268782556056976 0.3183940649032593
vt 0.3251931369304657 0.04818260669708252
vt 0.28390738368034363 0.1412755250930786
vt 0.4104536771774292 0.12480878829956055
vt 0.3265376389026642 0.17958861589431763
vt 0.3200712502002716 0.22812211513519287
vt 0.39752086997032166 0.22187566757202148
vt 0.35437503457069397 0.3625868558883667
vt 0.298498272895813 0.29847782850265503
vt 0.2636207938194275 0.32923996448516846
vt 0.2846197485923767 0.4241112470626831
vt 0.24262160062789917 0.23436862230300903
vt 0.35437503457069397 0.3625868558883667
vt 0.4051426351070404 0.4301844835281372
vt 0.29829731583595276 0.5069456100463867
vt 0.2846197485923767 0.4241112470626831
vt 0.39752086997032166 0.22187566757202148
vt 0.47897404432296753 0.21951866149902344
vt 0.4051426351070404 0.4301844835281372
vt 0.35437503457069397 0.3625868558883667
vt 0.4104536771774292 0.12480878829956055
vt 0.4829779863357544 0.06821787357330322
vt 0.47897404432296753 0.21951866149902344
vt 0.39752086997032166 0.22187566757202148
vt 0.3251931369304657 0.04818260669708252
vt 0.35268405079841614 -0.029055356979370117
vt 0.4829779863357544 0.06821787357330322
vt 0.4104536771774292 0.12480878829956055
vt 0.23449555039405823 0.06653928756713867
vt 0.2252805083990097 -0.012724161148071289
vt 0.35268405079841614 -0.029055356979370117
vt 0.3251931369304657 0.04818260669708252
vt 0.15683871507644653 0.06107056140899658
vt 0.11327352374792099 -0.017084240913391113
vt 0.2252805083990097 -0.012724161148071289
vt 0.23449555039405823 0.06653928756713867
vt 0.046634431928396225 0.18244576454162598
vt -0.039447568356990814 0.15953612327575684
vt 0.11327352374792099 -0.017084240913391113
vt 0.15683871507644653 0.06107056140899658
vt 0.08137005567550659 0.24737387895584106
vt -0.005209919065237045 0.2620210647583008
vt -0.039447568356990814 0.15953612327575684
vt 0.046634431928396225 0.18244576454162598
vt 0.20275388658046722 0.4024195671081543
vt 0.1793573498725891 0.47755807638168335
vt -0.005209919065237045 0.2620210647583008
vt 0.08137005567550659 0.24737387895584106
vt 0.2846197485923767 0.4241112470626831
vt 0.29829731583595276 0.5069456100463867
vt 0.1793573498725891 0.47755807638168335
vt 0.20275388658046722 0.4024195671081543
vt 0.6308212280273438 0.06107056140899658
vt 0.7084780931472778 0.06653928756713867
vt 0.7125409841537476 0.15045392513275146
vt 0.6737127304077148 0.14771968126296997
vt 0.6186106204986572 0.20840716361999512
vt 0.5206169486045837 0.18244576454162598
vt 0.6359783411026001 0.24087119102478027
vt 0.5553525686264038 0.24737387895584106
vt 0.6767364144325256 0.4024195671081543
vt 0.6966703534126282 0.3183940649032593
vt 0.7991756200790405 0.04818260669708252
vt 0.7578898668289185 0.1412755250930786
vt 0.8844361901283264 0.12480878829956055
vt 0.8005201816558838 0.17958861589431763
vt 0.7940537929534912 0.22812211513519287
vt 0.8715033531188965 0.22187566757202148
vt 0.8283575773239136 0.3625868558883667
vt 0.7724807858467102 0.29847782850265503
vt 0.7376033067703247 0.32923996448516846
vt 0.7586022615432739 0.4241112470626831
vt 0.7166041135787964 0.23436862230300903
vt 0.8283575773239136 0.3625868558883667
vt 0.8791251182556152 0.4301844835281372
vt 0.7722798585891724 0.5069456100463867
vt 0.7586022615432739 0.4241112470626831
vt 0.8715033531188965 0.22187566757202148
vt 0.9529565572738647 0.21951866149902344
vt 0.8791251182556152 0.4301844835281372
vt 0.8283575773239136 0.3625868558883667
vt 0.8844361901283264 0.12480878829956055
vt 0.9569604992866516 0.06821787357330322
vt 0.9529565572738647 0.21951866149902344
vt 0.8715033531188965 0.22187566757202148
vt 0.7991756200790405 0.04818260669708252
vt 0.8266665935516357 -0.029055356979370117
vt 0.9569604992866516 0.06821787357330322
vt 0.8844361901283264 0.12480878829956055
vt 0.7084780931472778 0.06653928756713867
vt 0.6992630362510681 -0.012724161148071289
vt 0.8266665935516357 -0.029055356979370117
vt 0.7991756200790405 0.04818260669708252
vt 0.6308212280273438 0.06107056140899658
vt 0.5872560143470764 -0.017084240913391113
vt 0.6992630362510681 -0.012724161148071289
vt 0.7084780931472778 0.06653928756713867
vt 0.5206169486045837 0.18244576454162598
vt 0.4345349371433258 0.15953612327575684
vt 0.5872560143470764 -0.017084240913391113
vt 0.6308212280273438 0.06107056140899658
vt 0.5553525686264038 0.24737387895584106
vt 0.4687725901603699 0.2620210647583008
vt 0.4345349371433258 0.15953612327575684
vt 0.5206169486045837 0.18244576454162598
vt 0.6767364144325256 0.4024195671081543
vt 0.6533398628234863 0.47755807638168335
vt 0.4687725901603699 0.2620210647583008
vt 0.5553525686264038 0.24737387895584106
vt 0.7586022615432739 0.4241112470626831
vt 0.7722798585891724 0.5069456100463867
vt 0.6533398628234863 0.47755807638168335
vt 0.6767364144325256 0.4024195671081543
vt 0.20784027874469757 0.5154496729373932
vt 0.2822202146053314 0.5384305417537689
vt 0.26709869503974915 0.6210714280605316
vt 0.22990886867046356 0.6095811426639557
vt 0.16245238482952118 0.6561519205570221
vt 0.07292722165584564 0.6085914671421051
vt 0.17198458313941956 0.6917143762111664
vt 0.09199176728725433 0.6797164380550385
vt 0.16068018972873688 0.8503725230693817
vt 0.21346239745616913 0.7810055017471313
vt 0.37471604347229004 0.5411746799945831
vt 0.3133467137813568 0.6224434673786163
vt 0.4403228759765625 0.6351782977581024
vt 0.34615015983581543 0.6694452464580536
vt 0.32881900668144226 0.7152377068996429
vt 0.4056605100631714 0.726762980222702
vt 0.31738683581352234 0.8555654138326645
vt 0.29181551933288574 0.7788463681936264
vt 0.2508575916290283 0.8008735030889511
vt 0.23071491718292236 0.907545879483223
vt 0.2519773840904236 0.7037123739719391
vt 0.31738683581352234 0.8555654138326645
vt 0.35145655274391174 0.9329348728060722
vt 0.22520190477371216 0.9913206659257412
vt 0.23071491718292236 0.907545879483223
vt 0.4056605100631714 0.726762980222702
vt 0.4617382287979126 0.7414008975028992
vt 0.35145655274391174 0.9329348728060722
vt 0.31738683581352234 0.8555654138326645
vt 0.4403228759765625 0.6351782977581024
vt 0.4921095669269562 0.6124100089073181
vt 0.4617382287979126 0.7414008975028992
vt 0.4056605100631714 0.726762980222702
vt 0.37471604347229004 0.5411746799945831
vt 0.4127063453197479 0.48806172609329224
vt 0.4921095669269562 0.6124100089073181
vt 0.4403228759765625 0.6351782977581024
vt 0.2822202146053314 0.5384305417537689
vt 0.2896818518638611 0.4734147787094116
vt 0.4127063453197479 0.48806172609329224
vt 0.37471604347229004 0.5411746799945831
vt 0.20784027874469757 0.5154496729373932
vt 0.1831844598054886 0.4357779026031494
vt 0.2896818518638611 0.4734147787094116
vt 0.2822202146053314 0.5384305417537689
vt 0.07292722165584564 0.6085914671421051
vt -0.005692050792276859 0.5667109787464142
vt 0.1831844598054886 0.4357779026031494
vt 0.20784027874469757 0.5154496729373932
vt 0.09199176728725433 0.6797164380550385
vt 0.004349022172391415 0.6742960512638092
vt -0.005692050792276859 0.5667109787464142
vt 0.07292722165584564 0.6085914671421051
vt 0.16068018972873688 0.8503725230693817
vt 0.12081354111433029 0.918224148452282
vt 0.004349022172391415 0.6742960512638092
vt 0.09199176728725433 0.6797164380550385
vt 0.23071491718292236 0.907545879483223
vt 0.22520190477371216 0.9913206659257412
vt 0.12081354111433029 0.918224148452282
vt 0.16068018972873688 0.8503725230693817
vt 0.6075095534324646 0.5436069369316101
vt 0.6853479146957397 0.542301744222641
vt 0.6966927647590637 0.6255451738834381
vt 0.6577738523483276 0.626197874546051
vt 0.6081580519676208 0.6914472579956055
vt 0.5082778930664062 0.6741058826446533
vt 0.6282829642295837 0.722277969121933
vt 0.5485281944274902 0.7357673645019531
vt 0.6669101119041443 0.8765768110752106
vt 0.6954866647720337 0.7942292243242264
vt 0.7741054892539978 0.5161273181438446
vt 0.7410716414451599 0.6124579608440399
vt 0.8657065033912659 0.5850488245487213
vt 0.7868722677230835 0.6469185948371887
vt 0.784650981426239 0.6958306431770325
vt 0.8612638711929321 0.6828726530075073
vt 0.8174527287483215 0.8327488601207733
vt 0.7692779898643494 0.7677958160638809
vt 0.7372077107429504 0.8014744073152542
vt 0.7512587308883667 0.9091186970472336
vt 0.7080379128456116 0.7087886035442352
vt 0.8174527287483215 0.8327488601207733
vt 0.8739062547683716 0.8956755697727203
vt 0.7673322558403015 0.9777680151164532
vt 0.7512587308883667 0.9091186970472336
vt 0.8612638711929321 0.6828726530075073
vt 0.9191124439239502 0.67933389544487
vt 0.8739062547683716 0.8956755697727203
vt 0.8174527287483215 0.8327488601207733
vt 0.8657065033912659 0.5850488245487213
vt 0.9078372716903687 0.5472962260246277
vt 0.9191124439239502 0.67933389544487
vt 0.8612638711929321 0.6828726530075073
vt 0.7741054892539978 0.5161273181438446
vt 0.7936822772026062 0.45382970571517944
vt 0.9078372716903687 0.5472962260246277
vt 0.8657065033912659 0.5850488245487213
vt 0.6853479146957397 0.542301744222641
vt 0.6769635081291199 0.48611801862716675
vt 0.7936822772026062 0.45382970571517944
vt 0.7741054892539978 0.5161273181438446
vt 0.6075095534324646 0.5436069369316101
vt 0.564041793346405 0.48190367221832275
vt 0.6769635081291199 0.48611801862716675
vt 0.6853479146957397 0.542301744222641
vt 0.5082778930664062 0.6741058826446533
vt 0.46491602063179016 0.6666951179504395
vt 0.564041793346405 0.48190367221832275
vt 0.6075095534324646 0.5436069369316101
vt 0.5485281944274902 0.7357673645019531
vt 0.490498811006546 0.7705700099468231
vt 0.46491602063179016 0.6666951179504395
vt 0.5082778930664062 0.6741058826446533
vt 0.6669101119041443 0.8765768110752106
vt 0.650136411190033 0.9455391392111778
vt 0.490498811006546 0.7705700099468231
vt 0.5485281944274902 0.7357673645019531
vt 0.7512587308883667 0.9091186970472336
vt 0.7673322558403015 0.9777680151164532
vt 0.650136411190033 0.9455391392111778
vt 0.6669101119041443 0.8765768110752106
vt 0.6308212280273438 0.06107056140899658
vt 0.7084780931472778 0.06653928756713867
vt 0.7125409841537476 0.15045392513275146
vt 0.6737127304077148 0.14771968126296997
vt 0.6186106204986572 0.20840716361999512
vt 0.5206169486045837 0.18244576454162598
vt 0.6359783411026001 0.24087119102478027
vt 0.5553525686264038 0.24737387895584106
vt 0.6767364144325256 0.4024195671081543
vt 0.6966703534126282 0.3183940649032593
vt 0.7991756200790405 0.04818260669708252
vt 0.7578898668289185 0.1412755250930786
vt 0.8844361901283264 0.12480878829956055
vt 0.8005201816558838 0.17958861589431763
vt 0.7940537929534912 0.22812211513519287
vt 0.8715033531188965 0.22187566757202148
vt 0.8283575773239136 0.3625868558883667
vt 0.7724807858467102 0.29847782850265503
vt 0.7376033067703247 0.32923996448516846
vt 0.7586022615432739 0.4241112470626831
vt 0.7166041135787964 0.23436862230300903
vt 0.8283575773239136 0.3625868558883667
vt 0.8791251182556152 0.4301844835281372
vt 0.7722798585891724 0.5069456100463867
vt 0.7586022615432739 0.4241112470626831
vt 0.8715033531188965 0.22187566757202148
vt 0.9529565572738647 0.21951866149902344
vt 0.8791251182556152 0.4301844835281372
vt 0.8283575773239136 0.3625868558883667
vt 0.8844361901283264 0.12480878829956055
vt 0.9569604992866516 0.06821787357330322
vt 0.9529565572738647 0.21951866149902344
vt 0.8715033531188965 0.22187566757202148
vt 0.7991756200790405 0.04818260669708252
vt 0.8266665935516357 -0.029055356979370117
vt 0.9569604992866516 0.06821787357330322
vt 0.8844361901283264 0.12480878829956055
vt 0.7084780931472778 0.06653928756713867
vt 0.6992630362510681 -0.012724161148071289
vt 0.8266665935516357 -0.029055356979370117
vt 0.7991756200790405 0.04818260669708252
vt 0.6308212280273438 0.06107056140899658
vt 0.5872560143470764 -0.017084240913391113
vt 0.6992630362510681 -0.012724161148071289
vt 0.7084780931472778 0.06653928756713867
vt 0.5206169486045837 0.18244576454162598
vt 0.4345349371433258 0.15953612327575684
vt 0.5872560143470764 -0.017084240913391113
vt 0.6308212280273438 0.06107056140899658
vt 0.5553525686264038 0.24737387895584106
vt 0.4687725901603699 0.2620210647583008
vt 0.4345349371433258 0.15953612327575684
vt 0.5206169486045837 0.18244576454162598
vt 0.6767364144325256 0.4024195671081543
vt 0.6533398628234863 0.47755807638168335
vt 0.4687725901603699 0.2620210647583008
vt 0.5553525686264038 0.24737387895584106
vt 0.7586022615432739 0.4241112470626831
vt 0.7722798585891724 0.5069456100463867
vt 0.6533398628234863 0.47755807638168335
vt 0.6767364144325256 0.4024195671081543

g huanban_02
s 1
usemtl huanban_02
f 3/3/3 2/2/2 1/1/1 
f 4/4/4 3/3/3 1/1/1 
f 5/5/5 4/4/4 1/1/1 
f 6/6/6 5/5/5 1/1/1 
f 7/7/7 5/5/5 6/6/6 
f 8/8/8 7/7/7 6/6/6 
f 7/7/7 8/8/8 9/9/9 
f 10/10/10 7/7/7 9/9/9 
f 2/2/2 3/3/3 11/11/11 
f 3/3/3 12/12/12 11/11/11 
f 11/11/11 12/12/12 13/13/13 
f 12/12/12 14/14/14 13/13/13 
f 14/14/14 15/15/15 13/13/13 
f 15/15/15 16/16/16 13/13/13 
f 16/16/16 15/15/15 17/17/17 
f 15/15/15 18/18/18 17/17/17 
f 18/18/18 19/19/19 17/17/17 
f 19/19/19 10/10/10 9/9/9 
f 19/19/19 20/20/20 17/17/17 
f 20/20/20 19/19/19 9/9/9 
f 21/21/21 19/19/19 18/18/18 
f 21/21/21 7/7/7 10/10/10 
f 21/21/21 15/15/15 14/14/14 
f 21/21/21 14/14/14 12/12/12 
f 21/21/21 18/18/18 15/15/15 
f 21/21/21 10/10/10 19/19/19 
f 21/21/21 5/5/5 7/7/7 
f 21/21/21 4/4/4 5/5/5 
f 21/21/21 3/3/3 4/4/4 
f 21/21/21 12/12/12 3/3/3 
f 24/24/24 23/23/23 22/22/22 
f 25/25/25 24/24/24 22/22/22 
f 28/28/28 27/27/27 26/26/26 
f 29/29/29 28/28/28 26/26/26 
f 32/32/32 31/31/31 30/30/30 
f 33/33/33 32/32/32 30/30/30 
f 36/36/36 35/35/35 34/34/34 
f 37/37/37 36/36/36 34/34/34 
f 40/40/40 39/39/39 38/38/38 
f 41/41/41 40/40/40 38/38/38 
f 44/44/44 43/43/43 42/42/42 
f 45/45/45 44/44/44 42/42/42 
f 48/48/48 47/47/47 46/46/46 
f 49/49/49 48/48/48 46/46/46 
f 52/52/52 51/51/51 50/50/50 
f 53/53/53 52/52/52 50/50/50 
f 56/56/56 55/55/55 54/54/54 
f 57/57/57 56/56/56 54/54/54 
f 60/60/60 59/59/59 58/58/58 
f 61/61/61 60/60/60 58/58/58 
f 64/64/64 63/63/63 62/62/62 
f 65/65/65 64/64/64 62/62/62 
f 66/66/66 65/65/65 62/62/62 
f 67/67/67 66/66/66 62/62/62 
f 68/68/68 66/66/66 67/67/67 
f 69/69/69 68/68/68 67/67/67 
f 68/68/68 69/69/69 70/70/70 
f 71/71/71 68/68/68 70/70/70 
f 63/63/63 64/64/64 72/72/72 
f 64/64/64 73/73/73 72/72/72 
f 72/72/72 73/73/73 74/74/74 
f 73/73/73 75/75/75 74/74/74 
f 75/75/75 76/76/76 74/74/74 
f 76/76/76 77/77/77 74/74/74 
f 77/77/77 76/76/76 78/78/78 
f 76/76/76 79/79/79 78/78/78 
f 79/79/79 80/80/80 78/78/78 
f 80/80/80 71/71/71 70/70/70 
f 80/80/80 81/81/81 78/78/78 
f 81/81/81 80/80/80 70/70/70 
f 82/82/82 80/80/80 79/79/79 
f 82/82/82 68/68/68 71/71/71 
f 82/82/82 76/76/76 75/75/75 
f 82/82/82 75/75/75 73/73/73 
f 82/82/82 79/79/79 76/76/76 
f 82/82/82 71/71/71 80/80/80 
f 82/82/82 66/66/66 68/68/68 
f 82/82/82 65/65/65 66/66/66 
f 82/82/82 64/64/64 65/65/65 
f 82/82/82 73/73/73 64/64/64 
f 85/85/85 84/84/84 83/83/83 
f 86/86/86 85/85/85 83/83/83 
f 89/89/89 88/88/88 87/87/87 
f 90/90/90 89/89/89 87/87/87 
f 93/93/93 92/92/92 91/91/91 
f 94/94/94 93/93/93 91/91/91 
f 97/97/97 96/96/96 95/95/95 
f 98/98/98 97/97/97 95/95/95 
f 101/101/101 100/100/100 99/99/99 
f 102/102/102 101/101/101 99/99/99 
f 105/105/105 104/104/104 103/103/103 
f 106/106/106 105/105/105 103/103/103 
f 109/109/109 108/108/108 107/107/107 
f 110/110/110 109/109/109 107/107/107 
f 113/113/113 112/112/112 111/111/111 
f 114/114/114 113/113/113 111/111/111 
f 117/117/117 116/116/116 115/115/115 
f 118/118/118 117/117/117 115/115/115 
f 121/121/121 120/120/120 119/119/119 
f 122/122/122 121/121/121 119/119/119 
f 125/125/125 124/124/124 123/123/123 
f 126/126/126 125/125/125 123/123/123 
f 127/127/127 126/126/126 123/123/123 
f 128/128/128 127/127/127 123/123/123 
f 129/129/129 127/127/127 128/128/128 
f 130/130/130 129/129/129 128/128/128 
f 129/129/129 130/130/130 131/131/131 
f 132/132/132 129/129/129 131/131/131 
f 124/124/124 125/125/125 133/133/133 
f 125/125/125 134/134/134 133/133/133 
f 133/133/133 134/134/134 135/135/135 
f 134/134/134 136/136/136 135/135/135 
f 136/136/136 137/137/137 135/135/135 
f 137/137/137 138/138/138 135/135/135 
f 138/138/138 137/137/137 139/139/139 
f 137/137/137 140/140/140 139/139/139 
f 140/140/140 141/141/141 139/139/139 
f 141/141/141 132/132/132 131/131/131 
f 141/141/141 142/142/142 139/139/139 
f 142/142/142 141/141/141 131/131/131 
f 143/143/143 141/141/141 140/140/140 
f 143/143/143 129/129/129 132/132/132 
f 143/143/143 137/137/137 136/136/136 
f 143/143/143 136/136/136 134/134/134 
f 143/143/143 140/140/140 137/137/137 
f 143/143/143 132/132/132 141/141/141 
f 143/143/143 127/127/127 129/129/129 
f 143/143/143 126/126/126 127/127/127 
f 143/143/143 125/125/125 126/126/126 
f 143/143/143 134/134/134 125/125/125 
f 146/146/146 145/145/145 144/144/144 
f 147/147/147 146/146/146 144/144/144 
f 150/150/150 149/149/149 148/148/148 
f 151/151/151 150/150/150 148/148/148 
f 154/154/154 153/153/153 152/152/152 
f 155/155/155 154/154/154 152/152/152 
f 158/158/158 157/157/157 156/156/156 
f 159/159/159 158/158/158 156/156/156 
f 162/162/162 161/161/161 160/160/160 
f 163/163/163 162/162/162 160/160/160 
f 166/166/166 165/165/165 164/164/164 
f 167/167/167 166/166/166 164/164/164 
f 170/170/170 169/169/169 168/168/168 
f 171/171/171 170/170/170 168/168/168 
f 174/174/174 173/173/173 172/172/172 
f 175/175/175 174/174/174 172/172/172 
f 178/178/178 177/177/177 176/176/176 
f 179/179/179 178/178/178 176/176/176 
f 182/182/182 181/181/181 180/180/180 
f 183/183/183 182/182/182 180/180/180 
f 186/186/186 185/185/185 184/184/184 
f 187/187/187 186/186/186 184/184/184 
f 188/188/188 187/187/187 184/184/184 
f 189/189/189 188/188/188 184/184/184 
f 190/190/190 188/188/188 189/189/189 
f 191/191/191 190/190/190 189/189/189 
f 190/190/190 191/191/191 192/192/192 
f 193/193/193 190/190/190 192/192/192 
f 185/185/185 186/186/186 194/194/194 
f 186/186/186 195/195/195 194/194/194 
f 194/194/194 195/195/195 196/196/196 
f 195/195/195 197/197/197 196/196/196 
f 197/197/197 198/198/198 196/196/196 
f 198/198/198 199/199/199 196/196/196 
f 199/199/199 198/198/198 200/200/200 
f 198/198/198 201/201/201 200/200/200 
f 201/201/201 202/202/202 200/200/200 
f 202/202/202 193/193/193 192/192/192 
f 202/202/202 203/203/203 200/200/200 
f 203/203/203 202/202/202 192/192/192 
f 204/204/204 202/202/202 201/201/201 
f 204/204/204 190/190/190 193/193/193 
f 204/204/204 198/198/198 197/197/197 
f 204/204/204 197/197/197 195/195/195 
f 204/204/204 201/201/201 198/198/198 
f 204/204/204 193/193/193 202/202/202 
f 204/204/204 188/188/188 190/190/190 
f 204/204/204 187/187/187 188/188/188 
f 204/204/204 186/186/186 187/187/187 
f 204/204/204 195/195/195 186/186/186 
f 207/207/207 206/206/206 205/205/205 
f 208/208/208 207/207/207 205/205/205 
f 211/211/211 210/210/210 209/209/209 
f 212/212/212 211/211/211 209/209/209 
f 215/215/215 214/214/214 213/213/213 
f 216/216/216 215/215/215 213/213/213 
f 219/219/219 218/218/218 217/217/217 
f 220/220/220 219/219/219 217/217/217 
f 223/223/223 222/222/222 221/221/221 
f 224/224/224 223/223/223 221/221/221 
f 227/227/227 226/226/226 225/225/225 
f 228/228/228 227/227/227 225/225/225 
f 231/231/231 230/230/230 229/229/229 
f 232/232/232 231/231/231 229/229/229 
f 235/235/235 234/234/234 233/233/233 
f 236/236/236 235/235/235 233/233/233 
f 239/239/239 238/238/238 237/237/237 
f 240/240/240 239/239/239 237/237/237 
f 243/243/243 242/242/242 241/241/241 
f 244/244/244 243/243/243 241/241/241 
f 247/247/247 246/246/246 245/245/245 
f 248/248/248 247/247/247 245/245/245 
f 249/249/249 248/248/248 245/245/245 
f 250/250/250 249/249/249 245/245/245 
f 251/251/251 249/249/249 250/250/250 
f 252/252/252 251/251/251 250/250/250 
f 251/251/251 252/252/252 253/253/253 
f 254/254/254 251/251/251 253/253/253 
f 246/246/246 247/247/247 255/255/255 
f 247/247/247 256/256/256 255/255/255 
f 255/255/255 256/256/256 257/257/257 
f 256/256/256 258/258/258 257/257/257 
f 258/258/258 259/259/259 257/257/257 
f 259/259/259 260/260/260 257/257/257 
f 260/260/260 259/259/259 261/261/261 
f 259/259/259 262/262/262 261/261/261 
f 262/262/262 263/263/263 261/261/261 
f 263/263/263 254/254/254 253/253/253 
f 263/263/263 264/264/264 261/261/261 
f 264/264/264 263/263/263 253/253/253 
f 265/265/265 263/263/263 262/262/262 
f 265/265/265 251/251/251 254/254/254 
f 265/265/265 259/259/259 258/258/258 
f 265/265/265 258/258/258 256/256/256 
f 265/265/265 262/262/262 259/259/259 
f 265/265/265 254/254/254 263/263/263 
f 265/265/265 249/249/249 251/251/251 
f 265/265/265 248/248/248 249/249/249 
f 265/265/265 247/247/247 248/248/248 
f 265/265/265 256/256/256 247/247/247 
f 268/268/268 267/267/267 266/266/266 
f 269/269/269 268/268/268 266/266/266 
f 272/272/272 271/271/271 270/270/270 
f 273/273/273 272/272/272 270/270/270 
f 276/276/276 275/275/275 274/274/274 
f 277/277/277 276/276/276 274/274/274 
f 280/280/280 279/279/279 278/278/278 
f 281/281/281 280/280/280 278/278/278 
f 284/284/284 283/283/283 282/282/282 
f 285/285/285 284/284/284 282/282/282 
f 288/288/288 287/287/287 286/286/286 
f 289/289/289 288/288/288 286/286/286 
f 292/292/292 291/291/291 290/290/290 
f 293/293/293 292/292/292 290/290/290 
f 296/296/296 295/295/295 294/294/294 
f 297/297/297 296/296/296 294/294/294 
f 300/300/300 299/299/299 298/298/298 
f 301/301/301 300/300/300 298/298/298 
f 304/304/304 303/303/303 302/302/302 
f 305/305/305 304/304/304 302/302/302 

