v -0.0 1.1374099884164934e-08 0.4637594223022461
v -0.027554409578442574 0.13852538168430328 0.44984856247901917
v -6.173763278383149e-09 0.1412392556667328 0.44984856247901917
v -0.05404992029070854 0.2717272937297821 0.40865057706832886
v -1.211027367276074e-08 0.27705076336860657 0.40865057706832886
v -0.10602273046970367 0.2559615671634674 0.40865057706832886
v -0.05404991656541824 0.1304880678653717 0.44984856247901917
v -0.0 1.1374099884164934e-08 0.4637594223022461
v -0.15392115712165833 0.23035931587219238 0.40865057706832886
v -0.07846831530332565 0.11743615567684174 0.44984856247901917
v -0.0 1.1374099884164934e-08 0.4637594223022461
v -0.19590447843074799 0.19590449333190918 0.40865057706832886
v -0.09987122565507889 0.09987124055624008 0.44984856247901917
v -0.0 1.1374099884164934e-08 0.4637594223022461
v -0.23035931587219238 0.15392115712165833 0.40865057706832886
v -0.11743614077568054 0.07846832275390625 0.44984856247901917
v -0.0 1.1374099884164934e-08 0.4637594223022461
v -0.2559615671634674 0.10602270811796188 0.40865057706832886
v -0.1304880678653717 0.054049909114837646 0.44984856247901917
v -0.0 1.1374099884164934e-08 0.4637594223022461
v -0.2717273235321045 0.05404986813664436 0.40865057706832886
v -0.1385253667831421 0.027554389089345932 0.44984856247901917
v -0.0 1.1374099884164934e-08 0.4637594223022461
v -0.27705076336860657 -7.890049857905979e-08 0.40865057706832886
v -0.1412392407655716 -3.464749198656136e-08 0.44984856247901917
v -0.0 1.1374099884164934e-08 0.4637594223022461
v -0.2717272937297821 -0.0540500245988369 0.40865057706832886
v -0.1385253667831421 -0.027554456144571304 0.44984856247901917
v -0.0 1.1374099884164934e-08 0.4637594223022461
v -0.25596147775650024 -0.10602284967899323 0.40865057706832886
v -0.13048802316188812 -0.05404996871948242 0.44984856247901917
v -0.0 1.1374099884164934e-08 0.4637594223022461
v -0.23035921156406403 -0.15392127633094788 0.40865057706832886
v -0.11743609607219696 -0.07846837490797043 0.44984856247901917
v -0.0 1.1374099884164934e-08 0.4637594223022461
v -0.19590435922145844 -0.19590459764003754 0.40865057706832886
v -0.09987116605043411 -0.09987128525972366 0.44984856247901917
v -0.0 1.1374099884164934e-08 0.4637594223022461
v -0.1539209932088852 -0.23035940527915955 0.40865057706832886
v -0.07846823334693909 -0.11743617802858353 0.44984856247901917
v -0.0 1.1374099884164934e-08 0.4637594223022461
v -0.10602253675460815 -0.2559616267681122 0.40865057706832886
v -0.054049812257289886 -0.1304880827665329 0.44984856247901917
v -0.0 1.1374099884164934e-08 0.4637594223022461
v -0.05404968559741974 -0.2717273533344269 0.40865057706832886
v -0.027554288506507874 -0.13852538168430328 0.44984856247901917
v -0.0 1.1374099884164934e-08 0.4637594223022461
v 2.675199937129946e-07 -0.27705076336860657 0.40865057706832886
v 1.3638050688769e-07 -0.1412392258644104 0.44984856247901917
v -0.0 1.1374099884164934e-08 0.4637594223022461
v 0.05405020713806152 -0.2717272639274597 0.40865057706832886
v 0.027554554864764214 -0.1385253369808197 0.44984856247901917
v -0.0 1.1374099884164934e-08 0.4637594223022461
v 0.10602302104234695 -0.25596141815185547 0.40865057706832886
v 0.05405006557703018 -0.13048797845840454 0.44984856247901917
v -0.0 1.1374099884164934e-08 0.4637594223022461
v 0.153921440243721 -0.23035912215709686 0.40865057706832886
v 0.07846846431493759 -0.11743603646755219 0.44984856247901917
v -0.0 1.1374099884164934e-08 0.4637594223022461
v 0.1959047168493271 -0.1959042102098465 0.40865057706832886
v 0.09987135231494904 -0.09987109154462814 0.44984856247901917
v -0.0 1.1374099884164934e-08 0.4637594223022461
v 0.2303595095872879 -0.15392082929611206 0.40865057706832886
v 0.1174362525343895 -0.07846815139055252 0.44984856247901917
v -0.0 1.1374099884164934e-08 0.4637594223022461
v 0.25596168637275696 -0.10602235794067383 0.40865057706832886
v 0.13048812747001648 -0.054049715399742126 0.44984856247901917
v -0.0 1.1374099884164934e-08 0.4637594223022461
v 0.27172741293907166 -0.054049499332904816 0.40865057706832886
v 0.13852541148662567 -0.027554186061024666 0.44984856247901917
v -0.0 1.1374099884164934e-08 0.4637594223022461
v 0.27705076336860657 4.5613947463607474e-07 0.40865057706832886
v 0.1412392407655716 2.3811350047253654e-07 0.44984856247901917
v -0.0 1.1374099884164934e-08 0.4637594223022461
v 0.27172723412513733 0.05405039340257645 0.40865057706832886
v 0.1385253220796585 0.027554655447602272 0.44984856247901917
v -0.0 1.1374099884164934e-08 0.4637594223022461
v 0.2559613287448883 0.10602319985628128 0.40865057706832886
v 0.13048794865608215 0.05405016615986824 0.44984856247901917
v -0.0 1.1374099884164934e-08 0.4637594223022461
v 0.2303590178489685 0.15392160415649414 0.40865057706832886
v 0.1174359992146492 0.07846855372190475 0.44984856247901917
v -0.0 1.1374099884164934e-08 0.4637594223022461
v 0.19590410590171814 0.19590486586093903 0.40865057706832886
v 0.09987103193998337 0.0998714342713356 0.44984856247901917
v -0.0 1.1374099884164934e-08 0.4637594223022461
v 0.15392069518566132 0.23035959899425507 0.40865057706832886
v 0.07846808433532715 0.11743631213903427 0.44984856247901917
v -0.0 1.1374099884164934e-08 0.4637594223022461
v 0.10602220892906189 0.25596174597740173 0.40865057706832886
v 0.054049648344516754 0.13048817217350006 0.44984856247901917
v -0.0 1.1374099884164934e-08 0.4637594223022461
v 0.05404933542013168 0.27172744274139404 0.40865057706832886
v 0.027554109692573547 0.13852544128894806 0.44984856247901917
v -0.0 1.1374099884164934e-08 0.4637594223022461
v -1.211027367276074e-08 0.27705076336860657 0.40865057706832886
v -6.173763278383149e-09 0.1412392556667328 0.44984856247901917
v -0.0 1.1374099884164934e-08 0.4637594223022461
v 0.2234582155942917 0.3344302773475647 0.3417487144470215
v 0.2844086289405823 0.2844097316265106 0.3417487144470215
v 0.15392038226127625 0.37159883975982666 0.3417487144470215
v 0.0784674659371376 0.39448705315589905 0.3417487144470215
v -1.7581392341980973e-08 0.4022153317928314 0.3417487144470215
v 0.2844083309173584 0.4256490170955658 0.25171393156051636
v 0.3619835078716278 0.3619849383831024 0.25171393156051636
v 0.33442941308021545 0.22345949709415436 0.3417487144470215
v 0.3715982437133789 0.15392181277275085 0.3417487144470215
v 0.39448675513267517 0.07846900075674057 0.3417487144470215
v 0.4022153317928314 6.570733148691943e-07 0.3417487144470215
v 0.3944869935512543 -0.0784677043557167 0.3417487144470215
v 0.3715987503528595 -0.15392059087753296 0.3417487144470215
v 0.33443012833595276 -0.2234584242105484 0.3417487144470215
v 0.2844095528125763 -0.284408837556839 0.3417487144470215
v 0.22345927357673645 -0.3344295620918274 0.3417487144470215
v 0.15392155945301056 -0.37159833312034607 0.3417487144470215
v 0.07846873998641968 -0.39448678493499756 0.3417487144470215
v 3.883787655922788e-07 -0.4022153317928314 0.3417487144470215
v -0.0784679725766182 -0.3944869339466095 0.3417487144470215
v -0.15392084419727325 -0.37159866094589233 0.3417487144470215
v -0.2234586477279663 -0.3344300091266632 0.3417487144470215
v -0.2844090163707733 -0.28440937399864197 0.3417487144470215
v -0.33442971110343933 -0.22345905005931854 0.3417487144470215
v -0.3715984523296356 -0.15392130613327026 0.3417487144470215
v -0.39448684453964233 -0.07846847176551819 0.3417487144470215
v -0.4022153317928314 -1.196843015804916e-07 0.3417487144470215
v -0.3944869041442871 0.07846823334693909 0.3417487144470215
v -0.37159857153892517 0.15392109751701355 0.3417487144470215
v -0.33442986011505127 0.22345885634422302 0.3417487144470215
v -0.28440919518470764 0.28440919518470764 0.3417487144470215
v -0.22345885634422302 0.33442986011505127 0.3417487144470215
v -0.15392114222049713 0.3715985417366028 0.3417487144470215
v -0.07846832275390625 0.3944868743419647 0.3417487144470215
v -1.7581392341980973e-08 0.4022153317928314 0.3417487144470215
v -0.09987122565507889 0.5020865201950073 0.25171393156051636
v -2.2376864805551122e-08 0.5119230151176453 0.25171393156051636
v -0.1959044337272644 0.47295519709587097 0.25171393156051636
v -0.28440916538238525 0.42564842104911804 0.25171393156051636
v -0.3619842231273651 0.3619842231273651 0.25171393156051636
v -0.42564842104911804 0.28440916538238525 0.25171393156051636
v -0.11743614077568054 0.5903913974761963 0.14200624823570251
v -2.6312411804951807e-08 0.6019577980041504 0.14200624823570251
v -0.2303592711687088 0.5561365485191345 0.14200624823570251
v -0.3344298303127289 0.5005096793174744 0.14200624823570251
v -0.42564842104911804 0.42564842104911804 0.14200624823570251
v -0.5005096793174744 0.3344298303127289 0.14200624823570251
v -0.5561366081237793 0.23035919666290283 0.14200624823570251
v -0.47295522689819336 0.19590438902378082 0.25171393156051636
v -0.5020865201950073 0.09987111389636993 0.25171393156051636
v -0.5119230151176453 -1.554315929297445e-07 0.25171393156051636
v -0.5020865201950073 -0.09987141937017441 0.25171393156051636
v -0.4729550778865814 -0.1959046721458435 0.25171393156051636
v -0.4256483018398285 -0.28440943360328674 0.25171393156051636
v -0.3619840145111084 -0.3619844615459442 0.25171393156051636
v -0.28440889716148376 -0.42564862966537476 0.25171393156051636
v -0.19590406119823456 -0.4729553759098053 0.25171393156051636
v -0.09987078607082367 -0.5020866394042969 0.25171393156051636
v 4.943124736200843e-07 -0.5119230151176453 0.25171393156051636
v 0.09987174719572067 -0.5020864605903625 0.25171393156051636
v 0.19590498507022858 -0.4729549288749695 0.25171393156051636
v 0.2844097316265106 -0.4256480932235718 0.25171393156051636
v 0.3619846701622009 -0.3619837760925293 0.25171393156051636
v 0.4256488084793091 -0.2844085991382599 0.25171393156051636
v 0.47295546531677246 -0.1959037482738495 0.25171393156051636
v 0.5020866990089417 -0.09987044334411621 0.25171393156051636
v 0.5119230151176453 8.331933258887148e-07 0.25171393156051636
v 0.5020864009857178 0.09987208247184753 0.25171393156051636
v 0.4729548394680023 0.19590529799461365 0.25171393156051636
v 0.42564788460731506 0.2844099998474121 0.25171393156051636
v 0.5561368465423584 -0.23035846650600433 0.14200624823570251
v 0.5005100965499878 -0.33442917466163635 0.14200624823570251
v 0.5903915166854858 -0.11743522435426712 0.14200624823570251
v 0.6019577980041504 9.777313607628457e-07 0.14200624823570251
v 0.5903911590576172 0.11743714660406113 0.14200624823570251
v 0.5561361312866211 0.2303602546453476 0.14200624823570251
v 0.5005090236663818 0.3344307839870453 0.14200624823570251
v 0.4256476163864136 0.4256492555141449 0.14200624823570251
v 0.3344288468360901 0.5005102753639221 0.14200624823570251
v 0.23035812377929688 0.556136965751648 0.14200624823570251
v 0.1959034651517868 0.4729556143283844 0.25171393156051636
v 0.09987013041973114 0.5020868182182312 0.25171393156051636
v -2.2376864805551122e-08 0.5119230151176453 0.25171393156051636
v 0.11743485927581787 0.5903916358947754 0.14200624823570251
v -2.6312411804951807e-08 0.6019577980041504 0.14200624823570251
v 0.6179452538490295 0.2559625804424286 0.01684167981147766
v 0.5561357736587524 0.37159955501556396 0.01684167981147766
v 0.37159740924835205 0.556137204170227 0.01684167981147766
v 0.25596022605895996 0.6179462671279907 0.01684167981147766
v 0.1304866224527359 0.6560080051422119 0.01684167981147766
v -2.9236781884378615e-08 0.6688596606254578 0.01684167981147766
v 0.6560074687004089 0.13048915565013885 0.01684167981147766
v 0.6688596606254578 1.085132680600509e-06 0.01684167981147766
v 0.6560078859329224 -0.13048702478408813 0.01684167981147766
v 0.6179461479187012 -0.255960613489151 0.01684167981147766
v 0.556136965751648 -0.3715977668762207 0.01684167981147766
v 0.4256490170955658 -0.42564788460731506 0.14200624823570251
v 0.334430456161499 -0.5005092024803162 0.14200624823570251
v 0.23035991191864014 -0.5561362504959106 0.14200624823570251
v 0.11743675917387009 -0.590391218662262 0.14200624823570251
v 5.812499921376002e-07 -0.6019577980041504 0.14200624823570251
v -0.11743562668561935 -0.5903914570808411 0.14200624823570251
v -0.23035882413387299 -0.5561366677284241 0.14200624823570251
v -0.33442947268486023 -0.5005099177360535 0.14200624823570251
v -0.42564818263053894 -0.4256487190723419 0.14200624823570251
v -0.5005094408988953 -0.33443012833595276 0.14200624823570251
v -0.5561363697052002 -0.23035955429077148 0.14200624823570251
v -0.5903913378715515 -0.11743637174367905 0.14200624823570251
v -0.6019577980041504 -1.847686519340641e-07 0.14200624823570251
v -0.5903913974761963 0.1174360141158104 0.14200624823570251
v -0.656007707118988 0.13048790395259857 0.01684167981147766
v -0.6179457902908325 0.25596141815185547 0.01684167981147766
v -0.5561364889144897 0.371598482131958 0.01684167981147766
v -0.47295519709587097 0.47295519709587097 0.01684167981147766
v -0.371598482131958 0.5561364889144897 0.01684167981147766
v -0.25596147775650024 0.6179457306861877 0.01684167981147766
v -0.1304880529642105 0.6560076475143433 0.01684167981147766
v -2.9236781884378615e-08 0.6688596606254578 0.01684167981147766
v -0.6688596606254578 -2.0656806043461984e-07 0.01684167981147766
v -0.6560076475143433 -0.1304883062839508 0.01684167981147766
v -0.6179456114768982 -0.2559618055820465 0.01684167981147766
v -0.5561362504959106 -0.37159883975982666 0.01684167981147766
v -0.4729548990726471 -0.47295552492141724 0.01684167981147766
v -0.37159812450408936 -0.5561367273330688 0.01684167981147766
v -0.25596100091934204 -0.6179459691047668 0.01684167981147766
v -0.13048747181892395 -0.6560078263282776 0.01684167981147766
v 6.458503207795729e-07 -0.6688596606254578 0.01684167981147766
v 0.13048873841762543 -0.6560075879096985 0.01684167981147766
v 0.25596219301223755 -0.6179454326629639 0.01684167981147766
v 0.3715991973876953 -0.5561360120773315 0.01684167981147766
v 0.47295576333999634 -0.4729546010494232 0.01684167981147766
v 0.47295427322387695 0.472956120967865 0.01684167981147766
vn -0.0 0.0 1.0
vn -0.03920707851648331 0.19710735976696014 0.9795976281166077
vn -0.0 0.20096883177757263 0.9795976281166077
vn -0.07567296922206879 0.3804338872432709 0.9217069745063782
vn -2.940271883744572e-07 0.38788700103759766 0.9217069745063782
vn -0.14843787252902985 0.3583609163761139 0.9217069745063782
vn -0.0769074410200119 0.18567104637622833 0.9795976281166077
vn -0.0 0.0 1.0
vn -0.21549849212169647 0.3225162625312805 0.9217069745063782
vn -0.11165233701467514 0.16709952056407928 0.9795976281166077
vn -0.0 0.0 1.0
vn -0.27427756786346436 0.27427756786346436 0.9217069745063782
vn -0.14210648834705353 0.14210648834705353 0.9795976281166077
vn -0.0 0.0 1.0
vn -0.3225162625312805 0.21549846231937408 0.9217069745063782
vn -0.16709952056407928 0.11165231466293335 0.9795976281166077
vn -0.0 0.0 1.0
vn -0.3583609163761139 0.14843782782554626 0.9217069745063782
vn -0.18567109107971191 0.0769074335694313 0.9795976281166077
vn -0.0 0.0 1.0
vn -0.3804338872432709 0.07567289471626282 0.9217069745063782
vn -0.19710734486579895 0.039207033812999725 0.9795976281166077
vn -0.0 0.0 1.0
vn -0.38788697123527527 0.0 0.9217069745063782
vn -0.2009688913822174 0.0 0.9795976281166077
vn -0.0 0.0 1.0
vn -0.3804338574409485 -0.0756731927394867 0.9217069745063782
vn -0.19710730016231537 -0.03920717164874077 0.9795976281166077
vn -0.0 0.0 1.0
vn -0.3583608567714691 -0.14843808114528656 0.9217069745063782
vn -0.18567100167274475 -0.07690753787755966 0.9795976281166077
vn -0.0 0.0 1.0
vn -0.32251614332199097 -0.21549861133098602 0.9217069745063782
vn -0.16709944605827332 -0.11165241152048111 0.9795976281166077
vn -0.0 0.0 1.0
vn -0.27427735924720764 -0.2742777466773987 0.9217069745063782
vn -0.14210636913776398 -0.1421065777540207 0.9795976281166077
vn -0.0 0.0 1.0
vn -0.21549823880195618 -0.32251644134521484 0.9217069745063782
vn -0.11165221035480499 -0.16709960997104645 0.9795976281166077
vn -0.0 0.0 1.0
vn -0.14843763411045074 -0.35836103558540344 0.9217069745063782
vn -0.07690732181072235 -0.1856711059808731 0.9795976281166077
vn -0.0 0.0 1.0
vn -0.07567266374826431 -0.38043394684791565 0.9217069745063782
vn -0.03920690342783928 -0.19710735976696014 0.9795976281166077
vn -0.0 0.0 1.0
vn 3.561792709660949e-07 -0.38788697123527527 0.9217069745063782
vn -0.0 -0.2009689062833786 0.9795976281166077
vn -0.0 0.0 1.0
vn 0.07567343860864639 -0.3804337978363037 0.9217069745063782
vn 0.039207302033901215 -0.19710731506347656 0.9795976281166077
vn -0.0 0.0 1.0
vn 0.14843833446502686 -0.35836076736450195 0.9217069745063782
vn 0.076907679438591 -0.18567095696926117 0.9795976281166077
vn -0.0 0.0 1.0
vn 0.2154989093542099 -0.3225160539150238 0.9217069745063782
vn 0.11165256798267365 -0.16709940135478973 0.9795976281166077
vn -0.0 0.0 1.0
vn 0.2742778956890106 -0.2742772102355957 0.9217069745063782
vn 0.14210668206214905 -0.1421063095331192 0.9795976281166077
vn -0.0 0.0 1.0
vn 0.322516530752182 -0.21549807488918304 0.9217069745063782
vn 0.16709966957569122 -0.11165212839841843 0.9795976281166077
vn -0.0 0.0 1.0
vn 0.3583610951900482 -0.14843736588954926 0.9217069745063782
vn 0.18567118048667908 -0.07690716534852982 0.9795976281166077
vn -0.0 0.0 1.0
vn 0.38043397665023804 -0.07567239552736282 0.9217069745063782
vn 0.19710738956928253 -0.03920675441622734 0.9795976281166077
vn -0.0 0.0 1.0
vn 0.38788700103759766 6.239112622097309e-07 0.9217069745063782
vn 0.2009688913822174 3.191883308772958e-07 0.9795976281166077
vn -0.0 0.0 1.0
vn 0.38043370842933655 0.07567368447780609 0.9217069745063782
vn 0.1971072256565094 0.03920743241906166 0.9795976281166077
vn -0.0 0.0 1.0
vn 0.35836052894592285 0.14843852818012238 0.9217069745063782
vn 0.1856708973646164 0.07690777629613876 0.9795976281166077
vn -0.0 0.0 1.0
vn 0.3225158751010895 0.21549907326698303 0.9217069745063782
vn 0.16709932684898376 0.1116526648402214 0.9795976281166077
vn -0.0 0.0 1.0
vn 0.274277001619339 0.27427804470062256 0.9217069745063782
vn 0.14210617542266846 0.14210675656795502 0.9795976281166077
vn -0.0 0.0 1.0
vn 0.21549783647060394 0.32251664996147156 0.9217069745063782
vn 0.11165202409029007 0.1670997589826584 0.9795976281166077
vn -0.0 0.0 1.0
vn 0.14843717217445374 0.35836106538772583 0.9217069745063782
vn 0.07690709084272385 0.18567118048667908 0.9795976281166077
vn -0.0 0.0 1.0
vn 0.07567239552736282 0.3804340064525604 0.9217069745063782
vn 0.03920677676796913 0.19710734486579895 0.9795976281166077
vn -0.0 0.0 1.0
vn -2.940271883744572e-07 0.38788700103759766 0.9217069745063782
vn -0.0 0.20096883177757263 0.9795976281166077
vn -0.0 0.0 1.0
vn 0.3109935224056244 0.46543657779693604 0.8286446332931519
vn 0.3958200216293335 0.39582154154777527 0.8286445140838623
vn 0.21421559154987335 0.5171651840209961 0.8286446332931519
vn 0.10920578986406326 0.5490193963050842 0.8286446332931519
vn -4.0233700815406337e-07 0.5597750544548035 0.8286446332931519
vn 0.39453238248825073 0.590461790561676 0.7040590643882751
vn 0.5021448731422424 0.5021467804908752 0.7040590643882751
vn 0.4654353857040405 0.31099528074264526 0.8286445140838623
vn 0.5171643495559692 0.21421757340431213 0.8286445140838623
vn 0.5490190386772156 0.1092076450586319 0.8286446332931519
vn 0.5597751140594482 8.561635809201107e-07 0.8286445140838623
vn 0.549019455909729 -0.10920585691928864 0.8286445140838623
vn 0.5171651840209961 -0.21421587467193604 0.8286445140838623
vn 0.4654364287853241 -0.31099382042884827 0.8286445140838623
vn 0.3958212435245514 -0.3958202302455902 0.8286445140838623
vn 0.310994952917099 -0.465435653924942 0.8286446332931519
vn 0.21421721577644348 -0.5171646475791931 0.8286445140838623
vn 0.10920733213424683 -0.5490190386772156 0.8286445140838623
vn 5.304622163748718e-07 -0.5597751140594482 0.8286445140838623
vn -0.1092061698436737 -0.5490193367004395 0.8286446332931519
vn -0.2142161726951599 -0.517164945602417 0.8286445140838623
vn -0.31099408864974976 -0.465436190366745 0.8286445140838623
vn -0.3958205282688141 -0.3958210349082947 0.8286445140838623
vn -0.46543586254119873 -0.3109946548938751 0.8286446332931519
vn -0.5171646475791931 -0.21421684324741364 0.8286445140838623
vn -0.5490190982818604 -0.10920697450637817 0.8286445140838623
vn -0.5597751140594482 0.0 0.8286445140838623
vn -0.5490193367004395 0.10920654982328415 0.8286445140838623
vn -0.5171648263931274 0.21421651542186737 0.8286445140838623
vn -0.4654359817504883 0.3109944462776184 0.8286445140838623
vn -0.3958207666873932 0.3958207964897156 0.8286445140838623
vn -0.3109944462776184 0.46543604135513306 0.8286445140838623
vn -0.21421663463115692 0.5171648859977722 0.8286445140838623
vn -0.10920670628547668 0.5490191578865051 0.8286446332931519
vn -4.0233700815406337e-07 0.5597750544548035 0.8286446332931519
vn -0.13854171335697174 0.6964961886405945 0.7040591835975647
vn -4.5226209977045073e-07 0.7101413011550903 0.7040591239929199
vn -0.2717593014240265 0.6560851335525513 0.7040591835975647
vn -0.3945334851741791 0.5904609560966492 0.7040590643882751
vn -0.5021458864212036 0.5021458864212036 0.7040590643882751
vn -0.5904609560966492 0.3945334553718567 0.7040591835975647
vn -0.16257648169994354 0.8173272609710693 0.5527613162994385
vn -5.239117513156089e-07 0.8333395719528198 0.5527613162994385
vn -0.318905234336853 0.7699054479598999 0.5527613759040833
vn -0.4629787504673004 0.6928965449333191 0.5527613759040833
vn -0.5892601013183594 0.5892601013183594 0.5527613162994385
vn -0.6928965449333191 0.4629787504673004 0.5527613759040833
vn -0.7699055075645447 0.3189050555229187 0.5527613759040833
vn -0.6560851335525513 0.27175915241241455 0.7040591835975647
vn -0.696496307849884 0.13854146003723145 0.7040590643882751
vn -0.7101413607597351 0.0 0.7040591239929199
vn -0.6964961886405945 -0.13854201138019562 0.7040591835975647
vn -0.6560850143432617 -0.27175959944725037 0.7040591835975647
vn -0.5904607176780701 -0.3945336937904358 0.7040591835975647
vn -0.5021454095840454 -0.5021461248397827 0.7040591239929199
vn -0.39453303813934326 -0.590461254119873 0.7040591835975647
vn -0.2717587649822235 -0.6560853123664856 0.7040591239929199
vn -0.1385410726070404 -0.6964963674545288 0.7040591835975647
vn 6.969876267248765e-07 -0.7101414203643799 0.7040590643882751
vn 0.13854248821735382 -0.6964960694313049 0.7040590643882751
vn 0.2717600464820862 -0.6560848355293274 0.7040591835975647
vn 0.3945341110229492 -0.5904605388641357 0.7040590643882751
vn 0.5021464228630066 -0.5021451711654663 0.7040591835975647
vn 0.5904615521430969 -0.3945326507091522 0.7040591835975647
vn 0.6560855507850647 -0.2717583477497101 0.7040590643882751
vn 0.6964964270591736 -0.13854065537452698 0.7040591239929199
vn 0.7101414203643799 1.043682004819857e-06 0.7040590643882751
vn 0.6964959502220154 0.13854287564754486 0.7040590643882751
vn 0.6560845971107483 0.2717605233192444 0.7040591835975647
vn 0.5904602408409119 0.3945345878601074 0.7040591239929199
vn 0.7699059247970581 -0.3189040720462799 0.5527613162994385
vn 0.6928971409797668 -0.46297773718833923 0.5527613162994385
vn 0.8173274993896484 -0.16257525980472565 0.5527613759040833
vn 0.8333396911621094 1.2160522828708054e-06 0.5527613162994385
vn 0.8173270225524902 0.16257789731025696 0.5527612566947937
vn 0.7699049115180969 0.31890669465065 0.5527613162994385
vn 0.6928957104682922 0.4629800021648407 0.5527611970901489
vn 0.5892589688301086 0.5892612934112549 0.5527612566947937
vn 0.4629773199558258 0.6928974390029907 0.5527612566947937
vn 0.31890368461608887 0.7699061036109924 0.5527613162994385
vn 0.2717580199241638 0.656085729598999 0.7040590643882751
vn 0.13854055106639862 0.6964964270591736 0.7040591835975647
vn -4.5226209977045073e-07 0.7101413011550903 0.7040591239929199
vn 0.16257517039775848 0.8173274397850037 0.552761435508728
vn -5.239117513156089e-07 0.8333395719528198 0.5527613162994385
vn 0.8147885203361511 0.33749818801879883 0.4713965058326721
vn 0.7332898378372192 0.4899706542491913 0.4713965058326721
vn 0.48996785283088684 0.7332918047904968 0.47139662504196167
vn 0.33749499917030334 0.8147897124290466 0.47139671444892883
vn 0.17205289006233215 0.86497563123703 0.4713967442512512
vn -5.641198299599637e-07 0.8819214105606079 0.47139662504196167
vn 0.8649752736091614 0.17205581068992615 0.47139647603034973
vn 0.8819214105606079 1.2999283853787347e-06 0.4713965058326721
vn 0.8649756908416748 -0.17205297946929932 0.4713965952396393
vn 0.8147896528244019 -0.337495356798172 0.47139662504196167
vn 0.7332913875579834 -0.4899682402610779 0.4713965654373169
vn 0.5892608761787415 -0.5892593860626221 0.5527613162994385
vn 0.4629795253276825 -0.6928959488868713 0.5527612566947937
vn 0.31890612840652466 -0.7699050307273865 0.5527613162994385
vn 0.16257736086845398 -0.817327082157135 0.5527613162994385
vn 8.243200682045426e-07 -0.8333395719528198 0.5527613162994385
vn -0.16257581114768982 -0.8173274397850037 0.5527613759040833
vn -0.3189046084880829 -0.7699057459831238 0.5527613162994385
vn -0.46297818422317505 -0.6928969025611877 0.5527613759040833
vn -0.589259684085846 -0.589260458946228 0.5527612566947937
vn -0.69289630651474 -0.4629790186882019 0.5527613162994385
vn -0.7699053287506104 -0.3189055919647217 0.5527612566947937
vn -0.8173271417617798 -0.162576824426651 0.5527612566947937
vn -0.8333395719528198 0.0 0.5527612566947937
vn -0.8173272609710693 0.16257621347904205 0.5527613759040833
vn -0.8649755120277405 0.17205402255058289 0.47139662504196167
vn -0.8147892355918884 0.3374965190887451 0.4713965952396393
vn -0.7332907915115356 0.4899693727493286 0.47139662504196167
vn -0.6236125826835632 0.6236125826835632 0.4713965952396393
vn -0.4899693727493286 0.7332907915115356 0.47139662504196167
vn -0.33749669790267944 0.8147891759872437 0.4713965058326721
vn -0.17205430567264557 0.8649755120277405 0.47139644622802734
vn -5.641198299599637e-07 0.8819214105606079 0.47139662504196167
vn -0.8819214105606079 -2.5998571118179825e-07 0.4713965654373169
vn -0.8649754524230957 -0.1720547080039978 0.47139641642570496
vn -0.8147889971733093 -0.3374970853328705 0.4713965058326721
vn -0.7332905530929565 -0.4899695813655853 0.4713965058326721
vn -0.623612105846405 -0.6236129403114319 0.4713965952396393
vn -0.4899686276912689 -0.7332912087440491 0.4713965356349945
vn -0.3374960124492645 -0.8147894144058228 0.4713965058326721
vn -0.17205357551574707 -0.86497563123703 0.4713965356349945
vn 8.633487027509545e-07 -0.8819214105606079 0.47139662504196167
vn 0.1720552146434784 -0.8649752736091614 0.47139668464660645
vn 0.33749768137931824 -0.8147885799407959 0.47139665484428406
vn 0.4899701774120331 -0.7332901954650879 0.4713965952396393
vn 0.6236132979393005 -0.6236117482185364 0.4713965952396393
vn 0.623611330986023 0.6236137747764587 0.47139662504196167
vt 0.0 0.0
vt 0.03125 0.1629190444946289
vt 0.0 0.1629190444946289
vt 0.03125 0.3258380889892578
vt 0.0 0.3258380889892578
vt 0.0625 0.3258380889892578
vt 0.0625 0.1629190444946289
vt 0.03125 0.0
vt 0.09375 0.3258380889892578
vt 0.09375 0.1629190444946289
vt 0.0625 0.0
vt 0.125 0.3258380889892578
vt 0.125 0.1629190444946289
vt 0.09375 0.0
vt 0.15625 0.3258380889892578
vt 0.15625 0.1629190444946289
vt 0.125 0.0
vt 0.1875 0.3258380889892578
vt 0.1875 0.1629190444946289
vt 0.15625 0.0
vt 0.2187499850988388 0.3258380889892578
vt 0.2187499850988388 0.1629190444946289
vt 0.1875 0.0
vt 0.2499999850988388 0.3258380889892578
vt 0.2499999850988388 0.1629190444946289
vt 0.2187499850988388 0.0
vt 0.2812499701976776 0.3258380889892578
vt 0.2812499701976776 0.1629190444946289
vt 0.2499999850988388 0.0
vt 0.3124999701976776 0.3258380889892578
vt 0.3124999701976776 0.1629190444946289
vt 0.2812499701976776 0.0
vt 0.3437499701976776 0.3258380889892578
vt 0.3437499701976776 0.1629190444946289
vt 0.3124999701976776 0.0
vt 0.375 0.3258380889892578
vt 0.375 0.1629190444946289
vt 0.3437499701976776 0.0
vt 0.40625 0.3258380889892578
vt 0.40625 0.1629190444946289
vt 0.375 0.0
vt 0.4375 0.3258380889892578
vt 0.4375 0.1629190444946289
vt 0.40625 0.0
vt 0.4687500298023224 0.3258380889892578
vt 0.4687500298023224 0.1629190444946289
vt 0.4375 0.0
vt 0.5000000596046448 0.3258380889892578
vt 0.5000000596046448 0.1629190444946289
vt 0.4687500298023224 0.0
vt 0.5312500596046448 0.3258380889892578
vt 0.5312500596046448 0.1629190444946289
vt 0.5000000596046448 0.0
vt 0.5625000596046448 0.3258380889892578
vt 0.5625000596046448 0.1629190444946289
vt 0.5312500596046448 0.0
vt 0.5937500596046448 0.3258380889892578
vt 0.5937500596046448 0.1629190444946289
vt 0.5625000596046448 0.0
vt 0.6250000596046448 0.3258380889892578
vt 0.6250000596046448 0.1629190444946289
vt 0.5937500596046448 0.0
vt 0.6562500596046448 0.3258380889892578
vt 0.6562500596046448 0.1629190444946289
vt 0.6250000596046448 0.0
vt 0.6875001192092896 0.3258380889892578
vt 0.6875001192092896 0.1629190444946289
vt 0.6562500596046448 0.0
vt 0.7187501192092896 0.3258380889892578
vt 0.7187501192092896 0.1629190444946289
vt 0.6875001192092896 0.0
vt 0.7500001192092896 0.3258380889892578
vt 0.7500001192092896 0.1629190444946289
vt 0.7187501192092896 0.0
vt 0.7812501192092896 0.3258380889892578
vt 0.7812501192092896 0.1629190444946289
vt 0.7500001192092896 0.0
vt 0.8125001192092896 0.3258380889892578
vt 0.8125001192092896 0.1629190444946289
vt 0.7812501192092896 0.0
vt 0.8437501788139343 0.3258380889892578
vt 0.8437501788139343 0.1629190444946289
vt 0.8125001192092896 0.0
vt 0.8750001788139343 0.3258380889892578
vt 0.8750001788139343 0.1629190444946289
vt 0.8437501788139343 0.0
vt 0.9062501788139343 0.3258380889892578
vt 0.9062501788139343 0.1629190444946289
vt 0.8750001788139343 0.0
vt 0.9375001788139343 0.3258380889892578
vt 0.9375001788139343 0.1629190444946289
vt 0.9062501788139343 0.0
vt 0.9687501788139343 0.3258380889892578
vt 0.9687501788139343 0.1629190444946289
vt 0.9375001788139343 0.0
vt 1.000000238418579 0.3258380889892578
vt 1.000000238418579 0.1629190444946289
vt 0.9687501788139343 0.0
vt 0.9062501788139343 0.4887571334838867
vt 0.8750001788139343 0.4887571334838867
vt 0.9375001788139343 0.4887571334838867
vt 0.9687501788139343 0.4887571334838867
vt 1.000000238418579 0.4887571334838867
vt 0.9062501788139343 0.6516760587692261
vt 0.8750001788139343 0.6516760587692261
vt 0.8437501788139343 0.4887571334838867
vt 0.8125001192092896 0.4887571334838867
vt 0.7812501192092896 0.4887571334838867
vt 0.7500001192092896 0.4887571334838867
vt 0.7187501192092896 0.4887571334838867
vt 0.6875001192092896 0.4887571334838867
vt 0.6562500596046448 0.4887571334838867
vt 0.6250000596046448 0.4887571334838867
vt 0.5937500596046448 0.4887571334838867
vt 0.5625000596046448 0.4887571334838867
vt 0.5312500596046448 0.4887571334838867
vt 0.5000000596046448 0.4887571334838867
vt 0.4687500298023224 0.4887571334838867
vt 0.4375 0.4887571334838867
vt 0.40625 0.4887571334838867
vt 0.375 0.4887571334838867
vt 0.3437499701976776 0.4887571334838867
vt 0.3124999701976776 0.4887571334838867
vt 0.2812499701976776 0.4887571334838867
vt 0.2499999850988388 0.4887571334838867
vt 0.2187499850988388 0.4887571334838867
vt 0.1875 0.4887571334838867
vt 0.15625 0.4887571334838867
vt 0.125 0.4887571334838867
vt 0.09375 0.4887571334838867
vt 0.0625 0.4887571334838867
vt 0.03125 0.4887571334838867
vt 0.0 0.4887571334838867
vt 0.03125 0.6516760587692261
vt 0.0 0.6516760587692261
vt 0.0625 0.6516760587692261
vt 0.09375 0.6516760587692261
vt 0.125 0.6516760587692261
vt 0.15625 0.6516760587692261
vt 0.03125 0.814595103263855
vt 0.0 0.814595103263855
vt 0.0625 0.814595103263855
vt 0.09375 0.814595103263855
vt 0.125 0.814595103263855
vt 0.15625 0.814595103263855
vt 0.1875 0.814595103263855
vt 0.1875 0.6516760587692261
vt 0.2187499850988388 0.6516760587692261
vt 0.2499999850988388 0.6516760587692261
vt 0.2812499701976776 0.6516760587692261
vt 0.3124999701976776 0.6516760587692261
vt 0.3437499701976776 0.6516760587692261
vt 0.375 0.6516760587692261
vt 0.40625 0.6516760587692261
vt 0.4375 0.6516760587692261
vt 0.4687500298023224 0.6516760587692261
vt 0.5000000596046448 0.6516760587692261
vt 0.5312500596046448 0.6516760587692261
vt 0.5625000596046448 0.6516760587692261
vt 0.5937500596046448 0.6516760587692261
vt 0.6250000596046448 0.6516760587692261
vt 0.6562500596046448 0.6516760587692261
vt 0.6875001192092896 0.6516760587692261
vt 0.7187501192092896 0.6516760587692261
vt 0.7500001192092896 0.6516760587692261
vt 0.7812501192092896 0.6516760587692261
vt 0.8125001192092896 0.6516760587692261
vt 0.8437501788139343 0.6516760587692261
vt 0.6875001192092896 0.814595103263855
vt 0.6562500596046448 0.814595103263855
vt 0.7187501192092896 0.814595103263855
vt 0.7500001192092896 0.814595103263855
vt 0.7812501192092896 0.814595103263855
vt 0.8125001192092896 0.814595103263855
vt 0.8437501788139343 0.814595103263855
vt 0.8750001788139343 0.814595103263855
vt 0.9062501788139343 0.814595103263855
vt 0.9375001788139343 0.814595103263855
vt 0.9375001788139343 0.6516760587692261
vt 0.9687501788139343 0.6516760587692261
vt 1.000000238418579 0.6516760587692261
vt 0.9687501788139343 0.814595103263855
vt 1.000000238418579 0.814595103263855
vt 0.8125001192092896 0.9775140285491943
vt 0.8437501788139343 0.9775140285491943
vt 0.9062501788139343 0.9775140285491943
vt 0.9375001788139343 0.9775140285491943
vt 0.9687501788139343 0.9775140285491943
vt 1.000000238418579 0.9775140285491943
vt 0.7812501192092896 0.9775140285491943
vt 0.7500001192092896 0.9775140285491943
vt 0.7187501192092896 0.9775140285491943
vt 0.6875001192092896 0.9775140285491943
vt 0.6562500596046448 0.9775140285491943
vt 0.6250000596046448 0.814595103263855
vt 0.5937500596046448 0.814595103263855
vt 0.5625000596046448 0.814595103263855
vt 0.5312500596046448 0.814595103263855
vt 0.5000000596046448 0.814595103263855
vt 0.4687500298023224 0.814595103263855
vt 0.4375 0.814595103263855
vt 0.40625 0.814595103263855
vt 0.375 0.814595103263855
vt 0.3437499701976776 0.814595103263855
vt 0.3124999701976776 0.814595103263855
vt 0.2812499701976776 0.814595103263855
vt 0.2499999850988388 0.814595103263855
vt 0.2187499850988388 0.814595103263855
vt 0.2187499850988388 0.9775140285491943
vt 0.1875 0.9775140285491943
vt 0.15625 0.9775140285491943
vt 0.125 0.9775140285491943
vt 0.09375 0.9775140285491943
vt 0.0625 0.9775140285491943
vt 0.03125 0.9775140285491943
vt 0.0 0.9775140285491943
vt 0.2499999850988388 0.9775140285491943
vt 0.2812499701976776 0.9775140285491943
vt 0.3124999701976776 0.9775140285491943
vt 0.3437499701976776 0.9775140285491943
vt 0.375 0.9775140285491943
vt 0.40625 0.9775140285491943
vt 0.4375 0.9775140285491943
vt 0.4687500298023224 0.9775140285491943
vt 0.5000000596046448 0.9775140285491943
vt 0.5312500596046448 0.9775140285491943
vt 0.5625000596046448 0.9775140285491943
vt 0.5937500596046448 0.9775140285491943
vt 0.6250000596046448 0.9775140285491943
vt 0.8750001788139343 0.9775140285491943

g Sphere001
s 1
usemtl Sphere001
f 3/3/3 2/2/2 1/1/1 
f 4/4/4 2/2/2 3/3/3 
f 5/5/5 4/4/4 3/3/3 
f 4/4/4 6/6/6 2/2/2 
f 6/6/6 7/7/7 2/2/2 
f 2/2/2 7/7/7 8/8/8 
f 6/6/6 9/9/9 7/7/7 
f 9/9/9 10/10/10 7/7/7 
f 7/7/7 10/10/10 11/11/11 
f 9/9/9 12/12/12 10/10/10 
f 12/12/12 13/13/13 10/10/10 
f 10/10/10 13/13/13 14/14/14 
f 12/12/12 15/15/15 13/13/13 
f 15/15/15 16/16/16 13/13/13 
f 13/13/13 16/16/16 17/17/17 
f 15/15/15 18/18/18 16/16/16 
f 18/18/18 19/19/19 16/16/16 
f 16/16/16 19/19/19 20/20/20 
f 18/18/18 21/21/21 19/19/19 
f 21/21/21 22/22/22 19/19/19 
f 19/19/19 22/22/22 23/23/23 
f 21/21/21 24/24/24 22/22/22 
f 24/24/24 25/25/25 22/22/22 
f 22/22/22 25/25/25 26/26/26 
f 24/24/24 27/27/27 25/25/25 
f 27/27/27 28/28/28 25/25/25 
f 25/25/25 28/28/28 29/29/29 
f 27/27/27 30/30/30 28/28/28 
f 30/30/30 31/31/31 28/28/28 
f 28/28/28 31/31/31 32/32/32 
f 30/30/30 33/33/33 31/31/31 
f 33/33/33 34/34/34 31/31/31 
f 31/31/31 34/34/34 35/35/35 
f 33/33/33 36/36/36 34/34/34 
f 36/36/36 37/37/37 34/34/34 
f 34/34/34 37/37/37 38/38/38 
f 36/36/36 39/39/39 37/37/37 
f 39/39/39 40/40/40 37/37/37 
f 37/37/37 40/40/40 41/41/41 
f 39/39/39 42/42/42 40/40/40 
f 42/42/42 43/43/43 40/40/40 
f 40/40/40 43/43/43 44/44/44 
f 42/42/42 45/45/45 43/43/43 
f 45/45/45 46/46/46 43/43/43 
f 43/43/43 46/46/46 47/47/47 
f 45/45/45 48/48/48 46/46/46 
f 48/48/48 49/49/49 46/46/46 
f 46/46/46 49/49/49 50/50/50 
f 48/48/48 51/51/51 49/49/49 
f 51/51/51 52/52/52 49/49/49 
f 49/49/49 52/52/52 53/53/53 
f 51/51/51 54/54/54 52/52/52 
f 54/54/54 55/55/55 52/52/52 
f 52/52/52 55/55/55 56/56/56 
f 54/54/54 57/57/57 55/55/55 
f 57/57/57 58/58/58 55/55/55 
f 55/55/55 58/58/58 59/59/59 
f 57/57/57 60/60/60 58/58/58 
f 60/60/60 61/61/61 58/58/58 
f 58/58/58 61/61/61 62/62/62 
f 60/60/60 63/63/63 61/61/61 
f 63/63/63 64/64/64 61/61/61 
f 61/61/61 64/64/64 65/65/65 
f 63/63/63 66/66/66 64/64/64 
f 66/66/66 67/67/67 64/64/64 
f 64/64/64 67/67/67 68/68/68 
f 66/66/66 69/69/69 67/67/67 
f 69/69/69 70/70/70 67/67/67 
f 67/67/67 70/70/70 71/71/71 
f 69/69/69 72/72/72 70/70/70 
f 72/72/72 73/73/73 70/70/70 
f 70/70/70 73/73/73 74/74/74 
f 72/72/72 75/75/75 73/73/73 
f 75/75/75 76/76/76 73/73/73 
f 73/73/73 76/76/76 77/77/77 
f 75/75/75 78/78/78 76/76/76 
f 78/78/78 79/79/79 76/76/76 
f 76/76/76 79/79/79 80/80/80 
f 78/78/78 81/81/81 79/79/79 
f 81/81/81 82/82/82 79/79/79 
f 79/79/79 82/82/82 83/83/83 
f 81/81/81 84/84/84 82/82/82 
f 84/84/84 85/85/85 82/82/82 
f 82/82/82 85/85/85 86/86/86 
f 84/84/84 87/87/87 85/85/85 
f 87/87/87 88/88/88 85/85/85 
f 85/85/85 88/88/88 89/89/89 
f 87/87/87 90/90/90 88/88/88 
f 90/90/90 91/91/91 88/88/88 
f 88/88/88 91/91/91 92/92/92 
f 90/90/90 93/93/93 91/91/91 
f 93/93/93 94/94/94 91/91/91 
f 91/91/91 94/94/94 95/95/95 
f 93/93/93 96/96/96 94/94/94 
f 96/96/96 97/97/97 94/94/94 
f 94/94/94 97/97/97 98/98/98 
f 99/99/99 87/87/87 84/84/84 
f 100/100/100 99/99/99 84/84/84 
f 101/101/101 90/90/90 87/87/87 
f 99/99/99 101/101/101 87/87/87 
f 102/102/102 93/93/93 90/90/90 
f 101/101/101 102/102/102 90/90/90 
f 103/103/103 96/96/96 93/93/93 
f 102/102/102 103/103/103 93/93/93 
f 104/104/104 99/99/99 100/100/100 
f 105/105/105 104/104/104 100/100/100 
f 105/105/105 100/100/100 106/106/106 
f 106/106/106 100/100/100 81/81/81 
f 106/106/106 81/81/81 78/78/78 
f 107/107/107 106/106/106 78/78/78 
f 107/107/107 78/78/78 75/75/75 
f 108/108/108 107/107/107 75/75/75 
f 108/108/108 75/75/75 72/72/72 
f 109/109/109 108/108/108 72/72/72 
f 109/109/109 72/72/72 69/69/69 
f 110/110/110 109/109/109 69/69/69 
f 110/110/110 69/69/69 66/66/66 
f 111/111/111 110/110/110 66/66/66 
f 111/111/111 66/66/66 63/63/63 
f 112/112/112 111/111/111 63/63/63 
f 112/112/112 63/63/63 60/60/60 
f 113/113/113 112/112/112 60/60/60 
f 113/113/113 60/60/60 57/57/57 
f 114/114/114 113/113/113 57/57/57 
f 114/114/114 57/57/57 54/54/54 
f 115/115/115 114/114/114 54/54/54 
f 115/115/115 54/54/54 51/51/51 
f 116/116/116 115/115/115 51/51/51 
f 116/116/116 51/51/51 48/48/48 
f 117/117/117 116/116/116 48/48/48 
f 117/117/117 48/48/48 45/45/45 
f 118/118/118 117/117/117 45/45/45 
f 118/118/118 45/45/45 42/42/42 
f 119/119/119 118/118/118 42/42/42 
f 119/119/119 42/42/42 39/39/39 
f 120/120/120 119/119/119 39/39/39 
f 120/120/120 39/39/39 36/36/36 
f 121/121/121 120/120/120 36/36/36 
f 121/121/121 36/36/36 33/33/33 
f 122/122/122 121/121/121 33/33/33 
f 122/122/122 33/33/33 30/30/30 
f 123/123/123 122/122/122 30/30/30 
f 123/123/123 30/30/30 27/27/27 
f 124/124/124 123/123/123 27/27/27 
f 124/124/124 27/27/27 24/24/24 
f 125/125/125 124/124/124 24/24/24 
f 125/125/125 24/24/24 21/21/21 
f 126/126/126 125/125/125 21/21/21 
f 126/126/126 21/21/21 18/18/18 
f 127/127/127 126/126/126 18/18/18 
f 127/127/127 18/18/18 15/15/15 
f 128/128/128 127/127/127 15/15/15 
f 128/128/128 15/15/15 12/12/12 
f 129/129/129 128/128/128 12/12/12 
f 129/129/129 12/12/12 9/9/9 
f 130/130/130 129/129/129 9/9/9 
f 130/130/130 9/9/9 6/6/6 
f 131/131/131 130/130/130 6/6/6 
f 131/131/131 6/6/6 4/4/4 
f 132/132/132 131/131/131 4/4/4 
f 132/132/132 4/4/4 5/5/5 
f 133/133/133 132/132/132 5/5/5 
f 134/134/134 132/132/132 133/133/133 
f 135/135/135 134/134/134 133/133/133 
f 136/136/136 131/131/131 132/132/132 
f 134/134/134 136/136/136 132/132/132 
f 137/137/137 130/130/130 131/131/131 
f 136/136/136 137/137/137 131/131/131 
f 138/138/138 129/129/129 130/130/130 
f 137/137/137 138/138/138 130/130/130 
f 139/139/139 128/128/128 129/129/129 
f 138/138/138 139/139/139 129/129/129 
f 140/140/140 134/134/134 135/135/135 
f 141/141/141 140/140/140 135/135/135 
f 142/142/142 136/136/136 134/134/134 
f 140/140/140 142/142/142 134/134/134 
f 143/143/143 137/137/137 136/136/136 
f 142/142/142 143/143/143 136/136/136 
f 144/144/144 138/138/138 137/137/137 
f 143/143/143 144/144/144 137/137/137 
f 145/145/145 139/139/139 138/138/138 
f 144/144/144 145/145/145 138/138/138 
f 145/145/145 146/146/146 139/139/139 
f 146/146/146 147/147/147 139/139/139 
f 139/139/139 147/147/147 128/128/128 
f 147/147/147 127/127/127 128/128/128 
f 147/147/147 148/148/148 127/127/127 
f 148/148/148 126/126/126 127/127/127 
f 148/148/148 149/149/149 126/126/126 
f 149/149/149 125/125/125 126/126/126 
f 149/149/149 150/150/150 125/125/125 
f 150/150/150 124/124/124 125/125/125 
f 150/150/150 151/151/151 124/124/124 
f 151/151/151 123/123/123 124/124/124 
f 151/151/151 152/152/152 123/123/123 
f 152/152/152 122/122/122 123/123/123 
f 152/152/152 153/153/153 122/122/122 
f 153/153/153 121/121/121 122/122/122 
f 153/153/153 154/154/154 121/121/121 
f 154/154/154 120/120/120 121/121/121 
f 154/154/154 155/155/155 120/120/120 
f 155/155/155 119/119/119 120/120/120 
f 155/155/155 156/156/156 119/119/119 
f 156/156/156 118/118/118 119/119/119 
f 156/156/156 157/157/157 118/118/118 
f 157/157/157 117/117/117 118/118/118 
f 157/157/157 158/158/158 117/117/117 
f 158/158/158 116/116/116 117/117/117 
f 158/158/158 159/159/159 116/116/116 
f 159/159/159 115/115/115 116/116/116 
f 159/159/159 160/160/160 115/115/115 
f 160/160/160 114/114/114 115/115/115 
f 160/160/160 161/161/161 114/114/114 
f 161/161/161 113/113/113 114/114/114 
f 161/161/161 162/162/162 113/113/113 
f 162/162/162 112/112/112 113/113/113 
f 162/162/162 163/163/163 112/112/112 
f 163/163/163 111/111/111 112/112/112 
f 163/163/163 164/164/164 111/111/111 
f 164/164/164 110/110/110 111/111/111 
f 164/164/164 165/165/165 110/110/110 
f 165/165/165 109/109/109 110/110/110 
f 165/165/165 166/166/166 109/109/109 
f 166/166/166 108/108/108 109/109/109 
f 166/166/166 167/167/167 108/108/108 
f 167/167/167 107/107/107 108/108/108 
f 167/167/167 168/168/168 107/107/107 
f 168/168/168 106/106/106 107/107/107 
f 168/168/168 105/105/105 106/106/106 
f 169/169/169 163/163/163 162/162/162 
f 170/170/170 169/169/169 162/162/162 
f 171/171/171 164/164/164 163/163/163 
f 169/169/169 171/171/171 163/163/163 
f 172/172/172 165/165/165 164/164/164 
f 171/171/171 172/172/172 164/164/164 
f 173/173/173 166/166/166 165/165/165 
f 172/172/172 173/173/173 165/165/165 
f 174/174/174 167/167/167 166/166/166 
f 173/173/173 174/174/174 166/166/166 
f 175/175/175 168/168/168 167/167/167 
f 174/174/174 175/175/175 167/167/167 
f 176/176/176 105/105/105 168/168/168 
f 175/175/175 176/176/176 168/168/168 
f 176/176/176 177/177/177 105/105/105 
f 177/177/177 104/104/104 105/105/105 
f 177/177/177 178/178/178 104/104/104 
f 178/178/178 179/179/179 104/104/104 
f 104/104/104 179/179/179 99/99/99 
f 179/179/179 101/101/101 99/99/99 
f 179/179/179 180/180/180 101/101/101 
f 180/180/180 102/102/102 101/101/101 
f 180/180/180 181/181/181 102/102/102 
f 181/181/181 103/103/103 102/102/102 
f 182/182/182 180/180/180 179/179/179 
f 178/178/178 182/182/182 179/179/179 
f 183/183/183 181/181/181 180/180/180 
f 182/182/182 183/183/183 180/180/180 
f 184/184/184 174/174/174 173/173/173 
f 185/185/185 175/175/175 174/174/174 
f 184/184/184 185/185/185 174/174/174 
f 186/186/186 177/177/177 176/176/176 
f 187/187/187 178/178/178 177/177/177 
f 186/186/186 187/187/187 177/177/177 
f 188/188/188 182/182/182 178/178/178 
f 187/187/187 188/188/188 178/178/178 
f 189/189/189 183/183/183 182/182/182 
f 188/188/188 189/189/189 182/182/182 
f 190/190/190 184/184/184 173/173/173 
f 190/190/190 173/173/173 172/172/172 
f 191/191/191 190/190/190 172/172/172 
f 191/191/191 172/172/172 171/171/171 
f 192/192/192 191/191/191 171/171/171 
f 192/192/192 171/171/171 169/169/169 
f 193/193/193 192/192/192 169/169/169 
f 193/193/193 169/169/169 170/170/170 
f 194/194/194 193/193/193 170/170/170 
f 194/194/194 170/170/170 195/195/195 
f 195/195/195 170/170/170 161/161/161 
f 195/195/195 161/161/161 160/160/160 
f 196/196/196 195/195/195 160/160/160 
f 196/196/196 160/160/160 159/159/159 
f 197/197/197 196/196/196 159/159/159 
f 197/197/197 159/159/159 158/158/158 
f 198/198/198 197/197/197 158/158/158 
f 198/198/198 158/158/158 157/157/157 
f 199/199/199 198/198/198 157/157/157 
f 199/199/199 157/157/157 156/156/156 
f 200/200/200 199/199/199 156/156/156 
f 200/200/200 156/156/156 155/155/155 
f 201/201/201 200/200/200 155/155/155 
f 201/201/201 155/155/155 154/154/154 
f 202/202/202 201/201/201 154/154/154 
f 202/202/202 154/154/154 153/153/153 
f 203/203/203 202/202/202 153/153/153 
f 203/203/203 153/153/153 152/152/152 
f 204/204/204 203/203/203 152/152/152 
f 204/204/204 152/152/152 151/151/151 
f 205/205/205 204/204/204 151/151/151 
f 205/205/205 151/151/151 150/150/150 
f 206/206/206 205/205/205 150/150/150 
f 206/206/206 150/150/150 149/149/149 
f 207/207/207 206/206/206 149/149/149 
f 207/207/207 149/149/149 148/148/148 
f 208/208/208 207/207/207 148/148/148 
f 208/208/208 148/148/148 147/147/147 
f 146/146/146 208/208/208 147/147/147 
f 209/209/209 208/208/208 146/146/146 
f 210/210/210 209/209/209 146/146/146 
f 210/210/210 146/146/146 145/145/145 
f 211/211/211 210/210/210 145/145/145 
f 211/211/211 145/145/145 144/144/144 
f 212/212/212 211/211/211 144/144/144 
f 212/212/212 144/144/144 143/143/143 
f 213/213/213 212/212/212 143/143/143 
f 213/213/213 143/143/143 142/142/142 
f 214/214/214 213/213/213 142/142/142 
f 214/214/214 142/142/142 140/140/140 
f 215/215/215 214/214/214 140/140/140 
f 215/215/215 140/140/140 141/141/141 
f 216/216/216 215/215/215 141/141/141 
f 209/209/209 217/217/217 208/208/208 
f 217/217/217 207/207/207 208/208/208 
f 217/217/217 218/218/218 207/207/207 
f 218/218/218 206/206/206 207/207/207 
f 218/218/218 219/219/219 206/206/206 
f 219/219/219 205/205/205 206/206/206 
f 219/219/219 220/220/220 205/205/205 
f 220/220/220 204/204/204 205/205/205 
f 220/220/220 221/221/221 204/204/204 
f 221/221/221 203/203/203 204/204/204 
f 221/221/221 222/222/222 203/203/203 
f 222/222/222 202/202/202 203/203/203 
f 222/222/222 223/223/223 202/202/202 
f 223/223/223 201/201/201 202/202/202 
f 223/223/223 224/224/224 201/201/201 
f 224/224/224 200/200/200 201/201/201 
f 224/224/224 225/225/225 200/200/200 
f 225/225/225 199/199/199 200/200/200 
f 225/225/225 226/226/226 199/199/199 
f 226/226/226 198/198/198 199/199/199 
f 226/226/226 227/227/227 198/198/198 
f 227/227/227 197/197/197 198/198/198 
f 227/227/227 228/228/228 197/197/197 
f 228/228/228 196/196/196 197/197/197 
f 228/228/228 229/229/229 196/196/196 
f 229/229/229 195/195/195 196/196/196 
f 229/229/229 194/194/194 195/195/195 
f 100/100/100 84/84/84 81/81/81 
f 170/170/170 162/162/162 161/161/161 
f 230/230/230 176/176/176 175/175/175 
f 185/185/185 230/230/230 175/175/175 
f 230/230/230 186/186/186 176/176/176 

