[
	{
		"ID": 1,
		"Name": "30",
		"UIName": "等级<size=56>30</size>",
		"Resources": "UI/Guild_ABS/1/Miniatures_01.png",
		"TeamName": "简单30级",
		"LevelList": [
			1,
			2,
			3,
			4,
			5,
			6,
			7,
			8,
			9,
			10,
			11,
			12,
			13,
			14,
			15,
			19,
			20,
			21
		],
		"EnemyLevel": 30,
		"EnemyCount": 375,
		"EnemyPoints": 12,
		"PerfectWinPointsBonus": 60,
		"Bonus": [
			{
				"GoodsType": "GoodsType_Gold",
				"Id": 0,
				"Count": 10000
			}
		],
		"UpHeroTagIDS": [
			1,
			2,
			3,
			4,
			5,
			6,
			7,
			8,
			9,
			11
		],
		"UpSkillID": 75000
	},
	{
		"ID": 2,
		"Name": "32",
		"UIName": "等级<size=56>32</size>",
		"Resources": "UI/Guild_ABS/1/Miniatures_02.png",
		"TeamName": "简单32级",
		"LevelList": [
			22,
			23,
			24,
			28,
			29,
			30,
			31,
			32,
			33,
			34,
			35,
			36,
			37,
			38,
			39,
			40,
			41,
			42
		],
		"EnemyLevel": 32,
		"EnemyCount": 375,
		"EnemyPoints": 15,
		"PerfectWinPointsBonus": 75,
		"Bonus": [
			{
				"GoodsType": "GoodsType_Crystal",
				"Id": 0,
				"Count": 10
			}
		],
		"UpHeroTagIDS": [
			1,
			2,
			3,
			4,
			5,
			6,
			7,
			8,
			9,
			11
		],
		"UpSkillID": 75000
	},
	{
		"ID": 3,
		"Name": "35",
		"UIName": "等级<size=56>35</size>",
		"Resources": "UI/Guild_ABS/1/Miniatures_03.png",
		"TeamName": "简单35级",
		"LevelList": [
			43,
			44,
			45,
			46,
			47,
			48,
			49,
			50,
			51,
			52,
			53,
			54,
			55,
			56,
			57,
			58,
			59,
			60
		],
		"EnemyLevel": 35,
		"EnemyCount": 375,
		"EnemyPoints": 18,
		"PerfectWinPointsBonus": 90,
		"Bonus": [
			{
				"GoodsType": "GoodsType_Crystal",
				"Id": 0,
				"Count": 15
			}
		],
		"UpHeroTagIDS": [
			1,
			2,
			3,
			4,
			5,
			6,
			7,
			8,
			9,
			11
		],
		"UpSkillID": 75000
	},
	{
		"ID": 4,
		"Name": "38",
		"UIName": "等级<size=56>38</size>",
		"Resources": "UI/Guild_ABS/1/Miniatures_04.png",
		"TeamName": "简单38级",
		"LevelList": [
			64,
			65,
			66,
			67,
			68,
			69,
			70,
			71,
			72,
			73,
			74,
			75,
			76,
			77,
			78,
			79,
			80,
			81,
			82,
			83,
			84,
			85,
			86,
			87,
			88,
			89,
			90
		],
		"EnemyLevel": 38,
		"EnemyCount": 375,
		"EnemyPoints": 21,
		"PerfectWinPointsBonus": 105,
		"Bonus": [
			{
				"GoodsType": "GoodsType_BrillianceMithralStone",
				"Id": 0,
				"Count": 15
			}
		],
		"UpHeroTagIDS": [
			1,
			2,
			3,
			4,
			5,
			6,
			7,
			8,
			9,
			11
		],
		"UpSkillID": 75000
	},
	{
		"ID": 5,
		"Name": "40",
		"UIName": "等级<size=56>40</size>",
		"Resources": "UI/Guild_ABS/1/Miniatures_05.png",
		"TeamName": "简单40级",
		"LevelList": [
			91,
			92,
			93,
			94,
			95,
			96,
			97,
			98,
			99,
			100,
			101,
			102,
			103,
			104,
			105,
			109,
			110,
			111,
			112,
			113,
			114,
			118,
			119,
			120,
			121,
			122,
			123
		],
		"EnemyLevel": 40,
		"EnemyCount": 375,
		"EnemyPoints": 24,
		"PerfectWinPointsBonus": 120,
		"Bonus": [
			{
				"GoodsType": "GoodsType_BrillianceMithralStone",
				"Id": 0,
				"Count": 25
			}
		],
		"UpHeroTagIDS": [
			1,
			2,
			3,
			4,
			5,
			6,
			7,
			8,
			9,
			11
		],
		"UpSkillID": 75000
	},
	{
		"ID": 11,
		"Name": "35",
		"UIName": "等级<size=56>35</size>",
		"Resources": "UI/Guild_ABS/1/Miniatures_03.png",
		"TeamName": "普通35级",
		"LevelList": [
			1043,
			1044,
			1045,
			1046,
			1047,
			1048,
			1049,
			1050,
			1051,
			1052,
			1053,
			1054,
			1055,
			1056,
			1057,
			1058,
			1059,
			1060
		],
		"EnemyLevel": 35,
		"EnemyCount": 375,
		"EnemyPoints": 12,
		"PerfectWinPointsBonus": 60,
		"Bonus": [
			{
				"GoodsType": "GoodsType_Gold",
				"Id": 0,
				"Count": 15000
			}
		],
		"UpHeroTagIDS": [
			1,
			2,
			3,
			4,
			5,
			6,
			7,
			8,
			9,
			11
		],
		"UpSkillID": 75000
	},
	{
		"ID": 12,
		"Name": "38",
		"UIName": "等级<size=56>38</size>",
		"Resources": "UI/Guild_ABS/1/Miniatures_04.png",
		"TeamName": "普通38级",
		"LevelList": [
			1064,
			1065,
			1066,
			1067,
			1068,
			1069,
			1070,
			1071,
			1072,
			1073,
			1074,
			1075,
			1076,
			1077,
			1078,
			1079,
			1080,
			1081,
			1082,
			1083,
			1084,
			1085,
			1086,
			1087,
			1088,
			1089,
			1090
		],
		"EnemyLevel": 38,
		"EnemyCount": 375,
		"EnemyPoints": 15,
		"PerfectWinPointsBonus": 75,
		"Bonus": [
			{
				"GoodsType": "GoodsType_Crystal",
				"Id": 0,
				"Count": 10
			}
		],
		"UpHeroTagIDS": [
			1,
			2,
			3,
			4,
			5,
			6,
			7,
			8,
			9,
			11
		],
		"UpSkillID": 75000
	},
	{
		"ID": 13,
		"Name": "40",
		"UIName": "等级<size=56>40</size>",
		"Resources": "UI/Guild_ABS/1/Miniatures_05.png",
		"TeamName": "普通40级",
		"LevelList": [
			1091,
			1092,
			1093,
			1094,
			1095,
			1096,
			1097,
			1098,
			1099,
			1100,
			1101,
			1102,
			1103,
			1104,
			1105,
			1109,
			1110,
			1111,
			1112,
			1113,
			1114,
			1118,
			1119,
			1120,
			1121,
			1122,
			1123
		],
		"EnemyLevel": 40,
		"EnemyCount": 375,
		"EnemyPoints": 18,
		"PerfectWinPointsBonus": 90,
		"Bonus": [
			{
				"GoodsType": "GoodsType_Crystal",
				"Id": 0,
				"Count": 20
			}
		],
		"UpHeroTagIDS": [
			1,
			2,
			3,
			4,
			5,
			6,
			7,
			8,
			9,
			11
		],
		"UpSkillID": 75000
	},
	{
		"ID": 14,
		"Name": "42",
		"UIName": "等级<size=56>42</size>",
		"Resources": "UI/Guild_ABS/1/Miniatures_06.png",
		"TeamName": "普通42级",
		"LevelList": [
			124,
			125,
			126,
			127,
			128,
			129,
			130,
			131,
			132,
			133,
			134,
			135,
			136,
			137,
			138,
			139,
			140,
			141,
			142,
			143,
			144,
			145,
			146,
			147,
			148,
			149,
			150
		],
		"EnemyLevel": 42,
		"EnemyCount": 375,
		"EnemyPoints": 21,
		"PerfectWinPointsBonus": 105,
		"Bonus": [
			{
				"GoodsType": "GoodsType_BrillianceMithralStone",
				"Id": 0,
				"Count": 20
			}
		],
		"UpHeroTagIDS": [
			1,
			2,
			3,
			4,
			5,
			6,
			7,
			8,
			9,
			11
		],
		"UpSkillID": 75000
	},
	{
		"ID": 15,
		"Name": "45",
		"UIName": "等级<size=56>45</size>",
		"Resources": "UI/Guild_ABS/1/Miniatures_07.png",
		"TeamName": "普通45级",
		"LevelList": [
			154,
			155,
			156,
			157,
			158,
			159,
			160,
			161,
			162,
			163,
			164,
			165,
			166,
			167,
			168,
			169,
			170,
			171,
			172,
			173,
			174,
			175,
			176,
			177,
			178,
			179,
			180
		],
		"EnemyLevel": 45,
		"EnemyCount": 375,
		"EnemyPoints": 24,
		"PerfectWinPointsBonus": 120,
		"Bonus": [
			{
				"GoodsType": "GoodsType_BrillianceMithralStone",
				"Id": 0,
				"Count": 30
			}
		],
		"UpHeroTagIDS": [
			1,
			2,
			3,
			4,
			5,
			6,
			7,
			8,
			9,
			11
		],
		"UpSkillID": 75000
	},
	{
		"ID": 21,
		"Name": "40",
		"UIName": "等级<size=56>40</size>",
		"Resources": "UI/Guild_ABS/1/Miniatures_05.png",
		"TeamName": "困难40级",
		"LevelList": [
			2091,
			2092,
			2093,
			2094,
			2095,
			2096,
			2097,
			2098,
			2099,
			2100,
			2101,
			2102,
			2103,
			2104,
			2105,
			2109,
			2110,
			2111,
			2112,
			2113,
			2114,
			2118,
			2119,
			2120,
			2121,
			2122,
			2123
		],
		"EnemyLevel": 40,
		"EnemyCount": 375,
		"EnemyPoints": 14,
		"PerfectWinPointsBonus": 70,
		"Bonus": [
			{
				"GoodsType": "GoodsType_Gold",
				"Id": 0,
				"Count": 20000
			}
		],
		"UpHeroTagIDS": [
			1,
			2,
			3,
			4,
			5,
			6,
			7,
			8,
			9,
			11
		],
		"UpSkillID": 75000
	},
	{
		"ID": 22,
		"Name": "42",
		"UIName": "等级<size=56>42</size>",
		"Resources": "UI/Guild_ABS/1/Miniatures_06.png",
		"TeamName": "困难42级",
		"LevelList": [
			2124,
			2125,
			2126,
			2127,
			2128,
			2129,
			2130,
			2131,
			2132,
			2133,
			2134,
			2135,
			2136,
			2137,
			2138,
			2139,
			2140,
			2141,
			2142,
			2143,
			2144,
			2145,
			2146,
			2147,
			2148,
			2149,
			2150
		],
		"EnemyLevel": 42,
		"EnemyCount": 375,
		"EnemyPoints": 18,
		"PerfectWinPointsBonus": 90,
		"Bonus": [
			{
				"GoodsType": "GoodsType_Crystal",
				"Id": 0,
				"Count": 10
			}
		],
		"UpHeroTagIDS": [
			1,
			2,
			3,
			4,
			5,
			6,
			7,
			8,
			9,
			11
		],
		"UpSkillID": 75000
	},
	{
		"ID": 23,
		"Name": "45",
		"UIName": "等级<size=56>45</size>",
		"Resources": "UI/Guild_ABS/1/Miniatures_07.png",
		"TeamName": "困难45级",
		"LevelList": [
			2154,
			2155,
			2156,
			2157,
			2158,
			2159,
			2160,
			2161,
			2162,
			2163,
			2164,
			2165,
			2166,
			2167,
			2168,
			2169,
			2170,
			2171,
			2172,
			2173,
			2174,
			2175,
			2176,
			2177,
			2178,
			2179,
			2180
		],
		"EnemyLevel": 45,
		"EnemyCount": 375,
		"EnemyPoints": 22,
		"PerfectWinPointsBonus": 110,
		"Bonus": [
			{
				"GoodsType": "GoodsType_Crystal",
				"Id": 0,
				"Count": 25
			}
		],
		"UpHeroTagIDS": [
			1,
			2,
			3,
			4,
			5,
			6,
			7,
			8,
			9,
			11
		],
		"UpSkillID": 75000
	},
	{
		"ID": 24,
		"Name": "48",
		"UIName": "等级<size=56>48</size>",
		"Resources": "UI/Guild_ABS/1/Miniatures_08.png",
		"TeamName": "困难48级",
		"LevelList": [
			181,
			182,
			183,
			184,
			185,
			186,
			187,
			188,
			189,
			190,
			191,
			192,
			193,
			194,
			195,
			199,
			200,
			201,
			202,
			203,
			204,
			208,
			209,
			210,
			211,
			212,
			213
		],
		"EnemyLevel": 48,
		"EnemyCount": 375,
		"EnemyPoints": 26,
		"PerfectWinPointsBonus": 130,
		"Bonus": [
			{
				"GoodsType": "GoodsType_BrillianceMithralStone",
				"Id": 0,
				"Count": 25
			}
		],
		"UpHeroTagIDS": [
			1,
			2,
			3,
			4,
			5,
			6,
			7,
			8,
			9,
			11
		],
		"UpSkillID": 75000
	},
	{
		"ID": 25,
		"Name": "50",
		"UIName": "等级<size=56>50</size>",
		"Resources": "UI/Guild_ABS/1/Miniatures_09.png",
		"TeamName": "困难50级",
		"LevelList": [
			214,
			215,
			216,
			217,
			218,
			219,
			220,
			221,
			222,
			223,
			224,
			225,
			226,
			227,
			228,
			229,
			230,
			231,
			232,
			233,
			234,
			235,
			236,
			237,
			238,
			239,
			240
		],
		"EnemyLevel": 50,
		"EnemyCount": 500,
		"EnemyPoints": 30,
		"PerfectWinPointsBonus": 150,
		"Bonus": [
			{
				"GoodsType": "GoodsType_BrillianceMithralStone",
				"Id": 0,
				"Count": 35
			}
		],
		"UpHeroTagIDS": [
			1,
			2,
			3,
			4,
			5,
			6,
			7,
			8,
			9,
			11
		],
		"UpSkillID": 75000
	},
	{
		"ID": 31,
		"Name": "45",
		"UIName": "等级<size=56>45</size>",
		"Resources": "UI/Guild_ABS/1/Miniatures_07.png",
		"TeamName": "极难45级",
		"LevelList": [
			3154,
			3155,
			3156,
			3157,
			3158,
			3159,
			3160,
			3161,
			3162,
			3163,
			3164,
			3165,
			3166,
			3167,
			3168,
			3169,
			3170,
			3171,
			3172,
			3173,
			3174,
			3175,
			3176,
			3177,
			3178,
			3179,
			3180
		],
		"EnemyLevel": 45,
		"EnemyCount": 375,
		"EnemyPoints": 16,
		"PerfectWinPointsBonus": 80,
		"Bonus": [
			{
				"GoodsType": "GoodsType_Gold",
				"Id": 0,
				"Count": 30000
			}
		],
		"UpHeroTagIDS": [
			1,
			2,
			3,
			4,
			5,
			6,
			7,
			8,
			9,
			11
		],
		"UpSkillID": 75000
	},
	{
		"ID": 32,
		"Name": "48",
		"UIName": "等级<size=56>48</size>",
		"Resources": "UI/Guild_ABS/1/Miniatures_08.png",
		"TeamName": "极难48级",
		"LevelList": [
			3181,
			3182,
			3183,
			3184,
			3185,
			3186,
			3187,
			3188,
			3189,
			3190,
			3191,
			3192,
			3193,
			3194,
			3195,
			3199,
			3200,
			3201,
			3202,
			3203,
			3204,
			3208,
			3209,
			3210,
			3211,
			3212,
			3213
		],
		"EnemyLevel": 48,
		"EnemyCount": 375,
		"EnemyPoints": 20,
		"PerfectWinPointsBonus": 100,
		"Bonus": [
			{
				"GoodsType": "GoodsType_Crystal",
				"Id": 0,
				"Count": 15
			}
		],
		"UpHeroTagIDS": [
			1,
			2,
			3,
			4,
			5,
			6,
			7,
			8,
			9,
			11
		],
		"UpSkillID": 75000
	},
	{
		"ID": 33,
		"Name": "50",
		"UIName": "等级<size=56>50</size>",
		"Resources": "UI/Guild_ABS/1/Miniatures_09.png",
		"TeamName": "极难50级",
		"LevelList": [
			3214,
			3215,
			3216,
			3217,
			3218,
			3219,
			3220,
			3221,
			3222,
			3223,
			3224,
			3225,
			3226,
			3227,
			3228,
			3229,
			3230,
			3231,
			3232,
			3233,
			3234,
			3235,
			3236,
			3237,
			3238,
			3239,
			3240
		],
		"EnemyLevel": 50,
		"EnemyCount": 500,
		"EnemyPoints": 24,
		"PerfectWinPointsBonus": 120,
		"Bonus": [
			{
				"GoodsType": "GoodsType_Crystal",
				"Id": 0,
				"Count": 25
			}
		],
		"UpHeroTagIDS": [
			1,
			2,
			3,
			4,
			5,
			6,
			7,
			8,
			9,
			11
		],
		"UpSkillID": 75000
	},
	{
		"ID": 34,
		"Name": "52",
		"UIName": "等级<size=56>52</size>",
		"Resources": "UI/Guild_ABS/1/Miniatures_10.png",
		"TeamName": "极难52级",
		"LevelList": [
			244,
			245,
			246,
			247,
			248,
			249,
			250,
			251,
			252,
			253,
			254,
			255,
			256,
			257,
			258,
			259,
			260,
			261,
			262,
			263,
			264,
			265,
			266,
			267,
			268,
			269,
			270
		],
		"EnemyLevel": 52,
		"EnemyCount": 500,
		"EnemyPoints": 28,
		"PerfectWinPointsBonus": 140,
		"Bonus": [
			{
				"GoodsType": "GoodsType_BrillianceMithralStone",
				"Id": 0,
				"Count": 30
			}
		],
		"UpHeroTagIDS": [
			1,
			2,
			3,
			4,
			5,
			6,
			7,
			8,
			9,
			11
		],
		"UpSkillID": 75000
	},
	{
		"ID": 35,
		"Name": "55",
		"UIName": "等级<size=56>55</size>",
		"Resources": "UI/Guild_ABS/1/Miniatures_11.png",
		"TeamName": "极难55级",
		"LevelList": [
			271,
			272,
			273,
			274,
			275,
			276,
			277,
			278,
			279,
			280,
			281,
			282,
			283,
			284,
			285,
			289,
			290,
			291,
			292,
			293,
			294,
			298,
			299,
			300,
			301,
			302,
			303,
			304,
			305,
			306,
			307,
			308,
			309,
			310,
			311,
			312,
			313,
			314,
			315,
			316,
			317,
			318
		],
		"EnemyLevel": 55,
		"EnemyCount": 500,
		"EnemyPoints": 32,
		"PerfectWinPointsBonus": 160,
		"Bonus": [
			{
				"GoodsType": "GoodsType_BrillianceMithralStone",
				"Id": 0,
				"Count": 40
			}
		],
		"UpHeroTagIDS": [
			1,
			2,
			3,
			4,
			5,
			6,
			7,
			8,
			9,
			11
		],
		"UpSkillID": 75000
	},
	{
		"ID": 41,
		"Name": "50",
		"UIName": "等级<size=56>50</size>",
		"Resources": "UI/Guild_ABS/1/Miniatures_09.png",
		"TeamName": "噩梦50级",
		"LevelList": [
			4214,
			4215,
			4216,
			4217,
			4218,
			4219,
			4220,
			4221,
			4222,
			4223,
			4224,
			4225,
			4226,
			4227,
			4228,
			4229,
			4230,
			4231,
			4232,
			4233,
			4234,
			4235,
			4236,
			4237,
			4238,
			4239,
			4240
		],
		"EnemyLevel": 50,
		"EnemyCount": 500,
		"EnemyPoints": 18,
		"PerfectWinPointsBonus": 90,
		"Bonus": [
			{
				"GoodsType": "GoodsType_Gold",
				"Id": 0,
				"Count": 40000
			}
		],
		"UpHeroTagIDS": [
			1,
			2,
			3,
			4,
			5,
			6,
			7,
			8,
			9,
			11
		],
		"UpSkillID": 75000
	},
	{
		"ID": 42,
		"Name": "52",
		"UIName": "等级<size=56>52</size>",
		"Resources": "UI/Guild_ABS/1/Miniatures_10.png",
		"TeamName": "噩梦52级",
		"LevelList": [
			4244,
			4245,
			4246,
			4247,
			4248,
			4249,
			4250,
			4251,
			4252,
			4253,
			4254,
			4255,
			4256,
			4257,
			4258,
			4259,
			4260,
			4261,
			4262,
			4263,
			4264,
			4265,
			4266,
			4267,
			4268,
			4269,
			4270
		],
		"EnemyLevel": 52,
		"EnemyCount": 500,
		"EnemyPoints": 23,
		"PerfectWinPointsBonus": 115,
		"Bonus": [
			{
				"GoodsType": "GoodsType_Crystal",
				"Id": 0,
				"Count": 15
			}
		],
		"UpHeroTagIDS": [
			1,
			2,
			3,
			4,
			5,
			6,
			7,
			8,
			9,
			11
		],
		"UpSkillID": 75000
	},
	{
		"ID": 43,
		"Name": "55",
		"UIName": "等级<size=56>55</size>",
		"Resources": "UI/Guild_ABS/1/Miniatures_11.png",
		"TeamName": "噩梦55级",
		"LevelList": [
			4271,
			4272,
			4273,
			4274,
			4275,
			4276,
			4277,
			4278,
			4279,
			4280,
			4281,
			4282,
			4283,
			4284,
			4285,
			4289,
			4290,
			4291,
			4292,
			4293,
			4294,
			4298,
			4299,
			4300,
			4301,
			4302,
			4303,
			4304,
			4305,
			4306,
			4307,
			4308,
			4309,
			4310,
			4311,
			4312,
			4313,
			4314,
			4315,
			4316,
			4317,
			4318
		],
		"EnemyLevel": 55,
		"EnemyCount": 500,
		"EnemyPoints": 28,
		"PerfectWinPointsBonus": 140,
		"Bonus": [
			{
				"GoodsType": "GoodsType_Crystal",
				"Id": 0,
				"Count": 30
			}
		],
		"UpHeroTagIDS": [
			1,
			2,
			3,
			4,
			5,
			6,
			7,
			8,
			9,
			11
		],
		"UpSkillID": 75000
	},
	{
		"ID": 44,
		"Name": "58",
		"UIName": "等级<size=56>58</size>",
		"Resources": "UI/Guild_ABS/1/Miniatures_12.png",
		"TeamName": "噩梦58级",
		"LevelList": [
			319,
			320,
			321,
			322,
			323,
			324,
			325,
			326,
			327,
			328,
			329,
			330,
			334,
			335,
			336,
			337,
			338,
			339,
			340,
			341,
			342,
			343,
			344,
			345,
			346,
			347,
			348,
			349,
			350,
			351,
			352,
			353,
			354,
			355,
			356,
			357,
			358,
			359,
			360
		],
		"EnemyLevel": 58,
		"EnemyCount": 500,
		"EnemyPoints": 33,
		"PerfectWinPointsBonus": 165,
		"Bonus": [
			{
				"GoodsType": "GoodsType_BrillianceMithralStone",
				"Id": 0,
				"Count": 35
			}
		],
		"UpHeroTagIDS": [
			1,
			2,
			3,
			4,
			5,
			6,
			7,
			8,
			9,
			11
		],
		"UpSkillID": 75000
	},
	{
		"ID": 45,
		"Name": "60",
		"UIName": "等级<size=56>60</size>",
		"Resources": "UI/Guild_ABS/1/Miniatures_13.png",
		"TeamName": "噩梦60级",
		"LevelList": [
			361,
			362,
			363,
			364,
			365,
			366,
			367,
			368,
			369,
			370,
			371,
			372,
			373,
			374,
			375,
			379,
			380,
			381,
			382,
			383,
			384,
			388,
			389,
			390,
			391,
			392,
			393,
			394,
			395,
			396,
			397,
			398,
			399,
			400,
			401,
			402,
			403,
			404,
			405,
			406,
			407,
			408
		],
		"EnemyLevel": 60,
		"EnemyCount": 500,
		"EnemyPoints": 38,
		"PerfectWinPointsBonus": 190,
		"Bonus": [
			{
				"GoodsType": "GoodsType_BrillianceMithralStone",
				"Id": 0,
				"Count": 50
			}
		],
		"UpHeroTagIDS": [
			1,
			2,
			3,
			4,
			5,
			6,
			7,
			8,
			9,
			11
		],
		"UpSkillID": 75000
	},
	{
		"ID": 51,
		"Name": "55",
		"UIName": "等级<size=56>55</size>",
		"Resources": "UI/Guild_ABS/1/Miniatures_11.png",
		"TeamName": "炼狱55级",
		"LevelList": [
			5271,
			5272,
			5273,
			5274,
			5275,
			5276,
			5277,
			5278,
			5279,
			5280,
			5281,
			5282,
			5283,
			5284,
			5285,
			5289,
			5290,
			5291,
			5292,
			5293,
			5294,
			5298,
			5299,
			5300,
			5301,
			5302,
			5303,
			5304,
			5305,
			5306,
			5307,
			5308,
			5309,
			5310,
			5311,
			5312,
			5313,
			5314,
			5315,
			5316,
			5317,
			5318
		],
		"EnemyLevel": 55,
		"EnemyCount": 500,
		"EnemyPoints": 20,
		"PerfectWinPointsBonus": 100,
		"Bonus": [
			{
				"GoodsType": "GoodsType_Gold",
				"Id": 0,
				"Count": 50000
			}
		],
		"UpHeroTagIDS": [
			1,
			2,
			3,
			4,
			5,
			6,
			7,
			8,
			9,
			11
		],
		"UpSkillID": 75000
	},
	{
		"ID": 52,
		"Name": "58",
		"UIName": "等级<size=56>58</size>",
		"Resources": "UI/Guild_ABS/1/Miniatures_12.png",
		"TeamName": "炼狱58级",
		"LevelList": [
			5319,
			5320,
			5321,
			5322,
			5323,
			5324,
			5325,
			5326,
			5327,
			5328,
			5329,
			5330,
			5334,
			5335,
			5336,
			5337,
			5338,
			5339,
			5340,
			5341,
			5342,
			5343,
			5344,
			5345,
			5346,
			5347,
			5348,
			5349,
			5350,
			5351,
			5352,
			5353,
			5354,
			5355,
			5356,
			5357,
			5358,
			5359,
			5360
		],
		"EnemyLevel": 58,
		"EnemyCount": 500,
		"EnemyPoints": 25,
		"PerfectWinPointsBonus": 125,
		"Bonus": [
			{
				"GoodsType": "GoodsType_Crystal",
				"Id": 0,
				"Count": 20
			}
		],
		"UpHeroTagIDS": [
			1,
			2,
			3,
			4,
			5,
			6,
			7,
			8,
			9,
			11
		],
		"UpSkillID": 75000
	},
	{
		"ID": 53,
		"Name": "60",
		"UIName": "等级<size=56>60</size>",
		"Resources": "UI/Guild_ABS/1/Miniatures_13.png",
		"TeamName": "炼狱60级",
		"LevelList": [
			5361,
			5362,
			5363,
			5364,
			5365,
			5366,
			5367,
			5368,
			5369,
			5370,
			5371,
			5372,
			5373,
			5374,
			5375,
			5379,
			5380,
			5381,
			5382,
			5383,
			5384,
			5388,
			5389,
			5390,
			5391,
			5392,
			5393,
			5394,
			5395,
			5396,
			5397,
			5398,
			5399,
			5400,
			5401,
			5402,
			5403,
			5404,
			5405,
			5406,
			5407,
			5408
		],
		"EnemyLevel": 60,
		"EnemyCount": 500,
		"EnemyPoints": 30,
		"PerfectWinPointsBonus": 150,
		"Bonus": [
			{
				"GoodsType": "GoodsType_Crystal",
				"Id": 0,
				"Count": 30
			}
		],
		"UpHeroTagIDS": [
			1,
			2,
			3,
			4,
			5,
			6,
			7,
			8,
			9,
			11
		],
		"UpSkillID": 75000
	},
	{
		"ID": 54,
		"Name": "62",
		"UIName": "等级<size=56>62</size>",
		"Resources": "UI/Guild_ABS/1/Miniatures_14.png",
		"TeamName": "炼狱62级",
		"LevelList": [
			409,
			410,
			411,
			412,
			413,
			414,
			415,
			416,
			417,
			418,
			419,
			420,
			424,
			425,
			426,
			427,
			428,
			429,
			430,
			431,
			432,
			433,
			434,
			435,
			436,
			437,
			438,
			439,
			440,
			441,
			442,
			443,
			444,
			445,
			446,
			447,
			448,
			449,
			450
		],
		"EnemyLevel": 62,
		"EnemyCount": 500,
		"EnemyPoints": 35,
		"PerfectWinPointsBonus": 175,
		"Bonus": [
			{
				"GoodsType": "GoodsType_BrillianceMithralStone",
				"Id": 0,
				"Count": 40
			}
		],
		"UpHeroTagIDS": [
			1,
			2,
			3,
			4,
			5,
			6,
			7,
			8,
			9,
			11
		],
		"UpSkillID": 75000
	},
	{
		"ID": 55,
		"Name": "65",
		"UIName": "等级<size=56>65</size>",
		"Resources": "UI/Guild_ABS/1/Miniatures_15.png",
		"TeamName": "炼狱65级",
		"LevelList": [
			451,
			452,
			453,
			454,
			455,
			456,
			457,
			458,
			459,
			460,
			461,
			462,
			463,
			464,
			465,
			469,
			470,
			471,
			472,
			473,
			474,
			478,
			479,
			480,
			481,
			482,
			483,
			484,
			485,
			486,
			487,
			488,
			489,
			490,
			491,
			492,
			493,
			494,
			495,
			496,
			497,
			498,
			499,
			500,
			501,
			502,
			503,
			504,
			505,
			506,
			507,
			508,
			509,
			510,
			514,
			515,
			516,
			517,
			518,
			519,
			520,
			521,
			522,
			523,
			524,
			525,
			526,
			527,
			528,
			529,
			530,
			531,
			532,
			533,
			534,
			535,
			536,
			537,
			538,
			539,
			540
		],
		"EnemyLevel": 65,
		"EnemyCount": 500,
		"EnemyPoints": 40,
		"PerfectWinPointsBonus": 200,
		"Bonus": [
			{
				"GoodsType": "GoodsType_BrillianceMithralStone",
				"Id": 0,
				"Count": 60
			}
		],
		"UpHeroTagIDS": [
			1,
			2,
			3,
			4,
			5,
			6,
			7,
			8,
			9,
			11
		],
		"UpSkillID": 75000
	}
]