[
	{
		"ID": 1,
		"Reward": [
			{
				"GoodsType": "GoodsType_Item",
				"Id": 7027,
				"Count": 1
			},
			{
				"GoodsType": "GoodsType_Item",
				"Id": 7028,
				"Count": 2
			},
			{
				"GoodsType": "GoodsType_Item",
				"Id": 7042,
				"Count": 1
			},
			{
				"GoodsType": "GoodsType_Item",
				"Id": 4001,
				"Count": 1
			}
		]
	},
	{
		"ID": 2,
		"Reward": [
			{
				"GoodsType": "GoodsType_EnchantStone",
				"Id": 3,
				"Count": 2
			},
			{
				"GoodsType": "GoodsType_EnchantStone",
				"Id": 6,
				"Count": 2
			},
			{
				"GoodsType": "GoodsType_EnchantStone",
				"Id": 9,
				"Count": 2
			},
			{
				"GoodsType": "GoodsType_EnchantStone",
				"Id": 11,
				"Count": 2
			}
		]
	},
	{
		"ID": 3,
		"Reward": [
			{
				"GoodsType": "GoodsType_EnchantStone",
				"Id": 3,
				"Count": 2
			},
			{
				"GoodsType": "GoodsType_EnchantStone",
				"Id": 6,
				"Count": 2
			},
			{
				"GoodsType": "GoodsType_EnchantStone",
				"Id": 9,
				"Count": 2
			},
			{
				"GoodsType": "GoodsType_EnchantStone",
				"Id": 11,
				"Count": 2
			}
		]
	},
	{
		"ID": 4,
		"Reward": [
			{
				"GoodsType": "GoodsType_EnchantStone",
				"Id": 3,
				"Count": 2
			},
			{
				"GoodsType": "GoodsType_EnchantStone",
				"Id": 6,
				"Count": 2
			},
			{
				"GoodsType": "GoodsType_EnchantStone",
				"Id": 9,
				"Count": 2
			},
			{
				"GoodsType": "GoodsType_EnchantStone",
				"Id": 11,
				"Count": 2
			}
		]
	},
	{
		"ID": 5,
		"Reward": [
			{
				"GoodsType": "GoodsType_EnchantStone",
				"Id": 3,
				"Count": 2
			},
			{
				"GoodsType": "GoodsType_EnchantStone",
				"Id": 6,
				"Count": 2
			},
			{
				"GoodsType": "GoodsType_EnchantStone",
				"Id": 9,
				"Count": 2
			},
			{
				"GoodsType": "GoodsType_EnchantStone",
				"Id": 11,
				"Count": 2
			}
		]
	},
	{
		"ID": 6,
		"Reward": [
			{
				"GoodsType": "GoodsType_EnchantStone",
				"Id": 3,
				"Count": 2
			},
			{
				"GoodsType": "GoodsType_EnchantStone",
				"Id": 6,
				"Count": 2
			},
			{
				"GoodsType": "GoodsType_EnchantStone",
				"Id": 9,
				"Count": 2
			},
			{
				"GoodsType": "GoodsType_EnchantStone",
				"Id": 11,
				"Count": 2
			}
		]
	},
	{
		"ID": 201,
		"Reward": [
			{
				"GoodsType": "GoodsType_EnchantStone",
				"Id": 14,
				"Count": 5
			},
			{
				"GoodsType": "GoodsType_EnchantStone",
				"Id": 15,
				"Count": 5
			},
			{
				"GoodsType": "GoodsType_EnchantStone",
				"Id": 16,
				"Count": 5
			},
			{
				"GoodsType": "GoodsType_EnchantStone",
				"Id": 17,
				"Count": 5
			},
			{
				"GoodsType": "GoodsType_EnchantStone",
				"Id": 18,
				"Count": 5
			},
			{
				"GoodsType": "GoodsType_EnchantStone",
				"Id": 19,
				"Count": 5
			},
			{
				"GoodsType": "GoodsType_EnchantStone",
				"Id": 20,
				"Count": 5
			},
			{
				"GoodsType": "GoodsType_EnchantStone",
				"Id": 21,
				"Count": 5
			},
			{
				"GoodsType": "GoodsType_EnchantStone",
				"Id": 22,
				"Count": 5
			},
			{
				"GoodsType": "GoodsType_EnchantStone",
				"Id": 23,
				"Count": 5
			},
			{
				"GoodsType": "GoodsType_EnchantStone",
				"Id": 24,
				"Count": 5
			},
			{
				"GoodsType": "GoodsType_EnchantStone",
				"Id": 25,
				"Count": 5
			},
			{
				"GoodsType": "GoodsType_EnchantStone",
				"Id": 26,
				"Count": 5
			}
		]
	},
	{
		"ID": 202,
		"Reward": [
			{
				"GoodsType": "GoodsType_EnchantStone",
				"Id": 27,
				"Count": 5
			},
			{
				"GoodsType": "GoodsType_EnchantStone",
				"Id": 28,
				"Count": 5
			},
			{
				"GoodsType": "GoodsType_EnchantStone",
				"Id": 29,
				"Count": 5
			},
			{
				"GoodsType": "GoodsType_EnchantStone",
				"Id": 30,
				"Count": 5
			},
			{
				"GoodsType": "GoodsType_EnchantStone",
				"Id": 31,
				"Count": 5
			},
			{
				"GoodsType": "GoodsType_EnchantStone",
				"Id": 32,
				"Count": 5
			},
			{
				"GoodsType": "GoodsType_EnchantStone",
				"Id": 33,
				"Count": 5
			},
			{
				"GoodsType": "GoodsType_EnchantStone",
				"Id": 34,
				"Count": 5
			},
			{
				"GoodsType": "GoodsType_EnchantStone",
				"Id": 35,
				"Count": 5
			},
			{
				"GoodsType": "GoodsType_EnchantStone",
				"Id": 36,
				"Count": 5
			},
			{
				"GoodsType": "GoodsType_EnchantStone",
				"Id": 37,
				"Count": 5
			},
			{
				"GoodsType": "GoodsType_EnchantStone",
				"Id": 38,
				"Count": 5
			},
			{
				"GoodsType": "GoodsType_EnchantStone",
				"Id": 39,
				"Count": 5
			}
		]
	},
	{
		"ID": 203,
		"Reward": [
			{
				"GoodsType": "GoodsType_JobMaterial",
				"Id": 1,
				"Count": 10
			},
			{
				"GoodsType": "GoodsType_JobMaterial",
				"Id": 2,
				"Count": 10
			},
			{
				"GoodsType": "GoodsType_JobMaterial",
				"Id": 3,
				"Count": 10
			},
			{
				"GoodsType": "GoodsType_JobMaterial",
				"Id": 4,
				"Count": 10
			},
			{
				"GoodsType": "GoodsType_JobMaterial",
				"Id": 5,
				"Count": 10
			},
			{
				"GoodsType": "GoodsType_JobMaterial",
				"Id": 6,
				"Count": 10
			},
			{
				"GoodsType": "GoodsType_JobMaterial",
				"Id": 7,
				"Count": 10
			},
			{
				"GoodsType": "GoodsType_JobMaterial",
				"Id": 8,
				"Count": 10
			},
			{
				"GoodsType": "GoodsType_JobMaterial",
				"Id": 9,
				"Count": 10
			},
			{
				"GoodsType": "GoodsType_JobMaterial",
				"Id": 10,
				"Count": 10
			},
			{
				"GoodsType": "GoodsType_JobMaterial",
				"Id": 11,
				"Count": 10
			},
			{
				"GoodsType": "GoodsType_JobMaterial",
				"Id": 41,
				"Count": 10
			},
			{
				"GoodsType": "GoodsType_JobMaterial",
				"Id": 42,
				"Count": 10
			},
			{
				"GoodsType": "GoodsType_JobMaterial",
				"Id": 43,
				"Count": 10
			},
			{
				"GoodsType": "GoodsType_JobMaterial",
				"Id": 44,
				"Count": 10
			},
			{
				"GoodsType": "GoodsType_JobMaterial",
				"Id": 45,
				"Count": 10
			},
			{
				"GoodsType": "GoodsType_JobMaterial",
				"Id": 46,
				"Count": 10
			}
		]
	},
	{
		"ID": 204,
		"Reward": [
			{
				"GoodsType": "GoodsType_JobMaterial",
				"Id": 48,
				"Count": 10
			},
			{
				"GoodsType": "GoodsType_JobMaterial",
				"Id": 49,
				"Count": 10
			},
			{
				"GoodsType": "GoodsType_JobMaterial",
				"Id": 50,
				"Count": 10
			},
			{
				"GoodsType": "GoodsType_JobMaterial",
				"Id": 51,
				"Count": 10
			},
			{
				"GoodsType": "GoodsType_JobMaterial",
				"Id": 52,
				"Count": 10
			},
			{
				"GoodsType": "GoodsType_JobMaterial",
				"Id": 53,
				"Count": 10
			}
		]
	},
	{
		"ID": 205,
		"Reward": [
			{
				"GoodsType": "GoodsType_JobMaterial",
				"Id": 12,
				"Count": 10
			},
			{
				"GoodsType": "GoodsType_JobMaterial",
				"Id": 13,
				"Count": 10
			},
			{
				"GoodsType": "GoodsType_JobMaterial",
				"Id": 14,
				"Count": 10
			},
			{
				"GoodsType": "GoodsType_JobMaterial",
				"Id": 15,
				"Count": 10
			},
			{
				"GoodsType": "GoodsType_JobMaterial",
				"Id": 16,
				"Count": 10
			},
			{
				"GoodsType": "GoodsType_JobMaterial",
				"Id": 47,
				"Count": 10
			}
		]
	},
	{
		"ID": 206,
		"Reward": [
			{
				"GoodsType": "GoodsType_JobMaterial",
				"Id": 17,
				"Count": 10
			},
			{
				"GoodsType": "GoodsType_JobMaterial",
				"Id": 18,
				"Count": 10
			},
			{
				"GoodsType": "GoodsType_JobMaterial",
				"Id": 19,
				"Count": 10
			},
			{
				"GoodsType": "GoodsType_JobMaterial",
				"Id": 20,
				"Count": 10
			},
			{
				"GoodsType": "GoodsType_JobMaterial",
				"Id": 21,
				"Count": 10
			},
			{
				"GoodsType": "GoodsType_JobMaterial",
				"Id": 22,
				"Count": 10
			},
			{
				"GoodsType": "GoodsType_JobMaterial",
				"Id": 23,
				"Count": 10
			},
			{
				"GoodsType": "GoodsType_JobMaterial",
				"Id": 24,
				"Count": 10
			}
		]
	},
	{
		"ID": 207,
		"Reward": [
			{
				"GoodsType": "GoodsType_JobMaterial",
				"Id": 25,
				"Count": 10
			},
			{
				"GoodsType": "GoodsType_JobMaterial",
				"Id": 26,
				"Count": 10
			},
			{
				"GoodsType": "GoodsType_JobMaterial",
				"Id": 27,
				"Count": 10
			},
			{
				"GoodsType": "GoodsType_JobMaterial",
				"Id": 28,
				"Count": 10
			},
			{
				"GoodsType": "GoodsType_JobMaterial",
				"Id": 29,
				"Count": 10
			},
			{
				"GoodsType": "GoodsType_JobMaterial",
				"Id": 30,
				"Count": 10
			},
			{
				"GoodsType": "GoodsType_JobMaterial",
				"Id": 31,
				"Count": 10
			}
		]
	},
	{
		"ID": 208,
		"Reward": [
			{
				"GoodsType": "GoodsType_JobMaterial",
				"Id": 32,
				"Count": 10
			},
			{
				"GoodsType": "GoodsType_JobMaterial",
				"Id": 33,
				"Count": 10
			},
			{
				"GoodsType": "GoodsType_JobMaterial",
				"Id": 34,
				"Count": 10
			},
			{
				"GoodsType": "GoodsType_JobMaterial",
				"Id": 35,
				"Count": 10
			},
			{
				"GoodsType": "GoodsType_JobMaterial",
				"Id": 36,
				"Count": 10
			},
			{
				"GoodsType": "GoodsType_JobMaterial",
				"Id": 37,
				"Count": 10
			},
			{
				"GoodsType": "GoodsType_JobMaterial",
				"Id": 38,
				"Count": 10
			},
			{
				"GoodsType": "GoodsType_JobMaterial",
				"Id": 39,
				"Count": 10
			},
			{
				"GoodsType": "GoodsType_JobMaterial",
				"Id": 40,
				"Count": 10
			}
		]
	},
	{
		"ID": 209,
		"Reward": [
			{
				"GoodsType": "GoodsType_Item",
				"Id": 5008,
				"Count": 10
			},
			{
				"GoodsType": "GoodsType_Item",
				"Id": 5012,
				"Count": 10
			},
			{
				"GoodsType": "GoodsType_Item",
				"Id": 5016,
				"Count": 10
			},
			{
				"GoodsType": "GoodsType_Item",
				"Id": 5020,
				"Count": 10
			}
		]
	},
	{
		"ID": 210,
		"Reward": [
			{
				"GoodsType": "GoodsType_Item",
				"Id": 5009,
				"Count": 10
			},
			{
				"GoodsType": "GoodsType_Item",
				"Id": 5013,
				"Count": 10
			},
			{
				"GoodsType": "GoodsType_Item",
				"Id": 5017,
				"Count": 10
			},
			{
				"GoodsType": "GoodsType_Item",
				"Id": 5021,
				"Count": 10
			}
		]
	},
	{
		"ID": 211,
		"Reward": [
			{
				"GoodsType": "GoodsType_Item",
				"Id": 5010,
				"Count": 10
			},
			{
				"GoodsType": "GoodsType_Item",
				"Id": 5014,
				"Count": 10
			},
			{
				"GoodsType": "GoodsType_Item",
				"Id": 5018,
				"Count": 10
			},
			{
				"GoodsType": "GoodsType_Item",
				"Id": 5022,
				"Count": 10
			}
		]
	},
	{
		"ID": 212,
		"Reward": [
			{
				"GoodsType": "GoodsType_Item",
				"Id": 5011,
				"Count": 8
			},
			{
				"GoodsType": "GoodsType_Item",
				"Id": 5015,
				"Count": 8
			},
			{
				"GoodsType": "GoodsType_Item",
				"Id": 5019,
				"Count": 8
			},
			{
				"GoodsType": "GoodsType_Item",
				"Id": 5023,
				"Count": 8
			}
		]
	},
	{
		"ID": 213,
		"Reward": [
			{
				"GoodsType": "GoodsType_Item",
				"Id": 6037,
				"Count": 5
			},
			{
				"GoodsType": "GoodsType_Item",
				"Id": 6038,
				"Count": 5
			},
			{
				"GoodsType": "GoodsType_Item",
				"Id": 6039,
				"Count": 5
			},
			{
				"GoodsType": "GoodsType_Item",
				"Id": 6040,
				"Count": 5
			},
			{
				"GoodsType": "GoodsType_Item",
				"Id": 6041,
				"Count": 5
			},
			{
				"GoodsType": "GoodsType_Item",
				"Id": 6042,
				"Count": 5
			}
		]
	},
	{
		"ID": 214,
		"Reward": [
			{
				"GoodsType": "GoodsType_Item",
				"Id": 6043,
				"Count": 10
			},
			{
				"GoodsType": "GoodsType_Item",
				"Id": 6044,
				"Count": 10
			},
			{
				"GoodsType": "GoodsType_Item",
				"Id": 6045,
				"Count": 10
			},
			{
				"GoodsType": "GoodsType_Item",
				"Id": 6046,
				"Count": 10
			},
			{
				"GoodsType": "GoodsType_Item",
				"Id": 6047,
				"Count": 10
			},
			{
				"GoodsType": "GoodsType_Item",
				"Id": 6048,
				"Count": 10
			}
		]
	},
	{
		"ID": 215,
		"Reward": [
			{
				"GoodsType": "GoodsType_Item",
				"Id": 3204,
				"Count": 6
			},
			{
				"GoodsType": "GoodsType_Item",
				"Id": 3205,
				"Count": 6
			},
			{
				"GoodsType": "GoodsType_Item",
				"Id": 3206,
				"Count": 6
			},
			{
				"GoodsType": "GoodsType_Item",
				"Id": 3207,
				"Count": 6
			},
			{
				"GoodsType": "GoodsType_Item",
				"Id": 3208,
				"Count": 6
			},
			{
				"GoodsType": "GoodsType_Item",
				"Id": 3209,
				"Count": 6
			}
		]
	},
	{
		"ID": 216,
		"Reward": [
			{
				"GoodsType": "GoodsType_Item",
				"Id": 3216,
				"Count": 6
			},
			{
				"GoodsType": "GoodsType_Item",
				"Id": 3217,
				"Count": 6
			},
			{
				"GoodsType": "GoodsType_Item",
				"Id": 3218,
				"Count": 6
			},
			{
				"GoodsType": "GoodsType_Item",
				"Id": 3219,
				"Count": 6
			},
			{
				"GoodsType": "GoodsType_Item",
				"Id": 3220,
				"Count": 6
			},
			{
				"GoodsType": "GoodsType_Item",
				"Id": 3221,
				"Count": 6
			}
		]
	},
	{
		"ID": 217,
		"Reward": [
			{
				"GoodsType": "GoodsType_Item",
				"Id": 3222,
				"Count": 6
			},
			{
				"GoodsType": "GoodsType_Item",
				"Id": 3223,
				"Count": 6
			},
			{
				"GoodsType": "GoodsType_Item",
				"Id": 3224,
				"Count": 6
			},
			{
				"GoodsType": "GoodsType_Item",
				"Id": 3225,
				"Count": 6
			},
			{
				"GoodsType": "GoodsType_Item",
				"Id": 3226,
				"Count": 6
			},
			{
				"GoodsType": "GoodsType_Item",
				"Id": 3227,
				"Count": 6
			}
		]
	},
	{
		"ID": 218,
		"Reward": [
			{
				"GoodsType": "GoodsType_Item",
				"Id": 3210,
				"Count": 5
			},
			{
				"GoodsType": "GoodsType_Item",
				"Id": 3211,
				"Count": 5
			},
			{
				"GoodsType": "GoodsType_Item",
				"Id": 3212,
				"Count": 5
			},
			{
				"GoodsType": "GoodsType_Item",
				"Id": 3213,
				"Count": 5
			},
			{
				"GoodsType": "GoodsType_Item",
				"Id": 3214,
				"Count": 5
			},
			{
				"GoodsType": "GoodsType_Item",
				"Id": 3215,
				"Count": 5
			}
		]
	},
	{
		"ID": 219,
		"Reward": [
			{
				"GoodsType": "GoodsType_Item",
				"Id": 7012,
				"Count": 1
			},
			{
				"GoodsType": "GoodsType_Item",
				"Id": 7013,
				"Count": 1
			},
			{
				"GoodsType": "GoodsType_Item",
				"Id": 7014,
				"Count": 1
			},
			{
				"GoodsType": "GoodsType_Item",
				"Id": 7015,
				"Count": 1
			},
			{
				"GoodsType": "GoodsType_Item",
				"Id": 7016,
				"Count": 1
			}
		]
	},
	{
		"ID": 220,
		"Reward": [
			{
				"GoodsType": "GoodsType_Item",
				"Id": 6025,
				"Count": 10
			},
			{
				"GoodsType": "GoodsType_Item",
				"Id": 6026,
				"Count": 10
			},
			{
				"GoodsType": "GoodsType_Item",
				"Id": 6027,
				"Count": 10
			},
			{
				"GoodsType": "GoodsType_Item",
				"Id": 6028,
				"Count": 10
			},
			{
				"GoodsType": "GoodsType_Item",
				"Id": 6029,
				"Count": 10
			},
			{
				"GoodsType": "GoodsType_Item",
				"Id": 6030,
				"Count": 10
			}
		]
	},
	{
		"ID": 221,
		"Reward": [
			{
				"GoodsType": "GoodsType_Item",
				"Id": 6031,
				"Count": 10
			},
			{
				"GoodsType": "GoodsType_Item",
				"Id": 6032,
				"Count": 10
			},
			{
				"GoodsType": "GoodsType_Item",
				"Id": 6033,
				"Count": 10
			},
			{
				"GoodsType": "GoodsType_Item",
				"Id": 6034,
				"Count": 10
			},
			{
				"GoodsType": "GoodsType_Item",
				"Id": 6035,
				"Count": 10
			},
			{
				"GoodsType": "GoodsType_Item",
				"Id": 6036,
				"Count": 10
			}
		]
	},
	{
		"ID": 222,
		"Reward": [
			{
				"GoodsType": "GoodsType_Item",
				"Id": 3210,
				"Count": 6
			},
			{
				"GoodsType": "GoodsType_Item",
				"Id": 3211,
				"Count": 6
			},
			{
				"GoodsType": "GoodsType_Item",
				"Id": 3212,
				"Count": 6
			},
			{
				"GoodsType": "GoodsType_Item",
				"Id": 3213,
				"Count": 6
			},
			{
				"GoodsType": "GoodsType_Item",
				"Id": 3214,
				"Count": 6
			},
			{
				"GoodsType": "GoodsType_Item",
				"Id": 3215,
				"Count": 6
			}
		]
	},
	{
		"ID": 223,
		"Reward": [
			{
				"GoodsType": "GoodsType_Item",
				"Id": 3234,
				"Count": 12
			},
			{
				"GoodsType": "GoodsType_Item",
				"Id": 3235,
				"Count": 12
			},
			{
				"GoodsType": "GoodsType_Item",
				"Id": 3236,
				"Count": 12
			},
			{
				"GoodsType": "GoodsType_Item",
				"Id": 3237,
				"Count": 12
			}
		]
	},
	{
		"ID": 224,
		"Reward": [
			{
				"GoodsType": "GoodsType_Item",
				"Id": 3238,
				"Count": 6
			},
			{
				"GoodsType": "GoodsType_Item",
				"Id": 3239,
				"Count": 6
			},
			{
				"GoodsType": "GoodsType_Item",
				"Id": 3240,
				"Count": 6
			},
			{
				"GoodsType": "GoodsType_Item",
				"Id": 3241,
				"Count": 6
			}
		]
	},
	{
		"ID": 225,
		"Reward": [
			{
				"GoodsType": "GoodsType_Item",
				"Id": 6002,
				"Count": 10
			},
			{
				"GoodsType": "GoodsType_Item",
				"Id": 6005,
				"Count": 10
			},
			{
				"GoodsType": "GoodsType_Item",
				"Id": 6008,
				"Count": 10
			},
			{
				"GoodsType": "GoodsType_Item",
				"Id": 6011,
				"Count": 10
			},
			{
				"GoodsType": "GoodsType_Item",
				"Id": 6014,
				"Count": 10
			},
			{
				"GoodsType": "GoodsType_Item",
				"Id": 6017,
				"Count": 10
			}
		]
	},
	{
		"ID": 226,
		"Reward": [
			{
				"GoodsType": "GoodsType_Item",
				"Id": 6003,
				"Count": 10
			},
			{
				"GoodsType": "GoodsType_Item",
				"Id": 6006,
				"Count": 10
			},
			{
				"GoodsType": "GoodsType_Item",
				"Id": 6009,
				"Count": 10
			},
			{
				"GoodsType": "GoodsType_Item",
				"Id": 6012,
				"Count": 10
			},
			{
				"GoodsType": "GoodsType_Item",
				"Id": 6015,
				"Count": 10
			},
			{
				"GoodsType": "GoodsType_Item",
				"Id": 6018,
				"Count": 10
			}
		]
	},
	{
		"ID": 227,
		"Reward": [
			{
				"GoodsType": "GoodsType_EnchantStone",
				"Id": 27,
				"Count": 20
			},
			{
				"GoodsType": "GoodsType_EnchantStone",
				"Id": 28,
				"Count": 20
			},
			{
				"GoodsType": "GoodsType_EnchantStone",
				"Id": 29,
				"Count": 20
			},
			{
				"GoodsType": "GoodsType_EnchantStone",
				"Id": 30,
				"Count": 20
			},
			{
				"GoodsType": "GoodsType_EnchantStone",
				"Id": 31,
				"Count": 20
			},
			{
				"GoodsType": "GoodsType_EnchantStone",
				"Id": 32,
				"Count": 20
			},
			{
				"GoodsType": "GoodsType_EnchantStone",
				"Id": 33,
				"Count": 20
			},
			{
				"GoodsType": "GoodsType_EnchantStone",
				"Id": 34,
				"Count": 20
			},
			{
				"GoodsType": "GoodsType_EnchantStone",
				"Id": 35,
				"Count": 20
			},
			{
				"GoodsType": "GoodsType_EnchantStone",
				"Id": 36,
				"Count": 20
			},
			{
				"GoodsType": "GoodsType_EnchantStone",
				"Id": 37,
				"Count": 20
			},
			{
				"GoodsType": "GoodsType_EnchantStone",
				"Id": 38,
				"Count": 20
			},
			{
				"GoodsType": "GoodsType_EnchantStone",
				"Id": 39,
				"Count": 20
			}
		]
	},
	{
		"ID": 228,
		"Reward": [
			{
				"GoodsType": "GoodsType_Item",
				"Id": 4042,
				"Count": 1
			},
			{
				"GoodsType": "GoodsType_Item",
				"Id": 4043,
				"Count": 1
			},
			{
				"GoodsType": "GoodsType_Item",
				"Id": 4044,
				"Count": 1
			},
			{
				"GoodsType": "GoodsType_Item",
				"Id": 4045,
				"Count": 1
			},
			{
				"GoodsType": "GoodsType_Item",
				"Id": 4046,
				"Count": 1
			}
		]
	},
	{
		"ID": 229,
		"Reward": [
			{
				"GoodsType": "GoodsType_Item",
				"Id": 4047,
				"Count": 1
			},
			{
				"GoodsType": "GoodsType_Item",
				"Id": 4048,
				"Count": 1
			},
			{
				"GoodsType": "GoodsType_Item",
				"Id": 4049,
				"Count": 1
			},
			{
				"GoodsType": "GoodsType_Item",
				"Id": 4050,
				"Count": 1
			},
			{
				"GoodsType": "GoodsType_Item",
				"Id": 4051,
				"Count": 1
			}
		]
	},
	{
		"ID": 230,
		"Reward": [
			{
				"GoodsType": "GoodsType_Item",
				"Id": 4052,
				"Count": 1
			},
			{
				"GoodsType": "GoodsType_Item",
				"Id": 4053,
				"Count": 1
			},
			{
				"GoodsType": "GoodsType_Item",
				"Id": 4054,
				"Count": 1
			},
			{
				"GoodsType": "GoodsType_Item",
				"Id": 4055,
				"Count": 1
			},
			{
				"GoodsType": "GoodsType_Item",
				"Id": 4056,
				"Count": 1
			}
		]
	},
	{
		"ID": 231,
		"Reward": [
			{
				"GoodsType": "GoodsType_RefineryStone",
				"Id": 521,
				"Count": 5
			},
			{
				"GoodsType": "GoodsType_RefineryStone",
				"Id": 522,
				"Count": 5
			},
			{
				"GoodsType": "GoodsType_RefineryStone",
				"Id": 523,
				"Count": 5
			},
			{
				"GoodsType": "GoodsType_RefineryStone",
				"Id": 524,
				"Count": 5
			},
			{
				"GoodsType": "GoodsType_RefineryStone",
				"Id": 525,
				"Count": 5
			},
			{
				"GoodsType": "GoodsType_RefineryStone",
				"Id": 526,
				"Count": 5
			},
			{
				"GoodsType": "GoodsType_RefineryStone",
				"Id": 527,
				"Count": 5
			},
			{
				"GoodsType": "GoodsType_RefineryStone",
				"Id": 528,
				"Count": 5
			},
			{
				"GoodsType": "GoodsType_RefineryStone",
				"Id": 529,
				"Count": 5
			},
			{
				"GoodsType": "GoodsType_RefineryStone",
				"Id": 530,
				"Count": 5
			}
		]
	},
	{
		"ID": 232,
		"Reward": [
			{
				"GoodsType": "GoodsType_Item",
				"Id": 3228,
				"Count": 6
			},
			{
				"GoodsType": "GoodsType_Item",
				"Id": 3229,
				"Count": 6
			},
			{
				"GoodsType": "GoodsType_Item",
				"Id": 3230,
				"Count": 6
			},
			{
				"GoodsType": "GoodsType_Item",
				"Id": 3231,
				"Count": 6
			},
			{
				"GoodsType": "GoodsType_Item",
				"Id": 3232,
				"Count": 6
			},
			{
				"GoodsType": "GoodsType_Item",
				"Id": 3233,
				"Count": 6
			}
		]
	},
	{
		"ID": 233,
		"Reward": [
			{
				"GoodsType": "GoodsType_RefineryStone",
				"Id": 301,
				"Count": 3
			},
			{
				"GoodsType": "GoodsType_RefineryStone",
				"Id": 302,
				"Count": 3
			},
			{
				"GoodsType": "GoodsType_RefineryStone",
				"Id": 303,
				"Count": 3
			},
			{
				"GoodsType": "GoodsType_RefineryStone",
				"Id": 304,
				"Count": 3
			},
			{
				"GoodsType": "GoodsType_RefineryStone",
				"Id": 305,
				"Count": 3
			},
			{
				"GoodsType": "GoodsType_RefineryStone",
				"Id": 306,
				"Count": 3
			},
			{
				"GoodsType": "GoodsType_RefineryStone",
				"Id": 311,
				"Count": 3
			},
			{
				"GoodsType": "GoodsType_RefineryStone",
				"Id": 312,
				"Count": 3
			},
			{
				"GoodsType": "GoodsType_RefineryStone",
				"Id": 313,
				"Count": 3
			},
			{
				"GoodsType": "GoodsType_RefineryStone",
				"Id": 314,
				"Count": 3
			},
			{
				"GoodsType": "GoodsType_RefineryStone",
				"Id": 315,
				"Count": 3
			},
			{
				"GoodsType": "GoodsType_RefineryStone",
				"Id": 316,
				"Count": 3
			},
			{
				"GoodsType": "GoodsType_RefineryStone",
				"Id": 321,
				"Count": 3
			},
			{
				"GoodsType": "GoodsType_RefineryStone",
				"Id": 322,
				"Count": 3
			},
			{
				"GoodsType": "GoodsType_RefineryStone",
				"Id": 323,
				"Count": 3
			},
			{
				"GoodsType": "GoodsType_RefineryStone",
				"Id": 324,
				"Count": 3
			},
			{
				"GoodsType": "GoodsType_RefineryStone",
				"Id": 325,
				"Count": 3
			},
			{
				"GoodsType": "GoodsType_RefineryStone",
				"Id": 326,
				"Count": 3
			},
			{
				"GoodsType": "GoodsType_RefineryStone",
				"Id": 331,
				"Count": 3
			},
			{
				"GoodsType": "GoodsType_RefineryStone",
				"Id": 332,
				"Count": 3
			},
			{
				"GoodsType": "GoodsType_RefineryStone",
				"Id": 333,
				"Count": 3
			},
			{
				"GoodsType": "GoodsType_RefineryStone",
				"Id": 334,
				"Count": 3
			},
			{
				"GoodsType": "GoodsType_RefineryStone",
				"Id": 335,
				"Count": 3
			},
			{
				"GoodsType": "GoodsType_RefineryStone",
				"Id": 336,
				"Count": 3
			},
			{
				"GoodsType": "GoodsType_RefineryStone",
				"Id": 341,
				"Count": 3
			},
			{
				"GoodsType": "GoodsType_RefineryStone",
				"Id": 342,
				"Count": 3
			},
			{
				"GoodsType": "GoodsType_RefineryStone",
				"Id": 343,
				"Count": 3
			},
			{
				"GoodsType": "GoodsType_RefineryStone",
				"Id": 344,
				"Count": 3
			},
			{
				"GoodsType": "GoodsType_RefineryStone",
				"Id": 345,
				"Count": 3
			},
			{
				"GoodsType": "GoodsType_RefineryStone",
				"Id": 346,
				"Count": 3
			}
		]
	},
	{
		"ID": 234,
		"Reward": [
			{
				"GoodsType": "GoodsType_Item",
				"Id": 6037,
				"Count": 7
			},
			{
				"GoodsType": "GoodsType_Item",
				"Id": 6038,
				"Count": 7
			},
			{
				"GoodsType": "GoodsType_Item",
				"Id": 6039,
				"Count": 7
			},
			{
				"GoodsType": "GoodsType_Item",
				"Id": 6040,
				"Count": 7
			},
			{
				"GoodsType": "GoodsType_Item",
				"Id": 6041,
				"Count": 7
			},
			{
				"GoodsType": "GoodsType_Item",
				"Id": 6042,
				"Count": 7
			}
		]
	},
	{
		"ID": 235,
		"Reward": [
			{
				"GoodsType": "GoodsType_Item",
				"Id": 7062,
				"Count": 1
			},
			{
				"GoodsType": "GoodsType_Item",
				"Id": 7063,
				"Count": 1
			},
			{
				"GoodsType": "GoodsType_Item",
				"Id": 7064,
				"Count": 1
			},
			{
				"GoodsType": "GoodsType_Item",
				"Id": 7065,
				"Count": 1
			},
			{
				"GoodsType": "GoodsType_Item",
				"Id": 7066,
				"Count": 1
			}
		]
	},
	{
		"ID": 236,
		"Reward": [
			{
				"GoodsType": "GoodsType_Item",
				"Id": 7068,
				"Count": 1
			},
			{
				"GoodsType": "GoodsType_Item",
				"Id": 7069,
				"Count": 1
			},
			{
				"GoodsType": "GoodsType_Item",
				"Id": 7070,
				"Count": 1
			},
			{
				"GoodsType": "GoodsType_Item",
				"Id": 7071,
				"Count": 1
			}
		]
	},
	{
		"ID": 237,
		"Reward": [
			{
				"GoodsType": "GoodsType_Equipment",
				"Id": 299,
				"Count": 1
			},
			{
				"GoodsType": "GoodsType_Equipment",
				"Id": 284,
				"Count": 1
			},
			{
				"GoodsType": "GoodsType_Equipment",
				"Id": 283,
				"Count": 1
			},
			{
				"GoodsType": "GoodsType_Equipment",
				"Id": 282,
				"Count": 1
			},
			{
				"GoodsType": "GoodsType_Equipment",
				"Id": 272,
				"Count": 1
			},
			{
				"GoodsType": "GoodsType_Equipment",
				"Id": 210,
				"Count": 1
			},
			{
				"GoodsType": "GoodsType_Equipment",
				"Id": 209,
				"Count": 1
			},
			{
				"GoodsType": "GoodsType_Equipment",
				"Id": 158,
				"Count": 1
			},
			{
				"GoodsType": "GoodsType_Equipment",
				"Id": 150,
				"Count": 1
			},
			{
				"GoodsType": "GoodsType_Equipment",
				"Id": 147,
				"Count": 1
			},
			{
				"GoodsType": "GoodsType_Equipment",
				"Id": 137,
				"Count": 1
			},
			{
				"GoodsType": "GoodsType_Equipment",
				"Id": 52,
				"Count": 1
			},
			{
				"GoodsType": "GoodsType_Equipment",
				"Id": 48,
				"Count": 1
			},
			{
				"GoodsType": "GoodsType_Equipment",
				"Id": 47,
				"Count": 1
			},
			{
				"GoodsType": "GoodsType_Equipment",
				"Id": 46,
				"Count": 1
			},
			{
				"GoodsType": "GoodsType_Equipment",
				"Id": 40,
				"Count": 1
			},
			{
				"GoodsType": "GoodsType_Equipment",
				"Id": 39,
				"Count": 1
			},
			{
				"GoodsType": "GoodsType_Equipment",
				"Id": 31,
				"Count": 1
			},
			{
				"GoodsType": "GoodsType_Equipment",
				"Id": 30,
				"Count": 1
			},
			{
				"GoodsType": "GoodsType_Equipment",
				"Id": 24,
				"Count": 1
			},
			{
				"GoodsType": "GoodsType_Equipment",
				"Id": 23,
				"Count": 1
			},
			{
				"GoodsType": "GoodsType_Equipment",
				"Id": 15,
				"Count": 1
			},
			{
				"GoodsType": "GoodsType_Equipment",
				"Id": 14,
				"Count": 1
			},
			{
				"GoodsType": "GoodsType_Equipment",
				"Id": 7,
				"Count": 1
			},
			{
				"GoodsType": "GoodsType_Equipment",
				"Id": 214,
				"Count": 1
			},
			{
				"GoodsType": "GoodsType_Equipment",
				"Id": 213,
				"Count": 1
			},
			{
				"GoodsType": "GoodsType_Equipment",
				"Id": 212,
				"Count": 1
			},
			{
				"GoodsType": "GoodsType_Equipment",
				"Id": 157,
				"Count": 1
			},
			{
				"GoodsType": "GoodsType_Equipment",
				"Id": 153,
				"Count": 1
			},
			{
				"GoodsType": "GoodsType_Equipment",
				"Id": 144,
				"Count": 1
			},
			{
				"GoodsType": "GoodsType_Equipment",
				"Id": 140,
				"Count": 1
			},
			{
				"GoodsType": "GoodsType_Equipment",
				"Id": 53,
				"Count": 1
			},
			{
				"GoodsType": "GoodsType_Equipment",
				"Id": 38,
				"Count": 1
			},
			{
				"GoodsType": "GoodsType_Equipment",
				"Id": 32,
				"Count": 1
			},
			{
				"GoodsType": "GoodsType_Equipment",
				"Id": 22,
				"Count": 1
			},
			{
				"GoodsType": "GoodsType_Equipment",
				"Id": 13,
				"Count": 1
			},
			{
				"GoodsType": "GoodsType_Equipment",
				"Id": 8,
				"Count": 1
			},
			{
				"GoodsType": "GoodsType_Equipment",
				"Id": 6,
				"Count": 1
			}
		]
	},
	{
		"ID": 238,
		"Reward": [
			{
				"GoodsType": "GoodsType_Equipment",
				"Id": 400,
				"Count": 1
			},
			{
				"GoodsType": "GoodsType_Equipment",
				"Id": 271,
				"Count": 1
			},
			{
				"GoodsType": "GoodsType_Equipment",
				"Id": 182,
				"Count": 1
			},
			{
				"GoodsType": "GoodsType_Equipment",
				"Id": 174,
				"Count": 1
			},
			{
				"GoodsType": "GoodsType_Equipment",
				"Id": 173,
				"Count": 1
			},
			{
				"GoodsType": "GoodsType_Equipment",
				"Id": 172,
				"Count": 1
			},
			{
				"GoodsType": "GoodsType_Equipment",
				"Id": 164,
				"Count": 1
			},
			{
				"GoodsType": "GoodsType_Equipment",
				"Id": 163,
				"Count": 1
			},
			{
				"GoodsType": "GoodsType_Equipment",
				"Id": 73,
				"Count": 1
			},
			{
				"GoodsType": "GoodsType_Equipment",
				"Id": 60,
				"Count": 1
			},
			{
				"GoodsType": "GoodsType_Equipment",
				"Id": 181,
				"Count": 1
			},
			{
				"GoodsType": "GoodsType_Equipment",
				"Id": 180,
				"Count": 1
			},
			{
				"GoodsType": "GoodsType_Equipment",
				"Id": 179,
				"Count": 1
			},
			{
				"GoodsType": "GoodsType_Equipment",
				"Id": 171,
				"Count": 1
			},
			{
				"GoodsType": "GoodsType_Equipment",
				"Id": 166,
				"Count": 1
			},
			{
				"GoodsType": "GoodsType_Equipment",
				"Id": 165,
				"Count": 1
			},
			{
				"GoodsType": "GoodsType_Equipment",
				"Id": 74,
				"Count": 1
			},
			{
				"GoodsType": "GoodsType_Equipment",
				"Id": 67,
				"Count": 1
			},
			{
				"GoodsType": "GoodsType_Equipment",
				"Id": 66,
				"Count": 1
			},
			{
				"GoodsType": "GoodsType_Equipment",
				"Id": 59,
				"Count": 1
			}
		]
	},
	{
		"ID": 239,
		"Reward": [
			{
				"GoodsType": "GoodsType_Equipment",
				"Id": 401,
				"Count": 1
			},
			{
				"GoodsType": "GoodsType_Equipment",
				"Id": 269,
				"Count": 1
			},
			{
				"GoodsType": "GoodsType_Equipment",
				"Id": 206,
				"Count": 1
			},
			{
				"GoodsType": "GoodsType_Equipment",
				"Id": 205,
				"Count": 1
			},
			{
				"GoodsType": "GoodsType_Equipment",
				"Id": 204,
				"Count": 1
			},
			{
				"GoodsType": "GoodsType_Equipment",
				"Id": 198,
				"Count": 1
			},
			{
				"GoodsType": "GoodsType_Equipment",
				"Id": 197,
				"Count": 1
			},
			{
				"GoodsType": "GoodsType_Equipment",
				"Id": 195,
				"Count": 1
			},
			{
				"GoodsType": "GoodsType_Equipment",
				"Id": 188,
				"Count": 1
			},
			{
				"GoodsType": "GoodsType_Equipment",
				"Id": 187,
				"Count": 1
			},
			{
				"GoodsType": "GoodsType_Equipment",
				"Id": 94,
				"Count": 1
			},
			{
				"GoodsType": "GoodsType_Equipment",
				"Id": 81,
				"Count": 1
			},
			{
				"GoodsType": "GoodsType_Equipment",
				"Id": 203,
				"Count": 1
			},
			{
				"GoodsType": "GoodsType_Equipment",
				"Id": 196,
				"Count": 1
			},
			{
				"GoodsType": "GoodsType_Equipment",
				"Id": 190,
				"Count": 1
			},
			{
				"GoodsType": "GoodsType_Equipment",
				"Id": 189,
				"Count": 1
			},
			{
				"GoodsType": "GoodsType_Equipment",
				"Id": 95,
				"Count": 1
			},
			{
				"GoodsType": "GoodsType_Equipment",
				"Id": 88,
				"Count": 1
			},
			{
				"GoodsType": "GoodsType_Equipment",
				"Id": 87,
				"Count": 1
			},
			{
				"GoodsType": "GoodsType_Equipment",
				"Id": 80,
				"Count": 1
			}
		]
	},
	{
		"ID": 240,
		"Reward": [
			{
				"GoodsType": "GoodsType_Equipment",
				"Id": 402,
				"Count": 1
			},
			{
				"GoodsType": "GoodsType_Equipment",
				"Id": 285,
				"Count": 1
			},
			{
				"GoodsType": "GoodsType_Equipment",
				"Id": 270,
				"Count": 1
			},
			{
				"GoodsType": "GoodsType_Equipment",
				"Id": 264,
				"Count": 1
			},
			{
				"GoodsType": "GoodsType_Equipment",
				"Id": 263,
				"Count": 1
			},
			{
				"GoodsType": "GoodsType_Equipment",
				"Id": 260,
				"Count": 1
			},
			{
				"GoodsType": "GoodsType_Equipment",
				"Id": 134,
				"Count": 1
			},
			{
				"GoodsType": "GoodsType_Equipment",
				"Id": 132,
				"Count": 1
			},
			{
				"GoodsType": "GoodsType_Equipment",
				"Id": 122,
				"Count": 1
			},
			{
				"GoodsType": "GoodsType_Equipment",
				"Id": 116,
				"Count": 1
			},
			{
				"GoodsType": "GoodsType_Equipment",
				"Id": 115,
				"Count": 1
			},
			{
				"GoodsType": "GoodsType_Equipment",
				"Id": 106,
				"Count": 1
			},
			{
				"GoodsType": "GoodsType_Equipment",
				"Id": 100,
				"Count": 1
			},
			{
				"GoodsType": "GoodsType_Equipment",
				"Id": 99,
				"Count": 1
			},
			{
				"GoodsType": "GoodsType_Equipment",
				"Id": 262,
				"Count": 1
			},
			{
				"GoodsType": "GoodsType_Equipment",
				"Id": 261,
				"Count": 1
			},
			{
				"GoodsType": "GoodsType_Equipment",
				"Id": 258,
				"Count": 1
			},
			{
				"GoodsType": "GoodsType_Equipment",
				"Id": 257,
				"Count": 1
			},
			{
				"GoodsType": "GoodsType_Equipment",
				"Id": 256,
				"Count": 1
			},
			{
				"GoodsType": "GoodsType_Equipment",
				"Id": 133,
				"Count": 1
			},
			{
				"GoodsType": "GoodsType_Equipment",
				"Id": 128,
				"Count": 1
			},
			{
				"GoodsType": "GoodsType_Equipment",
				"Id": 127,
				"Count": 1
			},
			{
				"GoodsType": "GoodsType_Equipment",
				"Id": 126,
				"Count": 1
			},
			{
				"GoodsType": "GoodsType_Equipment",
				"Id": 121,
				"Count": 1
			},
			{
				"GoodsType": "GoodsType_Equipment",
				"Id": 120,
				"Count": 1
			},
			{
				"GoodsType": "GoodsType_Equipment",
				"Id": 114,
				"Count": 1
			},
			{
				"GoodsType": "GoodsType_Equipment",
				"Id": 108,
				"Count": 1
			},
			{
				"GoodsType": "GoodsType_Equipment",
				"Id": 107,
				"Count": 1
			}
		]
	},
	{
		"ID": 241,
		"Reward": [
			{
				"GoodsType": "GoodsType_Item",
				"Id": 6037,
				"Count": 2
			},
			{
				"GoodsType": "GoodsType_Item",
				"Id": 6038,
				"Count": 2
			},
			{
				"GoodsType": "GoodsType_Item",
				"Id": 6039,
				"Count": 2
			},
			{
				"GoodsType": "GoodsType_Item",
				"Id": 6040,
				"Count": 2
			},
			{
				"GoodsType": "GoodsType_Item",
				"Id": 6041,
				"Count": 2
			},
			{
				"GoodsType": "GoodsType_Item",
				"Id": 6042,
				"Count": 2
			}
		]
	},
	{
		"ID": 242,
		"Reward": [
			{
				"GoodsType": "GoodsType_Item",
				"Id": 3238,
				"Count": 5
			},
			{
				"GoodsType": "GoodsType_Item",
				"Id": 3239,
				"Count": 5
			},
			{
				"GoodsType": "GoodsType_Item",
				"Id": 3240,
				"Count": 5
			},
			{
				"GoodsType": "GoodsType_Item",
				"Id": 3241,
				"Count": 6
			}
		]
	},
	{
		"ID": 243,
		"Reward": [
			{
				"GoodsType": "GoodsType_Item",
				"Id": 3247,
				"Count": 8
			},
			{
				"GoodsType": "GoodsType_Item",
				"Id": 3248,
				"Count": 8
			},
			{
				"GoodsType": "GoodsType_Item",
				"Id": 3249,
				"Count": 8
			},
			{
				"GoodsType": "GoodsType_Item",
				"Id": 3250,
				"Count": 8
			},
			{
				"GoodsType": "GoodsType_Item",
				"Id": 3251,
				"Count": 8
			},
			{
				"GoodsType": "GoodsType_Item",
				"Id": 3252,
				"Count": 8
			}
		]
	},
	{
		"ID": 244,
		"Reward": [
			{
				"GoodsType": "GoodsType_Item",
				"Id": 3254,
				"Count": 8
			},
			{
				"GoodsType": "GoodsType_Item",
				"Id": 3255,
				"Count": 8
			},
			{
				"GoodsType": "GoodsType_Item",
				"Id": 3256,
				"Count": 8
			},
			{
				"GoodsType": "GoodsType_Item",
				"Id": 3257,
				"Count": 8
			},
			{
				"GoodsType": "GoodsType_Item",
				"Id": 3258,
				"Count": 8
			},
			{
				"GoodsType": "GoodsType_Item",
				"Id": 3259,
				"Count": 8
			}
		]
	},
	{
		"ID": 245,
		"Reward": [
			{
				"GoodsType": "GoodsType_Item",
				"Id": 7080,
				"Count": 1
			},
			{
				"GoodsType": "GoodsType_Item",
				"Id": 7081,
				"Count": 1
			},
			{
				"GoodsType": "GoodsType_Item",
				"Id": 7082,
				"Count": 1
			},
			{
				"GoodsType": "GoodsType_Item",
				"Id": 7083,
				"Count": 1
			}
		]
	},
	{
		"ID": 246,
		"Reward": [
			{
				"GoodsType": "GoodsType_Equipment",
				"Id": 408,
				"Count": 1
			},
			{
				"GoodsType": "GoodsType_Equipment",
				"Id": 299,
				"Count": 1
			},
			{
				"GoodsType": "GoodsType_Equipment",
				"Id": 284,
				"Count": 1
			},
			{
				"GoodsType": "GoodsType_Equipment",
				"Id": 283,
				"Count": 1
			},
			{
				"GoodsType": "GoodsType_Equipment",
				"Id": 282,
				"Count": 1
			},
			{
				"GoodsType": "GoodsType_Equipment",
				"Id": 272,
				"Count": 1
			},
			{
				"GoodsType": "GoodsType_Equipment",
				"Id": 210,
				"Count": 1
			},
			{
				"GoodsType": "GoodsType_Equipment",
				"Id": 209,
				"Count": 1
			},
			{
				"GoodsType": "GoodsType_Equipment",
				"Id": 158,
				"Count": 1
			},
			{
				"GoodsType": "GoodsType_Equipment",
				"Id": 150,
				"Count": 1
			},
			{
				"GoodsType": "GoodsType_Equipment",
				"Id": 147,
				"Count": 1
			},
			{
				"GoodsType": "GoodsType_Equipment",
				"Id": 137,
				"Count": 1
			},
			{
				"GoodsType": "GoodsType_Equipment",
				"Id": 52,
				"Count": 1
			},
			{
				"GoodsType": "GoodsType_Equipment",
				"Id": 48,
				"Count": 1
			},
			{
				"GoodsType": "GoodsType_Equipment",
				"Id": 47,
				"Count": 1
			},
			{
				"GoodsType": "GoodsType_Equipment",
				"Id": 46,
				"Count": 1
			},
			{
				"GoodsType": "GoodsType_Equipment",
				"Id": 40,
				"Count": 1
			},
			{
				"GoodsType": "GoodsType_Equipment",
				"Id": 39,
				"Count": 1
			},
			{
				"GoodsType": "GoodsType_Equipment",
				"Id": 31,
				"Count": 1
			},
			{
				"GoodsType": "GoodsType_Equipment",
				"Id": 30,
				"Count": 1
			},
			{
				"GoodsType": "GoodsType_Equipment",
				"Id": 24,
				"Count": 1
			},
			{
				"GoodsType": "GoodsType_Equipment",
				"Id": 23,
				"Count": 1
			},
			{
				"GoodsType": "GoodsType_Equipment",
				"Id": 15,
				"Count": 1
			},
			{
				"GoodsType": "GoodsType_Equipment",
				"Id": 14,
				"Count": 1
			},
			{
				"GoodsType": "GoodsType_Equipment",
				"Id": 7,
				"Count": 1
			},
			{
				"GoodsType": "GoodsType_Equipment",
				"Id": 214,
				"Count": 1
			},
			{
				"GoodsType": "GoodsType_Equipment",
				"Id": 213,
				"Count": 1
			},
			{
				"GoodsType": "GoodsType_Equipment",
				"Id": 212,
				"Count": 1
			},
			{
				"GoodsType": "GoodsType_Equipment",
				"Id": 157,
				"Count": 1
			},
			{
				"GoodsType": "GoodsType_Equipment",
				"Id": 153,
				"Count": 1
			},
			{
				"GoodsType": "GoodsType_Equipment",
				"Id": 144,
				"Count": 1
			},
			{
				"GoodsType": "GoodsType_Equipment",
				"Id": 140,
				"Count": 1
			},
			{
				"GoodsType": "GoodsType_Equipment",
				"Id": 53,
				"Count": 1
			},
			{
				"GoodsType": "GoodsType_Equipment",
				"Id": 38,
				"Count": 1
			},
			{
				"GoodsType": "GoodsType_Equipment",
				"Id": 32,
				"Count": 1
			},
			{
				"GoodsType": "GoodsType_Equipment",
				"Id": 22,
				"Count": 1
			},
			{
				"GoodsType": "GoodsType_Equipment",
				"Id": 13,
				"Count": 1
			},
			{
				"GoodsType": "GoodsType_Equipment",
				"Id": 8,
				"Count": 1
			},
			{
				"GoodsType": "GoodsType_Equipment",
				"Id": 6,
				"Count": 1
			}
		]
	},
	{
		"ID": 247,
		"Reward": [
			{
				"GoodsType": "GoodsType_Equipment",
				"Id": 410,
				"Count": 1
			},
			{
				"GoodsType": "GoodsType_Equipment",
				"Id": 409,
				"Count": 1
			},
			{
				"GoodsType": "GoodsType_Equipment",
				"Id": 400,
				"Count": 1
			},
			{
				"GoodsType": "GoodsType_Equipment",
				"Id": 271,
				"Count": 1
			},
			{
				"GoodsType": "GoodsType_Equipment",
				"Id": 182,
				"Count": 1
			},
			{
				"GoodsType": "GoodsType_Equipment",
				"Id": 174,
				"Count": 1
			},
			{
				"GoodsType": "GoodsType_Equipment",
				"Id": 173,
				"Count": 1
			},
			{
				"GoodsType": "GoodsType_Equipment",
				"Id": 172,
				"Count": 1
			},
			{
				"GoodsType": "GoodsType_Equipment",
				"Id": 164,
				"Count": 1
			},
			{
				"GoodsType": "GoodsType_Equipment",
				"Id": 163,
				"Count": 1
			},
			{
				"GoodsType": "GoodsType_Equipment",
				"Id": 73,
				"Count": 1
			},
			{
				"GoodsType": "GoodsType_Equipment",
				"Id": 60,
				"Count": 1
			},
			{
				"GoodsType": "GoodsType_Equipment",
				"Id": 181,
				"Count": 1
			},
			{
				"GoodsType": "GoodsType_Equipment",
				"Id": 180,
				"Count": 1
			},
			{
				"GoodsType": "GoodsType_Equipment",
				"Id": 179,
				"Count": 1
			},
			{
				"GoodsType": "GoodsType_Equipment",
				"Id": 171,
				"Count": 1
			},
			{
				"GoodsType": "GoodsType_Equipment",
				"Id": 166,
				"Count": 1
			},
			{
				"GoodsType": "GoodsType_Equipment",
				"Id": 165,
				"Count": 1
			},
			{
				"GoodsType": "GoodsType_Equipment",
				"Id": 74,
				"Count": 1
			},
			{
				"GoodsType": "GoodsType_Equipment",
				"Id": 67,
				"Count": 1
			},
			{
				"GoodsType": "GoodsType_Equipment",
				"Id": 66,
				"Count": 1
			},
			{
				"GoodsType": "GoodsType_Equipment",
				"Id": 59,
				"Count": 1
			}
		]
	},
	{
		"ID": 248,
		"Reward": [
			{
				"GoodsType": "GoodsType_Equipment",
				"Id": 407,
				"Count": 1
			},
			{
				"GoodsType": "GoodsType_Equipment",
				"Id": 401,
				"Count": 1
			},
			{
				"GoodsType": "GoodsType_Equipment",
				"Id": 269,
				"Count": 1
			},
			{
				"GoodsType": "GoodsType_Equipment",
				"Id": 206,
				"Count": 1
			},
			{
				"GoodsType": "GoodsType_Equipment",
				"Id": 205,
				"Count": 1
			},
			{
				"GoodsType": "GoodsType_Equipment",
				"Id": 204,
				"Count": 1
			},
			{
				"GoodsType": "GoodsType_Equipment",
				"Id": 198,
				"Count": 1
			},
			{
				"GoodsType": "GoodsType_Equipment",
				"Id": 197,
				"Count": 1
			},
			{
				"GoodsType": "GoodsType_Equipment",
				"Id": 195,
				"Count": 1
			},
			{
				"GoodsType": "GoodsType_Equipment",
				"Id": 188,
				"Count": 1
			},
			{
				"GoodsType": "GoodsType_Equipment",
				"Id": 187,
				"Count": 1
			},
			{
				"GoodsType": "GoodsType_Equipment",
				"Id": 94,
				"Count": 1
			},
			{
				"GoodsType": "GoodsType_Equipment",
				"Id": 81,
				"Count": 1
			},
			{
				"GoodsType": "GoodsType_Equipment",
				"Id": 203,
				"Count": 1
			},
			{
				"GoodsType": "GoodsType_Equipment",
				"Id": 196,
				"Count": 1
			},
			{
				"GoodsType": "GoodsType_Equipment",
				"Id": 190,
				"Count": 1
			},
			{
				"GoodsType": "GoodsType_Equipment",
				"Id": 189,
				"Count": 1
			},
			{
				"GoodsType": "GoodsType_Equipment",
				"Id": 95,
				"Count": 1
			},
			{
				"GoodsType": "GoodsType_Equipment",
				"Id": 88,
				"Count": 1
			},
			{
				"GoodsType": "GoodsType_Equipment",
				"Id": 87,
				"Count": 1
			},
			{
				"GoodsType": "GoodsType_Equipment",
				"Id": 80,
				"Count": 1
			}
		]
	},
	{
		"ID": 249,
		"Reward": [
			{
				"GoodsType": "GoodsType_Equipment",
				"Id": 402,
				"Count": 1
			},
			{
				"GoodsType": "GoodsType_Equipment",
				"Id": 285,
				"Count": 1
			},
			{
				"GoodsType": "GoodsType_Equipment",
				"Id": 270,
				"Count": 1
			},
			{
				"GoodsType": "GoodsType_Equipment",
				"Id": 264,
				"Count": 1
			},
			{
				"GoodsType": "GoodsType_Equipment",
				"Id": 263,
				"Count": 1
			},
			{
				"GoodsType": "GoodsType_Equipment",
				"Id": 260,
				"Count": 1
			},
			{
				"GoodsType": "GoodsType_Equipment",
				"Id": 134,
				"Count": 1
			},
			{
				"GoodsType": "GoodsType_Equipment",
				"Id": 132,
				"Count": 1
			},
			{
				"GoodsType": "GoodsType_Equipment",
				"Id": 122,
				"Count": 1
			},
			{
				"GoodsType": "GoodsType_Equipment",
				"Id": 116,
				"Count": 1
			},
			{
				"GoodsType": "GoodsType_Equipment",
				"Id": 115,
				"Count": 1
			},
			{
				"GoodsType": "GoodsType_Equipment",
				"Id": 106,
				"Count": 1
			},
			{
				"GoodsType": "GoodsType_Equipment",
				"Id": 100,
				"Count": 1
			},
			{
				"GoodsType": "GoodsType_Equipment",
				"Id": 99,
				"Count": 1
			},
			{
				"GoodsType": "GoodsType_Equipment",
				"Id": 262,
				"Count": 1
			},
			{
				"GoodsType": "GoodsType_Equipment",
				"Id": 261,
				"Count": 1
			},
			{
				"GoodsType": "GoodsType_Equipment",
				"Id": 258,
				"Count": 1
			},
			{
				"GoodsType": "GoodsType_Equipment",
				"Id": 257,
				"Count": 1
			},
			{
				"GoodsType": "GoodsType_Equipment",
				"Id": 256,
				"Count": 1
			},
			{
				"GoodsType": "GoodsType_Equipment",
				"Id": 133,
				"Count": 1
			},
			{
				"GoodsType": "GoodsType_Equipment",
				"Id": 128,
				"Count": 1
			},
			{
				"GoodsType": "GoodsType_Equipment",
				"Id": 127,
				"Count": 1
			},
			{
				"GoodsType": "GoodsType_Equipment",
				"Id": 126,
				"Count": 1
			},
			{
				"GoodsType": "GoodsType_Equipment",
				"Id": 121,
				"Count": 1
			},
			{
				"GoodsType": "GoodsType_Equipment",
				"Id": 120,
				"Count": 1
			},
			{
				"GoodsType": "GoodsType_Equipment",
				"Id": 114,
				"Count": 1
			},
			{
				"GoodsType": "GoodsType_Equipment",
				"Id": 108,
				"Count": 1
			},
			{
				"GoodsType": "GoodsType_Equipment",
				"Id": 107,
				"Count": 1
			}
		]
	}
]