[
	{
		"ID": 1,
		"Name": "礼物老人何处寻？",
		"NextScenarioID": 2,
		"DaysBeforeActivate": 0,
		"MonsterLevel": 0,
		"BattleID": 0,
		"DialogBeforeBattle": 8031001,
		"DialogAfterBattle": 0,
		"WayPointsStateAfterBattle": [
			{
				"ID": 4,
				"State": "CollectionActivityWaypointStateType_Unlocked"
			}
		],
		"ActorResourceAfterBattle": "",
		"PlayerExp": 0,
		"HeroExp": 0,
		"GoldReward": 0,
		"EnergyCostSuccess": 0,
		"EnergyCostFail": 0,
		"FirstClearDrop": [
			{
				"GoodsType": "GoodsType_Item",
				"Id": 3505,
				"Count": 2
			}
		],
		"DropDisplayCount": 1,
		"Score": 0,
		"Strategy": ""
	},
	{
		"ID": 2,
		"Name": "礼物老人何处寻？",
		"NextScenarioID": 3,
		"DaysBeforeActivate": 0,
		"MonsterLevel": 0,
		"BattleID": 0,
		"DialogBeforeBattle": 8031034,
		"DialogAfterBattle": 0,
		"WayPointsStateAfterBattle": [
			{
				"ID": 1,
				"State": "CollectionActivityWaypointStateType_Unlocked"
			},
			{
				"ID": 3,
				"State": "CollectionActivityWaypointStateType_Unlocked"
			}
		],
		"ActorResourceAfterBattle": "",
		"PlayerExp": 0,
		"HeroExp": 0,
		"GoldReward": 0,
		"EnergyCostSuccess": 0,
		"EnergyCostFail": 0,
		"FirstClearDrop": [
			{
				"GoodsType": "GoodsType_Item",
				"Id": 3506,
				"Count": 2
			}
		],
		"DropDisplayCount": 1,
		"Score": 0,
		"Strategy": ""
	},
	{
		"ID": 3,
		"Name": "礼物老人何处寻？",
		"NextScenarioID": 4,
		"DaysBeforeActivate": 0,
		"MonsterLevel": 0,
		"BattleID": 0,
		"DialogBeforeBattle": 8031056,
		"DialogAfterBattle": 0,
		"ActorResourceAfterBattle": "",
		"PlayerExp": 0,
		"HeroExp": 0,
		"GoldReward": 0,
		"EnergyCostSuccess": 0,
		"EnergyCostFail": 0,
		"FirstClearDrop": [
			{
				"GoodsType": "GoodsType_Item",
				"Id": 3507,
				"Count": 2
			}
		],
		"DropDisplayCount": 1,
		"Score": 0,
		"Strategy": ""
	},
	{
		"ID": 4,
		"Name": "礼物老人何处寻？",
		"NextScenarioID": 5,
		"DaysBeforeActivate": 0,
		"MonsterLevel": 0,
		"BattleID": 0,
		"DialogBeforeBattle": 8031079,
		"DialogAfterBattle": 0,
		"WayPointsStateAfterBattle": [
			{
				"ID": 5,
				"State": "CollectionActivityWaypointStateType_Unlocked"
			}
		],
		"ActorResourceAfterBattle": "",
		"PlayerExp": 0,
		"HeroExp": 0,
		"GoldReward": 0,
		"EnergyCostSuccess": 0,
		"EnergyCostFail": 0,
		"FirstClearDrop": [
			{
				"GoodsType": "GoodsType_Item",
				"Id": 3508,
				"Count": 2
			}
		],
		"DropDisplayCount": 1,
		"Score": 0,
		"Strategy": ""
	},
	{
		"ID": 5,
		"Name": "礼物老人何处寻？",
		"NextScenarioID": 6,
		"DaysBeforeActivate": 0,
		"MonsterLevel": 50,
		"BattleID": 6601,
		"DialogBeforeBattle": 8031098,
		"DialogAfterBattle": 8031112,
		"ActorResourceAfterBattle": "Spine/General/Sherry_ABS/Sherry_Skin04/Sherry_Skin04_Prefab.prefab",
		"PlayerExp": 5,
		"HeroExp": 35,
		"GoldReward": 502,
		"EnergyCostSuccess": 5,
		"EnergyCostFail": 1,
		"FirstClearDrop": [
			{
				"GoodsType": "GoodsType_Crystal",
				"Id": 0,
				"Count": 30
			},
			{
				"GoodsType": "GoodsType_Item",
				"Id": 3505,
				"Count": 6
			},
			{
				"GoodsType": "GoodsType_Item",
				"Id": 3506,
				"Count": 6
			}
		],
		"DropDisplayCount": 3,
		"Score": 0,
		"Strategy": ""
	},
	{
		"ID": 6,
		"Name": "逃学终结者",
		"NextScenarioID": 7,
		"DaysBeforeActivate": 1,
		"MonsterLevel": 0,
		"BattleID": 0,
		"DialogBeforeBattle": 8032001,
		"DialogAfterBattle": 0,
		"ActorResourceAfterBattle": "",
		"PlayerExp": 0,
		"HeroExp": 0,
		"GoldReward": 0,
		"EnergyCostSuccess": 0,
		"EnergyCostFail": 0,
		"FirstClearDrop": [
			{
				"GoodsType": "GoodsType_Item",
				"Id": 3505,
				"Count": 2
			}
		],
		"DropDisplayCount": 1,
		"Score": 0,
		"Strategy": ""
	},
	{
		"ID": 7,
		"Name": "逃学终结者",
		"NextScenarioID": 8,
		"DaysBeforeActivate": 1,
		"MonsterLevel": 0,
		"BattleID": 0,
		"DialogBeforeBattle": 8032016,
		"DialogAfterBattle": 0,
		"ActorResourceAfterBattle": "",
		"PlayerExp": 0,
		"HeroExp": 0,
		"GoldReward": 0,
		"EnergyCostSuccess": 0,
		"EnergyCostFail": 0,
		"FirstClearDrop": [
			{
				"GoodsType": "GoodsType_Item",
				"Id": 3506,
				"Count": 2
			}
		],
		"DropDisplayCount": 1,
		"Score": 0,
		"Strategy": ""
	},
	{
		"ID": 8,
		"Name": "逃学终结者",
		"NextScenarioID": 9,
		"DaysBeforeActivate": 1,
		"MonsterLevel": 50,
		"BattleID": 6602,
		"DialogBeforeBattle": 0,
		"DialogAfterBattle": 8032051,
		"ActorResourceAfterBattle": "Spine/General/Chris_ABS/Chris_Bishop/Chris_Avatar03_Prefab.prefab",
		"PlayerExp": 5,
		"HeroExp": 35,
		"GoldReward": 502,
		"EnergyCostSuccess": 5,
		"EnergyCostFail": 1,
		"FirstClearDrop": [
			{
				"GoodsType": "GoodsType_Crystal",
				"Id": 0,
				"Count": 30
			},
			{
				"GoodsType": "GoodsType_Item",
				"Id": 3507,
				"Count": 6
			},
			{
				"GoodsType": "GoodsType_Item",
				"Id": 3508,
				"Count": 6
			}
		],
		"DropDisplayCount": 3,
		"Score": 0,
		"Strategy": ""
	},
	{
		"ID": 9,
		"Name": "双龙之猎",
		"NextScenarioID": 10,
		"DaysBeforeActivate": 2,
		"MonsterLevel": 0,
		"BattleID": 0,
		"DialogBeforeBattle": 8033001,
		"DialogAfterBattle": 0,
		"ActorResourceAfterBattle": "",
		"PlayerExp": 0,
		"HeroExp": 0,
		"GoldReward": 0,
		"EnergyCostSuccess": 0,
		"EnergyCostFail": 0,
		"FirstClearDrop": [
			{
				"GoodsType": "GoodsType_Item",
				"Id": 3507,
				"Count": 2
			}
		],
		"DropDisplayCount": 1,
		"Score": 0,
		"Strategy": ""
	},
	{
		"ID": 10,
		"Name": "双龙之猎",
		"NextScenarioID": 11,
		"DaysBeforeActivate": 2,
		"MonsterLevel": 0,
		"BattleID": 0,
		"DialogBeforeBattle": 8033017,
		"DialogAfterBattle": 0,
		"ActorResourceAfterBattle": "",
		"PlayerExp": 0,
		"HeroExp": 0,
		"GoldReward": 0,
		"EnergyCostSuccess": 0,
		"EnergyCostFail": 0,
		"FirstClearDrop": [
			{
				"GoodsType": "GoodsType_Item",
				"Id": 3508,
				"Count": 2
			}
		],
		"DropDisplayCount": 1,
		"Score": 0,
		"Strategy": ""
	},
	{
		"ID": 11,
		"Name": "双龙之猎",
		"NextScenarioID": 12,
		"DaysBeforeActivate": 2,
		"MonsterLevel": 0,
		"BattleID": 0,
		"DialogBeforeBattle": 8033029,
		"DialogAfterBattle": 0,
		"ActorResourceAfterBattle": "",
		"PlayerExp": 0,
		"HeroExp": 0,
		"GoldReward": 0,
		"EnergyCostSuccess": 0,
		"EnergyCostFail": 0,
		"FirstClearDrop": [
			{
				"GoodsType": "GoodsType_Item",
				"Id": 3505,
				"Count": 2
			}
		],
		"DropDisplayCount": 1,
		"Score": 0,
		"Strategy": ""
	},
	{
		"ID": 12,
		"Name": "双龙之猎",
		"NextScenarioID": 13,
		"DaysBeforeActivate": 2,
		"MonsterLevel": 0,
		"BattleID": 0,
		"DialogBeforeBattle": 8033040,
		"DialogAfterBattle": 0,
		"ActorResourceAfterBattle": "",
		"PlayerExp": 0,
		"HeroExp": 0,
		"GoldReward": 0,
		"EnergyCostSuccess": 0,
		"EnergyCostFail": 0,
		"FirstClearDrop": [
			{
				"GoodsType": "GoodsType_Item",
				"Id": 3506,
				"Count": 2
			}
		],
		"DropDisplayCount": 1,
		"Score": 0,
		"Strategy": ""
	},
	{
		"ID": 13,
		"Name": "双龙之猎",
		"NextScenarioID": 14,
		"DaysBeforeActivate": 2,
		"MonsterLevel": 50,
		"BattleID": 6603,
		"DialogBeforeBattle": 0,
		"DialogAfterBattle": 8033060,
		"ActorResourceAfterBattle": "",
		"PlayerExp": 5,
		"HeroExp": 35,
		"GoldReward": 502,
		"EnergyCostSuccess": 5,
		"EnergyCostFail": 1,
		"FirstClearDrop": [
			{
				"GoodsType": "GoodsType_Crystal",
				"Id": 0,
				"Count": 30
			},
			{
				"GoodsType": "GoodsType_Item",
				"Id": 3506,
				"Count": 9
			},
			{
				"GoodsType": "GoodsType_Item",
				"Id": 3507,
				"Count": 9
			}
		],
		"DropDisplayCount": 3,
		"Score": 0,
		"Strategy": ""
	},
	{
		"ID": 14,
		"Name": "副官斗技！",
		"NextScenarioID": 15,
		"DaysBeforeActivate": 3,
		"MonsterLevel": 0,
		"BattleID": 0,
		"DialogBeforeBattle": 8034005,
		"DialogAfterBattle": 0,
		"ActorResourceAfterBattle": "",
		"PlayerExp": 0,
		"HeroExp": 0,
		"GoldReward": 0,
		"EnergyCostSuccess": 0,
		"EnergyCostFail": 0,
		"FirstClearDrop": [
			{
				"GoodsType": "GoodsType_Item",
				"Id": 3507,
				"Count": 2
			}
		],
		"DropDisplayCount": 1,
		"Score": 0,
		"Strategy": ""
	},
	{
		"ID": 15,
		"Name": "副官斗技！",
		"NextScenarioID": 16,
		"DaysBeforeActivate": 3,
		"MonsterLevel": 50,
		"BattleID": 6604,
		"DialogBeforeBattle": 0,
		"DialogAfterBattle": 8034025,
		"ActorResourceAfterBattle": "",
		"PlayerExp": 5,
		"HeroExp": 35,
		"GoldReward": 502,
		"EnergyCostSuccess": 5,
		"EnergyCostFail": 1,
		"FirstClearDrop": [
			{
				"GoodsType": "GoodsType_Crystal",
				"Id": 0,
				"Count": 30
			},
			{
				"GoodsType": "GoodsType_Item",
				"Id": 3508,
				"Count": 9
			},
			{
				"GoodsType": "GoodsType_Item",
				"Id": 3505,
				"Count": 9
			}
		],
		"DropDisplayCount": 3,
		"Score": 0,
		"Strategy": ""
	},
	{
		"ID": 16,
		"Name": "妹控大作战！",
		"NextScenarioID": 17,
		"DaysBeforeActivate": 4,
		"MonsterLevel": 0,
		"BattleID": 0,
		"DialogBeforeBattle": 8035001,
		"DialogAfterBattle": 0,
		"ActorResourceAfterBattle": "Spine/General/Schelfaniel_ABS/Schelfaniel_Skin02/Schelfaniel_Skin02_Prefab.prefab",
		"PlayerExp": 0,
		"HeroExp": 0,
		"GoldReward": 0,
		"EnergyCostSuccess": 0,
		"EnergyCostFail": 0,
		"FirstClearDrop": [
			{
				"GoodsType": "GoodsType_Item",
				"Id": 3508,
				"Count": 2
			}
		],
		"DropDisplayCount": 1,
		"Score": 0,
		"Strategy": ""
	},
	{
		"ID": 17,
		"Name": "妹控大作战！",
		"NextScenarioID": 18,
		"DaysBeforeActivate": 4,
		"MonsterLevel": 0,
		"BattleID": 0,
		"DialogBeforeBattle": 8035015,
		"DialogAfterBattle": 0,
		"ActorResourceAfterBattle": "",
		"PlayerExp": 0,
		"HeroExp": 0,
		"GoldReward": 0,
		"EnergyCostSuccess": 0,
		"EnergyCostFail": 0,
		"FirstClearDrop": [
			{
				"GoodsType": "GoodsType_Item",
				"Id": 3505,
				"Count": 2
			}
		],
		"DropDisplayCount": 1,
		"Score": 0,
		"Strategy": ""
	},
	{
		"ID": 18,
		"Name": "妹控大作战！",
		"NextScenarioID": 19,
		"DaysBeforeActivate": 4,
		"MonsterLevel": 50,
		"BattleID": 6605,
		"DialogBeforeBattle": 0,
		"DialogAfterBattle": 8035040,
		"ActorResourceAfterBattle": "",
		"PlayerExp": 5,
		"HeroExp": 35,
		"GoldReward": 502,
		"EnergyCostSuccess": 5,
		"EnergyCostFail": 1,
		"FirstClearDrop": [
			{
				"GoodsType": "GoodsType_Crystal",
				"Id": 0,
				"Count": 30
			},
			{
				"GoodsType": "GoodsType_Item",
				"Id": 3505,
				"Count": 12
			},
			{
				"GoodsType": "GoodsType_Item",
				"Id": 3507,
				"Count": 12
			}
		],
		"DropDisplayCount": 3,
		"Score": 0,
		"Strategy": ""
	},
	{
		"ID": 19,
		"Name": "消失的礼物",
		"NextScenarioID": 20,
		"DaysBeforeActivate": 5,
		"MonsterLevel": 0,
		"BattleID": 0,
		"DialogBeforeBattle": 8036001,
		"DialogAfterBattle": 0,
		"ActorResourceAfterBattle": "",
		"PlayerExp": 0,
		"HeroExp": 0,
		"GoldReward": 0,
		"EnergyCostSuccess": 0,
		"EnergyCostFail": 0,
		"FirstClearDrop": [
			{
				"GoodsType": "GoodsType_Item",
				"Id": 3506,
				"Count": 2
			}
		],
		"DropDisplayCount": 1,
		"Score": 0,
		"Strategy": ""
	},
	{
		"ID": 20,
		"Name": "消失的礼物",
		"NextScenarioID": 21,
		"DaysBeforeActivate": 5,
		"MonsterLevel": 0,
		"BattleID": 0,
		"DialogBeforeBattle": 8036021,
		"DialogAfterBattle": 0,
		"ActorResourceAfterBattle": "",
		"PlayerExp": 0,
		"HeroExp": 0,
		"GoldReward": 0,
		"EnergyCostSuccess": 0,
		"EnergyCostFail": 0,
		"FirstClearDrop": [
			{
				"GoodsType": "GoodsType_Item",
				"Id": 3507,
				"Count": 2
			}
		],
		"DropDisplayCount": 1,
		"Score": 0,
		"Strategy": ""
	},
	{
		"ID": 21,
		"Name": "消失的礼物",
		"NextScenarioID": 22,
		"DaysBeforeActivate": 5,
		"MonsterLevel": 50,
		"BattleID": 6606,
		"DialogBeforeBattle": 0,
		"DialogAfterBattle": 8036051,
		"ActorResourceAfterBattle": "Spine/General/Angelina_ABS/Angelina_Skin02/Angelina_Skin02_Prefab.prefab",
		"PlayerExp": 5,
		"HeroExp": 35,
		"GoldReward": 502,
		"EnergyCostSuccess": 5,
		"EnergyCostFail": 1,
		"FirstClearDrop": [
			{
				"GoodsType": "GoodsType_Crystal",
				"Id": 0,
				"Count": 30
			},
			{
				"GoodsType": "GoodsType_Item",
				"Id": 3506,
				"Count": 12
			},
			{
				"GoodsType": "GoodsType_Item",
				"Id": 3508,
				"Count": 12
			}
		],
		"DropDisplayCount": 3,
		"Score": 0,
		"Strategy": ""
	},
	{
		"ID": 22,
		"Name": "激斗！冬泳！",
		"NextScenarioID": 23,
		"DaysBeforeActivate": 6,
		"MonsterLevel": 0,
		"BattleID": 0,
		"DialogBeforeBattle": 8037001,
		"DialogAfterBattle": 0,
		"ActorResourceAfterBattle": "",
		"PlayerExp": 0,
		"HeroExp": 0,
		"GoldReward": 0,
		"EnergyCostSuccess": 0,
		"EnergyCostFail": 0,
		"FirstClearDrop": [
			{
				"GoodsType": "GoodsType_Item",
				"Id": 3508,
				"Count": 2
			}
		],
		"DropDisplayCount": 1,
		"Score": 0,
		"Strategy": ""
	},
	{
		"ID": 23,
		"Name": "激斗！冬泳！",
		"NextScenarioID": 24,
		"DaysBeforeActivate": 6,
		"MonsterLevel": 0,
		"BattleID": 0,
		"DialogBeforeBattle": 8037021,
		"DialogAfterBattle": 0,
		"ActorResourceAfterBattle": "",
		"PlayerExp": 0,
		"HeroExp": 0,
		"GoldReward": 0,
		"EnergyCostSuccess": 0,
		"EnergyCostFail": 0,
		"FirstClearDrop": [
			{
				"GoodsType": "GoodsType_Item",
				"Id": 3505,
				"Count": 2
			}
		],
		"DropDisplayCount": 1,
		"Score": 0,
		"Strategy": ""
	},
	{
		"ID": 24,
		"Name": "激斗！冬泳！",
		"NextScenarioID": 25,
		"DaysBeforeActivate": 6,
		"MonsterLevel": 0,
		"BattleID": 0,
		"DialogBeforeBattle": 8037041,
		"DialogAfterBattle": 0,
		"ActorResourceAfterBattle": "",
		"PlayerExp": 0,
		"HeroExp": 0,
		"GoldReward": 0,
		"EnergyCostSuccess": 0,
		"EnergyCostFail": 0,
		"FirstClearDrop": [
			{
				"GoodsType": "GoodsType_Item",
				"Id": 3506,
				"Count": 2
			}
		],
		"DropDisplayCount": 1,
		"Score": 0,
		"Strategy": ""
	},
	{
		"ID": 25,
		"Name": "激斗！冬泳！",
		"NextScenarioID": 26,
		"DaysBeforeActivate": 6,
		"MonsterLevel": 50,
		"BattleID": 6607,
		"DialogBeforeBattle": 0,
		"DialogAfterBattle": 8037071,
		"ActorResourceAfterBattle": "",
		"PlayerExp": 5,
		"HeroExp": 35,
		"GoldReward": 502,
		"EnergyCostSuccess": 5,
		"EnergyCostFail": 1,
		"FirstClearDrop": [
			{
				"GoodsType": "GoodsType_Crystal",
				"Id": 0,
				"Count": 30
			},
			{
				"GoodsType": "GoodsType_Item",
				"Id": 3508,
				"Count": 15
			},
			{
				"GoodsType": "GoodsType_Item",
				"Id": 3505,
				"Count": 15
			}
		],
		"DropDisplayCount": 3,
		"Score": 0,
		"Strategy": ""
	},
	{
		"ID": 26,
		"Name": "真·逃学终结者",
		"NextScenarioID": 27,
		"DaysBeforeActivate": 7,
		"MonsterLevel": 0,
		"BattleID": 0,
		"DialogBeforeBattle": 8038001,
		"DialogAfterBattle": 0,
		"ActorResourceAfterBattle": "",
		"PlayerExp": 0,
		"HeroExp": 0,
		"GoldReward": 0,
		"EnergyCostSuccess": 0,
		"EnergyCostFail": 0,
		"FirstClearDrop": [
			{
				"GoodsType": "GoodsType_Item",
				"Id": 3507,
				"Count": 2
			}
		],
		"DropDisplayCount": 1,
		"Score": 0,
		"Strategy": ""
	},
	{
		"ID": 27,
		"Name": "真·逃学终结者",
		"NextScenarioID": 28,
		"DaysBeforeActivate": 7,
		"MonsterLevel": 0,
		"BattleID": 0,
		"DialogBeforeBattle": 8038017,
		"DialogAfterBattle": 0,
		"ActorResourceAfterBattle": "",
		"PlayerExp": 0,
		"HeroExp": 0,
		"GoldReward": 0,
		"EnergyCostSuccess": 0,
		"EnergyCostFail": 0,
		"FirstClearDrop": [
			{
				"GoodsType": "GoodsType_Item",
				"Id": 3508,
				"Count": 2
			}
		],
		"DropDisplayCount": 1,
		"Score": 0,
		"Strategy": ""
	},
	{
		"ID": 28,
		"Name": "真·逃学终结者",
		"NextScenarioID": 0,
		"DaysBeforeActivate": 7,
		"MonsterLevel": 50,
		"BattleID": 6608,
		"DialogBeforeBattle": 0,
		"DialogAfterBattle": 0,
		"ActorResourceAfterBattle": "Spine/General/Chris_ABS/Chris_Bishop/Chris_Avatar03_Prefab.prefab",
		"PlayerExp": 5,
		"HeroExp": 35,
		"GoldReward": 502,
		"EnergyCostSuccess": 5,
		"EnergyCostFail": 1,
		"FirstClearDrop": [
			{
				"GoodsType": "GoodsType_Crystal",
				"Id": 0,
				"Count": 30
			},
			{
				"GoodsType": "GoodsType_Item",
				"Id": 3507,
				"Count": 15
			},
			{
				"GoodsType": "GoodsType_Item",
				"Id": 3506,
				"Count": 15
			}
		],
		"DropDisplayCount": 3,
		"Score": 0,
		"Strategy": ""
	},
	{
		"ID": 101,
		"Name": "时空之门！？",
		"NextScenarioID": 102,
		"DaysBeforeActivate": 0,
		"MonsterLevel": 50,
		"BattleID": 6801,
		"DialogBeforeBattle": 8040001,
		"DialogAfterBattle": 8040024,
		"WayPointsStateAfterBattle": [
			{
				"ID": 102,
				"State": "CollectionActivityWaypointStateType_Unlocked"
			}
		],
		"ActorResourceAfterBattle": "Spine/General/Estelle_ABS/Estelle_Sakura/Estelle_Sakura2_Prefab.prefab",
		"PlayerExp": 5,
		"HeroExp": 35,
		"GoldReward": 502,
		"EnergyCostSuccess": 5,
		"EnergyCostFail": 1,
		"FirstClearDrop": [
			{
				"GoodsType": "GoodsType_Crystal",
				"Id": 0,
				"Count": 30
			}
		],
		"DropDisplayCount": 2,
		"Score": 100,
		"Strategy": ""
	},
	{
		"ID": 102,
		"Name": "游击士支部！？",
		"NextScenarioID": 103,
		"DaysBeforeActivate": 1,
		"MonsterLevel": 50,
		"BattleID": 6802,
		"DialogBeforeBattle": 8042001,
		"DialogAfterBattle": 8042031,
		"WayPointsStateAfterBattle": [
			{
				"ID": 101,
				"State": "CollectionActivityWaypointStateType_Unlocked"
			},
			{
				"ID": 103,
				"State": "CollectionActivityWaypointStateType_Unlocked"
			}
		],
		"ActorResourceAfterBattle": "",
		"PlayerExp": 5,
		"HeroExp": 35,
		"GoldReward": 502,
		"EnergyCostSuccess": 5,
		"EnergyCostFail": 1,
		"FirstClearDrop": [
			{
				"GoodsType": "GoodsType_Crystal",
				"Id": 0,
				"Count": 30
			}
		],
		"DropDisplayCount": 2,
		"Score": 100,
		"Strategy": ""
	},
	{
		"ID": 103,
		"Name": "学园祭话剧！？",
		"NextScenarioID": 104,
		"DaysBeforeActivate": 2,
		"MonsterLevel": 50,
		"BattleID": 6803,
		"DialogBeforeBattle": 8043001,
		"DialogAfterBattle": 8043031,
		"ActorResourceAfterBattle": "",
		"PlayerExp": 5,
		"HeroExp": 35,
		"GoldReward": 502,
		"EnergyCostSuccess": 5,
		"EnergyCostFail": 1,
		"FirstClearDrop": [
			{
				"GoodsType": "GoodsType_Crystal",
				"Id": 0,
				"Count": 30
			}
		],
		"DropDisplayCount": 2,
		"Score": 100,
		"Strategy": ""
	},
	{
		"ID": 104,
		"Name": "排练启动！？",
		"NextScenarioID": 105,
		"DaysBeforeActivate": 3,
		"MonsterLevel": 50,
		"BattleID": 6804,
		"DialogBeforeBattle": 8044001,
		"DialogAfterBattle": 8044021,
		"WayPointsStateAfterBattle": [
			{
				"ID": 105,
				"State": "CollectionActivityWaypointStateType_Unlocked"
			}
		],
		"ActorResourceAfterBattle": "",
		"PlayerExp": 5,
		"HeroExp": 35,
		"GoldReward": 502,
		"EnergyCostSuccess": 5,
		"EnergyCostFail": 1,
		"FirstClearDrop": [
			{
				"GoodsType": "GoodsType_Crystal",
				"Id": 0,
				"Count": 30
			}
		],
		"DropDisplayCount": 2,
		"Score": 100,
		"Strategy": ""
	},
	{
		"ID": 105,
		"Name": "白花恋诗·上",
		"NextScenarioID": 106,
		"DaysBeforeActivate": 4,
		"MonsterLevel": 50,
		"BattleID": 6805,
		"DialogBeforeBattle": 8045001,
		"DialogAfterBattle": 0,
		"ActorResourceAfterBattle": "",
		"PlayerExp": 5,
		"HeroExp": 35,
		"GoldReward": 502,
		"EnergyCostSuccess": 5,
		"EnergyCostFail": 1,
		"FirstClearDrop": [
			{
				"GoodsType": "GoodsType_Crystal",
				"Id": 0,
				"Count": 30
			}
		],
		"DropDisplayCount": 2,
		"Score": 100,
		"Strategy": ""
	},
	{
		"ID": 106,
		"Name": "意外访客！？",
		"NextScenarioID": 107,
		"DaysBeforeActivate": 5,
		"MonsterLevel": 50,
		"BattleID": 6806,
		"DialogBeforeBattle": 8045060,
		"DialogAfterBattle": 8045070,
		"ActorResourceAfterBattle": "",
		"PlayerExp": 5,
		"HeroExp": 35,
		"GoldReward": 502,
		"EnergyCostSuccess": 5,
		"EnergyCostFail": 1,
		"FirstClearDrop": [
			{
				"GoodsType": "GoodsType_Crystal",
				"Id": 0,
				"Count": 30
			}
		],
		"DropDisplayCount": 2,
		"Score": 100,
		"Strategy": ""
	},
	{
		"ID": 107,
		"Name": "白花恋诗·下",
		"NextScenarioID": 0,
		"DaysBeforeActivate": 6,
		"MonsterLevel": 50,
		"BattleID": 6807,
		"DialogBeforeBattle": 8045095,
		"DialogAfterBattle": 8045130,
		"ActorResourceAfterBattle": "Spine/General/Mathew_ABS/Mathew_zs/Mathew_zs03_Prefab.prefab",
		"PlayerExp": 5,
		"HeroExp": 35,
		"GoldReward": 502,
		"EnergyCostSuccess": 5,
		"EnergyCostFail": 1,
		"FirstClearDrop": [
			{
				"GoodsType": "GoodsType_Crystal",
				"Id": 0,
				"Count": 30
			},
			{
				"GoodsType": "GoodsType_HeadFrame",
				"Id": 27,
				"Count": 1
			}
		],
		"DropDisplayCount": 3,
		"Score": 100,
		"Strategy": ""
	},
	{
		"ID": 201,
		"Name": "天空中的城市",
		"NextScenarioID": 202,
		"DaysBeforeActivate": 0,
		"MonsterLevel": 50,
		"BattleID": 50011,
		"DialogBeforeBattle": 8051001,
		"DialogAfterBattle": 8051051,
		"WayPointsStateAfterBattle": [
			{
				"ID": 202,
				"State": "CollectionActivityWaypointStateType_Unlocked"
			}
		],
		"ActorResourceAfterBattle": "",
		"PlayerExp": 5,
		"HeroExp": 35,
		"GoldReward": 502,
		"EnergyCostSuccess": 5,
		"EnergyCostFail": 1,
		"FirstClearDrop": [
			{
				"GoodsType": "GoodsType_Crystal",
				"Id": 0,
				"Count": 30
			}
		],
		"DropDisplayCount": 1,
		"Score": 0,
		"Strategy": ""
	},
	{
		"ID": 202,
		"Name": "吟游的美学家",
		"NextScenarioID": 203,
		"DaysBeforeActivate": 1,
		"MonsterLevel": 50,
		"BattleID": 50012,
		"DialogBeforeBattle": 8052001,
		"DialogAfterBattle": 8052051,
		"WayPointsStateAfterBattle": [
			{
				"ID": 203,
				"State": "CollectionActivityWaypointStateType_Unlocked"
			}
		],
		"ActorResourceAfterBattle": "Spine/General/Weismann_ABS/Weismann_Wizard/Weismann_Wizard4_Prefab.prefab",
		"PlayerExp": 5,
		"HeroExp": 35,
		"GoldReward": 502,
		"EnergyCostSuccess": 5,
		"EnergyCostFail": 1,
		"FirstClearDrop": [
			{
				"GoodsType": "GoodsType_Crystal",
				"Id": 0,
				"Count": 30
			}
		],
		"DropDisplayCount": 1,
		"Score": 0,
		"Strategy": ""
	},
	{
		"ID": 203,
		"Name": "异次元入侵者",
		"NextScenarioID": 204,
		"DaysBeforeActivate": 2,
		"MonsterLevel": 50,
		"BattleID": 50013,
		"DialogBeforeBattle": 0,
		"DialogAfterBattle": 8053001,
		"WayPointsStateAfterBattle": [
			{
				"ID": 204,
				"State": "CollectionActivityWaypointStateType_Unlocked"
			}
		],
		"ActorResourceAfterBattle": "Spine/General/Estelle_ABS/Estelle_Sakura/Estelle_Sakura2_Prefab.prefab",
		"PlayerExp": 5,
		"HeroExp": 35,
		"GoldReward": 502,
		"EnergyCostSuccess": 5,
		"EnergyCostFail": 1,
		"FirstClearDrop": [
			{
				"GoodsType": "GoodsType_Crystal",
				"Id": 0,
				"Count": 30
			}
		],
		"DropDisplayCount": 1,
		"Score": 0,
		"Strategy": ""
	},
	{
		"ID": 204,
		"Name": "「歼灭天使」玲",
		"NextScenarioID": 205,
		"DaysBeforeActivate": 3,
		"MonsterLevel": 50,
		"BattleID": 50014,
		"DialogBeforeBattle": 8054001,
		"DialogAfterBattle": 8054051,
		"ActorResourceAfterBattle": "",
		"PlayerExp": 5,
		"HeroExp": 35,
		"GoldReward": 502,
		"EnergyCostSuccess": 5,
		"EnergyCostFail": 1,
		"FirstClearDrop": [
			{
				"GoodsType": "GoodsType_Crystal",
				"Id": 0,
				"Count": 30
			}
		],
		"DropDisplayCount": 1,
		"Score": 0,
		"Strategy": ""
	},
	{
		"ID": 205,
		"Name": "「剑帝」莱恩哈特",
		"NextScenarioID": 206,
		"DaysBeforeActivate": 4,
		"MonsterLevel": 50,
		"BattleID": 50015,
		"DialogBeforeBattle": 0,
		"DialogAfterBattle": 8055001,
		"WayPointsStateAfterBattle": [
			{
				"ID": 205,
				"State": "CollectionActivityWaypointStateType_Unlocked"
			}
		],
		"ActorResourceAfterBattle": "",
		"PlayerExp": 5,
		"HeroExp": 35,
		"GoldReward": 502,
		"EnergyCostSuccess": 5,
		"EnergyCostFail": 1,
		"FirstClearDrop": [
			{
				"GoodsType": "GoodsType_Crystal",
				"Id": 0,
				"Count": 30
			}
		],
		"DropDisplayCount": 1,
		"Score": 0,
		"Strategy": ""
	},
	{
		"ID": 206,
		"Name": "「白面」怀斯曼",
		"NextScenarioID": 207,
		"DaysBeforeActivate": 5,
		"MonsterLevel": 50,
		"BattleID": 50016,
		"DialogBeforeBattle": 8056001,
		"DialogAfterBattle": 8056051,
		"ActorResourceAfterBattle": "",
		"PlayerExp": 5,
		"HeroExp": 35,
		"GoldReward": 502,
		"EnergyCostSuccess": 5,
		"EnergyCostFail": 1,
		"FirstClearDrop": [
			{
				"GoodsType": "GoodsType_Crystal",
				"Id": 0,
				"Count": 30
			}
		],
		"DropDisplayCount": 1,
		"Score": 0,
		"Strategy": ""
	},
	{
		"ID": 207,
		"Name": "天空中的回忆",
		"NextScenarioID": 0,
		"DaysBeforeActivate": 6,
		"MonsterLevel": 50,
		"BattleID": 50017,
		"DialogBeforeBattle": 8057001,
		"DialogAfterBattle": 8057051,
		"ActorResourceAfterBattle": "Spine/General/Mathew_ABS/Mathew_zs/Mathew_zs03_Prefab.prefab",
		"PlayerExp": 5,
		"HeroExp": 35,
		"GoldReward": 502,
		"EnergyCostSuccess": 5,
		"EnergyCostFail": 1,
		"FirstClearDrop": [
			{
				"GoodsType": "GoodsType_Crystal",
				"Id": 0,
				"Count": 30
			},
			{
				"GoodsType": "GoodsType_HeadFrame",
				"Id": 31,
				"Count": 1
			}
		],
		"DropDisplayCount": 2,
		"Score": 0,
		"Strategy": ""
	},
	{
		"ID": 301,
		"Name": "霸道",
		"NextScenarioID": 302,
		"DaysBeforeActivate": 0,
		"MonsterLevel": 50,
		"BattleID": 50211,
		"DialogBeforeBattle": 8060101,
		"DialogAfterBattle": 0,
		"WayPointsStateAfterBattle": [
			{
				"ID": 302,
				"State": "CollectionActivityWaypointStateType_Unlocked"
			}
		],
		"ActorResourceAfterBattle": "",
		"PlayerExp": 5,
		"HeroExp": 35,
		"GoldReward": 502,
		"EnergyCostSuccess": 5,
		"EnergyCostFail": 1,
		"FirstClearDrop": [
			{
				"GoodsType": "GoodsType_Crystal",
				"Id": 0,
				"Count": 30
			}
		],
		"DropDisplayCount": 1,
		"Score": 0,
		"Strategy": ""
	},
	{
		"ID": 302,
		"Name": "帝王巴恩哈特",
		"NextScenarioID": 303,
		"DaysBeforeActivate": 1,
		"MonsterLevel": 50,
		"BattleID": 50212,
		"DialogBeforeBattle": 8060201,
		"DialogAfterBattle": 0,
		"WayPointsStateAfterBattle": [
			{
				"ID": 303,
				"State": "CollectionActivityWaypointStateType_Unlocked"
			}
		],
		"ActorResourceAfterBattle": "",
		"PlayerExp": 5,
		"HeroExp": 35,
		"GoldReward": 502,
		"EnergyCostSuccess": 5,
		"EnergyCostFail": 1,
		"FirstClearDrop": [
			{
				"GoodsType": "GoodsType_Crystal",
				"Id": 0,
				"Count": 30
			}
		],
		"DropDisplayCount": 1,
		"Score": 0,
		"Strategy": ""
	},
	{
		"ID": 303,
		"Name": "背信弃义",
		"NextScenarioID": 304,
		"DaysBeforeActivate": 2,
		"MonsterLevel": 50,
		"BattleID": 50213,
		"DialogBeforeBattle": 8060301,
		"DialogAfterBattle": 0,
		"WayPointsStateAfterBattle": [
			{
				"ID": 304,
				"State": "CollectionActivityWaypointStateType_Unlocked"
			}
		],
		"ActorResourceAfterBattle": "",
		"PlayerExp": 5,
		"HeroExp": 35,
		"GoldReward": 502,
		"EnergyCostSuccess": 5,
		"EnergyCostFail": 1,
		"FirstClearDrop": [
			{
				"GoodsType": "GoodsType_Crystal",
				"Id": 0,
				"Count": 30
			}
		],
		"DropDisplayCount": 1,
		"Score": 0,
		"Strategy": ""
	},
	{
		"ID": 304,
		"Name": "卡尔萨斯的陷落",
		"NextScenarioID": 305,
		"DaysBeforeActivate": 3,
		"MonsterLevel": 50,
		"BattleID": 50214,
		"DialogBeforeBattle": 8060401,
		"DialogAfterBattle": 0,
		"WayPointsStateAfterBattle": [
			{
				"ID": 305,
				"State": "CollectionActivityWaypointStateType_Unlocked"
			}
		],
		"ActorResourceAfterBattle": "",
		"PlayerExp": 5,
		"HeroExp": 35,
		"GoldReward": 502,
		"EnergyCostSuccess": 5,
		"EnergyCostFail": 1,
		"FirstClearDrop": [
			{
				"GoodsType": "GoodsType_Crystal",
				"Id": 0,
				"Count": 30
			}
		],
		"DropDisplayCount": 1,
		"Score": 0,
		"Strategy": ""
	},
	{
		"ID": 305,
		"Name": "真魔剑阿鲁哈萨托",
		"NextScenarioID": 306,
		"DaysBeforeActivate": 4,
		"MonsterLevel": 50,
		"BattleID": 50215,
		"DialogBeforeBattle": 8060501,
		"DialogAfterBattle": 0,
		"WayPointsStateAfterBattle": [
			{
				"ID": 308,
				"State": "CollectionActivityWaypointStateType_Unlocked"
			},
			{
				"ID": 306,
				"State": "CollectionActivityWaypointStateType_Unlocked"
			}
		],
		"ActorResourceAfterBattle": "",
		"PlayerExp": 5,
		"HeroExp": 35,
		"GoldReward": 502,
		"EnergyCostSuccess": 5,
		"EnergyCostFail": 1,
		"FirstClearDrop": [
			{
				"GoodsType": "GoodsType_Crystal",
				"Id": 0,
				"Count": 30
			}
		],
		"DropDisplayCount": 1,
		"Score": 0,
		"Strategy": ""
	},
	{
		"ID": 306,
		"Name": "霸者的道路",
		"NextScenarioID": 307,
		"DaysBeforeActivate": 5,
		"MonsterLevel": 50,
		"BattleID": 50216,
		"DialogBeforeBattle": 8060601,
		"DialogAfterBattle": 0,
		"WayPointsStateAfterBattle": [
			{
				"ID": 309,
				"State": "CollectionActivityWaypointStateType_Unlocked"
			}
		],
		"ActorResourceAfterBattle": "",
		"PlayerExp": 5,
		"HeroExp": 35,
		"GoldReward": 502,
		"EnergyCostSuccess": 5,
		"EnergyCostFail": 1,
		"FirstClearDrop": [
			{
				"GoodsType": "GoodsType_Crystal",
				"Id": 0,
				"Count": 30
			}
		],
		"DropDisplayCount": 1,
		"Score": 0,
		"Strategy": ""
	},
	{
		"ID": 307,
		"Name": "青龙的怒火",
		"NextScenarioID": 308,
		"DaysBeforeActivate": 6,
		"MonsterLevel": 50,
		"BattleID": 50217,
		"DialogBeforeBattle": 8060701,
		"DialogAfterBattle": 0,
		"WayPointsStateAfterBattle": [
			{
				"ID": 310,
				"State": "CollectionActivityWaypointStateType_Unlocked"
			}
		],
		"ActorResourceAfterBattle": "",
		"PlayerExp": 5,
		"HeroExp": 35,
		"GoldReward": 502,
		"EnergyCostSuccess": 5,
		"EnergyCostFail": 1,
		"FirstClearDrop": [
			{
				"GoodsType": "GoodsType_Crystal",
				"Id": 0,
				"Count": 30
			}
		],
		"DropDisplayCount": 1,
		"Score": 0,
		"Strategy": ""
	},
	{
		"ID": 308,
		"Name": "皇帝巴恩哈特",
		"NextScenarioID": 309,
		"DaysBeforeActivate": 7,
		"MonsterLevel": 50,
		"BattleID": 50218,
		"DialogBeforeBattle": 8060801,
		"DialogAfterBattle": 0,
		"WayPointsStateAfterBattle": [
			{
				"ID": 311,
				"State": "CollectionActivityWaypointStateType_Unlocked"
			},
			{
				"ID": 314,
				"State": "CollectionActivityWaypointStateType_Unlocked"
			}
		],
		"ActorResourceAfterBattle": "Spine/General/Elwin_ABS/Elwin_Skin04/Elwin_Skin04_Prefab.prefab",
		"PlayerExp": 5,
		"HeroExp": 35,
		"GoldReward": 502,
		"EnergyCostSuccess": 5,
		"EnergyCostFail": 1,
		"FirstClearDrop": [
			{
				"GoodsType": "GoodsType_Crystal",
				"Id": 0,
				"Count": 30
			}
		],
		"DropDisplayCount": 1,
		"Score": 0,
		"Strategy": ""
	},
	{
		"ID": 309,
		"Name": "赶尽杀绝",
		"NextScenarioID": 310,
		"DaysBeforeActivate": 8,
		"MonsterLevel": 50,
		"BattleID": 50219,
		"DialogBeforeBattle": 8060901,
		"DialogAfterBattle": 0,
		"WayPointsStateAfterBattle": [
			{
				"ID": 312,
				"State": "CollectionActivityWaypointStateType_Unlocked"
			}
		],
		"ActorResourceAfterBattle": "",
		"PlayerExp": 5,
		"HeroExp": 35,
		"GoldReward": 502,
		"EnergyCostSuccess": 5,
		"EnergyCostFail": 1,
		"FirstClearDrop": [
			{
				"GoodsType": "GoodsType_Crystal",
				"Id": 0,
				"Count": 30
			}
		],
		"DropDisplayCount": 1,
		"Score": 0,
		"Strategy": ""
	},
	{
		"ID": 310,
		"Name": "孤独之王",
		"NextScenarioID": 0,
		"DaysBeforeActivate": 9,
		"MonsterLevel": 50,
		"BattleID": 50220,
		"DialogBeforeBattle": 8061001,
		"DialogAfterBattle": 0,
		"WayPointsStateAfterBattle": [
			{
				"ID": 313,
				"State": "CollectionActivityWaypointStateType_Unlocked"
			}
		],
		"ActorResourceAfterBattle": "",
		"PlayerExp": 5,
		"HeroExp": 35,
		"GoldReward": 502,
		"EnergyCostSuccess": 5,
		"EnergyCostFail": 1,
		"FirstClearDrop": [
			{
				"GoodsType": "GoodsType_Crystal",
				"Id": 0,
				"Count": 30
			}
		],
		"DropDisplayCount": 1,
		"Score": 0,
		"Strategy": ""
	},
	{
		"ID": 401,
		"Name": "降维召唤术！？",
		"NextScenarioID": 402,
		"DaysBeforeActivate": 0,
		"MonsterLevel": 50,
		"BattleID": 50310,
		"DialogBeforeBattle": 8070001,
		"DialogAfterBattle": 8070044,
		"ActorResourceAfterBattle": "Spine/General/Ogami_ABS/Ogami/Ogami_Prefab.prefab",
		"PlayerExp": 5,
		"HeroExp": 35,
		"GoldReward": 502,
		"EnergyCostSuccess": 5,
		"EnergyCostFail": 1,
		"FirstClearDrop": [
			{
				"GoodsType": "GoodsType_Crystal",
				"Id": 0,
				"Count": 30
			}
		],
		"DropDisplayCount": 1,
		"Score": 0,
		"Strategy": ""
	},
	{
		"ID": 402,
		"Name": "不分世界！正义永恒！",
		"NextScenarioID": 403,
		"DaysBeforeActivate": 1,
		"MonsterLevel": 50,
		"BattleID": 50311,
		"DialogBeforeBattle": 0,
		"DialogAfterBattle": 8070101,
		"ActorResourceAfterBattle": "",
		"PlayerExp": 5,
		"HeroExp": 35,
		"GoldReward": 502,
		"EnergyCostSuccess": 5,
		"EnergyCostFail": 1,
		"FirstClearDrop": [
			{
				"GoodsType": "GoodsType_Crystal",
				"Id": 0,
				"Count": 30
			}
		],
		"DropDisplayCount": 1,
		"Score": 0,
		"Strategy": ""
	},
	{
		"ID": 403,
		"Name": "误入贼窝！？",
		"NextScenarioID": 404,
		"DaysBeforeActivate": 2,
		"MonsterLevel": 50,
		"BattleID": 50312,
		"DialogBeforeBattle": 8070200,
		"DialogAfterBattle": 8070225,
		"ActorResourceAfterBattle": "",
		"PlayerExp": 5,
		"HeroExp": 35,
		"GoldReward": 502,
		"EnergyCostSuccess": 5,
		"EnergyCostFail": 1,
		"FirstClearDrop": [
			{
				"GoodsType": "GoodsType_Crystal",
				"Id": 0,
				"Count": 30
			}
		],
		"DropDisplayCount": 1,
		"Score": 0,
		"Strategy": ""
	},
	{
		"ID": 404,
		"Name": "你才是小朋友！",
		"NextScenarioID": 405,
		"DaysBeforeActivate": 3,
		"MonsterLevel": 50,
		"BattleID": 50313,
		"DialogBeforeBattle": 8070301,
		"DialogAfterBattle": 8070330,
		"ActorResourceAfterBattle": "",
		"PlayerExp": 5,
		"HeroExp": 35,
		"GoldReward": 502,
		"EnergyCostSuccess": 5,
		"EnergyCostFail": 1,
		"FirstClearDrop": [
			{
				"GoodsType": "GoodsType_Crystal",
				"Id": 0,
				"Count": 30
			}
		],
		"DropDisplayCount": 1,
		"Score": 0,
		"Strategy": ""
	},
	{
		"ID": 405,
		"Name": "弱肉三人组！？",
		"NextScenarioID": 406,
		"DaysBeforeActivate": 4,
		"MonsterLevel": 50,
		"BattleID": 50314,
		"DialogBeforeBattle": 0,
		"DialogAfterBattle": 8070455,
		"ActorResourceAfterBattle": "",
		"PlayerExp": 5,
		"HeroExp": 35,
		"GoldReward": 502,
		"EnergyCostSuccess": 5,
		"EnergyCostFail": 1,
		"FirstClearDrop": [
			{
				"GoodsType": "GoodsType_Crystal",
				"Id": 0,
				"Count": 30
			}
		],
		"DropDisplayCount": 1,
		"Score": 0,
		"Strategy": ""
	},
	{
		"ID": 406,
		"Name": "特训！合击之技！",
		"NextScenarioID": 407,
		"DaysBeforeActivate": 5,
		"MonsterLevel": 50,
		"BattleID": 50315,
		"DialogBeforeBattle": 8070501,
		"DialogAfterBattle": 8070510,
		"ActorResourceAfterBattle": "",
		"PlayerExp": 5,
		"HeroExp": 35,
		"GoldReward": 502,
		"EnergyCostSuccess": 5,
		"EnergyCostFail": 1,
		"FirstClearDrop": [
			{
				"GoodsType": "GoodsType_Crystal",
				"Id": 0,
				"Count": 30
			}
		],
		"DropDisplayCount": 1,
		"Score": 0,
		"Strategy": ""
	},
	{
		"ID": 407,
		"Name": "绽放！合击之舞！",
		"NextScenarioID": 0,
		"DaysBeforeActivate": 6,
		"MonsterLevel": 50,
		"BattleID": 50316,
		"DialogBeforeBattle": 0,
		"DialogAfterBattle": 8070601,
		"ActorResourceAfterBattle": "Spine/General/Anjelica_ABS/Anjelica_Magic/Anjelica_Engineer2_Prefab.prefab",
		"PlayerExp": 5,
		"HeroExp": 35,
		"GoldReward": 502,
		"EnergyCostSuccess": 5,
		"EnergyCostFail": 1,
		"FirstClearDrop": [
			{
				"GoodsType": "GoodsType_Crystal",
				"Id": 0,
				"Count": 30
			},
			{
				"GoodsType": "GoodsType_HeadFrame",
				"Id": 39,
				"Count": 1
			}
		],
		"DropDisplayCount": 2,
		"Score": 0,
		"Strategy": ""
	},
	{
		"ID": 501,
		"Name": "波乱的开场曲",
		"NextScenarioID": 502,
		"DaysBeforeActivate": 0,
		"MonsterLevel": 50,
		"BattleID": 50411,
		"DialogBeforeBattle": 8081001,
		"DialogAfterBattle": 8081201,
		"WayPointsStateAfterBattle": [
			{
				"ID": 502,
				"State": "CollectionActivityWaypointStateType_Unlocked"
			}
		],
		"ActorResourceAfterBattle": "Spine/General/Mathew_ABS/Mathew_Skin02/Mathew_Skin02_Prefab.prefab",
		"PlayerExp": 5,
		"HeroExp": 35,
		"GoldReward": 502,
		"EnergyCostSuccess": 5,
		"EnergyCostFail": 1,
		"FirstClearDrop": [
			{
				"GoodsType": "GoodsType_Crystal",
				"Id": 0,
				"Count": 30
			}
		],
		"DropDisplayCount": 1,
		"Score": 0,
		"Strategy": ""
	},
	{
		"ID": 502,
		"Name": "被夺走的力量",
		"NextScenarioID": 503,
		"DaysBeforeActivate": 1,
		"MonsterLevel": 50,
		"BattleID": 50412,
		"DialogBeforeBattle": 8082001,
		"DialogAfterBattle": 8082101,
		"WayPointsStateAfterBattle": [
			{
				"ID": 504,
				"State": "CollectionActivityWaypointStateType_Unlocked"
			}
		],
		"ActorResourceAfterBattle": "Spine/General/Ledin_ABS/Ledin_Skin01/Ledin_Skin01_Prefab.prefab",
		"PlayerExp": 5,
		"HeroExp": 35,
		"GoldReward": 502,
		"EnergyCostSuccess": 5,
		"EnergyCostFail": 1,
		"FirstClearDrop": [
			{
				"GoodsType": "GoodsType_Crystal",
				"Id": 0,
				"Count": 30
			}
		],
		"DropDisplayCount": 1,
		"Score": 0,
		"Strategy": ""
	},
	{
		"ID": 503,
		"Name": "黑暗的倒影",
		"NextScenarioID": 504,
		"DaysBeforeActivate": 2,
		"MonsterLevel": 50,
		"BattleID": 50413,
		"DialogBeforeBattle": 8083001,
		"DialogAfterBattle": 8083101,
		"WayPointsStateAfterBattle": [
			{
				"ID": 506,
				"State": "CollectionActivityWaypointStateType_Unlocked"
			}
		],
		"ActorResourceAfterBattle": "Spine/General/Mathew_ABS/Mathew_Skin02/Mathew_Skin02_Prefab.prefab",
		"PlayerExp": 5,
		"HeroExp": 35,
		"GoldReward": 502,
		"EnergyCostSuccess": 5,
		"EnergyCostFail": 1,
		"FirstClearDrop": [
			{
				"GoodsType": "GoodsType_Crystal",
				"Id": 0,
				"Count": 30
			}
		],
		"DropDisplayCount": 1,
		"Score": 0,
		"Strategy": ""
	},
	{
		"ID": 504,
		"Name": "空腹作战！？",
		"NextScenarioID": 505,
		"DaysBeforeActivate": 3,
		"MonsterLevel": 50,
		"BattleID": 50414,
		"DialogBeforeBattle": 8084001,
		"DialogAfterBattle": 8084050,
		"WayPointsStateAfterBattle": [
			{
				"ID": 507,
				"State": "CollectionActivityWaypointStateType_Unlocked"
			}
		],
		"ActorResourceAfterBattle": "Spine/General/Sigma_ABS/Sigma_Skin01/Sigma_Skin01_Prefab.prefab",
		"PlayerExp": 5,
		"HeroExp": 35,
		"GoldReward": 502,
		"EnergyCostSuccess": 5,
		"EnergyCostFail": 1,
		"FirstClearDrop": [
			{
				"GoodsType": "GoodsType_Crystal",
				"Id": 0,
				"Count": 30
			}
		],
		"DropDisplayCount": 1,
		"Score": 0,
		"Strategy": ""
	},
	{
		"ID": 505,
		"Name": "灵魂之咒",
		"NextScenarioID": 506,
		"DaysBeforeActivate": 4,
		"MonsterLevel": 50,
		"BattleID": 50415,
		"DialogBeforeBattle": 8085001,
		"DialogAfterBattle": 0,
		"WayPointsStateAfterBattle": [
			{
				"ID": 503,
				"State": "CollectionActivityWaypointStateType_Unlocked"
			}
		],
		"ActorResourceAfterBattle": "Spine/General/Grenier_ABS/Grenier_Skin01/Grenier_Skin01_Prefab.prefab",
		"PlayerExp": 5,
		"HeroExp": 35,
		"GoldReward": 502,
		"EnergyCostSuccess": 5,
		"EnergyCostFail": 1,
		"FirstClearDrop": [
			{
				"GoodsType": "GoodsType_Crystal",
				"Id": 0,
				"Count": 30
			}
		],
		"DropDisplayCount": 1,
		"Score": 0,
		"Strategy": ""
	},
	{
		"ID": 506,
		"Name": "触手、袭来",
		"NextScenarioID": 507,
		"DaysBeforeActivate": 5,
		"MonsterLevel": 50,
		"BattleID": 50416,
		"DialogBeforeBattle": 8086001,
		"DialogAfterBattle": 8086050,
		"WayPointsStateAfterBattle": [
			{
				"ID": 505,
				"State": "CollectionActivityWaypointStateType_Unlocked"
			}
		],
		"ActorResourceAfterBattle": "Spine/General/Zalrahda_ABS/Ninjia/Zalrahda_Shadow3_prefab.prefab",
		"PlayerExp": 5,
		"HeroExp": 35,
		"GoldReward": 502,
		"EnergyCostSuccess": 5,
		"EnergyCostFail": 1,
		"FirstClearDrop": [
			{
				"GoodsType": "GoodsType_Crystal",
				"Id": 0,
				"Count": 30
			}
		],
		"DropDisplayCount": 1,
		"Score": 0,
		"Strategy": ""
	},
	{
		"ID": 507,
		"Name": "恐惧之源",
		"NextScenarioID": 508,
		"DaysBeforeActivate": 6,
		"MonsterLevel": 50,
		"BattleID": 50417,
		"DialogBeforeBattle": 8087001,
		"DialogAfterBattle": 8087051,
		"ActorResourceAfterBattle": "Spine/General/Zalrahda_ABS/Zalrahda_Skin03/Zalrahda_Skin03_Prefab.prefab",
		"PlayerExp": 5,
		"HeroExp": 35,
		"GoldReward": 502,
		"EnergyCostSuccess": 5,
		"EnergyCostFail": 1,
		"FirstClearDrop": [
			{
				"GoodsType": "GoodsType_Crystal",
				"Id": 0,
				"Count": 30
			}
		],
		"DropDisplayCount": 2,
		"Score": 0,
		"Strategy": ""
	},
	{
		"ID": 508,
		"Name": "六重的风暴",
		"NextScenarioID": 0,
		"DaysBeforeActivate": 7,
		"MonsterLevel": 50,
		"BattleID": 50418,
		"DialogBeforeBattle": 8088001,
		"DialogAfterBattle": 8088060,
		"ActorResourceAfterBattle": "Spine/General/Mathew_ABS/Mathew_Skin02/Mathew_Skin02_Prefab.prefab",
		"PlayerExp": 5,
		"HeroExp": 35,
		"GoldReward": 502,
		"EnergyCostSuccess": 5,
		"EnergyCostFail": 1,
		"FirstClearDrop": [
			{
				"GoodsType": "GoodsType_Crystal",
				"Id": 0,
				"Count": 30
			},
			{
				"GoodsType": "GoodsType_HeadFrame",
				"Id": 41,
				"Count": 1
			}
		],
		"DropDisplayCount": 2,
		"Score": 0,
		"Strategy": ""
	},
	{
		"ID": 601,
		"Name": "兄贵战争！出击！",
		"NextScenarioID": 602,
		"DaysBeforeActivate": 0,
		"MonsterLevel": 50,
		"BattleID": 50511,
		"DialogBeforeBattle": 8091101,
		"DialogAfterBattle": 8091201,
		"WayPointsStateAfterBattle": [
			{
				"ID": 602,
				"State": "CollectionActivityWaypointStateType_Unlocked"
			}
		],
		"ActorResourceAfterBattle": "",
		"PlayerExp": 5,
		"HeroExp": 35,
		"GoldReward": 502,
		"EnergyCostSuccess": 5,
		"EnergyCostFail": 1,
		"FirstClearDrop": [
			{
				"GoodsType": "GoodsType_Crystal",
				"Id": 0,
				"Count": 30
			}
		],
		"DropDisplayCount": 2,
		"Score": 0,
		"Strategy": ""
	},
	{
		"ID": 602,
		"Name": "翻滚吧！海鲜！",
		"NextScenarioID": 603,
		"DaysBeforeActivate": 1,
		"MonsterLevel": 50,
		"BattleID": 50512,
		"DialogBeforeBattle": 8092101,
		"DialogAfterBattle": 8092201,
		"WayPointsStateAfterBattle": [
			{
				"ID": 603,
				"State": "CollectionActivityWaypointStateType_Unlocked"
			}
		],
		"ActorResourceAfterBattle": "",
		"PlayerExp": 5,
		"HeroExp": 35,
		"GoldReward": 502,
		"EnergyCostSuccess": 5,
		"EnergyCostFail": 1,
		"FirstClearDrop": [
			{
				"GoodsType": "GoodsType_Crystal",
				"Id": 0,
				"Count": 30
			}
		],
		"DropDisplayCount": 2,
		"Score": 0,
		"Strategy": ""
	},
	{
		"ID": 603,
		"Name": "女朋友生气了！后果很严重！",
		"NextScenarioID": 604,
		"DaysBeforeActivate": 2,
		"MonsterLevel": 50,
		"BattleID": 50513,
		"DialogBeforeBattle": 8093001,
		"DialogAfterBattle": 8093017,
		"WayPointsStateAfterBattle": [
			{
				"ID": 604,
				"State": "CollectionActivityWaypointStateType_Unlocked"
			}
		],
		"ActorResourceAfterBattle": "",
		"PlayerExp": 5,
		"HeroExp": 35,
		"GoldReward": 502,
		"EnergyCostSuccess": 5,
		"EnergyCostFail": 1,
		"FirstClearDrop": [
			{
				"GoodsType": "GoodsType_Crystal",
				"Id": 0,
				"Count": 30
			}
		],
		"DropDisplayCount": 2,
		"Score": 0,
		"Strategy": ""
	},
	{
		"ID": 604,
		"Name": "史莱姆消消乐！？",
		"NextScenarioID": 605,
		"DaysBeforeActivate": 3,
		"MonsterLevel": 50,
		"BattleID": 50514,
		"DialogBeforeBattle": 8094001,
		"DialogAfterBattle": 8094020,
		"ActorResourceAfterBattle": "",
		"PlayerExp": 5,
		"HeroExp": 35,
		"GoldReward": 502,
		"EnergyCostSuccess": 5,
		"EnergyCostFail": 1,
		"FirstClearDrop": [
			{
				"GoodsType": "GoodsType_Crystal",
				"Id": 0,
				"Count": 30
			}
		],
		"DropDisplayCount": 2,
		"Score": 0,
		"Strategy": ""
	},
	{
		"ID": 605,
		"Name": "可怕！女人的针锋相对！",
		"NextScenarioID": 606,
		"DaysBeforeActivate": 4,
		"MonsterLevel": 50,
		"BattleID": 50515,
		"DialogBeforeBattle": 8095001,
		"DialogAfterBattle": 0,
		"ActorResourceAfterBattle": "",
		"PlayerExp": 5,
		"HeroExp": 35,
		"GoldReward": 502,
		"EnergyCostSuccess": 5,
		"EnergyCostFail": 1,
		"FirstClearDrop": [
			{
				"GoodsType": "GoodsType_Crystal",
				"Id": 0,
				"Count": 30
			}
		],
		"DropDisplayCount": 2,
		"Score": 0,
		"Strategy": ""
	},
	{
		"ID": 606,
		"Name": "闪光巨兽——古巨拉！",
		"NextScenarioID": 607,
		"DaysBeforeActivate": 5,
		"MonsterLevel": 50,
		"BattleID": 50516,
		"DialogBeforeBattle": 8096001,
		"DialogAfterBattle": 8096051,
		"WayPointsStateAfterBattle": [
			{
				"ID": 605,
				"State": "CollectionActivityWaypointStateType_Unlocked"
			}
		],
		"ActorResourceAfterBattle": "",
		"PlayerExp": 5,
		"HeroExp": 35,
		"GoldReward": 502,
		"EnergyCostSuccess": 5,
		"EnergyCostFail": 1,
		"FirstClearDrop": [
			{
				"GoodsType": "GoodsType_Crystal",
				"Id": 0,
				"Count": 30
			}
		],
		"DropDisplayCount": 2,
		"Score": 0,
		"Strategy": ""
	},
	{
		"ID": 607,
		"Name": "闪耀吧！史上最灿烂花火！",
		"NextScenarioID": 0,
		"DaysBeforeActivate": 6,
		"MonsterLevel": 50,
		"BattleID": 50517,
		"DialogBeforeBattle": 8097001,
		"DialogAfterBattle": 8097030,
		"ActorResourceAfterBattle": "",
		"PlayerExp": 5,
		"HeroExp": 35,
		"GoldReward": 502,
		"EnergyCostSuccess": 5,
		"EnergyCostFail": 1,
		"FirstClearDrop": [
			{
				"GoodsType": "GoodsType_Crystal",
				"Id": 0,
				"Count": 30
			},
			{
				"GoodsType": "GoodsType_HeadFrame",
				"Id": 43,
				"Count": 1
			}
		],
		"DropDisplayCount": 2,
		"Score": 0,
		"Strategy": ""
	},
	{
		"ID": 701,
		"Name": "新人新报到！",
		"NextScenarioID": 702,
		"DaysBeforeActivate": 0,
		"MonsterLevel": 50,
		"BattleID": 50711,
		"DialogBeforeBattle": 8101001,
		"DialogAfterBattle": 8101101,
		"WayPointsStateAfterBattle": [
			{
				"ID": 705,
				"State": "CollectionActivityWaypointStateType_Unlocked"
			}
		],
		"ActorResourceAfterBattle": "",
		"PlayerExp": 5,
		"HeroExp": 35,
		"GoldReward": 502,
		"EnergyCostSuccess": 5,
		"EnergyCostFail": 1,
		"FirstClearDrop": [
			{
				"GoodsType": "GoodsType_Crystal",
				"Id": 0,
				"Count": 30
			}
		],
		"DropDisplayCount": 2,
		"Score": 0,
		"Strategy": ""
	},
	{
		"ID": 702,
		"Name": "游戏研发部！",
		"NextScenarioID": 703,
		"DaysBeforeActivate": 1,
		"MonsterLevel": 50,
		"BattleID": 50712,
		"DialogBeforeBattle": 0,
		"DialogAfterBattle": 0,
		"WayPointsStateAfterBattle": [
			{
				"ID": 704,
				"State": "CollectionActivityWaypointStateType_Unlocked"
			}
		],
		"ActorResourceAfterBattle": "",
		"PlayerExp": 5,
		"HeroExp": 35,
		"GoldReward": 502,
		"EnergyCostSuccess": 5,
		"EnergyCostFail": 1,
		"FirstClearDrop": [
			{
				"GoodsType": "GoodsType_Crystal",
				"Id": 0,
				"Count": 30
			}
		],
		"DropDisplayCount": 2,
		"Score": 0,
		"Strategy": ""
	},
	{
		"ID": 703,
		"Name": "策划不加班！",
		"NextScenarioID": 704,
		"DaysBeforeActivate": 2,
		"MonsterLevel": 50,
		"BattleID": 50713,
		"DialogBeforeBattle": 0,
		"DialogAfterBattle": 0,
		"WayPointsStateAfterBattle": [
			{
				"ID": 702,
				"State": "CollectionActivityWaypointStateType_Unlocked"
			}
		],
		"ActorResourceAfterBattle": "",
		"PlayerExp": 5,
		"HeroExp": 35,
		"GoldReward": 502,
		"EnergyCostSuccess": 5,
		"EnergyCostFail": 1,
		"FirstClearDrop": [
			{
				"GoodsType": "GoodsType_Crystal",
				"Id": 0,
				"Count": 30
			}
		],
		"DropDisplayCount": 2,
		"Score": 0,
		"Strategy": ""
	},
	{
		"ID": 704,
		"Name": "现场画英雄！",
		"NextScenarioID": 705,
		"DaysBeforeActivate": 3,
		"MonsterLevel": 50,
		"BattleID": 50714,
		"DialogBeforeBattle": 0,
		"DialogAfterBattle": 0,
		"WayPointsStateAfterBattle": [
			{
				"ID": 703,
				"State": "CollectionActivityWaypointStateType_Unlocked"
			}
		],
		"ActorResourceAfterBattle": "",
		"PlayerExp": 5,
		"HeroExp": 35,
		"GoldReward": 502,
		"EnergyCostSuccess": 5,
		"EnergyCostFail": 1,
		"FirstClearDrop": [
			{
				"GoodsType": "GoodsType_Crystal",
				"Id": 0,
				"Count": 30
			}
		],
		"DropDisplayCount": 2,
		"Score": 0,
		"Strategy": ""
	},
	{
		"ID": 705,
		"Name": "BUG满地跑！",
		"NextScenarioID": 706,
		"DaysBeforeActivate": 4,
		"MonsterLevel": 50,
		"BattleID": 50715,
		"DialogBeforeBattle": 0,
		"DialogAfterBattle": 0,
		"ActorResourceAfterBattle": "",
		"PlayerExp": 5,
		"HeroExp": 35,
		"GoldReward": 502,
		"EnergyCostSuccess": 5,
		"EnergyCostFail": 1,
		"FirstClearDrop": [
			{
				"GoodsType": "GoodsType_Crystal",
				"Id": 0,
				"Count": 30
			}
		],
		"DropDisplayCount": 2,
		"Score": 0,
		"Strategy": ""
	},
	{
		"ID": 706,
		"Name": "又是波赞鲁！",
		"NextScenarioID": 707,
		"DaysBeforeActivate": 5,
		"MonsterLevel": 50,
		"BattleID": 50716,
		"DialogBeforeBattle": 0,
		"DialogAfterBattle": 0,
		"ActorResourceAfterBattle": "",
		"PlayerExp": 5,
		"HeroExp": 35,
		"GoldReward": 502,
		"EnergyCostSuccess": 5,
		"EnergyCostFail": 1,
		"FirstClearDrop": [
			{
				"GoodsType": "GoodsType_Crystal",
				"Id": 0,
				"Count": 30
			}
		],
		"DropDisplayCount": 2,
		"Score": 0,
		"Strategy": ""
	},
	{
		"ID": 707,
		"Name": "再见波赞鲁！",
		"NextScenarioID": 0,
		"DaysBeforeActivate": 6,
		"MonsterLevel": 50,
		"BattleID": 50717,
		"DialogBeforeBattle": 0,
		"DialogAfterBattle": 0,
		"ActorResourceAfterBattle": "",
		"PlayerExp": 5,
		"HeroExp": 35,
		"GoldReward": 502,
		"EnergyCostSuccess": 5,
		"EnergyCostFail": 1,
		"FirstClearDrop": [
			{
				"GoodsType": "GoodsType_Crystal",
				"Id": 0,
				"Count": 30
			},
			{
				"GoodsType": "GoodsType_HeadFrame",
				"Id": 50,
				"Count": 1
			}
		],
		"DropDisplayCount": 2,
		"Score": 0,
		"Strategy": ""
	},
	{
		"ID": 801,
		"Name": "为了铭记的启程",
		"NextScenarioID": 802,
		"DaysBeforeActivate": 0,
		"MonsterLevel": 50,
		"BattleID": 50811,
		"DialogBeforeBattle": 0,
		"DialogAfterBattle": 8111001,
		"WayPointsStateAfterBattle": [
			{
				"ID": 802,
				"State": "CollectionActivityWaypointStateType_Unlocked"
			}
		],
		"ActorResourceAfterBattle": "",
		"PlayerExp": 5,
		"HeroExp": 35,
		"GoldReward": 502,
		"EnergyCostSuccess": 5,
		"EnergyCostFail": 1,
		"FirstClearDrop": [
			{
				"GoodsType": "GoodsType_Crystal",
				"Id": 0,
				"Count": 30
			}
		],
		"DropDisplayCount": 2,
		"Score": 0,
		"Strategy": ""
	},
	{
		"ID": 802,
		"Name": "反逆的刺刃",
		"NextScenarioID": 803,
		"DaysBeforeActivate": 1,
		"MonsterLevel": 50,
		"BattleID": 50812,
		"DialogBeforeBattle": 0,
		"DialogAfterBattle": 8112001,
		"WayPointsStateAfterBattle": [
			{
				"ID": 803,
				"State": "CollectionActivityWaypointStateType_Unlocked"
			}
		],
		"ActorResourceAfterBattle": "",
		"PlayerExp": 5,
		"HeroExp": 35,
		"GoldReward": 502,
		"EnergyCostSuccess": 5,
		"EnergyCostFail": 1,
		"FirstClearDrop": [
			{
				"GoodsType": "GoodsType_Crystal",
				"Id": 0,
				"Count": 30
			}
		],
		"DropDisplayCount": 2,
		"Score": 0,
		"Strategy": ""
	},
	{
		"ID": 803,
		"Name": "无援的逃亡",
		"NextScenarioID": 804,
		"DaysBeforeActivate": 2,
		"MonsterLevel": 50,
		"BattleID": 50813,
		"DialogBeforeBattle": 8113001,
		"DialogAfterBattle": 8113050,
		"WayPointsStateAfterBattle": [
			{
				"ID": 804,
				"State": "CollectionActivityWaypointStateType_Unlocked"
			}
		],
		"ActorResourceAfterBattle": "",
		"PlayerExp": 5,
		"HeroExp": 35,
		"GoldReward": 502,
		"EnergyCostSuccess": 5,
		"EnergyCostFail": 1,
		"FirstClearDrop": [
			{
				"GoodsType": "GoodsType_Crystal",
				"Id": 0,
				"Count": 30
			}
		],
		"DropDisplayCount": 2,
		"Score": 0,
		"Strategy": ""
	},
	{
		"ID": 804,
		"Name": "女神的光",
		"NextScenarioID": 805,
		"DaysBeforeActivate": 3,
		"MonsterLevel": 50,
		"BattleID": 50814,
		"DialogBeforeBattle": 8114001,
		"DialogAfterBattle": 8114027,
		"WayPointsStateAfterBattle": [
			{
				"ID": 805,
				"State": "CollectionActivityWaypointStateType_Unlocked"
			}
		],
		"ActorResourceAfterBattle": "",
		"PlayerExp": 5,
		"HeroExp": 35,
		"GoldReward": 502,
		"EnergyCostSuccess": 5,
		"EnergyCostFail": 1,
		"FirstClearDrop": [
			{
				"GoodsType": "GoodsType_Crystal",
				"Id": 0,
				"Count": 30
			}
		],
		"DropDisplayCount": 2,
		"Score": 0,
		"Strategy": ""
	},
	{
		"ID": 805,
		"Name": "父辈的旗帜",
		"NextScenarioID": 806,
		"DaysBeforeActivate": 4,
		"MonsterLevel": 50,
		"BattleID": 50815,
		"DialogBeforeBattle": 8115001,
		"DialogAfterBattle": 8115050,
		"WayPointsStateAfterBattle": [
			{
				"ID": 806,
				"State": "CollectionActivityWaypointStateType_Unlocked"
			},
			{
				"ID": 809,
				"State": "CollectionActivityWaypointStateType_Unlocked"
			}
		],
		"ActorResourceAfterBattle": "",
		"PlayerExp": 5,
		"HeroExp": 35,
		"GoldReward": 502,
		"EnergyCostSuccess": 5,
		"EnergyCostFail": 1,
		"FirstClearDrop": [
			{
				"GoodsType": "GoodsType_Crystal",
				"Id": 0,
				"Count": 30
			}
		],
		"DropDisplayCount": 2,
		"Score": 0,
		"Strategy": ""
	},
	{
		"ID": 806,
		"Name": "混沌的降临",
		"NextScenarioID": 807,
		"DaysBeforeActivate": 5,
		"MonsterLevel": 50,
		"BattleID": 50816,
		"DialogBeforeBattle": 8116001,
		"DialogAfterBattle": 8116015,
		"WayPointsStateAfterBattle": [
			{
				"ID": 807,
				"State": "CollectionActivityWaypointStateType_Unlocked"
			}
		],
		"ActorResourceAfterBattle": "",
		"PlayerExp": 5,
		"HeroExp": 35,
		"GoldReward": 502,
		"EnergyCostSuccess": 5,
		"EnergyCostFail": 1,
		"FirstClearDrop": [
			{
				"GoodsType": "GoodsType_Crystal",
				"Id": 0,
				"Count": 30
			}
		],
		"DropDisplayCount": 2,
		"Score": 0,
		"Strategy": ""
	},
	{
		"ID": 807,
		"Name": "希望的复生",
		"NextScenarioID": 808,
		"DaysBeforeActivate": 6,
		"MonsterLevel": 50,
		"BattleID": 50817,
		"DialogBeforeBattle": 8117001,
		"DialogAfterBattle": 8117101,
		"WayPointsStateAfterBattle": [
			{
				"ID": 808,
				"State": "CollectionActivityWaypointStateType_Unlocked"
			},
			{
				"ID": 810,
				"State": "CollectionActivityWaypointStateType_Unlocked"
			}
		],
		"ActorResourceAfterBattle": "",
		"PlayerExp": 5,
		"HeroExp": 35,
		"GoldReward": 502,
		"EnergyCostSuccess": 5,
		"EnergyCostFail": 1,
		"FirstClearDrop": [
			{
				"GoodsType": "GoodsType_Crystal",
				"Id": 0,
				"Count": 30
			}
		],
		"DropDisplayCount": 2,
		"Score": 0,
		"Strategy": ""
	},
	{
		"ID": 808,
		"Name": "不被铭记的决战",
		"NextScenarioID": 0,
		"DaysBeforeActivate": 7,
		"MonsterLevel": 50,
		"BattleID": 50818,
		"DialogBeforeBattle": 0,
		"DialogAfterBattle": 8118101,
		"ActorResourceAfterBattle": "",
		"PlayerExp": 5,
		"HeroExp": 35,
		"GoldReward": 502,
		"EnergyCostSuccess": 5,
		"EnergyCostFail": 1,
		"FirstClearDrop": [
			{
				"GoodsType": "GoodsType_Crystal",
				"Id": 0,
				"Count": 30
			},
			{
				"GoodsType": "GoodsType_HeadFrame",
				"Id": 52,
				"Count": 1
			}
		],
		"DropDisplayCount": 2,
		"Score": 0,
		"Strategy": ""
	},
	{
		"ID": 901,
		"Name": "万灵夜，波乱的开场",
		"NextScenarioID": 902,
		"DaysBeforeActivate": 0,
		"MonsterLevel": 50,
		"BattleID": 51011,
		"DialogBeforeBattle": 8130001,
		"DialogAfterBattle": 8130101,
		"ActorResourceAfterBattle": "",
		"PlayerExp": 5,
		"HeroExp": 35,
		"GoldReward": 502,
		"EnergyCostSuccess": 5,
		"EnergyCostFail": 1,
		"FirstClearDrop": [
			{
				"GoodsType": "GoodsType_Crystal",
				"Id": 0,
				"Count": 30
			}
		],
		"DropDisplayCount": 2,
		"Score": 0,
		"Strategy": ""
	},
	{
		"ID": 902,
		"Name": "光与暗的恶戏",
		"NextScenarioID": 903,
		"DaysBeforeActivate": 1,
		"MonsterLevel": 50,
		"BattleID": 51012,
		"DialogBeforeBattle": 8131001,
		"DialogAfterBattle": 8131101,
		"WayPointsStateAfterBattle": [
			{
				"ID": 902,
				"State": "CollectionActivityWaypointStateType_Unlocked"
			}
		],
		"ActorResourceAfterBattle": "",
		"PlayerExp": 5,
		"HeroExp": 35,
		"GoldReward": 502,
		"EnergyCostSuccess": 5,
		"EnergyCostFail": 1,
		"FirstClearDrop": [
			{
				"GoodsType": "GoodsType_Crystal",
				"Id": 0,
				"Count": 30
			}
		],
		"DropDisplayCount": 2,
		"Score": 0,
		"Strategy": ""
	},
	{
		"ID": 903,
		"Name": "森林祟影",
		"NextScenarioID": 904,
		"DaysBeforeActivate": 2,
		"MonsterLevel": 50,
		"BattleID": 51013,
		"DialogBeforeBattle": 8132000,
		"DialogAfterBattle": 8132100,
		"WayPointsStateAfterBattle": [
			{
				"ID": 903,
				"State": "CollectionActivityWaypointStateType_Unlocked"
			}
		],
		"ActorResourceAfterBattle": "",
		"PlayerExp": 5,
		"HeroExp": 35,
		"GoldReward": 502,
		"EnergyCostSuccess": 5,
		"EnergyCostFail": 1,
		"FirstClearDrop": [
			{
				"GoodsType": "GoodsType_Crystal",
				"Id": 0,
				"Count": 30
			}
		],
		"DropDisplayCount": 2,
		"Score": 0,
		"Strategy": ""
	},
	{
		"ID": 904,
		"Name": "交错的魔女",
		"NextScenarioID": 905,
		"DaysBeforeActivate": 3,
		"MonsterLevel": 50,
		"BattleID": 51014,
		"DialogBeforeBattle": 8133000,
		"DialogAfterBattle": 8133100,
		"WayPointsStateAfterBattle": [
			{
				"ID": 904,
				"State": "CollectionActivityWaypointStateType_Unlocked"
			}
		],
		"ActorResourceAfterBattle": "",
		"PlayerExp": 5,
		"HeroExp": 35,
		"GoldReward": 502,
		"EnergyCostSuccess": 5,
		"EnergyCostFail": 1,
		"FirstClearDrop": [
			{
				"GoodsType": "GoodsType_Crystal",
				"Id": 0,
				"Count": 30
			}
		],
		"DropDisplayCount": 2,
		"Score": 0,
		"Strategy": ""
	},
	{
		"ID": 905,
		"Name": "乱心之诅咒",
		"NextScenarioID": 906,
		"DaysBeforeActivate": 4,
		"MonsterLevel": 50,
		"BattleID": 51015,
		"DialogBeforeBattle": 8134001,
		"DialogAfterBattle": 8134022,
		"WayPointsStateAfterBattle": [
			{
				"ID": 905,
				"State": "CollectionActivityWaypointStateType_Unlocked"
			}
		],
		"ActorResourceAfterBattle": "",
		"PlayerExp": 5,
		"HeroExp": 35,
		"GoldReward": 502,
		"EnergyCostSuccess": 5,
		"EnergyCostFail": 1,
		"FirstClearDrop": [
			{
				"GoodsType": "GoodsType_Crystal",
				"Id": 0,
				"Count": 30
			}
		],
		"DropDisplayCount": 2,
		"Score": 0,
		"Strategy": ""
	},
	{
		"ID": 906,
		"Name": "血族狂宴",
		"NextScenarioID": 907,
		"DaysBeforeActivate": 5,
		"MonsterLevel": 50,
		"BattleID": 51016,
		"DialogBeforeBattle": 8135001,
		"DialogAfterBattle": 8135027,
		"WayPointsStateAfterBattle": [
			{
				"ID": 906,
				"State": "CollectionActivityWaypointStateType_Unlocked"
			}
		],
		"ActorResourceAfterBattle": "",
		"PlayerExp": 5,
		"HeroExp": 35,
		"GoldReward": 502,
		"EnergyCostSuccess": 5,
		"EnergyCostFail": 1,
		"FirstClearDrop": [
			{
				"GoodsType": "GoodsType_Crystal",
				"Id": 0,
				"Count": 30
			}
		],
		"DropDisplayCount": 2,
		"Score": 0,
		"Strategy": ""
	},
	{
		"ID": 907,
		"Name": "万灵夜的真相",
		"NextScenarioID": 908,
		"DaysBeforeActivate": 6,
		"MonsterLevel": 50,
		"BattleID": 51017,
		"DialogBeforeBattle": 8137001,
		"DialogAfterBattle": 8137101,
		"ActorResourceAfterBattle": "",
		"PlayerExp": 5,
		"HeroExp": 35,
		"GoldReward": 502,
		"EnergyCostSuccess": 5,
		"EnergyCostFail": 1,
		"FirstClearDrop": [
			{
				"GoodsType": "GoodsType_Crystal",
				"Id": 0,
				"Count": 30
			}
		],
		"DropDisplayCount": 2,
		"Score": 0,
		"Strategy": ""
	},
	{
		"ID": 908,
		"Name": "鬼怪与糖果的狂想",
		"NextScenarioID": 0,
		"DaysBeforeActivate": 7,
		"MonsterLevel": 50,
		"BattleID": 51018,
		"DialogBeforeBattle": 8138001,
		"DialogAfterBattle": 8138101,
		"ActorResourceAfterBattle": "",
		"PlayerExp": 5,
		"HeroExp": 35,
		"GoldReward": 502,
		"EnergyCostSuccess": 5,
		"EnergyCostFail": 1,
		"FirstClearDrop": [
			{
				"GoodsType": "GoodsType_Crystal",
				"Id": 0,
				"Count": 30
			},
			{
				"GoodsType": "GoodsType_HeadFrame",
				"Id": 57,
				"Count": 1
			}
		],
		"DropDisplayCount": 2,
		"Score": 0,
		"Strategy": ""
	},
	{
		"ID": 1001,
		"Name": "穿越不归之森",
		"NextScenarioID": 1002,
		"DaysBeforeActivate": 0,
		"MonsterLevel": 50,
		"BattleID": 52011,
		"DialogBeforeBattle": 8141001,
		"DialogAfterBattle": 8141031,
		"WayPointsStateAfterBattle": [
			{
				"ID": 1002,
				"State": "CollectionActivityWaypointStateType_Unlocked"
			}
		],
		"ActorResourceAfterBattle": "Spine/General/Parn_ABS/Parn_SwordMaster/Parn_SwordMaster4_Prefab.prefab",
		"PlayerExp": 5,
		"HeroExp": 35,
		"GoldReward": 502,
		"EnergyCostSuccess": 5,
		"EnergyCostFail": 1,
		"FirstClearDrop": [
			{
				"GoodsType": "GoodsType_Crystal",
				"Id": 0,
				"Count": 30
			}
		],
		"DropDisplayCount": 2,
		"Score": 0,
		"Strategy": ""
	},
	{
		"ID": 1002,
		"Name": "开启新的传说",
		"NextScenarioID": 1003,
		"DaysBeforeActivate": 1,
		"MonsterLevel": 50,
		"BattleID": 52012,
		"DialogBeforeBattle": 8142001,
		"DialogAfterBattle": 8142014,
		"WayPointsStateAfterBattle": [
			{
				"ID": 1003,
				"State": "CollectionActivityWaypointStateType_Unlocked"
			}
		],
		"ActorResourceAfterBattle": "Spine/General/Ashram_ABS/Ashram_DragonKnight/Ashram_DragonMaster4_Prefab.prefab",
		"PlayerExp": 5,
		"HeroExp": 35,
		"GoldReward": 502,
		"EnergyCostSuccess": 5,
		"EnergyCostFail": 1,
		"FirstClearDrop": [
			{
				"GoodsType": "GoodsType_Crystal",
				"Id": 0,
				"Count": 30
			}
		],
		"DropDisplayCount": 2,
		"Score": 0,
		"Strategy": ""
	},
	{
		"ID": 1003,
		"Name": "法夫尼尔之谜",
		"NextScenarioID": 1004,
		"DaysBeforeActivate": 2,
		"MonsterLevel": 50,
		"BattleID": 52013,
		"DialogBeforeBattle": 8143001,
		"DialogAfterBattle": 8143301,
		"WayPointsStateAfterBattle": [
			{
				"ID": 1004,
				"State": "CollectionActivityWaypointStateType_Unlocked"
			}
		],
		"ActorResourceAfterBattle": "Spine/General/Parn_ABS/Parn_SwordMaster/Parn_SwordMaster4_Prefab.prefab",
		"PlayerExp": 5,
		"HeroExp": 35,
		"GoldReward": 502,
		"EnergyCostSuccess": 5,
		"EnergyCostFail": 1,
		"FirstClearDrop": [
			{
				"GoodsType": "GoodsType_Crystal",
				"Id": 0,
				"Count": 30
			}
		],
		"DropDisplayCount": 2,
		"Score": 0,
		"Strategy": ""
	},
	{
		"ID": 1004,
		"Name": "混乱中的混乱",
		"NextScenarioID": 1005,
		"DaysBeforeActivate": 3,
		"MonsterLevel": 50,
		"BattleID": 52014,
		"DialogBeforeBattle": 8144001,
		"DialogAfterBattle": 0,
		"WayPointsStateAfterBattle": [
			{
				"ID": 1005,
				"State": "CollectionActivityWaypointStateType_Unlocked"
			}
		],
		"ActorResourceAfterBattle": "Spine/General/Ashram_ABS/Ashram_DragonKnight/Ashram_DragonMaster4_Prefab.prefab",
		"PlayerExp": 5,
		"HeroExp": 35,
		"GoldReward": 502,
		"EnergyCostSuccess": 5,
		"EnergyCostFail": 1,
		"FirstClearDrop": [
			{
				"GoodsType": "GoodsType_Crystal",
				"Id": 0,
				"Count": 30
			}
		],
		"DropDisplayCount": 2,
		"Score": 0,
		"Strategy": ""
	},
	{
		"ID": 1005,
		"Name": "穿过黑暗的光",
		"NextScenarioID": 1006,
		"DaysBeforeActivate": 4,
		"MonsterLevel": 50,
		"BattleID": 52015,
		"DialogBeforeBattle": 8145000,
		"DialogAfterBattle": 8145006,
		"WayPointsStateAfterBattle": [
			{
				"ID": 1006,
				"State": "CollectionActivityWaypointStateType_Unlocked"
			}
		],
		"ActorResourceAfterBattle": "Spine/General/Parn_ABS/Parn_SwordMaster/Parn_SwordMaster4_Prefab.prefab",
		"PlayerExp": 5,
		"HeroExp": 35,
		"GoldReward": 502,
		"EnergyCostSuccess": 5,
		"EnergyCostFail": 1,
		"FirstClearDrop": [
			{
				"GoodsType": "GoodsType_Crystal",
				"Id": 0,
				"Count": 30
			}
		],
		"DropDisplayCount": 2,
		"Score": 0,
		"Strategy": ""
	},
	{
		"ID": 1006,
		"Name": "魔女的诡计",
		"NextScenarioID": 1007,
		"DaysBeforeActivate": 5,
		"MonsterLevel": 50,
		"BattleID": 52016,
		"DialogBeforeBattle": 8146001,
		"DialogAfterBattle": 8146100,
		"WayPointsStateAfterBattle": [
			{
				"ID": 1007,
				"State": "CollectionActivityWaypointStateType_Unlocked"
			}
		],
		"ActorResourceAfterBattle": "Spine/General/Parn_ABS/Parn_SwordMaster/Parn_SwordMaster4_Prefab.prefab",
		"PlayerExp": 5,
		"HeroExp": 35,
		"GoldReward": 502,
		"EnergyCostSuccess": 5,
		"EnergyCostFail": 1,
		"FirstClearDrop": [
			{
				"GoodsType": "GoodsType_Crystal",
				"Id": 0,
				"Count": 30
			}
		],
		"DropDisplayCount": 2,
		"Score": 0,
		"Strategy": ""
	},
	{
		"ID": 1007,
		"Name": "最后的战争",
		"NextScenarioID": 0,
		"DaysBeforeActivate": 6,
		"MonsterLevel": 50,
		"BattleID": 52017,
		"DialogBeforeBattle": 8147001,
		"DialogAfterBattle": 8147101,
		"ActorResourceAfterBattle": "Spine/General/Parn_ABS/Parn_SwordMaster/Parn_SwordMaster4_Prefab.prefab",
		"PlayerExp": 5,
		"HeroExp": 35,
		"GoldReward": 502,
		"EnergyCostSuccess": 5,
		"EnergyCostFail": 1,
		"FirstClearDrop": [
			{
				"GoodsType": "GoodsType_Crystal",
				"Id": 0,
				"Count": 30
			},
			{
				"GoodsType": "GoodsType_HeadFrame",
				"Id": 59,
				"Count": 1
			}
		],
		"DropDisplayCount": 2,
		"Score": 0,
		"Strategy": ""
	}
]