[
	{
		"ID": 1,
		"Name": "礼物祭",
		"Desc": "礼物祭",
		"WaypointsID": [
			1,
			2,
			3,
			4,
			5,
			6,
			7,
			8,
			9,
			10,
			11,
			12,
			13,
			14,
			15,
			16
		],
		"StartWaypointID": 2,
		"FirstScenarioID": 1,
		"Background": "CollectionActivityMap/CollectionActivityMap1_ABS/CollectionActivityMap1_Prefab.prefab",
		"BackgroundWidth": 18,
		"BackgroundHeight": 14,
		"CameraHeight": 450,
		"CameraHeightMin": 370,
		"CameraHeightMax": 550,
		"CameraAngle": 20,
		"CameraFollow": true
	},
	{
		"ID": 2,
		"Name": "空轨第一期",
		"Desc": "空轨第一期",
		"WaypointsID": [
			101,
			102,
			103,
			104,
			105,
			106,
			107,
			108,
			109,
			110,
			111,
			112,
			113,
			114,
			115,
			116,
			117,
			118,
			119,
			120,
			121,
			122,
			123
		],
		"StartWaypointID": 104,
		"FirstScenarioID": 101,
		"Background": "CollectionActivityMap/CollectionActivityMap2_ABS/CollectionActivityMap2_Prefab.prefab",
		"BackgroundWidth": 18,
		"BackgroundHeight": 14,
		"CameraHeight": 450,
		"CameraHeightMin": 370,
		"CameraHeightMax": 550,
		"CameraAngle": 20,
		"CameraFollow": true
	},
	{
		"ID": 3,
		"Name": "空轨第二期",
		"Desc": "空轨第二期",
		"WaypointsID": [
			201,
			202,
			203,
			204,
			205,
			206,
			207,
			208,
			209,
			210,
			211,
			212,
			213,
			214,
			215,
			216,
			217,
			218,
			219
		],
		"StartWaypointID": 201,
		"FirstScenarioID": 201,
		"Background": "CollectionActivityMap/CollectionActivityMap3_ABS/CollectionActivityMap3_Prefab.prefab",
		"BackgroundWidth": 18,
		"BackgroundHeight": 14,
		"CameraHeight": 450,
		"CameraHeightMin": 370,
		"CameraHeightMax": 550,
		"CameraAngle": 20,
		"CameraFollow": true
	},
	{
		"ID": 4,
		"Name": "霸者线活动",
		"Desc": "霸者线活动",
		"WaypointsID": [
			301,
			302,
			303,
			304,
			305,
			306,
			307,
			308,
			309,
			310,
			311,
			312,
			313,
			314,
			315,
			316,
			317,
			318,
			319,
			320,
			321,
			322,
			323,
			324,
			325,
			326,
			327,
			328,
			329
		],
		"StartWaypointID": 301,
		"FirstScenarioID": 301,
		"Background": "CollectionActivityMap/CollectionActivityMap4_ABS/CollectionActivityMap4_Prefab.prefab",
		"BackgroundWidth": 14,
		"BackgroundHeight": 10,
		"CameraHeight": 550,
		"CameraHeightMin": 550,
		"CameraHeightMax": 550,
		"CameraAngle": 0,
		"CameraFollow": true
	},
	{
		"ID": 5,
		"Name": "樱花绽放之刻",
		"Desc": "樱花绽放之刻",
		"WaypointsID": [
			401,
			402,
			403,
			404,
			410,
			411,
			412,
			413,
			414,
			415,
			416,
			417,
			418,
			419,
			420,
			421,
			422,
			423,
			424,
			425,
			426,
			427,
			428,
			429,
			430,
			431
		],
		"StartWaypointID": 401,
		"FirstScenarioID": 401,
		"Background": "CollectionActivityMap/CollectionActivityMap5_ABS/CollectionActivityMap5_Prefab.prefab",
		"BackgroundWidth": 14,
		"BackgroundHeight": 12,
		"CameraHeight": 550,
		"CameraHeightMin": 550,
		"CameraHeightMax": 550,
		"CameraAngle": 0,
		"CameraFollow": true
	},
	{
		"ID": 6,
		"Name": "音乐会",
		"Desc": "音乐会",
		"WaypointsID": [
			501,
			502,
			503,
			504,
			505,
			506,
			507
		],
		"StartWaypointID": 501,
		"FirstScenarioID": 501,
		"Background": "CollectionActivityMap/CollectionActivityMap6_ABS/CollectionActivityMap6_Prefab.prefab",
		"BackgroundWidth": 13,
		"BackgroundHeight": 11,
		"CameraHeight": 600,
		"CameraHeightMin": 600,
		"CameraHeightMax": 600,
		"CameraAngle": 0,
		"CameraFollow": true
	},
	{
		"ID": 7,
		"Name": "世上最灿烂的花火",
		"Desc": "史上最灿烂花火",
		"WaypointsID": [
			601,
			602,
			603,
			604,
			605,
			606,
			607,
			608,
			609,
			610,
			611,
			612,
			613,
			614
		],
		"StartWaypointID": 601,
		"FirstScenarioID": 601,
		"Background": "CollectionActivityMap/CollectionActivityMap7_ABS/CollectionActivityMap7_Prefab.prefab",
		"BackgroundWidth": 13,
		"BackgroundHeight": 11,
		"CameraHeight": 600,
		"CameraHeightMin": 600,
		"CameraHeightMax": 600,
		"CameraAngle": 0,
		"CameraFollow": true
	},
	{
		"ID": 8,
		"Name": "研发组的暴走日常",
		"Desc": "研发组的暴走日常",
		"WaypointsID": [
			701,
			702,
			703,
			704,
			705,
			711,
			712,
			713,
			714,
			715,
			716,
			717,
			718,
			719,
			720,
			721,
			722
		],
		"StartWaypointID": 701,
		"FirstScenarioID": 701,
		"Background": "CollectionActivityMap/CollectionActivityMap8_ABS/CollectionActivityMap8_Prefab.prefab",
		"BackgroundWidth": 14,
		"BackgroundHeight": 12,
		"CameraHeight": 550,
		"CameraHeightMin": 500,
		"CameraHeightMax": 600,
		"CameraAngle": 0,
		"CameraFollow": true
	},
	{
		"ID": 9,
		"Name": "少女的旅途",
		"Desc": "少女的旅途",
		"WaypointsID": [
			801,
			802,
			803,
			804,
			805,
			806,
			807,
			808,
			809,
			810,
			811,
			812,
			813,
			814,
			815,
			816,
			817,
			818,
			819,
			820,
			821,
			822,
			823,
			824,
			825,
			826,
			827,
			828,
			829,
			830
		],
		"StartWaypointID": 801,
		"FirstScenarioID": 801,
		"Background": "CollectionActivityMap/CollectionActivityMap9_ABS/CollectionActivityMap9_Prefab.prefab",
		"BackgroundWidth": 14,
		"BackgroundHeight": 10,
		"CameraHeight": 550,
		"CameraHeightMin": 550,
		"CameraHeightMax": 550,
		"CameraAngle": 0,
		"CameraFollow": true
	},
	{
		"ID": 10,
		"Name": "万灵狂欢之夜",
		"Desc": "万灵狂欢之夜",
		"WaypointsID": [
			901,
			902,
			903,
			904,
			905,
			906,
			911,
			912,
			913,
			914,
			915,
			916,
			917,
			918,
			919,
			920
		],
		"StartWaypointID": 901,
		"FirstScenarioID": 901,
		"Background": "CollectionActivityMap/CollectionActivityMap10_ABS/CollectionActivityMap10_Prefab.prefab",
		"BackgroundWidth": 14,
		"BackgroundHeight": 10,
		"CameraHeight": 550,
		"CameraHeightMin": 550,
		"CameraHeightMax": 550,
		"CameraAngle": 0,
		"CameraFollow": true
	},
	{
		"ID": 11,
		"Name": "罗德岛的辉暗书",
		"Desc": "罗德岛的辉暗书",
		"WaypointsID": [
			1001,
			1002,
			1003,
			1004,
			1005,
			1006,
			1007,
			1010,
			1011,
			1012,
			1013,
			1014,
			1015,
			1016,
			1017,
			1018,
			1019
		],
		"StartWaypointID": 1001,
		"FirstScenarioID": 1001,
		"Background": "CollectionActivityMap/CollectionActivityMap11_ABS/CollectionActivityMap11_Prefab.prefab",
		"BackgroundWidth": 14,
		"BackgroundHeight": 10,
		"CameraHeight": 550,
		"CameraHeightMin": 550,
		"CameraHeightMax": 550,
		"CameraAngle": 0,
		"CameraFollow": true
	}
]