[
	{
		"ID": 11,
		"Name": "S1赛季冠军",
		"Desc": "巅峰竞技场S1赛季冠军称号。生效至S2赛季淘汰赛为止。\n*称号会在名片、组队、聊天界面中显示。",
		"Rarity": 4,
		"ResourceLocation": "UI/PlayerTitle_ABS/S1Title_1Image.png",
		"FrameLocation": "UI/PlayerTitle_ABS/Peakarena_S2_Bgline1.png",
		"Icon": "UI/Icon/Item_ABS/Peakarena_Title1.png",
		"EndTime": "9/16/2019 23:59:59"
	},
	{
		"ID": 12,
		"Name": "S1赛季亚军",
		"Desc": "巅峰竞技场S1赛季亚军称号。生效至S2赛季淘汰赛为止。\n*称号会在名片、组队、聊天界面中显示。",
		"Rarity": 4,
		"ResourceLocation": "UI/PlayerTitle_ABS/S1Title_2Image.png",
		"FrameLocation": "UI/PlayerTitle_ABS/Peakarena_S2_Bgline2.png",
		"Icon": "UI/Icon/Item_ABS/Peakarena_Title2.png",
		"EndTime": "9/16/2019 23:59:59"
	},
	{
		"ID": 13,
		"Name": "S1赛季4强",
		"Desc": "巅峰竞技场S1赛季4强称号。生效至S2赛季淘汰赛为止。\n*称号会在名片、组队、聊天界面中显示。",
		"Rarity": 4,
		"ResourceLocation": "UI/PlayerTitle_ABS/S1Title_2Image.png",
		"FrameLocation": "UI/PlayerTitle_ABS/Peakarena_S2_Bgline2.png",
		"Icon": "UI/Icon/Item_ABS/Peakarena_Title2.png",
		"EndTime": "9/16/2019 23:59:59"
	},
	{
		"ID": 14,
		"Name": "S1赛季8强",
		"Desc": "巅峰竞技场S1赛季8强称号。生效至S2赛季淘汰赛为止。\n*称号会在名片、组队、聊天界面中显示。",
		"Rarity": 4,
		"ResourceLocation": "UI/PlayerTitle_ABS/S1Title_3Image.png",
		"FrameLocation": "UI/PlayerTitle_ABS/Peakarena_S2_Bgline3.png",
		"Icon": "UI/Icon/Item_ABS/Peakarena_Title3.png",
		"EndTime": "9/16/2019 23:59:59"
	},
	{
		"ID": 15,
		"Name": "S1赛季16强",
		"Desc": "巅峰竞技场S1赛季16强称号。生效至S2赛季淘汰赛为止。\n*称号会在名片、组队、聊天界面中显示。",
		"Rarity": 4,
		"ResourceLocation": "UI/PlayerTitle_ABS/S1Title_3Image.png",
		"FrameLocation": "UI/PlayerTitle_ABS/Peakarena_S2_Bgline3.png",
		"Icon": "UI/Icon/Item_ABS/Peakarena_Title3.png",
		"EndTime": "9/16/2019 23:59:59"
	},
	{
		"ID": 16,
		"Name": "S1赛季32强",
		"Desc": "巅峰竞技场S1赛季32强称号。生效至S2赛季淘汰赛为止。\n*称号会在名片、组队、聊天界面中显示。",
		"Rarity": 4,
		"ResourceLocation": "UI/PlayerTitle_ABS/S1Title_4Image.png",
		"FrameLocation": "UI/PlayerTitle_ABS/Peakarena_S2_Bgline4.png",
		"Icon": "UI/Icon/Item_ABS/Peakarena_Title4.png",
		"EndTime": "9/16/2019 23:59:59"
	},
	{
		"ID": 17,
		"Name": "S1赛季64强",
		"Desc": "巅峰竞技场S1赛季64强称号。生效至S2赛季淘汰赛为止。\n*称号会在名片、组队、聊天界面中显示。",
		"Rarity": 4,
		"ResourceLocation": "UI/PlayerTitle_ABS/S1Title_4Image.png",
		"FrameLocation": "UI/PlayerTitle_ABS/Peakarena_S2_Bgline4.png",
		"Icon": "UI/Icon/Item_ABS/Peakarena_Title4.png",
		"EndTime": "9/16/2019 23:59:59"
	},
	{
		"ID": 18,
		"Name": "S1赛季128强",
		"Desc": "巅峰竞技场S1赛季128强称号。生效至S2赛季淘汰赛为止。\n*称号会在名片、组队、聊天界面中显示。",
		"Rarity": 4,
		"ResourceLocation": "UI/PlayerTitle_ABS/S1Title_5Image.png",
		"FrameLocation": "UI/PlayerTitle_ABS/Peakarena_S2_Bgline5.png",
		"Icon": "UI/Icon/Item_ABS/Peakarena_Title5.png",
		"EndTime": "9/16/2019 23:59:59"
	},
	{
		"ID": 19,
		"Name": "S1赛季256强",
		"Desc": "巅峰竞技场S1赛季256强称号。生效至S2赛季淘汰赛为止。\n*称号会在名片、组队、聊天界面中显示。",
		"Rarity": 4,
		"ResourceLocation": "UI/PlayerTitle_ABS/S1Title_5Image.png",
		"FrameLocation": "UI/PlayerTitle_ABS/Peakarena_S2_Bgline5.png",
		"Icon": "UI/Icon/Item_ABS/Peakarena_Title5.png",
		"EndTime": "9/16/2019 23:59:59"
	},
	{
		"ID": 21,
		"Name": "S2赛季冠军",
		"Desc": "巅峰竞技场S2赛季冠军称号。生效至S3赛季淘汰赛为止。\n*称号会在名片、组队、聊天界面中显示。",
		"Rarity": 4,
		"ResourceLocation": "UI/PlayerTitle_ABS/S1Title_1Image.png",
		"FrameLocation": "UI/PlayerTitle_ABS/Peakarena_S2_Bgline1.png",
		"Icon": "UI/Icon/Item_ABS/Peakarena_S2_Title1.png",
		"EndTime": "1/6/2020 23:59:59"
	},
	{
		"ID": 22,
		"Name": "S2赛季亚军",
		"Desc": "巅峰竞技场S2赛季亚军称号。生效至S3赛季淘汰赛为止。\n*称号会在名片、组队、聊天界面中显示。",
		"Rarity": 4,
		"ResourceLocation": "UI/PlayerTitle_ABS/S1Title_2Image.png",
		"FrameLocation": "UI/PlayerTitle_ABS/Peakarena_S2_Bgline2.png",
		"Icon": "UI/Icon/Item_ABS/Peakarena_S2_Title2.png",
		"EndTime": "1/6/2020 23:59:59"
	},
	{
		"ID": 23,
		"Name": "S2赛季4强",
		"Desc": "巅峰竞技场S2赛季4强称号。生效至S3赛季淘汰赛为止。\n*称号会在名片、组队、聊天界面中显示。",
		"Rarity": 4,
		"ResourceLocation": "UI/PlayerTitle_ABS/S1Title_3Image.png",
		"FrameLocation": "UI/PlayerTitle_ABS/Peakarena_S2_Bgline3.png",
		"Icon": "UI/Icon/Item_ABS/Peakarena_S2_Title2.png",
		"EndTime": "1/6/2020 23:59:59"
	},
	{
		"ID": 24,
		"Name": "S2赛季8强",
		"Desc": "巅峰竞技场S2赛季8强称号。生效至S3赛季淘汰赛为止。\n*称号会在名片、组队、聊天界面中显示。",
		"Rarity": 4,
		"ResourceLocation": "UI/PlayerTitle_ABS/S1Title_4Image.png",
		"FrameLocation": "UI/PlayerTitle_ABS/Peakarena_S2_Bgline4.png",
		"Icon": "UI/Icon/Item_ABS/Peakarena_S2_Title3.png",
		"EndTime": "1/6/2020 23:59:59"
	},
	{
		"ID": 25,
		"Name": "S2赛季16强",
		"Desc": "巅峰竞技场S2赛季16强称号。生效至S3赛季淘汰赛为止。\n*称号会在名片、组队、聊天界面中显示。",
		"Rarity": 4,
		"ResourceLocation": "UI/PlayerTitle_ABS/S1Title_5Image.png",
		"FrameLocation": "UI/PlayerTitle_ABS/Peakarena_S2_Bgline5.png",
		"Icon": "UI/Icon/Item_ABS/Peakarena_S2_Title3.png",
		"EndTime": "1/6/2020 23:59:59"
	},
	{
		"ID": 26,
		"Name": "S2赛季32强",
		"Desc": "巅峰竞技场S2赛季32强称号。生效至S3赛季淘汰赛为止。\n*称号会在名片、组队、聊天界面中显示。",
		"Rarity": 4,
		"ResourceLocation": "UI/PlayerTitle_ABS/S1Title_6Image.png",
		"FrameLocation": "UI/PlayerTitle_ABS/Peakarena_S2_Bgline6.png",
		"Icon": "UI/Icon/Item_ABS/Peakarena_S2_Title4.png",
		"EndTime": "1/6/2020 23:59:59"
	},
	{
		"ID": 27,
		"Name": "S2赛季64强",
		"Desc": "巅峰竞技场S2赛季64强称号。生效至S3赛季淘汰赛为止。\n*称号会在名片、组队、聊天界面中显示。",
		"Rarity": 4,
		"ResourceLocation": "UI/PlayerTitle_ABS/S1Title_7Image.png",
		"FrameLocation": "UI/PlayerTitle_ABS/Peakarena_S2_Bgline7.png",
		"Icon": "UI/Icon/Item_ABS/Peakarena_S2_Title4.png",
		"EndTime": "1/6/2020 23:59:59"
	},
	{
		"ID": 28,
		"Name": "S2赛季128强",
		"Desc": "巅峰竞技场S2赛季128强称号。生效至S3赛季淘汰赛为止。\n*称号会在名片、组队、聊天界面中显示。",
		"Rarity": 4,
		"ResourceLocation": "UI/PlayerTitle_ABS/S1Title_8Image.png",
		"FrameLocation": "UI/PlayerTitle_ABS/Peakarena_S2_Bgline8.png",
		"Icon": "UI/Icon/Item_ABS/Peakarena_S2_Title5.png",
		"EndTime": "1/6/2020 23:59:59"
	},
	{
		"ID": 29,
		"Name": "S2赛季256强",
		"Desc": "巅峰竞技场S2赛季256强称号。生效至S3赛季淘汰赛为止。\n*称号会在名片、组队、聊天界面中显示。",
		"Rarity": 4,
		"ResourceLocation": "UI/PlayerTitle_ABS/S1Title_9Image.png",
		"FrameLocation": "UI/PlayerTitle_ABS/Peakarena_S2_Bgline9.png",
		"Icon": "UI/Icon/Item_ABS/Peakarena_S2_Title5.png",
		"EndTime": "1/6/2020 23:59:59"
	},
	{
		"ID": 31,
		"Name": "S3赛季冠军",
		"Desc": "巅峰竞技场S3赛季冠军称号。生效至S4赛季淘汰赛为止。\n*称号会在名片、组队、聊天界面中显示。",
		"Rarity": 4,
		"ResourceLocation": "UI/PlayerTitle_ABS/S1Title_1Image.png",
		"FrameLocation": "UI/PlayerTitle_ABS/Peakarena_S2_Bgline1.png",
		"Icon": "UI/Icon/Item_ABS/Peakarena_Title1.png",
		"EndTime": "3/27/2020 23:59:59"
	},
	{
		"ID": 32,
		"Name": "S3赛季亚军",
		"Desc": "巅峰竞技场S3赛季亚军称号。生效至S4赛季淘汰赛为止。\n*称号会在名片、组队、聊天界面中显示。",
		"Rarity": 4,
		"ResourceLocation": "UI/PlayerTitle_ABS/S1Title_2Image.png",
		"FrameLocation": "UI/PlayerTitle_ABS/Peakarena_S2_Bgline2.png",
		"Icon": "UI/Icon/Item_ABS/Peakarena_Title2.png",
		"EndTime": "3/27/2020 23:59:59"
	},
	{
		"ID": 33,
		"Name": "S3赛季4强",
		"Desc": "巅峰竞技场S3赛季4强称号。生效至S4赛季淘汰赛为止。\n*称号会在名片、组队、聊天界面中显示。",
		"Rarity": 4,
		"ResourceLocation": "UI/PlayerTitle_ABS/S1Title_3Image.png",
		"FrameLocation": "UI/PlayerTitle_ABS/Peakarena_S2_Bgline3.png",
		"Icon": "UI/Icon/Item_ABS/Peakarena_Title3.png",
		"EndTime": "3/27/2020 23:59:59"
	},
	{
		"ID": 34,
		"Name": "S3赛季8强",
		"Desc": "巅峰竞技场S3赛季8强称号。生效至S4赛季淘汰赛为止。\n*称号会在名片、组队、聊天界面中显示。",
		"Rarity": 4,
		"ResourceLocation": "UI/PlayerTitle_ABS/S1Title_4Image.png",
		"FrameLocation": "UI/PlayerTitle_ABS/Peakarena_S2_Bgline4.png",
		"Icon": "UI/Icon/Item_ABS/Peakarena_Title4.png",
		"EndTime": "3/27/2020 23:59:59"
	},
	{
		"ID": 35,
		"Name": "S3赛季16强",
		"Desc": "巅峰竞技场S3赛季16强称号。生效至S4赛季淘汰赛为止。\n*称号会在名片、组队、聊天界面中显示。",
		"Rarity": 4,
		"ResourceLocation": "UI/PlayerTitle_ABS/S1Title_5Image.png",
		"FrameLocation": "UI/PlayerTitle_ABS/Peakarena_S2_Bgline5.png",
		"Icon": "UI/Icon/Item_ABS/Peakarena_Title5.png",
		"EndTime": "3/27/2020 23:59:59"
	},
	{
		"ID": 36,
		"Name": "S3赛季32强",
		"Desc": "巅峰竞技场S3赛季32强称号。生效至S4赛季淘汰赛为止。\n*称号会在名片、组队、聊天界面中显示。",
		"Rarity": 4,
		"ResourceLocation": "UI/PlayerTitle_ABS/S1Title_6Image.png",
		"FrameLocation": "UI/PlayerTitle_ABS/Peakarena_S2_Bgline6.png",
		"Icon": "UI/Icon/Item_ABS/Peakarena_Title6.png",
		"EndTime": "3/27/2020 23:59:59"
	},
	{
		"ID": 37,
		"Name": "S3赛季64强",
		"Desc": "巅峰竞技场S3赛季64强称号。生效至S4赛季淘汰赛为止。\n*称号会在名片、组队、聊天界面中显示。",
		"Rarity": 4,
		"ResourceLocation": "UI/PlayerTitle_ABS/S1Title_7Image.png",
		"FrameLocation": "UI/PlayerTitle_ABS/Peakarena_S2_Bgline7.png",
		"Icon": "UI/Icon/Item_ABS/Peakarena_Title7.png",
		"EndTime": "3/27/2020 23:59:59"
	},
	{
		"ID": 38,
		"Name": "S3赛季128强",
		"Desc": "巅峰竞技场S3赛季128强称号。生效至S4赛季淘汰赛为止。\n*称号会在名片、组队、聊天界面中显示。",
		"Rarity": 4,
		"ResourceLocation": "UI/PlayerTitle_ABS/S1Title_8Image.png",
		"FrameLocation": "UI/PlayerTitle_ABS/Peakarena_S2_Bgline8.png",
		"Icon": "UI/Icon/Item_ABS/Peakarena_Title8.png",
		"EndTime": "3/27/2020 23:59:59"
	},
	{
		"ID": 39,
		"Name": "S3赛季256强",
		"Desc": "巅峰竞技场S3赛季256强称号。生效至S4赛季淘汰赛为止。\n*称号会在名片、组队、聊天界面中显示。",
		"Rarity": 4,
		"ResourceLocation": "UI/PlayerTitle_ABS/S1Title_9Image.png",
		"FrameLocation": "UI/PlayerTitle_ABS/Peakarena_S2_Bgline9.png",
		"Icon": "UI/Icon/Item_ABS/Peakarena_Title9.png",
		"EndTime": "3/27/2020 23:59:59"
	}
]