[
	{
		"ID": 1,
		"Desc": "缴纳道具",
		"AchievementID": 0,
		"ItemCost": [
			{
				"GoodsType": "GoodsType_Item",
				"Id": 4008,
				"Count": 9999
			}
		]
	},
	{
		"ID": 2,
		"Desc": "缴纳道具",
		"AchievementID": 0,
		"ItemCost": [
			{
				"GoodsType": "GoodsType_Item",
				"Id": 4008,
				"Count": 9999
			}
		]
	},
	{
		"ID": 3,
		"Desc": "缴纳道具",
		"AchievementID": 0,
		"ItemCost": [
			{
				"GoodsType": "GoodsType_Item",
				"Id": 4008,
				"Count": 9999
			}
		]
	},
	{
		"ID": 4,
		"Desc": "缴纳道具",
		"AchievementID": 0,
		"ItemCost": [
			{
				"GoodsType": "GoodsType_Item",
				"Id": 4008,
				"Count": 9999
			}
		]
	},
	{
		"ID": 5,
		"Desc": "缴纳道具",
		"AchievementID": 0,
		"ItemCost": [
			{
				"GoodsType": "GoodsType_Item",
				"Id": 4008,
				"Count": 9999
			}
		]
	},
	{
		"ID": 6,
		"Desc": "击败利亚特",
		"AchievementID": 4
	},
	{
		"ID": 7,
		"Desc": "击败利昂",
		"AchievementID": 5
	},
	{
		"ID": 8,
		"Desc": "5回合内过关",
		"AchievementID": 6
	},
	{
		"ID": 9,
		"Desc": "上场将领不超过3人",
		"AchievementID": 7
	},
	{
		"ID": 10,
		"Desc": "击败埃格贝尔特",
		"AchievementID": 8
	},
	{
		"ID": 11,
		"Desc": "不击退索鲁姆过关",
		"AchievementID": 9
	},
	{
		"ID": 12,
		"Desc": "4回合内过关",
		"AchievementID": 10
	},
	{
		"ID": 13,
		"Desc": "6回合内过关",
		"AchievementID": 11
	},
	{
		"ID": 14,
		"Desc": "条件14",
		"AchievementID": 4
	},
	{
		"ID": 15,
		"Desc": "条件15",
		"AchievementID": 4
	}
]