[
	{
		"ID": 1,
		"PeriodStartTime": "6/20/2019 00:00:00.00",
		"BossList": [
			1,
			2,
			3,
			4,
			5,
			1,
			2,
			3,
			4,
			5
		],
		"SingleBossLastDays": 3
	},
	{
		"ID": 2,
		"PeriodStartTime": "7/20/2019 00:00:00.00",
		"BossList": [
			1,
			2,
			3,
			4,
			5
		],
		"SingleBossLastDays": 6
	},
	{
		"ID": 3,
		"PeriodStartTime": "8/19/2019 00:00:00.00",
		"BossList": [
			1,
			2,
			3,
			4,
			5
		],
		"SingleBossLastDays": 6
	},
	{
		"ID": 4,
		"PeriodStartTime": "9/18/2019 00:00:00.00",
		"BossList": [
			1,
			2,
			3,
			4,
			5
		],
		"SingleBossLastDays": 6
	},
	{
		"ID": 5,
		"PeriodStartTime": "10/18/2019 00:00:00.00",
		"BossList": [
			1,
			2,
			3,
			4,
			5
		],
		"SingleBossLastDays": 6
	},
	{
		"ID": 6,
		"PeriodStartTime": "11/17/2019 00:00:00.00",
		"BossList": [
			1,
			2,
			3,
			4,
			5
		],
		"SingleBossLastDays": 6
	},
	{
		"ID": 7,
		"PeriodStartTime": "12/17/2019 00:00:00.00",
		"BossList": [
			1,
			2,
			3,
			4,
			5
		],
		"SingleBossLastDays": 6
	},
	{
		"ID": 8,
		"PeriodStartTime": "1/16/2020 00:00:00.00",
		"BossList": [
			1,
			2,
			3,
			4,
			5
		],
		"SingleBossLastDays": 6
	}
]