[
	{
		"ID": 1,
		"Name": "瓦尔基里",
		"Desc": "",
		"TeamName": "永恒的神殿",
		"LevelList": [
			1,
			2,
			3,
			4
		],
		"StartTimeList": [
			1,
			4
		],
		"Model": "Spine/Summon/Valkyrie_ABS/Valkyrie_prefab.prefab",
		"UIModelScale": 170,
		"UIModelOffsetX": 50,
		"UIModelOffsetY": -15,
		"UpHeroTagIDS": [
			3,
			4
		],
		"UpSkillID": 75000
	},
	{
		"ID": 2,
		"Name": "利维艾尔",
		"Desc": "",
		"TeamName": "永恒的神殿",
		"LevelList": [
			11,
			12,
			13,
			14
		],
		"StartTimeList": [
			2,
			5
		],
		"Model": "Spine/Monster/Dragon_ABS/Dragon_Prefab.prefab",
		"UIModelScale": 130,
		"UIModelOffsetX": 0,
		"UIModelOffsetY": -65,
		"UpHeroTagIDS": [
			5,
			6
		],
		"UpSkillID": 75000
	},
	{
		"ID": 3,
		"Name": "斯库拉",
		"Desc": "",
		"TeamName": "永恒的神殿",
		"LevelList": [
			21,
			22,
			23,
			24
		],
		"StartTimeList": [
			3,
			6
		],
		"Model": "Spine/Boss/Scylla_ABS/Scylla_Prefab.prefab",
		"UIModelScale": 130,
		"UIModelOffsetX": 0,
		"UIModelOffsetY": -30,
		"UpHeroTagIDS": [
			2,
			8
		],
		"UpSkillID": 75000
	},
	{
		"ID": 4,
		"Name": "菲尼克斯",
		"Desc": "",
		"TeamName": "永恒的神殿",
		"LevelList": [
			31,
			32,
			33,
			34
		],
		"StartTimeList": [
			7
		],
		"Model": "Spine/Summon/Phoenix_ABS/Phoenix_Prefab.prefab",
		"UIModelScale": 170,
		"UIModelOffsetX": 0,
		"UIModelOffsetY": 0,
		"UpHeroTagIDS": [
			1,
			7,
			9
		],
		"UpSkillID": 75000
	}
]