[
	{
		"ID": 1201,
		"Name": "另一位勇者",
		"SpecifiedHero": 12,
		"CharImageSkinResourceID": 1201,
		"SpecifiedModelSkinResource": [
			{
				"JobConnectionId": 124,
				"SkinResourceId": 1201
			},
			{
				"JobConnectionId": 122,
				"SkinResourceId": 1201
			},
			{
				"JobConnectionId": 125,
				"SkinResourceId": 12011
			},
			{
				"JobConnectionId": 123,
				"SkinResourceId": 12011
			}
		],
		"Desc": "勇者的气概，不是换一件衣服就能够改变的！",
		"Icon": "UI/Icon/HeroSkin_ABS/Icon_Elwin_Skin01.png",
		"GetPathDesc": "",
		"CharImageID": 0,
		"HeroInformationID": 0,
		"PeakArenaSignTitle": "UI/Icon/HeadBattleSkin_ABS/Head_Elwin_Skin01.png"
	},
	{
		"ID": 1501,
		"Name": "樱之巫女",
		"SpecifiedHero": 15,
		"CharImageSkinResourceID": 1501,
		"SpecifiedModelSkinResource": [
			{
				"JobConnectionId": 154,
				"SkinResourceId": 1501
			},
			{
				"JobConnectionId": 152,
				"SkinResourceId": 1501
			},
			{
				"JobConnectionId": 153,
				"SkinResourceId": 1501
			},
			{
				"JobConnectionId": 155,
				"SkinResourceId": 1501
			}
		],
		"Desc": "樱花易逝，而易逝之物更值得被爱与守护。",
		"Icon": "UI/Icon/HeroSkin_ABS/Icon_RianaSkin_01.png",
		"GetPathDesc": "",
		"CharImageID": 0,
		"HeroInformationID": 0,
		"PeakArenaSignTitle": "UI/Icon/HeadBattleSkin_ABS/Head_Riana_Skin01.png"
	},
	{
		"ID": 601,
		"Name": "西部世界",
		"SpecifiedHero": 6,
		"CharImageSkinResourceID": 601,
		"SpecifiedModelSkinResource": [
			{
				"JobConnectionId": 65,
				"SkinResourceId": 601
			},
			{
				"JobConnectionId": 62,
				"SkinResourceId": 601
			},
			{
				"JobConnectionId": 64,
				"SkinResourceId": 601
			},
			{
				"JobConnectionId": 61,
				"SkinResourceId": 601
			}
		],
		"Desc": "狂暴的快乐，往往预示着狂暴的结局。",
		"Icon": "UI/Icon/HeroSkin_ABS/Icon_Leon_Skin01.png",
		"GetPathDesc": "",
		"CharImageID": 0,
		"HeroInformationID": 0,
		"PeakArenaSignTitle": "UI/Icon/HeadBattleSkin_ABS/Head_Leon_Skin02.png"
	},
	{
		"ID": 701,
		"Name": "第六天魔王",
		"SpecifiedHero": 7,
		"CharImageSkinResourceID": 701,
		"SpecifiedModelSkinResource": [
			{
				"JobConnectionId": 74,
				"SkinResourceId": 701
			},
			{
				"JobConnectionId": 71,
				"SkinResourceId": 701
			},
			{
				"JobConnectionId": 75,
				"SkinResourceId": 701
			},
			{
				"JobConnectionId": 72,
				"SkinResourceId": 701
			}
		],
		"Desc": "巴恩哈特之野望，路人皆知……",
		"Icon": "UI/Icon/HeroSkin_ABS/Icon_Bernhardt_Skin01.png",
		"GetPathDesc": "",
		"CharImageID": 0,
		"HeroInformationID": 0,
		"PeakArenaSignTitle": "UI/Icon/HeadBattleSkin_ABS/Head_Bernhardt_Skin01.png"
	},
	{
		"ID": 801,
		"Name": "旋律的妖精",
		"SpecifiedHero": 8,
		"CharImageSkinResourceID": 801,
		"SpecifiedModelSkinResource": [
			{
				"JobConnectionId": 85,
				"SkinResourceId": 801
			},
			{
				"JobConnectionId": 82,
				"SkinResourceId": 801
			},
			{
				"JobConnectionId": 84,
				"SkinResourceId": 801
			},
			{
				"JobConnectionId": 81,
				"SkinResourceId": 801
			}
		],
		"Desc": "听到了么？那是兰古利萨的歌声……",
		"Icon": "UI/Icon/HeroSkin_ABS/Icon_LanaSkin_01.png",
		"GetPathDesc": "",
		"CharImageID": 0,
		"HeroInformationID": 0,
		"PeakArenaSignTitle": "UI/Icon/HeadBattleSkin_ABS/Head_Lana_Skin01.png"
	},
	{
		"ID": 1401,
		"Name": "落跑天使",
		"SpecifiedHero": 14,
		"CharImageSkinResourceID": 1401,
		"SpecifiedModelSkinResource": [
			{
				"JobConnectionId": 144,
				"SkinResourceId": 1401
			},
			{
				"JobConnectionId": 142,
				"SkinResourceId": 1401
			},
			{
				"JobConnectionId": 145,
				"SkinResourceId": 14011
			},
			{
				"JobConnectionId": 143,
				"SkinResourceId": 14011
			}
		],
		"Desc": "六只翅膀高速飞行，谁能抓得住逃课的公主？",
		"Icon": "UI/Icon/HeroSkin_ABS/Icon_Sherry_Skin02.png",
		"GetPathDesc": "参与【转动的哲学】活动获得",
		"CharImageID": 0,
		"HeroInformationID": 0,
		"PeakArenaSignTitle": "UI/Icon/HeadBattleSkin_ABS/Head_Sherry_Skin01.png"
	},
	{
		"ID": 1402,
		"Name": "卡尔萨斯公主",
		"SpecifiedHero": 14,
		"CharImageSkinResourceID": 1402,
		"SpecifiedModelSkinResource": [
			{
				"JobConnectionId": 144,
				"SkinResourceId": 1402
			},
			{
				"JobConnectionId": 142,
				"SkinResourceId": 1402
			}
		],
		"Desc": "致敬漆原智志，复刻永恒经典。",
		"Icon": "UI/Icon/HeroSkin_ABS/Icon_SherrySkin_01.png",
		"GetPathDesc": "",
		"CharImageID": 0,
		"HeroInformationID": 0,
		"PeakArenaSignTitle": ""
	},
	{
		"ID": 602,
		"Name": "浮浪之刃",
		"SpecifiedHero": 6,
		"CharImageSkinResourceID": 602,
		"SpecifiedModelSkinResource": [
			{
				"JobConnectionId": 61,
				"SkinResourceId": 602
			},
			{
				"JobConnectionId": 64,
				"SkinResourceId": 602
			},
			{
				"JobConnectionId": 65,
				"SkinResourceId": 602
			},
			{
				"JobConnectionId": 62,
				"SkinResourceId": 602
			}
		],
		"Desc": "放浪形骸的武者，并不意味着没有必须守护的信念。",
		"Icon": "UI/Icon/HeroSkin_ABS/Icon_Leon_Skin02.png",
		"GetPathDesc": "参与【光之回响】活动获得",
		"CharImageID": 0,
		"HeroInformationID": 0,
		"PeakArenaSignTitle": "UI/Icon/HeadBattleSkin_ABS/Head_Leon_Skin01.png"
	},
	{
		"ID": 1202,
		"Name": "天霸绝枪",
		"SpecifiedHero": 12,
		"CharImageSkinResourceID": 1202,
		"SpecifiedModelSkinResource": [
			{
				"JobConnectionId": 123,
				"SkinResourceId": 1202
			},
			{
				"JobConnectionId": 125,
				"SkinResourceId": 1202
			},
			{
				"JobConnectionId": 124,
				"SkinResourceId": 12021
			},
			{
				"JobConnectionId": 122,
				"SkinResourceId": 12021
			}
		],
		"Desc": "光与希望的第一兵，战国乱世最后的英雄。",
		"Icon": "UI/Icon/HeroSkin_ABS/Icon_Elwin_Skin02.png",
		"GetPathDesc": "参与【光之回响】活动获得",
		"CharImageID": 0,
		"HeroInformationID": 0,
		"PeakArenaSignTitle": "UI/Icon/HeadBattleSkin_ABS/Head_Elwin_Skin02.png"
	},
	{
		"ID": 1001,
		"Name": "火红的独奏者",
		"SpecifiedHero": 10,
		"CharImageSkinResourceID": 1001,
		"SpecifiedModelSkinResource": [
			{
				"JobConnectionId": 103,
				"SkinResourceId": 1001
			},
			{
				"JobConnectionId": 105,
				"SkinResourceId": 1001
			},
			{
				"JobConnectionId": 104,
				"SkinResourceId": 1001
			},
			{
				"JobConnectionId": 102,
				"SkinResourceId": 1001
			}
		],
		"Desc": "独奏时间到！来单挑啊！",
		"Icon": "UI/Icon/HeroSkin_ABS/Icon_Ledyn_Skin01.png",
		"GetPathDesc": "",
		"CharImageID": 0,
		"HeroInformationID": 0,
		"PeakArenaSignTitle": "UI/Icon/HeadBattleSkin_ABS/Head_Ledyn_Skin01.png"
	},
	{
		"ID": 2501,
		"Name": "重低音狂潮",
		"SpecifiedHero": 25,
		"CharImageSkinResourceID": 2501,
		"SpecifiedModelSkinResource": [
			{
				"JobConnectionId": 254,
				"SkinResourceId": 2501
			},
			{
				"JobConnectionId": 251,
				"SkinResourceId": 2501
			},
			{
				"JobConnectionId": 255,
				"SkinResourceId": 25011
			},
			{
				"JobConnectionId": 252,
				"SkinResourceId": 25011
			}
		],
		"Desc": "冷郁的贝斯是乐队的灵魂！",
		"Icon": "UI/Icon/HeroSkin_ABS/Icon_Alutemurat_Skin01.png",
		"GetPathDesc": "",
		"CharImageID": 0,
		"HeroInformationID": 0,
		"PeakArenaSignTitle": "UI/Icon/HeadBattleSkin_ABS/Head_Alutemurat_Skin01.png"
	},
	{
		"ID": 2101,
		"Name": "行星防卫官",
		"SpecifiedHero": 21,
		"CharImageSkinResourceID": 2101,
		"SpecifiedModelSkinResource": [
			{
				"JobConnectionId": 214,
				"SkinResourceId": 2101
			},
			{
				"JobConnectionId": 212,
				"SkinResourceId": 2101
			},
			{
				"JobConnectionId": 215,
				"SkinResourceId": 21011
			},
			{
				"JobConnectionId": 211,
				"SkinResourceId": 21011
			}
		],
		"Desc": "不就是块破陨石，看我把它推回去！",
		"Icon": "UI/Icon/HeroSkin_ABS/Icon_Bargas_Skin01.png",
		"GetPathDesc": "暂时无法获取",
		"CharImageID": 0,
		"HeroInformationID": 0,
		"PeakArenaSignTitle": "UI/Icon/HeadBattleSkin_ABS/Head_Vargas_Skin01.png"
	},
	{
		"ID": 1801,
		"Name": "传奇女帝",
		"SpecifiedHero": 18,
		"CharImageSkinResourceID": 1801,
		"SpecifiedModelSkinResource": [
			{
				"JobConnectionId": 184,
				"SkinResourceId": 1801
			},
			{
				"JobConnectionId": 182,
				"SkinResourceId": 1801
			},
			{
				"JobConnectionId": 185,
				"SkinResourceId": 1801
			},
			{
				"JobConnectionId": 181,
				"SkinResourceId": 1801
			}
		],
		"Desc": "冒险就是真理，而我即是大海！",
		"Icon": "UI/Icon/HeroSkin_ABS/Icon_Imelda_Skin01.png",
		"GetPathDesc": "",
		"CharImageID": 0,
		"HeroInformationID": 0,
		"PeakArenaSignTitle": "UI/Icon/HeadBattleSkin_ABS/Head_Imelda_Skin01.png"
	},
	{
		"ID": 501,
		"Name": "防暴女警",
		"SpecifiedHero": 5,
		"CharImageSkinResourceID": 501,
		"SpecifiedModelSkinResource": [
			{
				"JobConnectionId": 54,
				"SkinResourceId": 501
			},
			{
				"JobConnectionId": 52,
				"SkinResourceId": 501
			},
			{
				"JobConnectionId": 55,
				"SkinResourceId": 501
			},
			{
				"JobConnectionId": 53,
				"SkinResourceId": 501
			}
		],
		"Desc": "要爆一下么？我是说……抱一下？",
		"Icon": "UI/Icon/HeroSkin_ABS/Icon_Chris_Skin01.png",
		"GetPathDesc": "",
		"CharImageID": 0,
		"HeroInformationID": 0,
		"PeakArenaSignTitle": "UI/Icon/HeadBattleSkin_ABS/Head_Chris_Skin01.png"
	},
	{
		"ID": 2601,
		"Name": "战争女神",
		"SpecifiedHero": 26,
		"CharImageSkinResourceID": 2601,
		"SpecifiedModelSkinResource": [
			{
				"JobConnectionId": 265,
				"SkinResourceId": 2601
			},
			{
				"JobConnectionId": 262,
				"SkinResourceId": 2601
			},
			{
				"JobConnectionId": 264,
				"SkinResourceId": 26011
			},
			{
				"JobConnectionId": 261,
				"SkinResourceId": 26011
			}
		],
		"Desc": "万物皆妄，唯有战争！",
		"Icon": "UI/Icon/HeroSkin_ABS/Icon_Luna_Skin01.png",
		"GetPathDesc": "参与【转动的哲学】活动获得",
		"CharImageID": 0,
		"HeroInformationID": 0,
		"PeakArenaSignTitle": "UI/Icon/HeadBattleSkin_ABS/Head_Luna_Skin01.png"
	},
	{
		"ID": 5201,
		"Name": "龙游灵刃",
		"SpecifiedHero": 52,
		"CharImageSkinResourceID": 5201,
		"SpecifiedModelSkinResource": [
			{
				"JobConnectionId": 524,
				"SkinResourceId": 5201
			},
			{
				"JobConnectionId": 521,
				"SkinResourceId": 5201
			},
			{
				"JobConnectionId": 525,
				"SkinResourceId": 52011
			},
			{
				"JobConnectionId": 522,
				"SkinResourceId": 52011
			}
		],
		"Desc": "龙游浅水，刃行九霄。",
		"Icon": "UI/Icon/HeroSkin_ABS/Icon_Angelina_Skin01.png",
		"GetPathDesc": "参与【光之回响】活动获得",
		"CharImageID": 0,
		"HeroInformationID": 0,
		"PeakArenaSignTitle": "UI/Icon/HeadBattleSkin_ABS/Head_Angelina_Skin01.png"
	},
	{
		"ID": 5101,
		"Name": "竹取清辉",
		"SpecifiedHero": 51,
		"CharImageSkinResourceID": 5101,
		"SpecifiedModelSkinResource": [
			{
				"JobConnectionId": 515,
				"SkinResourceId": 5101
			},
			{
				"JobConnectionId": 512,
				"SkinResourceId": 5101
			},
			{
				"JobConnectionId": 514,
				"SkinResourceId": 5101
			},
			{
				"JobConnectionId": 511,
				"SkinResourceId": 5101
			}
		],
		"Desc": "竹似青钢，辉如月虹。",
		"Icon": "UI/Icon/HeroSkin_ABS/Icon_SchelFaniel_Skin01.png",
		"GetPathDesc": "参与【光之回响】活动获得",
		"CharImageID": 0,
		"HeroInformationID": 0,
		"PeakArenaSignTitle": "UI/Icon/HeadBattleSkin_ABS/Head_SchelFaniel_Skin01.png"
	},
	{
		"ID": 1301,
		"Name": "魔法奇缘",
		"SpecifiedHero": 13,
		"CharImageSkinResourceID": 1301,
		"SpecifiedModelSkinResource": [
			{
				"JobConnectionId": 134,
				"SkinResourceId": 1301
			},
			{
				"JobConnectionId": 132,
				"SkinResourceId": 1301
			},
			{
				"JobConnectionId": 135,
				"SkinResourceId": 1301
			},
			{
				"JobConnectionId": 131,
				"SkinResourceId": 1301
			}
		],
		"Desc": "如果你敢当着海恩的面嘲笑他的扫把和大帽子的话就会……呱，呱？",
		"Icon": "UI/Icon/HeroSkin_ABS/Icon_Hein_Skin01.png",
		"GetPathDesc": "",
		"CharImageID": 0,
		"HeroInformationID": 0,
		"PeakArenaSignTitle": "UI/Icon/HeadBattleSkin_ABS/Head_Hein_Skin01.png"
	},
	{
		"ID": 4901,
		"Name": "夏日倩影",
		"SpecifiedHero": 49,
		"CharImageSkinResourceID": 4901,
		"SpecifiedModelSkinResource": [
			{
				"JobConnectionId": 494,
				"SkinResourceId": 4901
			},
			{
				"JobConnectionId": 491,
				"SkinResourceId": 4901
			},
			{
				"JobConnectionId": 495,
				"SkinResourceId": 49011
			},
			{
				"JobConnectionId": 492,
				"SkinResourceId": 49011
			}
		],
		"Desc": "不想和她一起凉快一下吗？",
		"Icon": "UI/Icon/HeroSkin_ABS/Icon_Fana_SkinSP01.png",
		"GetPathDesc": "限时出售",
		"CharImageID": 0,
		"HeroInformationID": 0,
		"PeakArenaSignTitle": "UI/Icon/HeadBattleSkin_ABS/Head_Fana_Skin01.png"
	},
	{
		"ID": 3301,
		"Name": "阳光热梦",
		"SpecifiedHero": 33,
		"CharImageSkinResourceID": 3301,
		"SpecifiedModelSkinResource": [
			{
				"JobConnectionId": 334,
				"SkinResourceId": 3301
			},
			{
				"JobConnectionId": 332,
				"SkinResourceId": 3301
			},
			{
				"JobConnectionId": 335,
				"SkinResourceId": 3301
			},
			{
				"JobConnectionId": 331,
				"SkinResourceId": 3301
			}
		],
		"Desc": "抱紧我，一起去冲浪吧！",
		"Icon": "UI/Icon/HeroSkin_ABS/Icon_Freya_SkinSP01.png",
		"GetPathDesc": "参加【泳装夏日祭】活动获得",
		"CharImageID": 0,
		"HeroInformationID": 0,
		"PeakArenaSignTitle": "UI/Icon/HeadBattleSkin_ABS/Head_Freya_Skin01.png"
	},
	{
		"ID": 802,
		"Name": "海滨丽人",
		"SpecifiedHero": 8,
		"CharImageSkinResourceID": 802,
		"SpecifiedModelSkinResource": [
			{
				"JobConnectionId": 84,
				"SkinResourceId": 802
			},
			{
				"JobConnectionId": 81,
				"SkinResourceId": 802
			},
			{
				"JobConnectionId": 85,
				"SkinResourceId": 802
			},
			{
				"JobConnectionId": 82,
				"SkinResourceId": 802
			}
		],
		"Desc": "冰山美人难得的笑容比夏日更温暖人心。",
		"Icon": "UI/Icon/HeroSkin_ABS/Icon_Lana_SkinSP01.png",
		"GetPathDesc": "限时出售",
		"CharImageID": 0,
		"HeroInformationID": 0,
		"PeakArenaSignTitle": "UI/Icon/HeadBattleSkin_ABS/Head_Lana_Skin03.png"
	},
	{
		"ID": 2602,
		"Name": "水弹直击",
		"SpecifiedHero": 26,
		"CharImageSkinResourceID": 2602,
		"SpecifiedModelSkinResource": [
			{
				"JobConnectionId": 264,
				"SkinResourceId": 2602
			},
			{
				"JobConnectionId": 261,
				"SkinResourceId": 2602
			},
			{
				"JobConnectionId": 265,
				"SkinResourceId": 26021
			},
			{
				"JobConnectionId": 262,
				"SkinResourceId": 26021
			}
		],
		"Desc": "战术大师的夏日大作战！",
		"Icon": "UI/Icon/HeroSkin_ABS/Icon_Luna_SkinSP01.png",
		"GetPathDesc": "限时出售",
		"CharImageID": 0,
		"HeroInformationID": 0,
		"PeakArenaSignTitle": "UI/Icon/HeadBattleSkin_ABS/Head_Luna_Skin02.png"
	},
	{
		"ID": 1101,
		"Name": "浪漫一夏",
		"SpecifiedHero": 11,
		"CharImageSkinResourceID": 1101,
		"SpecifiedModelSkinResource": [
			{
				"JobConnectionId": 115,
				"SkinResourceId": 1101
			},
			{
				"JobConnectionId": 113,
				"SkinResourceId": 1101
			},
			{
				"JobConnectionId": 114,
				"SkinResourceId": 11011
			},
			{
				"JobConnectionId": 112,
				"SkinResourceId": 11011
			}
		],
		"Desc": "百发百中的娜姆，这次的目标是你的心！",
		"Icon": "UI/Icon/HeroSkin_ABS/Icon_Norm_SkinSP01.png",
		"GetPathDesc": "限时出售",
		"CharImageID": 0,
		"HeroInformationID": 0,
		"PeakArenaSignTitle": "UI/Icon/HeadBattleSkin_ABS/Head_Nurm_Skin01.png"
	},
	{
		"ID": 2901,
		"Name": "沙滩宝贝",
		"SpecifiedHero": 29,
		"CharImageSkinResourceID": 2901,
		"SpecifiedModelSkinResource": [
			{
				"JobConnectionId": 294,
				"SkinResourceId": 2901
			},
			{
				"JobConnectionId": 292,
				"SkinResourceId": 2901
			},
			{
				"JobConnectionId": 295,
				"SkinResourceId": 2901
			},
			{
				"JobConnectionId": 293,
				"SkinResourceId": 2901
			}
		],
		"Desc": "可爱程度不会输给比基尼姐姐们的！",
		"Icon": "UI/Icon/HeroSkin_ABS/Icon_Tialice_SkinSP01.png",
		"GetPathDesc": "限时出售",
		"CharImageID": 0,
		"HeroInformationID": 0,
		"PeakArenaSignTitle": "UI/Icon/HeadBattleSkin_ABS/Head_Tialice_Skin01.png"
	},
	{
		"ID": 803,
		"Name": "月下红樱",
		"SpecifiedHero": 8,
		"CharImageSkinResourceID": 803,
		"SpecifiedModelSkinResource": [
			{
				"JobConnectionId": 85,
				"SkinResourceId": 803
			},
			{
				"JobConnectionId": 82,
				"SkinResourceId": 803
			},
			{
				"JobConnectionId": 84,
				"SkinResourceId": 803
			},
			{
				"JobConnectionId": 81,
				"SkinResourceId": 803
			}
		],
		"Desc": "美丽而不详的花朵哟，究竟是为谁而绽放？",
		"Icon": "UI/Icon/HeroSkin_ABS/Icon_Lana_Skin02.png",
		"GetPathDesc": "参与【光之回响】活动获得",
		"CharImageID": 0,
		"HeroInformationID": 0,
		"PeakArenaSignTitle": "UI/Icon/HeadBattleSkin_ABS/Head_Lana_Skin02.png"
	},
	{
		"ID": 901,
		"Name": "灵魂收割者",
		"SpecifiedHero": 9,
		"CharImageSkinResourceID": 901,
		"SpecifiedModelSkinResource": [
			{
				"JobConnectionId": 94,
				"SkinResourceId": 901
			},
			{
				"JobConnectionId": 91,
				"SkinResourceId": 901
			},
			{
				"JobConnectionId": 95,
				"SkinResourceId": 9011
			},
			{
				"JobConnectionId": 92,
				"SkinResourceId": 9011
			}
		],
		"Desc": "为了在混沌之中创造新世界，死亡是第一步。",
		"Icon": "UI/Icon/HeroSkin_ABS/Icon_Bozel_Skin01.png",
		"GetPathDesc": "",
		"CharImageID": 0,
		"HeroInformationID": 0,
		"PeakArenaSignTitle": "UI/Icon/HeadBattleSkin_ABS/Head_Bozel_Skin01.png"
	},
	{
		"ID": 3601,
		"Name": "致命绅士",
		"SpecifiedHero": 36,
		"CharImageSkinResourceID": 3601,
		"SpecifiedModelSkinResource": [
			{
				"JobConnectionId": 364,
				"SkinResourceId": 3601
			},
			{
				"JobConnectionId": 362,
				"SkinResourceId": 3601
			},
			{
				"JobConnectionId": 365,
				"SkinResourceId": 3601
			},
			{
				"JobConnectionId": 363,
				"SkinResourceId": 3601
			}
		],
		"Desc": "他的手艺确保了白西服上不会沾到血。",
		"Icon": "UI/Icon/HeroSkin_ABS/Icon_SilverWolf_Skin01.png",
		"GetPathDesc": "",
		"CharImageID": 0,
		"HeroInformationID": 0,
		"PeakArenaSignTitle": "UI/Icon/HeadBattleSkin_ABS/Head_SilverWolf_Skin01.png"
	},
	{
		"ID": 2801,
		"Name": "魔剑精灵",
		"SpecifiedHero": 28,
		"CharImageSkinResourceID": 2801,
		"SpecifiedModelSkinResource": [
			{
				"JobConnectionId": 285,
				"SkinResourceId": 2801
			},
			{
				"JobConnectionId": 282,
				"SkinResourceId": 2801
			},
			{
				"JobConnectionId": 284,
				"SkinResourceId": 2801
			},
			{
				"JobConnectionId": 281,
				"SkinResourceId": 2801
			}
		],
		"Desc": "魔剑浴血鸣动，而少女之心永逝。",
		"Icon": "UI/Icon/HeroSkin_ABS/Icon_Zalrahda_Skin01.png",
		"GetPathDesc": "参与【光之回响】活动获得",
		"CharImageID": 50,
		"HeroInformationID": 50,
		"PeakArenaSignTitle": "UI/Icon/HeadBattleSkin_ABS/Head_Zalrahda_Skin01.png"
	},
	{
		"ID": 1102,
		"Name": "星海领航员",
		"SpecifiedHero": 11,
		"CharImageSkinResourceID": 1102,
		"SpecifiedModelSkinResource": [
			{
				"JobConnectionId": 114,
				"SkinResourceId": 1102
			},
			{
				"JobConnectionId": 112,
				"SkinResourceId": 1102
			},
			{
				"JobConnectionId": 115,
				"SkinResourceId": 11021
			},
			{
				"JobConnectionId": 113,
				"SkinResourceId": 11021
			}
		],
		"Desc": "遨游星海需要的不仅是勇气，还需要审慎的知识。",
		"Icon": "UI/Icon/HeroSkin_ABS/Icon_Norm_Skin01.png",
		"GetPathDesc": "",
		"CharImageID": 0,
		"HeroInformationID": 0,
		"PeakArenaSignTitle": "UI/Icon/HeadBattleSkin_ABS/Head_Nurm_Skin02.png"
	},
	{
		"ID": 2701,
		"Name": "雷神之锤",
		"SpecifiedHero": 27,
		"CharImageSkinResourceID": 2701,
		"SpecifiedModelSkinResource": [
			{
				"JobConnectionId": 274,
				"SkinResourceId": 2701
			},
			{
				"JobConnectionId": 271,
				"SkinResourceId": 2701
			},
			{
				"JobConnectionId": 275,
				"SkinResourceId": 27011
			},
			{
				"JobConnectionId": 272,
				"SkinResourceId": 27011
			}
		],
		"Desc": "星界之门打开时，古代的战神举起其魔锤，在天变地异的轰雷中现身。",
		"Icon": "UI/Icon/HeroSkin_ABS/Icon_Dehault_Skin01.png",
		"GetPathDesc": "",
		"CharImageID": 0,
		"HeroInformationID": 0,
		"PeakArenaSignTitle": "UI/Icon/HeadBattleSkin_ABS/Head_Dehault_Skin01.png"
	},
	{
		"ID": 3302,
		"Name": "斯巴达克斯",
		"SpecifiedHero": 33,
		"CharImageSkinResourceID": 3302,
		"SpecifiedModelSkinResource": [
			{
				"JobConnectionId": 334,
				"SkinResourceId": 3302
			},
			{
				"JobConnectionId": 332,
				"SkinResourceId": 3302
			},
			{
				"JobConnectionId": 335,
				"SkinResourceId": 33021
			},
			{
				"JobConnectionId": 331,
				"SkinResourceId": 33021
			}
		],
		"Desc": "反抗吧！这就是——斯巴达！",
		"Icon": "UI/Icon/HeroSkin_ABS/Icon_Freya_Skin01.png",
		"GetPathDesc": "",
		"CharImageID": 0,
		"HeroInformationID": 0,
		"PeakArenaSignTitle": "UI/Icon/HeadBattleSkin_ABS/Head_Freya_Skin02.png"
	},
	{
		"ID": 1701,
		"Name": "节奏的爆点",
		"SpecifiedHero": 17,
		"CharImageSkinResourceID": 1701,
		"SpecifiedModelSkinResource": [
			{
				"JobConnectionId": 174,
				"SkinResourceId": 1701
			},
			{
				"JobConnectionId": 171,
				"SkinResourceId": 1701
			},
			{
				"JobConnectionId": 175,
				"SkinResourceId": 1701
			},
			{
				"JobConnectionId": 172,
				"SkinResourceId": 1701
			}
		],
		"Desc": "朋克可不光只是发型的问题！重要的是节奏感！",
		"Icon": "UI/Icon/HeroSkin_ABS/Icon_Eggbert_Skin01.png",
		"GetPathDesc": "暂时无法获取",
		"CharImageID": 0,
		"HeroInformationID": 0,
		"PeakArenaSignTitle": "UI/Icon/HeadBattleSkin_ABS/Head_Eggbert_Skin01.png"
	},
	{
		"ID": 102,
		"Name": "执事美酒",
		"SpecifiedHero": 1,
		"CharImageSkinResourceID": 102,
		"SpecifiedModelSkinResource": [
			{
				"JobConnectionId": 18,
				"SkinResourceId": 102
			},
			{
				"JobConnectionId": 13,
				"SkinResourceId": 102
			},
			{
				"JobConnectionId": 21,
				"SkinResourceId": 1021
			},
			{
				"JobConnectionId": 16,
				"SkinResourceId": 1021
			},
			{
				"JobConnectionId": 17,
				"SkinResourceId": 1022
			},
			{
				"JobConnectionId": 12,
				"SkinResourceId": 1022
			},
			{
				"JobConnectionId": 19,
				"SkinResourceId": 1023
			},
			{
				"JobConnectionId": 14,
				"SkinResourceId": 1023
			},
			{
				"JobConnectionId": 20,
				"SkinResourceId": 1024
			},
			{
				"JobConnectionId": 15,
				"SkinResourceId": 1024
			}
		],
		"Desc": "今天的马修，只是一名执事罢了。",
		"Icon": "UI/Icon/HeroSkin_ABS/Icon_Matthew_Skin01.png",
		"GetPathDesc": "参与【时空尽头的洋食屋】活动获得",
		"CharImageID": 0,
		"HeroInformationID": 0,
		"PeakArenaSignTitle": "UI/Icon/HeadBattleSkin_ABS/Head_Matthew_Skin01.png"
	},
	{
		"ID": 301,
		"Name": "星级大厨",
		"SpecifiedHero": 3,
		"CharImageSkinResourceID": 301,
		"SpecifiedModelSkinResource": [
			{
				"JobConnectionId": 35,
				"SkinResourceId": 301
			},
			{
				"JobConnectionId": 33,
				"SkinResourceId": 301
			},
			{
				"JobConnectionId": 36,
				"SkinResourceId": 3011
			},
			{
				"JobConnectionId": 34,
				"SkinResourceId": 3011
			}
		],
		"Desc": "哈喽大家好，今天我们给大家带来一道家常菜……",
		"Icon": "UI/Icon/HeroSkin_ABS/Icon_Grenier_Skin01.png",
		"GetPathDesc": "",
		"CharImageID": 0,
		"HeroInformationID": 0,
		"PeakArenaSignTitle": "UI/Icon/HeadBattleSkin_ABS/Head_Grenier_Skin01.png"
	},
	{
		"ID": 401,
		"Name": "甜心女仆",
		"SpecifiedHero": 4,
		"CharImageSkinResourceID": 401,
		"SpecifiedModelSkinResource": [
			{
				"JobConnectionId": 45,
				"SkinResourceId": 401
			},
			{
				"JobConnectionId": 43,
				"SkinResourceId": 401
			},
			{
				"JobConnectionId": 46,
				"SkinResourceId": 401
			},
			{
				"JobConnectionId": 42,
				"SkinResourceId": 401
			}
		],
		"Desc": "欢迎回来！主人！今天也辛苦了呢！",
		"Icon": "UI/Icon/HeroSkin_ABS/Icon_Aimeeda_Skin01.png",
		"GetPathDesc": "",
		"CharImageID": 0,
		"HeroInformationID": 0,
		"PeakArenaSignTitle": "UI/Icon/HeadBattleSkin_ABS/Head_Aimeeda_Skin01.png"
	},
	{
		"ID": 2902,
		"Name": "圣女天降",
		"SpecifiedHero": 29,
		"CharImageSkinResourceID": 2902,
		"SpecifiedModelSkinResource": [
			{
				"JobConnectionId": 294,
				"SkinResourceId": 2902
			},
			{
				"JobConnectionId": 292,
				"SkinResourceId": 2902
			},
			{
				"JobConnectionId": 295,
				"SkinResourceId": 2902
			},
			{
				"JobConnectionId": 293,
				"SkinResourceId": 2902
			}
		],
		"Desc": "我无所畏惧，因为女神和大家…与我同在！",
		"Icon": "UI/Icon/HeroSkin_ABS/Icon_Chris_Skin02.png",
		"GetPathDesc": "参与【转动的哲学】活动获得",
		"CharImageID": 0,
		"HeroInformationID": 0,
		"PeakArenaSignTitle": "UI/Icon/HeadBattleSkin_ABS/Head_Tialice_Skin02.png"
	},
	{
		"ID": 5301,
		"Name": "暗夜猎手",
		"SpecifiedHero": 53,
		"CharImageSkinResourceID": 5301,
		"SpecifiedModelSkinResource": [
			{
				"JobConnectionId": 534,
				"SkinResourceId": 5301
			},
			{
				"JobConnectionId": 531,
				"SkinResourceId": 5301
			},
			{
				"JobConnectionId": 535,
				"SkinResourceId": 53011
			},
			{
				"JobConnectionId": 532,
				"SkinResourceId": 53011
			}
		],
		"Desc": "吾辈乃短暂过客，被时间遗忘的人应该静候灭亡…",
		"Icon": "UI/Icon/HeroSkin_ABS/Icon_Ranford_Skin01.png",
		"GetPathDesc": "参与【光之回响】活动获得",
		"CharImageID": 0,
		"HeroInformationID": 0,
		"PeakArenaSignTitle": "UI/Icon/HeadBattleSkin_ABS/Head_Rvnford_Skin01.png"
	},
	{
		"ID": 5401,
		"Name": "魔血妖姬",
		"SpecifiedHero": 54,
		"CharImageSkinResourceID": 5401,
		"SpecifiedModelSkinResource": [
			{
				"JobConnectionId": 545,
				"SkinResourceId": 5401
			},
			{
				"JobConnectionId": 542,
				"SkinResourceId": 5401
			},
			{
				"JobConnectionId": 544,
				"SkinResourceId": 54011
			},
			{
				"JobConnectionId": 541,
				"SkinResourceId": 54011
			}
		],
		"Desc": "酒色无味，食之无趣，生命是没有意义的。",
		"Icon": "UI/Icon/HeroSkin_ABS/Icon_Listell_Skin01.png",
		"GetPathDesc": "参与【光之回响】活动获得",
		"CharImageID": 0,
		"HeroInformationID": 0,
		"PeakArenaSignTitle": "UI/Icon/HeadBattleSkin_ABS/Head_Listell_Skin01.png"
	},
	{
		"ID": 1502,
		"Name": "千年之恋",
		"SpecifiedHero": 15,
		"CharImageSkinResourceID": 1502,
		"SpecifiedModelSkinResource": [
			{
				"JobConnectionId": 154,
				"SkinResourceId": 1502
			},
			{
				"JobConnectionId": 152,
				"SkinResourceId": 1502
			},
			{
				"JobConnectionId": 155,
				"SkinResourceId": 1502
			},
			{
				"JobConnectionId": 153,
				"SkinResourceId": 1502
			}
		],
		"Desc": "守候千年，只等你今生轮回。",
		"Icon": "UI/Icon/HeroSkin_ABS/Icon_Riana_Skin02.png",
		"GetPathDesc": "参与【转动的哲学】活动获得",
		"CharImageID": 0,
		"HeroInformationID": 0,
		"PeakArenaSignTitle": "UI/Icon/HeadBattleSkin_ABS/Head_Riana_Skin02.png"
	},
	{
		"ID": 5501,
		"Name": "堕夜天使",
		"SpecifiedHero": 55,
		"CharImageSkinResourceID": 5501,
		"SpecifiedModelSkinResource": [
			{
				"JobConnectionId": 555,
				"SkinResourceId": 5501
			},
			{
				"JobConnectionId": 552,
				"SkinResourceId": 5501
			},
			{
				"JobConnectionId": 554,
				"SkinResourceId": 55011
			},
			{
				"JobConnectionId": 551,
				"SkinResourceId": 55011
			}
		],
		"Desc": "与其在天堂为仆，不如在地狱为主。",
		"Icon": "UI/Icon/HeroSkin_ABS/Icon_Randiovs_Skin01.png",
		"GetPathDesc": "参与【光之回响】活动获得",
		"CharImageID": 0,
		"HeroInformationID": 0,
		"PeakArenaSignTitle": "UI/Icon/HeadBattleSkin_ABS/Head_Randiovs_Skin01.png"
	},
	{
		"ID": 5601,
		"Name": "霹雳小恶魔",
		"SpecifiedHero": 56,
		"CharImageSkinResourceID": 5601,
		"SpecifiedModelSkinResource": [
			{
				"JobConnectionId": 564,
				"SkinResourceId": 5601
			},
			{
				"JobConnectionId": 561,
				"SkinResourceId": 5601
			},
			{
				"JobConnectionId": 565,
				"SkinResourceId": 56011
			},
			{
				"JobConnectionId": 562,
				"SkinResourceId": 56011
			}
		],
		"Desc": "虽然我可爱又迷人，但我会招来死亡。",
		"Icon": "UI/Icon/HeroSkin_ABS/Icon_Rachel_Skin01.png",
		"GetPathDesc": "参与【光之回响】活动获得",
		"CharImageID": 0,
		"HeroInformationID": 0,
		"PeakArenaSignTitle": "UI/Icon/HeadBattleSkin_ABS/Head_Rachel_Skin01.png"
	},
	{
		"ID": 1403,
		"Name": "驯鹿奇袭",
		"SpecifiedHero": 14,
		"CharImageSkinResourceID": 1403,
		"SpecifiedModelSkinResource": [
			{
				"JobConnectionId": 144,
				"SkinResourceId": 1403
			},
			{
				"JobConnectionId": 142,
				"SkinResourceId": 1403
			},
			{
				"JobConnectionId": 145,
				"SkinResourceId": 14031
			},
			{
				"JobConnectionId": 143,
				"SkinResourceId": 14031
			}
		],
		"Desc": "就算你们这样夸我，我也不会高兴的啦、魂淡！",
		"Icon": "UI/Icon/HeroSkin_ABS/Icon_Sherry_Skin03.png",
		"GetPathDesc": "参与【揭示的哲学】活动获得",
		"CharImageID": 0,
		"HeroInformationID": 0,
		"PeakArenaSignTitle": "UI/Icon/HeadBattleSkin_ABS/Head_Sherry_Skin02.png"
	},
	{
		"ID": 5102,
		"Name": "圣夜女郎",
		"SpecifiedHero": 51,
		"CharImageSkinResourceID": 5102,
		"SpecifiedModelSkinResource": [
			{
				"JobConnectionId": 515,
				"SkinResourceId": 5102
			},
			{
				"JobConnectionId": 512,
				"SkinResourceId": 5102
			},
			{
				"JobConnectionId": 514,
				"SkinResourceId": 51021
			},
			{
				"JobConnectionId": 511,
				"SkinResourceId": 51021
			}
		],
		"Desc": "安心地睡吧，今夜…我会用礼物填满你的小棉袜的！",
		"Icon": "UI/Icon/HeroSkin_ABS/Icon_SchelFaniel_Skin02.png",
		"GetPathDesc": "限时出售",
		"CharImageID": 0,
		"HeroInformationID": 0,
		"PeakArenaSignTitle": "UI/Icon/HeadBattleSkin_ABS/Head_SchelFaniel_Skin02.png"
	},
	{
		"ID": 5202,
		"Name": "糖果护卫",
		"SpecifiedHero": 52,
		"CharImageSkinResourceID": 5202,
		"SpecifiedModelSkinResource": [
			{
				"JobConnectionId": 524,
				"SkinResourceId": 5202
			},
			{
				"JobConnectionId": 521,
				"SkinResourceId": 5202
			},
			{
				"JobConnectionId": 525,
				"SkinResourceId": 52021
			},
			{
				"JobConnectionId": 522,
				"SkinResourceId": 52021
			}
		],
		"Desc": "糖吃得太多，可是会蛀牙的哦！给我停下来！",
		"Icon": "UI/Icon/HeroSkin_ABS/Icon_Angelina_Skin02.png",
		"GetPathDesc": "参与【礼物纷飞的季节】活动获得",
		"CharImageID": 0,
		"HeroInformationID": 0,
		"PeakArenaSignTitle": "UI/Icon/HeadBattleSkin_ABS/Head_Angelina_Skin02.png"
	},
	{
		"ID": 1203,
		"Name": "红之骑士",
		"SpecifiedHero": 12,
		"CharImageSkinResourceID": 1203,
		"SpecifiedModelSkinResource": [
			{
				"JobConnectionId": 124,
				"SkinResourceId": 1203
			},
			{
				"JobConnectionId": 122,
				"SkinResourceId": 1203
			},
			{
				"JobConnectionId": 125,
				"SkinResourceId": 12031
			},
			{
				"JobConnectionId": 123,
				"SkinResourceId": 12031
			}
		],
		"Desc": "「你的心中……仍存留有迷茫吗！？」",
		"Icon": "UI/Icon/HeroSkin_ABS/Icon_Elwin_Skin03.png",
		"GetPathDesc": "",
		"CharImageID": 0,
		"HeroInformationID": 0,
		"PeakArenaSignTitle": "UI/Icon/HeadBattleSkin_ABS/Head_Elwin_Skin03.png"
	},
	{
		"ID": 603,
		"Name": "苍之骑士",
		"SpecifiedHero": 6,
		"CharImageSkinResourceID": 603,
		"SpecifiedModelSkinResource": [
			{
				"JobConnectionId": 65,
				"SkinResourceId": 603
			},
			{
				"JobConnectionId": 62,
				"SkinResourceId": 603
			},
			{
				"JobConnectionId": 64,
				"SkinResourceId": 603
			},
			{
				"JobConnectionId": 61,
				"SkinResourceId": 603
			}
		],
		"Desc": "「就用下一剑来决定一切吧。我会全力出剑、绝不留情！」",
		"Icon": "UI/Icon/HeroSkin_ABS/Icon_Leon_Skin03.png",
		"GetPathDesc": "参与【揭示的哲学】活动获得",
		"CharImageID": 0,
		"HeroInformationID": 0,
		"PeakArenaSignTitle": "UI/Icon/HeadBattleSkin_ABS/Head_Leon_Skin03.png"
	},
	{
		"ID": 1302,
		"Name": "超时空公主",
		"SpecifiedHero": 13,
		"CharImageSkinResourceID": 1302,
		"SpecifiedModelSkinResource": [
			{
				"JobConnectionId": 134,
				"SkinResourceId": 1302
			},
			{
				"JobConnectionId": 132,
				"SkinResourceId": 1302
			},
			{
				"JobConnectionId": 135,
				"SkinResourceId": 1302
			},
			{
				"JobConnectionId": 131,
				"SkinResourceId": 1302
			}
		],
		"Desc": "这下就可以名正言顺加入公主联盟啦！咩哈哈哈！",
		"Icon": "UI/Icon/HeroSkin_ABS/Icon_Hein_Skin02.png",
		"GetPathDesc": "参与【光之回响】活动获得",
		"CharImageID": 0,
		"HeroInformationID": 0,
		"PeakArenaSignTitle": "UI/Icon/HeadBattleSkin_ABS/Head_Hein_Skin02.png"
	},
	{
		"ID": 7001,
		"Name": "白花恋诗",
		"SpecifiedHero": 70,
		"CharImageSkinResourceID": 7001,
		"SpecifiedModelSkinResource": [
			{
				"JobConnectionId": 703,
				"SkinResourceId": 7001
			},
			{
				"JobConnectionId": 701,
				"SkinResourceId": 7001
			},
			{
				"JobConnectionId": 704,
				"SkinResourceId": 7001
			},
			{
				"JobConnectionId": 702,
				"SkinResourceId": 7001
			}
		],
		"Desc": "如飘舞散落的樱花般楚楚可怜，又如清水般纯洁无暇的少女之心。",
		"Icon": "UI/Icon/HeroSkin_ABS/Icon_Joshua01.png",
		"GetPathDesc": "参与【光之回响】活动获得",
		"CharImageID": 0,
		"HeroInformationID": 0,
		"PeakArenaSignTitle": "UI/Icon/HeadBattleSkin_ABS/Head_Joshua_Skin01.png"
	},
	{
		"ID": 402,
		"Name": "镜花伊人",
		"SpecifiedHero": 4,
		"CharImageSkinResourceID": 402,
		"SpecifiedModelSkinResource": [
			{
				"JobConnectionId": 45,
				"SkinResourceId": 402
			},
			{
				"JobConnectionId": 43,
				"SkinResourceId": 402
			},
			{
				"JobConnectionId": 46,
				"SkinResourceId": 402
			},
			{
				"JobConnectionId": 42,
				"SkinResourceId": 402
			}
		],
		"Desc": "鸳鸯双栖蝶双飞，只愿今生紧相随。",
		"Icon": "UI/Icon/HeroSkin_ABS/Icon_Aimeeda_Skin02.png",
		"GetPathDesc": "限时出售",
		"CharImageID": 0,
		"HeroInformationID": 0,
		"PeakArenaSignTitle": "UI/Icon/HeadBattleSkin_ABS/Head_Aimeeda_Skin02.png"
	},
	{
		"ID": 2802,
		"Name": "凌霜侠影",
		"SpecifiedHero": 28,
		"CharImageSkinResourceID": 2802,
		"SpecifiedModelSkinResource": [
			{
				"JobConnectionId": 285,
				"SkinResourceId": 2802
			},
			{
				"JobConnectionId": 282,
				"SkinResourceId": 2802
			},
			{
				"JobConnectionId": 284,
				"SkinResourceId": 2802
			},
			{
				"JobConnectionId": 281,
				"SkinResourceId": 2802
			}
		],
		"Desc": "独行千里仗剑行，天涯何处觅知音。",
		"Icon": "UI/Icon/HeroSkin_ABS/Icon_Zalrahda_Skin02.png",
		"GetPathDesc": "限时出售",
		"CharImageID": 0,
		"HeroInformationID": 0,
		"PeakArenaSignTitle": "UI/Icon/HeadBattleSkin_ABS/Head_Zalrahda_Skin02.png"
	},
	{
		"ID": 502,
		"Name": "银猫",
		"SpecifiedHero": 5,
		"CharImageSkinResourceID": 502,
		"SpecifiedModelSkinResource": [
			{
				"JobConnectionId": 54,
				"SkinResourceId": 502
			},
			{
				"JobConnectionId": 52,
				"SkinResourceId": 502
			},
			{
				"JobConnectionId": 55,
				"SkinResourceId": 502
			},
			{
				"JobConnectionId": 53,
				"SkinResourceId": 502
			}
		],
		"Desc": "可爱又迷人的反派角色：猫耳怪盗出没喵~",
		"Icon": "UI/Icon/HeroSkin_ABS/Icon_Chris_Skin03.png",
		"GetPathDesc": "限时出售",
		"CharImageID": 0,
		"HeroInformationID": 0,
		"PeakArenaSignTitle": "UI/Icon/HeadBattleSkin_ABS/Head_Chris_Skin02.png"
	},
	{
		"ID": 7201,
		"Name": "黑骑士",
		"SpecifiedHero": 72,
		"CharImageSkinResourceID": 7201,
		"SpecifiedModelSkinResource": [
			{
				"JobConnectionId": 723,
				"SkinResourceId": 7201
			},
			{
				"JobConnectionId": 721,
				"SkinResourceId": 7201
			},
			{
				"JobConnectionId": 724,
				"SkinResourceId": 7201
			},
			{
				"JobConnectionId": 722,
				"SkinResourceId": 7201
			}
		],
		"Desc": "本已逝去的人，在心灵的黑暗中再度浮现……",
		"Icon": "UI/Icon/HeroSkin_ABS/Icon_Leonhardt_Skin.png",
		"GetPathDesc": "参与【光之回响】活动获得",
		"CharImageID": 0,
		"HeroInformationID": 0,
		"PeakArenaSignTitle": "UI/Icon/HeadBattleSkin_ABS/Head_Leonhardt_Skin01.png"
	},
	{
		"ID": 1002,
		"Name": "烈焰战神",
		"SpecifiedHero": 10,
		"CharImageSkinResourceID": 1002,
		"SpecifiedModelSkinResource": [
			{
				"JobConnectionId": 102,
				"SkinResourceId": 10021
			},
			{
				"JobConnectionId": 104,
				"SkinResourceId": 10021
			},
			{
				"JobConnectionId": 103,
				"SkinResourceId": 1002
			},
			{
				"JobConnectionId": 105,
				"SkinResourceId": 1002
			}
		],
		"Desc": "以霹雳为刃，以烈焰为盾，不羁而自由的战神决心冲破一切黑暗。",
		"Icon": "UI/Icon/HeroSkin_ABS/Icon_Ledyn_Skin02.png",
		"GetPathDesc": "参与【光之回响】活动获得",
		"CharImageID": 0,
		"HeroInformationID": 0,
		"PeakArenaSignTitle": "UI/Icon/HeadBattleSkin_ABS/Head_Ledyn_Skin02.png"
	},
	{
		"ID": 2502,
		"Name": "怒涛霸主",
		"SpecifiedHero": 25,
		"CharImageSkinResourceID": 2502,
		"SpecifiedModelSkinResource": [
			{
				"JobConnectionId": 254,
				"SkinResourceId": 2502
			},
			{
				"JobConnectionId": 251,
				"SkinResourceId": 2502
			},
			{
				"JobConnectionId": 255,
				"SkinResourceId": 25021
			},
			{
				"JobConnectionId": 252,
				"SkinResourceId": 25021
			}
		],
		"Desc": "深海之中，真正的王者沉坐于此，一举一动凝聚惊涛骇浪之势。",
		"Icon": "UI/Icon/HeroSkin_ABS/Icon_Alutemurat_Skin02.png",
		"GetPathDesc": "参与【揭示的哲学】活动获得",
		"CharImageID": 0,
		"HeroInformationID": 0,
		"PeakArenaSignTitle": "UI/Icon/HeadBattleSkin_ABS/Head_Alutemurat_Skin02.png"
	},
	{
		"ID": 6001,
		"Name": "音乐王子",
		"SpecifiedHero": 60,
		"CharImageSkinResourceID": 6001,
		"SpecifiedModelSkinResource": [
			{
				"JobConnectionId": 601,
				"SkinResourceId": 6001
			},
			{
				"JobConnectionId": 602,
				"SkinResourceId": 60011
			},
			{
				"JobConnectionId": 604,
				"SkinResourceId": 6001
			},
			{
				"JobConnectionId": 605,
				"SkinResourceId": 60011
			}
		],
		"Desc": "呐，一起来共度最梦幻的时光吧？",
		"Icon": "UI/Icon/HeroSkin_ABS/Icon_Sigma_Skin01.png",
		"GetPathDesc": "参与【光之回响】活动获得",
		"CharImageID": 0,
		"HeroInformationID": 0,
		"PeakArenaSignTitle": "UI/Icon/HeadBattleSkin_ABS/Head_Sigma_Skin01.png"
	},
	{
		"ID": 6101,
		"Name": "未来偶像",
		"SpecifiedHero": 61,
		"CharImageSkinResourceID": 6101,
		"SpecifiedModelSkinResource": [
			{
				"JobConnectionId": 611,
				"SkinResourceId": 6101
			},
			{
				"JobConnectionId": 612,
				"SkinResourceId": 6101
			},
			{
				"JobConnectionId": 614,
				"SkinResourceId": 6101
			},
			{
				"JobConnectionId": 615,
				"SkinResourceId": 6101
			}
		],
		"Desc": "有一种可爱，那就叫做拉姆达！",
		"Icon": "UI/Icon/HeroSkin_ABS/Icon_Lambda_Skin01.png",
		"GetPathDesc": "参与【光之回响】活动获得",
		"CharImageID": 0,
		"HeroInformationID": 0,
		"PeakArenaSignTitle": "UI/Icon/HeadBattleSkin_ABS/Head_Lambda_Skin01.png"
	},
	{
		"ID": 902,
		"Name": "冥渊之主",
		"SpecifiedHero": 9,
		"CharImageSkinResourceID": 902,
		"SpecifiedModelSkinResource": [
			{
				"JobConnectionId": 91,
				"SkinResourceId": 902
			},
			{
				"JobConnectionId": 92,
				"SkinResourceId": 902
			},
			{
				"JobConnectionId": 94,
				"SkinResourceId": 902
			},
			{
				"JobConnectionId": 95,
				"SkinResourceId": 902
			}
		],
		"Desc": "臣服于你永恒的主人吧，卑微的死魂灵！",
		"Icon": "UI/Icon/HeroSkin_ABS/Icon_Bozel_Skin02.png",
		"GetPathDesc": "参与【揭示的哲学】活动获得",
		"CharImageID": 0,
		"HeroInformationID": 0,
		"PeakArenaSignTitle": "UI/Icon/HeadBattleSkin_ABS/Head_Bozel_Skin02.png"
	},
	{
		"ID": 3201,
		"Name": "上古智瞳",
		"SpecifiedHero": 32,
		"CharImageSkinResourceID": 3201,
		"SpecifiedModelSkinResource": [
			{
				"JobConnectionId": 321,
				"SkinResourceId": 3201
			},
			{
				"JobConnectionId": 325,
				"SkinResourceId": 3201
			},
			{
				"JobConnectionId": 322,
				"SkinResourceId": 32011
			},
			{
				"JobConnectionId": 324,
				"SkinResourceId": 32011
			}
		],
		"Desc": "知识与力量纠结成谜……而智慧之眼洞悉一切。",
		"Icon": "UI/Icon/HeroSkin_ABS/Icon_EmmaLink_Skin01.png",
		"GetPathDesc": "【巅峰竞技场】S1赛季限定皮肤",
		"CharImageID": 0,
		"HeroInformationID": 0,
		"PeakArenaSignTitle": "UI/Icon/HeadBattleSkin_ABS/Head_EmmaLink_Skin01.png"
	},
	{
		"ID": 5701,
		"Name": "自由远行者",
		"SpecifiedHero": 57,
		"CharImageSkinResourceID": 5701,
		"SpecifiedModelSkinResource": [
			{
				"JobConnectionId": 572,
				"SkinResourceId": 57011
			},
			{
				"JobConnectionId": 573,
				"SkinResourceId": 5701
			},
			{
				"JobConnectionId": 574,
				"SkinResourceId": 57011
			},
			{
				"JobConnectionId": 575,
				"SkinResourceId": 5701
			}
		],
		"Desc": "凡人的众智胜过单一的天才。",
		"Icon": "UI/Icon/HeroSkin_ABS/Icon_Willer_Skin01.png",
		"GetPathDesc": "参与【光之回响】活动获得",
		"CharImageID": 0,
		"HeroInformationID": 0,
		"PeakArenaSignTitle": "UI/Icon/HeadBattleSkin_ABS/Head_Willer_Skin01.png"
	},
	{
		"ID": 1204,
		"Name": "孤王",
		"SpecifiedHero": 12,
		"CharImageSkinResourceID": 1204,
		"SpecifiedModelSkinResource": [
			{
				"JobConnectionId": 124,
				"SkinResourceId": 1204
			},
			{
				"JobConnectionId": 122,
				"SkinResourceId": 1204
			},
			{
				"JobConnectionId": 125,
				"SkinResourceId": 12041
			},
			{
				"JobConnectionId": 123,
				"SkinResourceId": 12041
			}
		],
		"Desc": "我会尽我所能，超越国界，超越人种，创造一个没有战争的世界！",
		"Icon": "UI/Icon/HeroSkin_ABS/Icon_Elwin_Skin04.png",
		"GetPathDesc": "参与【光之回响】活动获得",
		"CharImageID": 0,
		"HeroInformationID": 0,
		"PeakArenaSignTitle": "UI/Icon/HeadBattleSkin_ABS/Head_Elwin_Skin04.png"
	},
	{
		"ID": 5402,
		"Name": "注射天使",
		"SpecifiedHero": 54,
		"CharImageSkinResourceID": 5402,
		"SpecifiedModelSkinResource": [
			{
				"JobConnectionId": 545,
				"SkinResourceId": 5402
			},
			{
				"JobConnectionId": 542,
				"SkinResourceId": 5402
			},
			{
				"JobConnectionId": 544,
				"SkinResourceId": 54021
			},
			{
				"JobConnectionId": 541,
				"SkinResourceId": 54021
			}
		],
		"Desc": "来，放心，不会很疼的……也许吧？",
		"Icon": "UI/Icon/HeroSkin_ABS/Icon_Listell_Skin02.png",
		"GetPathDesc": "参与【揭示的哲学】活动获得",
		"CharImageID": 0,
		"HeroInformationID": 0,
		"PeakArenaSignTitle": "UI/Icon/HeadBattleSkin_ABS/Head_Listell_Skin02.png"
	},
	{
		"ID": 2001,
		"Name": "飞驰少女",
		"SpecifiedHero": 20,
		"CharImageSkinResourceID": 2001,
		"SpecifiedModelSkinResource": [
			{
				"JobConnectionId": 201,
				"SkinResourceId": 2001
			},
			{
				"JobConnectionId": 202,
				"SkinResourceId": 2001
			},
			{
				"JobConnectionId": 204,
				"SkinResourceId": 2001
			},
			{
				"JobConnectionId": 205,
				"SkinResourceId": 2001
			}
		],
		"Desc": "呀活！这可比骨兽带劲多啦！你要一起来玩吗！",
		"Icon": "UI/Icon/HeroSkin_ABS/Icon_Sonia_Skin01.png",
		"GetPathDesc": "",
		"CharImageID": 0,
		"HeroInformationID": 0,
		"PeakArenaSignTitle": "UI/Icon/HeadBattleSkin_ABS/Head_Sonia_Skin01.png"
	},
	{
		"ID": 5502,
		"Name": "天目一命",
		"SpecifiedHero": 55,
		"CharImageSkinResourceID": 5502,
		"SpecifiedModelSkinResource": [
			{
				"JobConnectionId": 552,
				"SkinResourceId": 5502
			},
			{
				"JobConnectionId": 555,
				"SkinResourceId": 5502
			},
			{
				"JobConnectionId": 551,
				"SkinResourceId": 55021
			},
			{
				"JobConnectionId": 554,
				"SkinResourceId": 55021
			}
		],
		"Desc": "独目的游龙所到之处，金铁交加的狂风在此呼啸。",
		"Icon": "UI/Icon/HeroSkin_ABS/Icon_Randiovs_Skin02.png",
		"GetPathDesc": "参与【转动的哲学】活动获得",
		"CharImageID": 0,
		"HeroInformationID": 0,
		"PeakArenaSignTitle": "UI/Icon/HeadBattleSkin_ABS/Head_Randiovs_Skin02.png"
	},
	{
		"ID": 7901,
		"Name": "樱花武装",
		"SpecifiedHero": 79,
		"CharImageSkinResourceID": 7901,
		"SpecifiedModelSkinResource": [
			{
				"JobConnectionId": 791,
				"SkinResourceId": 7901
			},
			{
				"JobConnectionId": 792,
				"SkinResourceId": 7901
			},
			{
				"JobConnectionId": 793,
				"SkinResourceId": 7901
			},
			{
				"JobConnectionId": 794,
				"SkinResourceId": 7901
			}
		],
		"Desc": "只要心中有爱，不管什么样的困难，帝国华击团都可以克服！",
		"Icon": "UI/Icon/HeroSkin_ABS/Icon_Sakura_Skin01.png",
		"GetPathDesc": "参与【光之回响】活动获得",
		"CharImageID": 0,
		"HeroInformationID": 0,
		"PeakArenaSignTitle": "UI/Icon/HeadBattleSkin_ABS/Head_Sakura_Skin01.png"
	},
	{
		"ID": 8001,
		"Name": "樱花吹雪",
		"SpecifiedHero": 80,
		"CharImageSkinResourceID": 8001,
		"SpecifiedModelSkinResource": [
			{
				"JobConnectionId": 801,
				"SkinResourceId": 8001
			},
			{
				"JobConnectionId": 802,
				"SkinResourceId": 8001
			},
			{
				"JobConnectionId": 803,
				"SkinResourceId": 8001
			},
			{
				"JobConnectionId": 804,
				"SkinResourceId": 8001
			}
		],
		"Desc": "见识一下，神崎风尘流·免许皆传的实力吧！",
		"Icon": "UI/Icon/HeroSkin_ABS/Icon_Sumire_Skin01.png",
		"GetPathDesc": "参与【光之回响】活动获得",
		"CharImageID": 0,
		"HeroInformationID": 0,
		"PeakArenaSignTitle": "UI/Icon/HeadBattleSkin_ABS/Head_Sumire_Skin01.png"
	},
	{
		"ID": 8101,
		"Name": "樱花甜心",
		"SpecifiedHero": 81,
		"CharImageSkinResourceID": 8101,
		"SpecifiedModelSkinResource": [
			{
				"JobConnectionId": 811,
				"SkinResourceId": 8101
			},
			{
				"JobConnectionId": 812,
				"SkinResourceId": 8101
			},
			{
				"JobConnectionId": 813,
				"SkinResourceId": 8101
			},
			{
				"JobConnectionId": 814,
				"SkinResourceId": 8101
			}
		],
		"Desc": "虽然还不能很好地控制自己的力量，但爱丽丝会治愈大家的！",
		"Icon": "UI/Icon/HeroSkin_ABS/Icon_Alice_Skin01.png",
		"GetPathDesc": "限时出售",
		"CharImageID": 0,
		"HeroInformationID": 0,
		"PeakArenaSignTitle": "UI/Icon/HeadBattleSkin_ABS/Head_Alice_Skin01.png"
	},
	{
		"ID": 6601,
		"Name": "急急传送令",
		"SpecifiedHero": 66,
		"CharImageSkinResourceID": 6601,
		"SpecifiedModelSkinResource": [
			{
				"JobConnectionId": 662,
				"SkinResourceId": 6601
			},
			{
				"JobConnectionId": 665,
				"SkinResourceId": 6601
			},
			{
				"JobConnectionId": 661,
				"SkinResourceId": 66011
			},
			{
				"JobConnectionId": 664,
				"SkinResourceId": 66011
			}
		],
		"Desc": "啊啦啦啦，要把爱的魔法……送到谁的家里呢？",
		"Icon": "UI/Icon/HeroSkin_ABS/Icon_Claret_Skin01.png",
		"GetPathDesc": "参与【光之回响】活动获得",
		"CharImageID": 0,
		"HeroInformationID": 0,
		"PeakArenaSignTitle": "UI/Icon/HeadBattleSkin_ABS/Head_Claret_Skin01.png"
	},
	{
		"ID": 8801,
		"Name": "荒蛮猎手",
		"SpecifiedHero": 88,
		"CharImageSkinResourceID": 8801,
		"SpecifiedModelSkinResource": [
			{
				"JobConnectionId": 882,
				"SkinResourceId": 8801
			},
			{
				"JobConnectionId": 884,
				"SkinResourceId": 8801
			},
			{
				"JobConnectionId": 881,
				"SkinResourceId": 88011
			},
			{
				"JobConnectionId": 883,
				"SkinResourceId": 88011
			}
		],
		"Desc": "不要乱动，我的弓箭可没长眼睛哦！",
		"Icon": "UI/Icon/HeroSkin_ABS/Icon_Alustriel_Skin01.png",
		"GetPathDesc": "参与【光之回响】活动获得",
		"CharImageID": 0,
		"HeroInformationID": 0,
		"PeakArenaSignTitle": "UI/Icon/HeadBattleSkin_ABS/Head_Alustriel_Skin01.png"
	},
	{
		"ID": 2603,
		"Name": "指尖舞者",
		"SpecifiedHero": 26,
		"CharImageSkinResourceID": 2603,
		"SpecifiedModelSkinResource": [
			{
				"JobConnectionId": 265,
				"SkinResourceId": 2603
			},
			{
				"JobConnectionId": 262,
				"SkinResourceId": 2603
			},
			{
				"JobConnectionId": 264,
				"SkinResourceId": 26031
			},
			{
				"JobConnectionId": 261,
				"SkinResourceId": 26031
			}
		],
		"Desc": "要和我来一场四手联弹吗？",
		"Icon": "UI/Icon/HeroSkin_ABS/Icon_Luna_Skin02.png",
		"GetPathDesc": "限时出售",
		"CharImageID": 0,
		"HeroInformationID": 0,
		"PeakArenaSignTitle": "UI/Icon/HeadBattleSkin_ABS/Head_Luna_Skin03.png"
	},
	{
		"ID": 2803,
		"Name": "铃动之光",
		"SpecifiedHero": 28,
		"CharImageSkinResourceID": 2803,
		"SpecifiedModelSkinResource": [
			{
				"JobConnectionId": 285,
				"SkinResourceId": 2803
			},
			{
				"JobConnectionId": 282,
				"SkinResourceId": 2803
			},
			{
				"JobConnectionId": 284,
				"SkinResourceId": 28031
			},
			{
				"JobConnectionId": 281,
				"SkinResourceId": 28031
			}
		],
		"Desc": "你听得到我的演奏？难道你也是魔族吗？",
		"Icon": "UI/Icon/HeroSkin_ABS/Icon_Zalrahda_Skin03.png",
		"GetPathDesc": "参与【揭示的哲学】活动获得",
		"CharImageID": 0,
		"HeroInformationID": 0,
		"PeakArenaSignTitle": "UI/Icon/HeadBattleSkin_ABS/Head_Zalrahda_Skin03.png"
	},
	{
		"ID": 103,
		"Name": "灵魂指挥",
		"SpecifiedHero": 1,
		"CharImageSkinResourceID": 103,
		"SpecifiedModelSkinResource": [
			{
				"JobConnectionId": 18,
				"SkinResourceId": 103
			},
			{
				"JobConnectionId": 13,
				"SkinResourceId": 103
			},
			{
				"JobConnectionId": 21,
				"SkinResourceId": 1031
			},
			{
				"JobConnectionId": 16,
				"SkinResourceId": 1031
			},
			{
				"JobConnectionId": 17,
				"SkinResourceId": 1032
			},
			{
				"JobConnectionId": 12,
				"SkinResourceId": 1032
			},
			{
				"JobConnectionId": 19,
				"SkinResourceId": 1033
			},
			{
				"JobConnectionId": 14,
				"SkinResourceId": 1033
			},
			{
				"JobConnectionId": 20,
				"SkinResourceId": 1034
			},
			{
				"JobConnectionId": 15,
				"SkinResourceId": 1034
			}
		],
		"Desc": "我指挥的从来都不是音乐，而是人心。",
		"Icon": "UI/Icon/HeroSkin_ABS/Icon_Matthew_Skin02.png",
		"GetPathDesc": "限时出售",
		"CharImageID": 0,
		"HeroInformationID": 0,
		"PeakArenaSignTitle": "UI/Icon/HeadBattleSkin_ABS/Head_Matthew_Skin02.png"
	},
	{
		"ID": 403,
		"Name": "金色琴弦",
		"SpecifiedHero": 4,
		"CharImageSkinResourceID": 403,
		"SpecifiedModelSkinResource": [
			{
				"JobConnectionId": 45,
				"SkinResourceId": 403
			},
			{
				"JobConnectionId": 43,
				"SkinResourceId": 403
			},
			{
				"JobConnectionId": 46,
				"SkinResourceId": 403
			},
			{
				"JobConnectionId": 42,
				"SkinResourceId": 403
			}
		],
		"Desc": "我的琴弦，是用爱拉动的！",
		"Icon": "UI/Icon/HeroSkin_ABS/Icon_Aimeeda_Skin03.png",
		"GetPathDesc": "参与【七音符的魔咒】活动获得",
		"CharImageID": 0,
		"HeroInformationID": 0,
		"PeakArenaSignTitle": "UI/Icon/HeadBattleSkin_ABS/Head_Aimeeda_Skin03.png"
	},
	{
		"ID": 1503,
		"Name": "迷笛少女",
		"SpecifiedHero": 15,
		"CharImageSkinResourceID": 1503,
		"SpecifiedModelSkinResource": [
			{
				"JobConnectionId": 154,
				"SkinResourceId": 1503
			},
			{
				"JobConnectionId": 152,
				"SkinResourceId": 1503
			},
			{
				"JobConnectionId": 155,
				"SkinResourceId": 1503
			},
			{
				"JobConnectionId": 153,
				"SkinResourceId": 1503
			}
		],
		"Desc": "世人啊，我要用音乐唤醒你的良知。",
		"Icon": "UI/Icon/HeroSkin_ABS/Icon_Riana_Skin03.png",
		"GetPathDesc": "限时出售",
		"CharImageID": 0,
		"HeroInformationID": 0,
		"PeakArenaSignTitle": "UI/Icon/HeadBattleSkin_ABS/Head_Riana_Skin03.png"
	},
	{
		"ID": 6701,
		"Name": "喧哗上等",
		"SpecifiedHero": 67,
		"CharImageSkinResourceID": 6701,
		"SpecifiedModelSkinResource": [
			{
				"JobConnectionId": 675,
				"SkinResourceId": 6701
			},
			{
				"JobConnectionId": 672,
				"SkinResourceId": 6701
			},
			{
				"JobConnectionId": 674,
				"SkinResourceId": 67011
			},
			{
				"JobConnectionId": 671,
				"SkinResourceId": 67011
			}
		],
		"Desc": "人送外号「伊雷斯狂犬」，与迪哈尔特共同担任暴走族组织头目。",
		"Icon": "UI/Icon/HeroSkin_ABS/Icon_Omega_Skin01.png",
		"GetPathDesc": "参与【光之回响】活动获得",
		"CharImageID": 0,
		"HeroInformationID": 0,
		"PeakArenaSignTitle": "UI/Icon/HeadBattleSkin_ABS/Head_Omega_Skin01.png"
	},
	{
		"ID": 8901,
		"Name": "崩坏之刃",
		"SpecifiedHero": 89,
		"CharImageSkinResourceID": 8901,
		"SpecifiedModelSkinResource": [
			{
				"JobConnectionId": 891,
				"SkinResourceId": 8901
			},
			{
				"JobConnectionId": 892,
				"SkinResourceId": 8901
			},
			{
				"JobConnectionId": 893,
				"SkinResourceId": 8901
			},
			{
				"JobConnectionId": 894,
				"SkinResourceId": 8901
			}
		],
		"Desc": "光耀之下，世之暗面；刃已残破，心无魂灵。",
		"Icon": "UI/Icon/HeroSkin_ABS/Icon_Yulia_Skin01.png",
		"GetPathDesc": "参与【光之回响】活动获得",
		"CharImageID": 90,
		"HeroInformationID": 90,
		"PeakArenaSignTitle": "UI/Icon/HeadBattleSkin_ABS/Head_Yulia_Skin01.png"
	},
	{
		"ID": 3701,
		"Name": "太鼓神侍",
		"SpecifiedHero": 37,
		"CharImageSkinResourceID": 3701,
		"SpecifiedModelSkinResource": [
			{
				"JobConnectionId": 371,
				"SkinResourceId": 3701
			},
			{
				"JobConnectionId": 372,
				"SkinResourceId": 3701
			},
			{
				"JobConnectionId": 373,
				"SkinResourceId": 3701
			},
			{
				"JobConnectionId": 374,
				"SkinResourceId": 3701
			},
			{
				"JobConnectionId": 375,
				"SkinResourceId": 3701
			},
			{
				"JobConnectionId": 376,
				"SkinResourceId": 3701
			}
		],
		"Desc": "可恶！到底是谁安排老夫来打太鼓的……还不赶快跟上我的节奏跳起来！",
		"Icon": "UI/Icon/HeroSkin_ABS/Icon_Zigodlla_Skin01.png",
		"GetPathDesc": "参与【转动的哲学】活动获得",
		"CharImageID": 0,
		"HeroInformationID": 0,
		"PeakArenaSignTitle": "UI/Icon/HeadBattleSkin_ABS/Head_Zigodlla_Skin01.png"
	},
	{
		"ID": 2102,
		"Name": "性感炙烤",
		"SpecifiedHero": 21,
		"CharImageSkinResourceID": 2102,
		"SpecifiedModelSkinResource": [
			{
				"JobConnectionId": 211,
				"SkinResourceId": 2102
			},
			{
				"JobConnectionId": 215,
				"SkinResourceId": 2102
			},
			{
				"JobConnectionId": 212,
				"SkinResourceId": 21021
			},
			{
				"JobConnectionId": 214,
				"SkinResourceId": 21021
			}
		],
		"Desc": "胡椒粉是我心间的热辣，鲷鱼烧的甜是我唇间的甜蜜……来吧，你想选哪一样？",
		"Icon": "UI/Icon/HeroSkin_ABS/Icon_Bargas_Skin02.png",
		"GetPathDesc": "参与【世上最灿烂的花火】活动获得",
		"CharImageID": 0,
		"HeroInformationID": 0,
		"PeakArenaSignTitle": "UI/Icon/HeadBattleSkin_ABS/Head_Vargas_Skin02.png"
	},
	{
		"ID": 3303,
		"Name": "花火琉璃",
		"SpecifiedHero": 33,
		"CharImageSkinResourceID": 3303,
		"SpecifiedModelSkinResource": [
			{
				"JobConnectionId": 332,
				"SkinResourceId": 3303
			},
			{
				"JobConnectionId": 334,
				"SkinResourceId": 3303
			},
			{
				"JobConnectionId": 331,
				"SkinResourceId": 33031
			},
			{
				"JobConnectionId": 335,
				"SkinResourceId": 33031
			}
		],
		"Desc": "流萤断续光，一明一灭一尺间。",
		"Icon": "UI/Icon/HeroSkin_ABS/Icon_Freya_Skin02.png",
		"GetPathDesc": "限时出售",
		"CharImageID": 0,
		"HeroInformationID": 0,
		"PeakArenaSignTitle": "UI/Icon/HeadBattleSkin_ABS/Head_Freya_Skin03.png"
	},
	{
		"ID": 2903,
		"Name": "神乐鼓姬",
		"SpecifiedHero": 29,
		"CharImageSkinResourceID": 2903,
		"SpecifiedModelSkinResource": [
			{
				"JobConnectionId": 294,
				"SkinResourceId": 2903
			},
			{
				"JobConnectionId": 292,
				"SkinResourceId": 2903
			},
			{
				"JobConnectionId": 295,
				"SkinResourceId": 2903
			},
			{
				"JobConnectionId": 293,
				"SkinResourceId": 2903
			}
		],
		"Desc": "如果神明大人能听到我的鼓声的话……是不是你也能明白我的心意呢？",
		"Icon": "UI/Icon/HeroSkin_ABS/Icon_Tialice_Skin02.png",
		"GetPathDesc": "限时出售",
		"CharImageID": 0,
		"HeroInformationID": 0,
		"PeakArenaSignTitle": "UI/Icon/HeadBattleSkin_ABS/Head_Tialice_Skin03.png"
	},
	{
		"ID": 2702,
		"Name": "竹影剑心",
		"SpecifiedHero": 27,
		"CharImageSkinResourceID": 2702,
		"SpecifiedModelSkinResource": [
			{
				"JobConnectionId": 271,
				"SkinResourceId": 2702
			},
			{
				"JobConnectionId": 274,
				"SkinResourceId": 2702
			},
			{
				"JobConnectionId": 272,
				"SkinResourceId": 27021
			},
			{
				"JobConnectionId": 275,
				"SkinResourceId": 27021
			}
		],
		"Desc": "竹下的风物，要与小姐您一起观赏才算是美景啊！",
		"Icon": "UI/Icon/HeroSkin_ABS/Icon_Dehault_Skin02.png",
		"GetPathDesc": "",
		"CharImageID": 0,
		"HeroInformationID": 0,
		"PeakArenaSignTitle": "UI/Icon/HeadBattleSkin_ABS/Head_Dehault_Skin02.png"
	},
	{
		"ID": 899,
		"Name": "漫长的告白",
		"SpecifiedHero": 8,
		"CharImageSkinResourceID": 899,
		"SpecifiedModelSkinResource": [
			{
				"JobConnectionId": 85,
				"SkinResourceId": 899
			},
			{
				"JobConnectionId": 82,
				"SkinResourceId": 899
			},
			{
				"JobConnectionId": 84,
				"SkinResourceId": 899
			},
			{
				"JobConnectionId": 81,
				"SkinResourceId": 899
			}
		],
		"Desc": "我捧起了玫瑰，穿上了婚纱，等待你的归来……",
		"Icon": "UI/Icon/HeroSkin_ABS/Icon_Lana_Skin03.png",
		"GetPathDesc": "限时出售",
		"CharImageID": 0,
		"HeroInformationID": 0,
		"PeakArenaSignTitle": "UI/Icon/HeadBattleSkin_ABS/Head_Lana_Skin04.png"
	},
	{
		"ID": 1499,
		"Name": "天空的恋人",
		"SpecifiedHero": 14,
		"CharImageSkinResourceID": 1499,
		"SpecifiedModelSkinResource": [
			{
				"JobConnectionId": 144,
				"SkinResourceId": 1499
			},
			{
				"JobConnectionId": 142,
				"SkinResourceId": 1499
			},
			{
				"JobConnectionId": 145,
				"SkinResourceId": 14991
			},
			{
				"JobConnectionId": 143,
				"SkinResourceId": 14991
			}
		],
		"Desc": "要好好抓住我吖，不然我可是会飞走的哟~！",
		"Icon": "UI/Icon/HeroSkin_ABS/Icon_Sherry_Skin04.png",
		"GetPathDesc": "限时出售",
		"CharImageID": 0,
		"HeroInformationID": 0,
		"PeakArenaSignTitle": "UI/Icon/HeadBattleSkin_ABS/Head_Sherry_Skin03.png"
	},
	{
		"ID": 3901,
		"Name": "圣枪魔影",
		"SpecifiedHero": 39,
		"CharImageSkinResourceID": 3901,
		"SpecifiedModelSkinResource": [
			{
				"JobConnectionId": 391,
				"SkinResourceId": 3901
			},
			{
				"JobConnectionId": 394,
				"SkinResourceId": 3901
			},
			{
				"JobConnectionId": 392,
				"SkinResourceId": 39011
			},
			{
				"JobConnectionId": 395,
				"SkinResourceId": 39011
			}
		],
		"Desc": "以圣洁的皮相，代行混沌之道。",
		"Icon": "UI/Icon/HeroSkin_ABS/Icon_Flakia_Skin01.png",
		"GetPathDesc": "【巅峰竞技场】S2赛季限定皮肤",
		"CharImageID": 0,
		"HeroInformationID": 0,
		"PeakArenaSignTitle": "UI/Icon/HeadBattleSkin_ABS/Head_Flakia_Skin01.png"
	},
	{
		"ID": 5302,
		"Name": "统御之刃",
		"SpecifiedHero": 53,
		"CharImageSkinResourceID": 5302,
		"SpecifiedModelSkinResource": [
			{
				"JobConnectionId": 534,
				"SkinResourceId": 5302
			},
			{
				"JobConnectionId": 531,
				"SkinResourceId": 5302
			},
			{
				"JobConnectionId": 535,
				"SkinResourceId": 53021
			},
			{
				"JobConnectionId": 532,
				"SkinResourceId": 53021
			}
		],
		"Desc": "战术的完美实施，运筹帷幄是不可或缺的一环。",
		"Icon": "UI/Icon/HeroSkin_ABS/Icon_Ranford_Skin02.png",
		"GetPathDesc": "参与【揭示的哲学】活动获得",
		"CharImageID": 0,
		"HeroInformationID": 0,
		"PeakArenaSignTitle": "UI/Icon/HeadBattleSkin_ABS/Head_Rvnford_Skin02.png"
	},
	{
		"ID": 8201,
		"Name": "魔族大隔世",
		"SpecifiedHero": 82,
		"CharImageSkinResourceID": 8201,
		"SpecifiedModelSkinResource": [
			{
				"JobConnectionId": 822,
				"SkinResourceId": 8201
			},
			{
				"JobConnectionId": 823,
				"SkinResourceId": 8201
			},
			{
				"JobConnectionId": 824,
				"SkinResourceId": 8201
			},
			{
				"JobConnectionId": 821,
				"SkinResourceId": 8201
			}
		],
		"Desc": "你说我喜欢维持正义？嘁，只是碰巧我讨厌的人大多是恶徒罢了！",
		"Icon": "UI/Icon/HeroSkin_ABS/Icon_Yuusuke_Skin01.png",
		"GetPathDesc": "参与【光之回响】活动获得",
		"CharImageID": 0,
		"HeroInformationID": 0,
		"PeakArenaSignTitle": "UI/Icon/HeadBattleSkin_ABS/Head_Yuusuke_Skin01.png"
	},
	{
		"ID": 8401,
		"Name": "蔷薇妖狐",
		"SpecifiedHero": 84,
		"CharImageSkinResourceID": 8401,
		"SpecifiedModelSkinResource": [
			{
				"JobConnectionId": 842,
				"SkinResourceId": 8401
			},
			{
				"JobConnectionId": 843,
				"SkinResourceId": 8401
			},
			{
				"JobConnectionId": 844,
				"SkinResourceId": 8401
			},
			{
				"JobConnectionId": 841,
				"SkinResourceId": 8401
			}
		],
		"Desc": "真是讽刺，恶人的鲜血反而会让花开的更漂亮。",
		"Icon": "UI/Icon/HeroSkin_ABS/Icon_Kurama_Skin01.png",
		"GetPathDesc": "参与【光之回响】活动获得",
		"CharImageID": 2084,
		"HeroInformationID": 2084,
		"PeakArenaSignTitle": "UI/Icon/HeadBattleSkin_ABS/Head_Kurama_Skin01.png"
	},
	{
		"ID": 8301,
		"Name": "黑龙炎铠",
		"SpecifiedHero": 83,
		"CharImageSkinResourceID": 8301,
		"SpecifiedModelSkinResource": [
			{
				"JobConnectionId": 832,
				"SkinResourceId": 8301
			},
			{
				"JobConnectionId": 833,
				"SkinResourceId": 8301
			},
			{
				"JobConnectionId": 834,
				"SkinResourceId": 8301
			},
			{
				"JobConnectionId": 831,
				"SkinResourceId": 8301
			}
		],
		"Desc": "让你看看，到达极限的黑龙波吧！",
		"Icon": "UI/Icon/HeroSkin_ABS/Icon_Hiei_Skin01.png",
		"GetPathDesc": "参与【光之回响】活动获得",
		"CharImageID": 0,
		"HeroInformationID": 0,
		"PeakArenaSignTitle": "UI/Icon/HeadBattleSkin_ABS/Head_Hiei_Skin01.png"
	},
	{
		"ID": 702,
		"Name": "巅峰伟力",
		"SpecifiedHero": 7,
		"CharImageSkinResourceID": 702,
		"SpecifiedModelSkinResource": [
			{
				"JobConnectionId": 72,
				"SkinResourceId": 702
			},
			{
				"JobConnectionId": 75,
				"SkinResourceId": 702
			},
			{
				"JobConnectionId": 74,
				"SkinResourceId": 702
			},
			{
				"JobConnectionId": 71,
				"SkinResourceId": 702
			}
		],
		"Desc": "百千家的妖怪王子（双塔古城）\n猫扑大魔王（卡尔萨斯）\n贤者之石（艾尔文）\n香风智智奶（落跑公主） \n<color=#DC143C>以此祝贺S1巅峰竞技场的四位大区冠军（排名不分先后），他们的胜利将被永远铭记！也祝指挥官们在未来的战斗中连战皆捷！</color> \n愿以吾之伟力，在巅峰的战场上为尔等带来胜利的荣耀！",
		"Icon": "UI/Icon/HeroSkin_ABS/Icon_Bernhardt_Skin02.png",
		"GetPathDesc": "限时出售",
		"CharImageID": 0,
		"HeroInformationID": 0,
		"PeakArenaSignTitle": "UI/Icon/HeadBattleSkin_ABS/Head_Bernhardt_Skin02.png"
	},
	{
		"ID": 8802,
		"Name": "职场妖精",
		"SpecifiedHero": 88,
		"CharImageSkinResourceID": 8802,
		"SpecifiedModelSkinResource": [
			{
				"JobConnectionId": 882,
				"SkinResourceId": 8802
			},
			{
				"JobConnectionId": 884,
				"SkinResourceId": 8802
			},
			{
				"JobConnectionId": 881,
				"SkinResourceId": 88021
			},
			{
				"JobConnectionId": 883,
				"SkinResourceId": 88021
			}
		],
		"Desc": "下班之后……有空么？",
		"Icon": "UI/Icon/HeroSkin_ABS/Icon_Alustriel_Skin02.png",
		"GetPathDesc": "参与【转动的哲学】活动获得",
		"CharImageID": 0,
		"HeroInformationID": 0,
		"PeakArenaSignTitle": "UI/Icon/HeadBattleSkin_ABS/Head_Alustriel_Skin02.png"
	},
	{
		"ID": 8701,
		"Name": "绯红之剑",
		"SpecifiedHero": 87,
		"CharImageSkinResourceID": 8701,
		"SpecifiedModelSkinResource": [
			{
				"JobConnectionId": 871,
				"SkinResourceId": 87011
			},
			{
				"JobConnectionId": 874,
				"SkinResourceId": 87011
			},
			{
				"JobConnectionId": 872,
				"SkinResourceId": 8701
			},
			{
				"JobConnectionId": 875,
				"SkinResourceId": 8701
			}
		],
		"Desc": "这是漆原老师送我的新衣服，我非常喜欢！",
		"Icon": "UI/Icon/HeroSkin_ABS/Icon_Betty_Skin01.png",
		"GetPathDesc": "参与【光之回响】活动获得",
		"CharImageID": 0,
		"HeroInformationID": 0,
		"PeakArenaSignTitle": "UI/Icon/HeadBattleSkin_ABS/Head_Betty_Skin01.png"
	},
	{
		"ID": 6301,
		"Name": "觅心游医",
		"SpecifiedHero": 63,
		"CharImageSkinResourceID": 6301,
		"SpecifiedModelSkinResource": [
			{
				"JobConnectionId": 632,
				"SkinResourceId": 6301
			},
			{
				"JobConnectionId": 635,
				"SkinResourceId": 6301
			},
			{
				"JobConnectionId": 631,
				"SkinResourceId": 63011
			},
			{
				"JobConnectionId": 634,
				"SkinResourceId": 63011
			}
		],
		"Desc": "咚，咚……听，这里是空的。",
		"Icon": "UI/Icon/HeroSkin_ABS/Icon_Lainforce_Skin01.png",
		"GetPathDesc": "参与【光之回响】活动获得",
		"CharImageID": 0,
		"HeroInformationID": 0,
		"PeakArenaSignTitle": "UI/Icon/HeadBattleSkin_ABS/Head_Lainforce_Skin01.png"
	},
	{
		"ID": 104,
		"Name": "铸剑的英雄",
		"SpecifiedHero": 1,
		"CharImageSkinResourceID": 104,
		"SpecifiedModelSkinResource": [
			{
				"JobConnectionId": 18,
				"SkinResourceId": 104
			},
			{
				"JobConnectionId": 13,
				"SkinResourceId": 104
			},
			{
				"JobConnectionId": 21,
				"SkinResourceId": 1041
			},
			{
				"JobConnectionId": 16,
				"SkinResourceId": 1041
			},
			{
				"JobConnectionId": 17,
				"SkinResourceId": 1042
			},
			{
				"JobConnectionId": 12,
				"SkinResourceId": 1042
			},
			{
				"JobConnectionId": 19,
				"SkinResourceId": 1043
			},
			{
				"JobConnectionId": 14,
				"SkinResourceId": 1043
			},
			{
				"JobConnectionId": 20,
				"SkinResourceId": 1044
			},
			{
				"JobConnectionId": 15,
				"SkinResourceId": 1044
			}
		],
		"Desc": "感谢你，与我共同创造了光辉的未来！",
		"Icon": "UI/Icon/HeroSkin_ABS/Icon_Matthew_Skin03.png",
		"GetPathDesc": "完成成就【大陆勇士】获得",
		"CharImageID": 0,
		"HeroInformationID": 0,
		"PeakArenaSignTitle": "UI/Icon/HeadBattleSkin_ABS/Head_Matthew_Skin03.png"
	},
	{
		"ID": 2804,
		"Name": "羁绊的锋刃",
		"SpecifiedHero": 28,
		"CharImageSkinResourceID": 2804,
		"SpecifiedModelSkinResource": [
			{
				"JobConnectionId": 285,
				"SkinResourceId": 2804
			},
			{
				"JobConnectionId": 282,
				"SkinResourceId": 2804
			},
			{
				"JobConnectionId": 284,
				"SkinResourceId": 2804
			},
			{
				"JobConnectionId": 281,
				"SkinResourceId": 2804
			}
		],
		"Desc": "不论怎么样的黑暗，都不能斩断泽瑞达与你的羁绊！",
		"Icon": "UI/Icon/HeroSkin_ABS/Icon_Zalrahda_Skin05.png",
		"GetPathDesc": "参与【周年集愿】活动获得",
		"CharImageID": 0,
		"HeroInformationID": 0,
		"PeakArenaSignTitle": "UI/Icon/HeadBattleSkin_ABS/Head_Zalrahda_Skin05.png"
	},
	{
		"ID": 2201,
		"Name": "光辉的启蒙",
		"SpecifiedHero": 22,
		"CharImageSkinResourceID": 2201,
		"SpecifiedModelSkinResource": [
			{
				"JobConnectionId": 221,
				"SkinResourceId": 2201
			},
			{
				"JobConnectionId": 222,
				"SkinResourceId": 2201
			},
			{
				"JobConnectionId": 223,
				"SkinResourceId": 2201
			},
			{
				"JobConnectionId": 224,
				"SkinResourceId": 2201
			}
		],
		"Desc": "英雄哟！你的光辉需要智慧的指引。",
		"Icon": "UI/Icon/HeroSkin_ABS/Icon_Jessica_Skin01.png",
		"GetPathDesc": "",
		"CharImageID": 0,
		"HeroInformationID": 0,
		"PeakArenaSignTitle": "UI/Icon/HeadBattleSkin_ABS/Head_Jessic_Skin01.png"
	},
	{
		"ID": 2899,
		"Name": "蔚蓝宝贝",
		"SpecifiedHero": 28,
		"CharImageSkinResourceID": 2899,
		"SpecifiedModelSkinResource": [
			{
				"JobConnectionId": 285,
				"SkinResourceId": 2899
			},
			{
				"JobConnectionId": 282,
				"SkinResourceId": 2899
			},
			{
				"JobConnectionId": 284,
				"SkinResourceId": 2899
			},
			{
				"JobConnectionId": 281,
				"SkinResourceId": 2899
			}
		],
		"Desc": "这是泽瑞达的新朋友，一起来玩鸭~",
		"Icon": "UI/Icon/HeroSkin_ABS/Icon_Zalrahda_Skin04.png",
		"GetPathDesc": "限时出售",
		"CharImageID": 0,
		"HeroInformationID": 0,
		"PeakArenaSignTitle": "UI/Icon/HeadBattleSkin_ABS/Head_Zalrahda_Skin04.png"
	},
	{
		"ID": 1899,
		"Name": "炽热丽姬",
		"SpecifiedHero": 18,
		"CharImageSkinResourceID": 1899,
		"SpecifiedModelSkinResource": [
			{
				"JobConnectionId": 184,
				"SkinResourceId": 1899
			},
			{
				"JobConnectionId": 182,
				"SkinResourceId": 1899
			},
			{
				"JobConnectionId": 185,
				"SkinResourceId": 1899
			},
			{
				"JobConnectionId": 181,
				"SkinResourceId": 1899
			}
		],
		"Desc": "讨厌的太阳……喂，你想为本小姐擦防晒油吗？",
		"Icon": "UI/Icon/HeroSkin_ABS/Icon_Imelda_Skin02.png",
		"GetPathDesc": "限时出售",
		"CharImageID": 0,
		"HeroInformationID": 0,
		"PeakArenaSignTitle": "UI/Icon/HeadBattleSkin_ABS/Head_Imelda_Skin02.png"
	},
	{
		"ID": 6102,
		"Name": "冰原雪女",
		"SpecifiedHero": 61,
		"CharImageSkinResourceID": 6102,
		"SpecifiedModelSkinResource": [
			{
				"JobConnectionId": 611,
				"SkinResourceId": 6102
			},
			{
				"JobConnectionId": 612,
				"SkinResourceId": 6102
			},
			{
				"JobConnectionId": 614,
				"SkinResourceId": 6102
			},
			{
				"JobConnectionId": 615,
				"SkinResourceId": 6102
			}
		],
		"Desc": "在远比冰原更深寒的雪下，埋藏着悸动的心音。",
		"Icon": "UI/Icon/HeroSkin_ABS/Icon_Lambda_Skin02.png",
		"GetPathDesc": "参与【揭示的哲学】活动获得",
		"CharImageID": 0,
		"HeroInformationID": 0,
		"PeakArenaSignTitle": "UI/Icon/HeadBattleSkin_ABS/Head_Lambda_Skin02.png"
	},
	{
		"ID": 9201,
		"Name": "真红少女",
		"SpecifiedHero": 92,
		"CharImageSkinResourceID": 9201,
		"SpecifiedModelSkinResource": [
			{
				"JobConnectionId": 922,
				"SkinResourceId": 92011
			},
			{
				"JobConnectionId": 923,
				"SkinResourceId": 9201
			},
			{
				"JobConnectionId": 924,
				"SkinResourceId": 92011
			},
			{
				"JobConnectionId": 925,
				"SkinResourceId": 9201
			}
		],
		"Desc": "千万不要招惹女孩子，尤其是强大的女孩子……",
		"Icon": "UI/Icon/HeroSkin_ABS/Icon_PeakJessica_Skin01.png",
		"GetPathDesc": "参与【光之回响】活动获得",
		"CharImageID": 0,
		"HeroInformationID": 0,
		"PeakArenaSignTitle": "UI/Icon/HeadBattleSkin_ABS/Head_PeakJessica_Skin01.png"
	},
	{
		"ID": 9101,
		"Name": "黑金时代",
		"SpecifiedHero": 91,
		"CharImageSkinResourceID": 9101,
		"SpecifiedModelSkinResource": [
			{
				"JobConnectionId": 911,
				"SkinResourceId": 9101
			},
			{
				"JobConnectionId": 912,
				"SkinResourceId": 91011
			},
			{
				"JobConnectionId": 914,
				"SkinResourceId": 9101
			},
			{
				"JobConnectionId": 915,
				"SkinResourceId": 91011
			}
		],
		"Desc": "欢迎加入骑士的荣耀殿堂——黑金时代！",
		"Icon": "UI/Icon/HeroSkin_ABS/Icon_Emilia_Skin01.png",
		"GetPathDesc": "参与【光之回响】活动获得",
		"CharImageID": 0,
		"HeroInformationID": 0,
		"PeakArenaSignTitle": "UI/Icon/HeadBattleSkin_ABS/Head_Emilia_Skin01.png"
	},
	{
		"ID": 2904,
		"Name": "堇色月姬",
		"SpecifiedHero": 29,
		"CharImageSkinResourceID": 2904,
		"SpecifiedModelSkinResource": [
			{
				"JobConnectionId": 294,
				"SkinResourceId": 2904
			},
			{
				"JobConnectionId": 292,
				"SkinResourceId": 2904
			},
			{
				"JobConnectionId": 295,
				"SkinResourceId": 2904
			},
			{
				"JobConnectionId": 293,
				"SkinResourceId": 2904
			}
		],
		"Desc": "呐，我带了很好吃的点心来，一起吃吧~",
		"Icon": "UI/Icon/HeroSkin_ABS/Icon_Tialice_Skin03.png",
		"GetPathDesc": "限时出售",
		"CharImageID": 0,
		"HeroInformationID": 0,
		"PeakArenaSignTitle": "UI/Icon/HeadBattleSkin_ABS/Head_Tialice_Skin04.png"
	},
	{
		"ID": 5199,
		"Name": "活泼助力",
		"SpecifiedHero": 51,
		"CharImageSkinResourceID": 5199,
		"SpecifiedModelSkinResource": [
			{
				"JobConnectionId": 515,
				"SkinResourceId": 5199
			},
			{
				"JobConnectionId": 512,
				"SkinResourceId": 5199
			},
			{
				"JobConnectionId": 514,
				"SkinResourceId": 5199
			},
			{
				"JobConnectionId": 511,
				"SkinResourceId": 5199
			}
		],
		"Desc": "用我的笑容，为大家带来最大的鼓舞！",
		"Icon": "UI/Icon/HeroSkin_ABS/Icon_SchelFaniel_Skin03.png",
		"GetPathDesc": "限时出售",
		"CharImageID": 0,
		"HeroInformationID": 0,
		"PeakArenaSignTitle": "UI/Icon/HeadBattleSkin_ABS/Head_SchelFaniel_Skin03.png"
	},
	{
		"ID": 5299,
		"Name": "闪耀应援",
		"SpecifiedHero": 52,
		"CharImageSkinResourceID": 5299,
		"SpecifiedModelSkinResource": [
			{
				"JobConnectionId": 524,
				"SkinResourceId": 5299
			},
			{
				"JobConnectionId": 521,
				"SkinResourceId": 5299
			},
			{
				"JobConnectionId": 525,
				"SkinResourceId": 52991
			},
			{
				"JobConnectionId": 522,
				"SkinResourceId": 52991
			}
		],
		"Desc": "比起比赛，你是不是更在意我呢？",
		"Icon": "UI/Icon/HeroSkin_ABS/Icon_Angelina_Skin03.png",
		"GetPathDesc": "限时出售",
		"CharImageID": 0,
		"HeroInformationID": 0,
		"PeakArenaSignTitle": "UI/Icon/HeadBattleSkin_ABS/Head_Angelina_Skin03.png"
	},
	{
		"ID": 6501,
		"Name": "寅虎之拳",
		"SpecifiedHero": 65,
		"CharImageSkinResourceID": 6501,
		"SpecifiedModelSkinResource": [
			{
				"JobConnectionId": 651,
				"SkinResourceId": 6501
			},
			{
				"JobConnectionId": 652,
				"SkinResourceId": 6501
			},
			{
				"JobConnectionId": 654,
				"SkinResourceId": 6501
			},
			{
				"JobConnectionId": 655,
				"SkinResourceId": 6501
			}
		],
		"Desc": "格斗的秘技就是：永远直视对手的眼睛！",
		"Icon": "UI/Icon/HeroSkin_ABS/Icon_Virash_Skin01.png",
		"GetPathDesc": "参与【光之回响】活动获得",
		"CharImageID": 0,
		"HeroInformationID": 0,
		"PeakArenaSignTitle": "UI/Icon/HeadBattleSkin_ABS/Head_Virash_Skin01.png"
	},
	{
		"ID": 9301,
		"Name": "乐园守护者",
		"SpecifiedHero": 93,
		"CharImageSkinResourceID": 9301,
		"SpecifiedModelSkinResource": [
			{
				"JobConnectionId": 931,
				"SkinResourceId": 9301
			},
			{
				"JobConnectionId": 932,
				"SkinResourceId": 9301
			},
			{
				"JobConnectionId": 933,
				"SkinResourceId": 9301
			},
			{
				"JobConnectionId": 934,
				"SkinResourceId": 9301
			}
		],
		"Desc": "准备好了吗？狂欢开始了！",
		"Icon": "UI/Icon/HeroSkin_ABS/Icon_MysteryKnight_Skin01.png",
		"GetPathDesc": "参与【光之回响】活动获得",
		"CharImageID": 0,
		"HeroInformationID": 0,
		"PeakArenaSignTitle": "UI/Icon/HeadBattleSkin_ABS/Head_MysteryKnight_Skin01.png"
	},
	{
		"ID": 6002,
		"Name": "守望之刃",
		"SpecifiedHero": 60,
		"CharImageSkinResourceID": 6002,
		"SpecifiedModelSkinResource": [
			{
				"JobConnectionId": 601,
				"SkinResourceId": 60021
			},
			{
				"JobConnectionId": 602,
				"SkinResourceId": 6002
			},
			{
				"JobConnectionId": 604,
				"SkinResourceId": 60021
			},
			{
				"JobConnectionId": 605,
				"SkinResourceId": 6002
			}
		],
		"Desc": "擅闯者，将付出生命的代价。",
		"Icon": "UI/Icon/HeroSkin_ABS/Icon_Sigma_Skin02.png",
		"GetPathDesc": "参与【转动的哲学】活动获得",
		"CharImageID": 0,
		"HeroInformationID": 0,
		"PeakArenaSignTitle": "UI/Icon/HeadBattleSkin_ABS/Head_Sigma_Skin02.png"
	},
	{
		"ID": 3801,
		"Name": "狂欢之夜",
		"SpecifiedHero": 38,
		"CharImageSkinResourceID": 3801,
		"SpecifiedModelSkinResource": [
			{
				"JobConnectionId": 381,
				"SkinResourceId": 3801
			},
			{
				"JobConnectionId": 382,
				"SkinResourceId": 3801
			},
			{
				"JobConnectionId": 383,
				"SkinResourceId": 3801
			},
			{
				"JobConnectionId": 384,
				"SkinResourceId": 3801
			}
		],
		"Desc": "今夜，让我们在糖果的甜蜜里狂欢吧！",
		"Icon": "UI/Icon/HeroSkin_ABS/Icon_JellioruLela_Skin01.png",
		"GetPathDesc": "限时出售",
		"CharImageID": 0,
		"HeroInformationID": 0,
		"PeakArenaSignTitle": "UI/Icon/HeadBattleSkin_ABS/Head_JellioruLela_Skin01.png"
	},
	{
		"ID": 3101,
		"Name": "魅心狼女",
		"SpecifiedHero": 31,
		"CharImageSkinResourceID": 3101,
		"SpecifiedModelSkinResource": [
			{
				"JobConnectionId": 312,
				"SkinResourceId": 3101
			},
			{
				"JobConnectionId": 313,
				"SkinResourceId": 31011
			},
			{
				"JobConnectionId": 314,
				"SkinResourceId": 3101
			},
			{
				"JobConnectionId": 315,
				"SkinResourceId": 31011
			}
		],
		"Desc": "想试试狼吻么？要拿你的心交换噢~",
		"Icon": "UI/Icon/HeroSkin_ABS/Icon_Sofia_Skin01.png",
		"GetPathDesc": "参与万圣节登录活动获得",
		"CharImageID": 0,
		"HeroInformationID": 0,
		"PeakArenaSignTitle": "UI/Icon/HeadBattleSkin_ABS/Head_Sofia_Skin01.png"
	},
	{
		"ID": 604,
		"Name": "真源的帝王",
		"SpecifiedHero": 6,
		"CharImageSkinResourceID": 604,
		"SpecifiedModelSkinResource": [
			{
				"JobConnectionId": 65,
				"SkinResourceId": 604
			},
			{
				"JobConnectionId": 62,
				"SkinResourceId": 604
			},
			{
				"JobConnectionId": 64,
				"SkinResourceId": 604
			},
			{
				"JobConnectionId": 61,
				"SkinResourceId": 604
			}
		],
		"Desc": "百千家的妖怪王子（双塔古城）\nWilon（罗卡山谷）\ncmxx（莉亚娜）\n拉美西斯二世（王者之心） \n<color=#DC143C>以此祝贺S2巅峰竞技场的四位大区冠军（排名不分先后），他们的胜利将被永远铭记！也祝指挥官们在未来的战斗中连战皆捷！</color> \n任何阻挡我的东西，都将在我的剑下归于虚无！",
		"Icon": "UI/Icon/HeroSkin_ABS/Icon_Leon_Skin04.png",
		"GetPathDesc": "限时出售",
		"CharImageID": 0,
		"HeroInformationID": 0,
		"PeakArenaSignTitle": "UI/Icon/HeadBattleSkin_ABS/Head_Leon_Skin04.png"
	},
	{
		"ID": 3401,
		"Name": "钛金武士",
		"SpecifiedHero": 34,
		"CharImageSkinResourceID": 3401,
		"SpecifiedModelSkinResource": [
			{
				"JobConnectionId": 341,
				"SkinResourceId": 3401
			},
			{
				"JobConnectionId": 342,
				"SkinResourceId": 3401
			},
			{
				"JobConnectionId": 344,
				"SkinResourceId": 3401
			},
			{
				"JobConnectionId": 345,
				"SkinResourceId": 3401
			}
		],
		"Desc": "在这金属武装下的，是一颗斩断一切的武道之心！",
		"Icon": "UI/Icon/HeroSkin_ABS/Icon_Kirikaze_Skin01.png",
		"GetPathDesc": "【巅峰竞技场】S3赛季限定皮肤",
		"CharImageID": 0,
		"HeroInformationID": 0,
		"PeakArenaSignTitle": "UI/Icon/HeadBattleSkin_ABS/Head_Kirikaze_Skin01.png"
	},
	{
		"ID": 9401,
		"Name": "奇妙童话夜",
		"SpecifiedHero": 94,
		"CharImageSkinResourceID": 9401,
		"SpecifiedModelSkinResource": [
			{
				"JobConnectionId": 941,
				"SkinResourceId": 9401
			},
			{
				"JobConnectionId": 942,
				"SkinResourceId": 94011
			},
			{
				"JobConnectionId": 943,
				"SkinResourceId": 9401
			},
			{
				"JobConnectionId": 944,
				"SkinResourceId": 94011
			}
		],
		"Desc": "当太阳下山岗，我要赶回家~阿叻，迷路了西卡……",
		"Icon": "UI/Icon/HeroSkin_ABS/Icon_Aka_Skin01.png",
		"GetPathDesc": "参与【光之回响】活动获得",
		"CharImageID": 0,
		"HeroInformationID": 0,
		"PeakArenaSignTitle": "UI/Icon/HeadBattleSkin_ABS/Head_Aka_Skin01.png"
	},
	{
		"ID": 6401,
		"Name": "桔梗假面",
		"SpecifiedHero": 64,
		"CharImageSkinResourceID": 6401,
		"SpecifiedModelSkinResource": [
			{
				"JobConnectionId": 641,
				"SkinResourceId": 64011
			},
			{
				"JobConnectionId": 642,
				"SkinResourceId": 6401
			},
			{
				"JobConnectionId": 644,
				"SkinResourceId": 64011
			},
			{
				"JobConnectionId": 645,
				"SkinResourceId": 6401
			}
		],
		"Desc": "当你看到我真面目的时候，你的心，已经属于我了哟。",
		"Icon": "UI/Icon/HeroSkin_ABS/Icon_Brenda_Skin01.png",
		"GetPathDesc": "参与【光之回响】活动获得",
		"CharImageID": 0,
		"HeroInformationID": 0,
		"PeakArenaSignTitle": "UI/Icon/HeadBattleSkin_ABS/Head_Brenda_Skin01.png"
	},
	{
		"ID": 6602,
		"Name": "蚀火夜姬",
		"SpecifiedHero": 66,
		"CharImageSkinResourceID": 6602,
		"SpecifiedModelSkinResource": [
			{
				"JobConnectionId": 661,
				"SkinResourceId": 66021
			},
			{
				"JobConnectionId": 662,
				"SkinResourceId": 6602
			},
			{
				"JobConnectionId": 664,
				"SkinResourceId": 66021
			},
			{
				"JobConnectionId": 665,
				"SkinResourceId": 6602
			}
		],
		"Desc": "只有永眠的人才能看到我的火焰。你看到了？",
		"Icon": "UI/Icon/HeroSkin_ABS/Icon_Claret_Skin02.png",
		"GetPathDesc": "参与【揭示的哲学】活动获得",
		"CharImageID": 0,
		"HeroInformationID": 0,
		"PeakArenaSignTitle": "UI/Icon/HeadBattleSkin_ABS/Head_Claret_Skin02.png"
	},
	{
		"ID": 5602,
		"Name": "星穹使者",
		"SpecifiedHero": 56,
		"CharImageSkinResourceID": 5602,
		"SpecifiedModelSkinResource": [
			{
				"JobConnectionId": 564,
				"SkinResourceId": 5602
			},
			{
				"JobConnectionId": 561,
				"SkinResourceId": 5602
			},
			{
				"JobConnectionId": 565,
				"SkinResourceId": 56021
			},
			{
				"JobConnectionId": 562,
				"SkinResourceId": 56021
			}
		],
		"Desc": "宇宙悬浮于脚踏大地之人的头顶，而星辰构筑起性灵的阶梯。",
		"Icon": "UI/Icon/HeroSkin_ABS/Icon_Rachel_Skin02.png",
		"GetPathDesc": "限时出售",
		"CharImageID": 0,
		"HeroInformationID": 0,
		"PeakArenaSignTitle": "UI/Icon/HeadBattleSkin_ABS/Head_Rachel_Skin02.png"
	},
	{
		"ID": 2503,
		"Name": "绝代生徒会长",
		"SpecifiedHero": 25,
		"CharImageSkinResourceID": 2503,
		"SpecifiedModelSkinResource": [
			{
				"JobConnectionId": 254,
				"SkinResourceId": 2503
			},
			{
				"JobConnectionId": 251,
				"SkinResourceId": 2503
			},
			{
				"JobConnectionId": 255,
				"SkinResourceId": 25031
			},
			{
				"JobConnectionId": 252,
				"SkinResourceId": 25031
			}
		],
		"Desc": "辅导功课？你是指独处的秘密约会吗？",
		"Icon": "UI/Icon/HeroSkin_ABS/Icon_Alutemurat_Skin03.png",
		"GetPathDesc": "限时出售",
		"CharImageID": 0,
		"HeroInformationID": 0,
		"PeakArenaSignTitle": "UI/Icon/HeadBattleSkin_ABS/Head_Alutemurat_Skin03.png"
	},
	{
		"ID": 3001,
		"Name": "魔法风纪委员",
		"SpecifiedHero": 30,
		"CharImageSkinResourceID": 3001,
		"SpecifiedModelSkinResource": [
			{
				"JobConnectionId": 301,
				"SkinResourceId": 3001
			},
			{
				"JobConnectionId": 302,
				"SkinResourceId": 3001
			},
			{
				"JobConnectionId": 304,
				"SkinResourceId": 3001
			},
			{
				"JobConnectionId": 305,
				"SkinResourceId": 3001
			}
		],
		"Desc": "不可以迟到哦，我可是会记下来的~",
		"Icon": "UI/Icon/HeroSkin_ABS/Icon_Leafani_Skin01.png",
		"GetPathDesc": "限时出售",
		"CharImageID": 0,
		"HeroInformationID": 0,
		"PeakArenaSignTitle": "UI/Icon/HeadBattleSkin_ABS/Head_Leafani_Skin01.png"
	},
	{
		"ID": 94001,
		"Name": "狼魂",
		"SpecifiedHero": 40002,
		"CharImageSkinResourceID": 94001,
		"SpecifiedModelSkinResource": [
			{
				"JobConnectionId": 400020,
				"SkinResourceId": 94001
			},
			{
				"JobConnectionId": 400030,
				"SkinResourceId": 94001
			}
		],
		"Desc": "TBD",
		"Icon": "UI/Icon/HeroSkin_ABS/Icon_Aka_Skin01.png",
		"GetPathDesc": "",
		"CharImageID": 0,
		"HeroInformationID": 0,
		"PeakArenaSignTitle": "UI/Icon/HeadBattleSkin_ABS/Head_Aka_Skin01.png"
	},
	{
		"ID": 94002,
		"Name": "狼魂",
		"SpecifiedHero": 40003,
		"CharImageSkinResourceID": 94002,
		"SpecifiedModelSkinResource": [
			{
				"JobConnectionId": 400020,
				"SkinResourceId": 94002
			},
			{
				"JobConnectionId": 400030,
				"SkinResourceId": 94002
			}
		],
		"Desc": "TBD",
		"Icon": "UI/Icon/HeroSkin_ABS/Icon_Aka_Skin01.png",
		"GetPathDesc": "",
		"CharImageID": 0,
		"HeroInformationID": 0,
		"PeakArenaSignTitle": "UI/Icon/HeadBattleSkin_ABS/Head_Aka_Skin01.png"
	},
	{
		"ID": 7701,
		"Name": "自由骑士",
		"SpecifiedHero": 77,
		"CharImageSkinResourceID": 7701,
		"SpecifiedModelSkinResource": [
			{
				"JobConnectionId": 772,
				"SkinResourceId": 7701
			},
			{
				"JobConnectionId": 774,
				"SkinResourceId": 7701
			},
			{
				"JobConnectionId": 771,
				"SkinResourceId": 77011
			},
			{
				"JobConnectionId": 773,
				"SkinResourceId": 77011
			}
		],
		"Desc": "我唯一效忠的，只有自由的信念！",
		"Icon": "UI/Icon/HeroSkin_ABS/Icon_Parn_Skin01.png",
		"GetPathDesc": "参与【光之回响】活动获得",
		"CharImageID": 0,
		"HeroInformationID": 0,
		"PeakArenaSignTitle": "UI/Icon/HeadBattleSkin_ABS/Head_ParnSSR_Skin01.png"
	},
	{
		"ID": 7501,
		"Name": "白色妖精恋曲",
		"SpecifiedHero": 75,
		"CharImageSkinResourceID": 7501,
		"SpecifiedModelSkinResource": [
			{
				"JobConnectionId": 751,
				"SkinResourceId": 7501
			},
			{
				"JobConnectionId": 753,
				"SkinResourceId": 7501
			},
			{
				"JobConnectionId": 752,
				"SkinResourceId": 75011
			},
			{
				"JobConnectionId": 754,
				"SkinResourceId": 75011
			}
		],
		"Desc": "一起去森林吧，只有我和你……",
		"Icon": "UI/Icon/HeroSkin_ABS/Icon_Deedlit_Skin01.png",
		"GetPathDesc": "参与【光之回响】活动获得",
		"CharImageID": 0,
		"HeroInformationID": 0,
		"PeakArenaSignTitle": "UI/Icon/HeadBattleSkin_ABS/Head_Deedlit_Skin01.png"
	},
	{
		"ID": 5901,
		"Name": "恶国狮子",
		"SpecifiedHero": 59,
		"CharImageSkinResourceID": 5901,
		"SpecifiedModelSkinResource": [
			{
				"JobConnectionId": 591,
				"SkinResourceId": 5901
			},
			{
				"JobConnectionId": 594,
				"SkinResourceId": 5901
			},
			{
				"JobConnectionId": 592,
				"SkinResourceId": 5901
			},
			{
				"JobConnectionId": 595,
				"SkinResourceId": 5901
			}
		],
		"Desc": "呜哇……踏！老夫将抹除尔等一切苦痛！",
		"Icon": "UI/Icon/HeroSkin_ABS/Icon_Gizlof_Skin01.png",
		"GetPathDesc": "参与【转动的哲学】活动获得",
		"CharImageID": 0,
		"HeroInformationID": 0,
		"PeakArenaSignTitle": "UI/Icon/HeadBattleSkin_ABS/Head_Gizlof_Skin01.png"
	},
	{
		"ID": 59001,
		"Name": "组构体",
		"SpecifiedHero": 6407,
		"CharImageSkinResourceID": 59001,
		"SpecifiedModelSkinResource": [
			{
				"JobConnectionId": 64070,
				"SkinResourceId": 59001
			},
			{
				"JobConnectionId": 64080,
				"SkinResourceId": 59001
			}
		],
		"Desc": "TBD",
		"Icon": "UI/Icon/HeroSkin_ABS/Icon_Gizlof_Skin01.png",
		"GetPathDesc": "",
		"CharImageID": 0,
		"HeroInformationID": 0,
		"PeakArenaSignTitle": ""
	},
	{
		"ID": 59002,
		"Name": "组构体",
		"SpecifiedHero": 6408,
		"CharImageSkinResourceID": 59002,
		"SpecifiedModelSkinResource": [
			{
				"JobConnectionId": 64070,
				"SkinResourceId": 59002
			},
			{
				"JobConnectionId": 64080,
				"SkinResourceId": 59002
			}
		],
		"Desc": "TBD",
		"Icon": "UI/Icon/HeroSkin_ABS/Icon_Gizlof_Skin01.png",
		"GetPathDesc": "",
		"CharImageID": 0,
		"HeroInformationID": 0,
		"PeakArenaSignTitle": ""
	}
]