[
	{
		"ID": 1,
		"Name": "蓝色薄荷",
		"BoostHeroIdList": [
			14,
			26,
			13,
			16,
			47,
			48
		]
	},
	{
		"ID": 2,
		"Name": "黄色糖人",
		"BoostHeroIdList": [
			8,
			6,
			5,
			21,
			40,
			23
		]
	},
	{
		"ID": 3,
		"Name": "绿色可可",
		"BoostHeroIdList": [
			52,
			53,
			33,
			34,
			44,
			24
		]
	},
	{
		"ID": 4,
		"Name": "红色蛋糕",
		"BoostHeroIdList": [
			51,
			12,
			11,
			17,
			22,
			43
		]
	},
	{
		"ID": 5,
		"Name": "小齿轮",
		"BoostHeroIdList": [
			26,
			56,
			69,
			1,
			22,
			30
		]
	},
	{
		"ID": 6,
		"Name": "螺丝钉",
		"BoostHeroIdList": [
			25,
			53,
			70,
			4,
			13,
			36
		]
	},
	{
		"ID": 7,
		"Name": "真空管",
		"BoostHeroIdList": [
			9,
			10,
			74,
			3,
			17,
			32
		]
	},
	{
		"ID": 8,
		"Name": "魔剑的余波",
		"BoostHeroIdList": [
			6,
			8,
			18,
			21,
			44,
			23
		]
	},
	{
		"ID": 9,
		"Name": "永暗的孤火",
		"BoostHeroIdList": [
			12,
			7,
			9,
			17,
			22,
			24
		]
	},
	{
		"ID": 10,
		"Name": "渐灭的辉光",
		"BoostHeroIdList": [
			15,
			14,
			20,
			13,
			19,
			45
		]
	},
	{
		"ID": 11,
		"Name": "春之樱",
		"BoostHeroIdList": [
			79,
			26,
			27,
			4,
			16,
			47
		]
	},
	{
		"ID": 12,
		"Name": "夏之樱",
		"BoostHeroIdList": [
			81,
			51,
			55,
			3,
			11,
			21
		]
	},
	{
		"ID": 13,
		"Name": "秋之樱",
		"BoostHeroIdList": [
			80,
			25,
			28,
			1,
			36,
			49
		]
	},
	{
		"ID": 14,
		"Name": "冬之樱",
		"BoostHeroIdList": [
			35,
			10,
			14,
			13,
			5,
			31
		]
	},
	{
		"ID": 15,
		"Name": "章鱼烧",
		"BoostHeroIdList": [
			33,
			27,
			52,
			54,
			1,
			34
		]
	},
	{
		"ID": 16,
		"Name": "刨冰",
		"BoostHeroIdList": [
			21,
			6,
			15,
			7,
			4,
			18
		]
	},
	{
		"ID": 17,
		"Name": "苹果糖",
		"BoostHeroIdList": [
			37,
			29,
			8,
			53,
			3,
			20
		]
	},
	{
		"ID": 18,
		"Name": "策划的眼泪",
		"BoostHeroIdList": [
			15,
			26,
			14,
			61,
			1,
			47
		]
	},
	{
		"ID": 19,
		"Name": "程序的格子衫",
		"BoostHeroIdList": [
			28,
			7,
			54,
			51,
			4,
			39
		]
	},
	{
		"ID": 20,
		"Name": "美术的触手",
		"BoostHeroIdList": [
			88,
			6,
			56,
			10,
			3,
			11
		]
	},
	{
		"ID": 21,
		"Name": "制作人的手办",
		"BoostHeroIdList": [
			9,
			25,
			8,
			59,
			34,
			31
		]
	},
	{
		"ID": 22,
		"Name": "节日南瓜",
		"BoostHeroIdList": [
			55,
			12,
			61,
			88,
			1,
			31
		]
	},
	{
		"ID": 23,
		"Name": "捣蛋糖果",
		"BoostHeroIdList": [
			94,
			26,
			66,
			15,
			4,
			33
		]
	},
	{
		"ID": 24,
		"Name": "魔法皮帽",
		"BoostHeroIdList": [
			38,
			9,
			6,
			67,
			3,
			13
		]
	}
]