v 1.2219958305358887 9.689330937590057e-08 -0.040691275149583817
v 1.2286202907562256 -9.689330937590057e-08 0.12007635086774826
v 1.1867563724517822 0.3179904818534851 0.1356688290834427
v 1.1803573369979858 0.31627583503723145 -0.01521457638591528
v 1.064016342163086 0.6143103837966919 0.14294961094856262
v 1.058279275894165 0.6109977960586548 -0.0032453464809805155
v 0.8687660694122314 0.8687657713890076 0.14498329162597656
v 0.8640812635421753 0.8640815615653992 0.00013579137157648802
v 0.614310085773468 1.0640164613723755 0.14572294056415558
v 0.6109978556632996 1.0582793951034546 0.001385102397762239
v 0.3179907500743866 1.1867560148239136 0.14702288806438446
v 0.3162757456302643 1.1803572177886963 0.0035698965657502413
v 1.9378661875180114e-07 1.228620171546936 0.149684339761734
v 2.9067993523312907e-07 1.2219959497451782 0.008030945435166359
v -0.31799009442329407 1.1867563724517822 0.15488876402378082
v -0.31627556681632996 1.1803572177886963 0.016722889617085457
v 1.180356740951538 -0.3162766098976135 -0.07135416567325592
v 1.0697535276412964 0.6176223754882812 0.28916528820991516
v 0.8734500408172607 0.873449981212616 0.2898447513580322
v 0.617621898651123 1.0697535276412964 0.29008787870407104
v 0.3197048008441925 1.19315505027771 0.29051753878593445
v 2.9067993523312907e-07 1.2352451086044312 0.2913995683193207
v -0.31970489025115967 1.19315505027771 0.29313063621520996
v 0.8781342506408691 0.8781343698501587 0.4347189962863922
v 1.0754905939102173 0.6209349632263184 0.4353998303413391
v 1.1931549310684204 0.31970489025115967 0.28670528531074524
v 1.186755895614624 -0.31799113750457764 0.10118310153484344
v 1.235244870185852 0.0 0.28140461444854736
v 1.1931545734405518 -0.3197057843208313 0.2749393880367279
v 1.1995532512664795 0.3214194178581238 0.43789297342300415
v 1.2418692111968994 9.689330937590057e-08 0.44329774379730225
v 0.6209346652030945 1.0754905939102173 0.4344791769981384
v 0.3214194178581238 1.199553370475769 0.4340532124042511
v 1.9378661875180114e-07 1.241869330406189 0.4331764578819275
v -0.3214193284511566 1.1995537281036377 0.43144920468330383
v 1.1995532512664795 -0.3214204013347626 0.44993284344673157
v 1.2059522867202759 0.32313406467437744 0.5892300605773926
v 1.2484933137893677 -9.689330937590057e-08 0.6057595610618591
v 1.0812273025512695 0.6242467761039734 0.5816510319709778
v 0.8828184604644775 0.8828182220458984 0.579604983329773
v 0.6242468953132629 1.08122718334198 0.5788955688476562
v 0.3231338560581207 1.2059521675109863 0.5776290893554688
v 1.9378661875180114e-07 1.2484935522079468 0.5750144124031067
v -0.3231339454650879 1.205952525138855 0.5698441863059998
v 1.2059520483016968 -0.32313477993011475 0.6261816620826721
v 1.2123514413833618 0.3248486816883087 0.7407149076461792
v 1.255118489265442 0.0 0.7687946557998657
v 1.0869646072387695 0.6275591850280762 0.7279172539710999
v 0.8875026702880859 0.8875026106834412 0.7245015501976013
v 0.627559244632721 1.08696448802948 0.723336398601532
v 0.324848473072052 1.2123512029647827 0.721244215965271
v 1.9378661875180114e-07 1.2551183700561523 0.7169135212898254
v -0.3248486816883087 1.2123512029647827 0.7083165049552917
v 1.2123513221740723 -0.32484936714172363 0.8037048578262329
v -0.31627556681632996 1.1803572177886963 0.016722889617085457
v -0.31799009442329407 1.1867563724517822 0.15488876402378082
v -0.6143097877502441 1.064016580581665 0.16462332010269165
v -0.6109976768493652 1.0582793951034546 0.03291764482855797
v -0.868765652179718 0.8687659502029419 0.18117128312587738
v -0.8640811443328857 0.8640817403793335 0.06035275384783745
v -1.0640161037445068 0.6143101453781128 0.20519579946994781
v -1.0582791566848755 0.6109983325004578 0.10008271783590317
v -1.1867560148239136 0.3179909586906433 0.2333601713180542
v -1.1803570985794067 0.31627634167671204 0.1466161459684372
v -1.2286202907562256 4.844665681957849e-07 0.25909292697906494
v -1.2219955921173096 5.813598704662581e-07 0.18920379877090454
v -1.1867561340332031 -0.3179895877838135 0.2781086564064026
v -1.1803573369979858 -0.3162751793861389 0.22084857523441315
v -1.0640166997909546 -0.6143096089363098 0.29337379336357117
v -1.0582796335220337 -0.6109973192214966 0.2463539093732834
v -0.8687661290168762 -0.8687652945518494 0.311644971370697
v -0.8640819191932678 -0.8640809655189514 0.2766329348087311
v -0.6143105626106262 -1.0640161037445068 0.33229905366897583
v -0.610998272895813 -1.058279037475586 0.31051763892173767
v -1.0697531700134277 0.617622971534729 0.3099970519542694
v -1.1931548118591309 0.3197054862976074 0.3194671869277954
v -1.235244870185852 9.689330937590057e-08 0.328105092048645
v -1.1931551694869995 -0.3197040855884552 0.33445262908935547
v -1.0697537660598755 -0.6176218390464783 0.3395271599292755
v -0.8734504580497742 -0.8734495639801025 0.3456517159938812
v -0.617622971534729 -1.0697531700134277 0.35264521837234497
v -1.1995534896850586 0.32142019271850586 0.4049323797225952
v -1.075490117073059 0.6209355592727661 0.4144853949546814
v -0.873449981212616 0.8734498023986816 0.30192625522613525
v -0.6176221966743469 1.069753885269165 0.2963813543319702
v -0.31970489025115967 1.19315505027771 0.29313063621520996
v -0.6209344863891602 1.0754905939102173 0.4281929135322571
v -0.3214193284511566 1.1995537281036377 0.43144920468330383
v -0.8781338930130005 0.8781343698501587 0.4226188659667969
v -1.1995538473129272 -0.3214188814163208 0.38987797498703003
v -1.0754905939102173 -0.6209339499473572 0.38481852412223816
v -0.8781347870826721 -0.8781337738037109 0.3786606788635254
v -0.6209352612495422 -1.075490117073059 0.37155652046203613
v -0.6242467164993286 1.0812277793884277 0.5600587725639343
v -0.3231339454650879 1.205952525138855 0.5698441863059998
v -0.8828182816505432 0.8828184008598328 0.5432499051094055
v -1.08122718334198 0.6242469549179077 0.5186593532562256
v -1.2059524059295654 0.3231341540813446 0.4897501766681671
v -1.2484937906265259 5.813598704662581e-07 0.46347200870513916
v -1.2418692111968994 9.689330937590057e-08 0.39623355865478516
v -1.205952525138855 -0.32313376665115356 0.4443817436695099
v -1.0812276601791382 -0.6242465376853943 0.4292528033256531
v -0.8828191757202148 -0.8828182220458984 0.4106787145137787
v -0.6242474317550659 -1.08122718334198 0.38903337717056274
v -1.2123512029647827 0.32484886050224304 0.5739166140556335
v -1.255118489265442 4.844665681957849e-07 0.529813289642334
v -1.2123515605926514 -0.3248478174209595 0.49796122312545776
v -1.0869648456573486 -0.627558708190918 0.47283485531806946
v -0.8875032663345337 -0.8875024318695068 0.4417145550251007
v -0.6275597214698792 -1.0869642496109009 0.40507617592811584
v -1.0869642496109009 0.6275591850280762 0.6225184798240662
v -0.8875026106834412 0.8875026106834412 0.6638208627700806
v -0.6275590658187866 1.08696448802948 0.6919806003570557
v -0.3248486816883087 1.2123512029647827 0.7083165049552917
vn 0.9991487264633179 -0.004401753190904856 -0.041018880903720856
vn 0.99915611743927 0.0021514620166271925 -0.041017796844244
vn 0.9646228551864624 0.2600235641002655 -0.04347970709204674
vn 0.9657293558120728 0.2558846175670624 -0.043472036719322205
vn 0.8648291826248169 0.5000449419021606 -0.04500522091984749
vn 0.8657107949256897 0.49851688742637634 -0.04500652477145195
vn 0.7062332630157471 0.7065079808235168 -0.04561815410852432
vn 0.7066124081611633 0.7061285376548767 -0.045621611177921295
vn 0.4993484616279602 0.8651859760284424 -0.04587358981370926
vn 0.4996943473815918 0.8649859428405762 -0.045878585427999496
vn 0.2582699954509735 0.9649676084518433 -0.04619849845767021
vn 0.25901734828948975 0.9647669196128845 -0.04620375111699104
vn -0.0005697755259461701 0.9989017248153687 -0.04684993252158165
vn 0.0009652669541537762 0.9989012479782104 -0.046853553503751755
vn -0.2595956027507782 0.9645159244537354 -0.04815702512860298
vn -0.25678551197052 0.9652683734893799 -0.04814751073718071
vn 0.9910691976547241 -0.12740065157413483 -0.03938066586852074
vn 0.8650437593460083 0.49967506527900696 -0.044990308582782745
vn 0.7063254714012146 0.7064161896705627 -0.04561260715126991
vn 0.49943244457244873 0.8651378750801086 -0.04586457088589668
vn 0.25845345854759216 0.9649190902709961 -0.04618334025144577
vn -0.00018640894268173724 0.9989029169082642 -0.04682803153991699
vn -0.25887227058410645 0.9647116661071777 -0.04813062399625778
vn 0.7064165472984314 0.7063254714012146 -0.0456068217754364
vn 0.8652598857879639 0.4993019700050354 -0.04497619718313217
vn 0.9648866653442383 0.2590530216693878 -0.043419599533081055
vn 0.9909802079200745 -0.12812229990959167 -0.03927931934595108
vn 0.9991644620895386 0.000711143366061151 -0.040864232927560806
vn 0.9907887578010559 -0.12965905666351318 -0.03906690329313278
vn 0.965154767036438 0.25806209444999695 -0.04336084425449371
vn 0.9991706609725952 -0.0007692084764130414 -0.04071114957332611
vn 0.4995143711566925 0.8650911450386047 -0.04585568606853485
vn 0.25863292813301086 0.9648717045783997 -0.046168357133865356
vn 0.0001898957707453519 0.9989039897918701 -0.04680601879954338
vn -0.25815603137016296 0.9649049043655396 -0.048105157911777496
vn 0.9905881881713867 -0.1312452107667923 -0.03885428234934807
vn 0.9654271602630615 0.25705063343048096 -0.04330501705408096
vn 0.9991744160652161 -0.002290015574544668 -0.04056074097752571
vn 0.8654778599739075 0.49892497062683105 -0.044964246451854706
vn 0.7065065503120422 0.7062358260154724 -0.0456022284924984
vn 0.4995935559272766 0.8650457262992859 -0.04584815353155136
vn 0.258807510137558 0.9648255109786987 -0.04615650698542595
vn 0.0005592106026597321 0.9989047050476074 -0.04678718373179436
vn -0.25744760036468506 0.9650952816009521 -0.0480806827545166
vn 0.9903784990310669 -0.13288022577762604 -0.038643721491098404
vn 0.9668862223625183 0.25151994824409485 -0.043230362236499786
vn 0.9991227984428406 -0.011068858206272125 -0.04038627818226814
vn 0.8666180372238159 0.49694308638572693 -0.04495172202587128
vn 0.7069651484489441 0.7057768106460571 -0.04560130462050438
vn 0.4999939203262329 0.8648145794868469 -0.04584550857543945
vn 0.2596888542175293 0.96458899974823 -0.046149905771017075
vn 0.0023997679818421602 0.9989026784896851 -0.04677262529730797
vn -0.2540035843849182 0.9660091400146484 -0.04804651811718941
vn 0.9902769327163696 -0.1336633265018463 -0.03854531794786453
vn -0.25678551197052 0.9652683734893799 -0.04814751073718071
vn -0.2595956027507782 0.9645159244537354 -0.04815702512860298
vn -0.5011505484580994 0.8638728857040405 -0.050714291632175446
vn -0.4967389404773712 0.8664209842681885 -0.05064703896641731
vn -0.7084890007972717 0.703536331653595 -0.055498234927654266
vn -0.703015923500061 0.7090232968330383 -0.05526713654398918
vn -0.8668166995048523 0.49452441930770874 -0.06383136659860611
vn -0.8620349764823914 0.50288325548172 -0.06327842175960541
vn -0.9646696448326111 0.25199559330940247 -0.0768808051943779
vn -0.9623269438743591 0.2610810399055481 -0.07591763883829117
vn -0.9955018162727356 -0.006264353170990944 -0.09453574568033218
vn -0.9956414699554443 0.001002888078801334 -0.09325816482305527
vn -0.9578990936279297 -0.262734055519104 -0.1157584860920906
vn -0.9594460725784302 -0.2577166259288788 -0.11421588063240051
vn -0.8533457517623901 -0.5009955763816833 -0.1442377120256424
vn -0.8560414910316467 -0.49705496430397034 -0.14187762141227722
vn -0.6855061650276184 -0.7009600400924683 -0.19681571424007416
vn -0.6894158124923706 -0.6986229419708252 -0.19139423966407776
vn -0.5809236764907837 -0.7806642055511475 -0.23041477799415588
vn -0.5777564644813538 -0.7844977974891663 -0.22530125081539154
vn -0.865085244178772 0.4975188374519348 -0.06405030936002731
vn -0.9635471701622009 0.25607722997665405 -0.07746826112270355
vn -0.9954081177711487 -0.002002294175326824 -0.09570035338401794
vn -0.9587476849555969 -0.2587900161743164 -0.1176033616065979
vn -0.8555066585540771 -0.4964342713356018 -0.14717772603034973
vn -0.6901837587356567 -0.6943660378456116 -0.20372119545936584
vn -0.5870880484580994 -0.7730357050895691 -0.24029837548732758
vn -0.9623833894729614 0.26023730635643005 -0.07806868106126785
vn -0.8633202314376831 0.500547468662262 -0.06426951289176941
vn -0.7068265676498413 0.7052026987075806 -0.05554455518722534
vn -0.49994590878486633 0.8645714521408081 -0.05069965496659279
vn -0.25887227058410645 0.9647116661071777 -0.04813062399625778
vn -0.4987436532974243 0.8652662038803101 -0.05068610608577728
vn -0.25815603137016296 0.9649049043655396 -0.048105157911777496
vn -0.7051510810852051 0.706874668598175 -0.055589962750673294
vn -0.9595900774002075 -0.2547633647918701 -0.11950982362031937
vn -0.857714831829071 -0.49168840050697327 -0.15022584795951843
vn -0.695215106010437 -0.687100350856781 -0.21111370623111725
vn -0.5938512682914734 -0.7644277215003967 -0.2509799301624298
vn -0.4975437819957733 0.8659575581550598 -0.050672050565481186
vn -0.25744760036468506 0.9650952816009521 -0.0480806827545166
vn -0.7034637331962585 0.7085503339767456 -0.05563544109463692
vn -0.8615208864212036 0.5036095380783081 -0.06449206173419952
vn -0.9611769318580627 0.26447686553001404 -0.07868283241987228
vn -0.9951493144035339 0.006807709578424692 -0.09814073890447617
vn -0.9952912330627441 0.0023535729851573706 -0.09690114855766296
vn -0.960425078868866 -0.25065070390701294 -0.12148238718509674
vn -0.859970211982727 -0.4867495894432068 -0.15338234603405
vn -0.7006309628486633 -0.6790720224380493 -0.21903769671916962
vn -0.6012691259384155 -0.7546824812889099 -0.26254504919052124
vn -0.957435131072998 0.27785366773605347 -0.07820116728544235
vn -0.9950167536735535 0.018639229238033295 -0.09795033186674118
vn -0.96269690990448 -0.24163249135017395 -0.12177224457263947
vn -0.8646320104598999 -0.47827041149139404 -0.15384644269943237
vn -0.709382176399231 -0.6696837544441223 -0.21977393329143524
vn -0.6052050590515137 -0.7493608593940735 -0.268672913312912
vn -0.8548262119293213 0.5149402618408203 -0.0640980675816536
vn -0.6963019967079163 0.7156051993370056 -0.055431947112083435
vn -0.49199178814888 0.8691288828849792 -0.05058736726641655
vn -0.2540035843849182 0.9660091400146484 -0.04804651811718941
vt 0.03416925668716431 0.07783269882202148
vt 0.22420859336853027 0.07783269882202148
vt 0.22420859336853027 0.133470356464386
vt 0.03416925668716431 0.133470356464386
vt 0.22420859336853027 0.18910813331604004
vt 0.03416925668716431 0.18910813331604004
vt 0.22420859336853027 0.24474585056304932
vt 0.03416925668716431 0.24474585056304932
vt 0.22420859336853027 0.30038362741470337
vt 0.03416925668716431 0.3003835082054138
vt 0.2242085337638855 0.35602128505706787
vt 0.03416919708251953 0.35602128505706787
vt 0.2242085337638855 0.4116589426994324
vt 0.03416919708251953 0.41165900230407715
vt 0.2242085337638855 0.46729665994644165
vt 0.03416919708251953 0.4672966003417969
vt 0.03416925668716431 0.022194862365722656
vt 0.41424793004989624 0.18910813331604004
vt 0.41424793004989624 0.24474585056304932
vt 0.41424793004989624 0.3003835678100586
vt 0.41424787044525146 0.35602128505706787
vt 0.41424787044525146 0.4116588830947876
vt 0.41424787044525146 0.4672966003417969
vt 0.6042873859405518 0.24474585056304932
vt 0.6042873859405518 0.18910813331604004
vt 0.41424793004989624 0.13347041606903076
vt 0.22420859336853027 0.02219492197036743
vt 0.41424793004989624 0.07783269882202148
vt 0.41424793004989624 0.02219492197036743
vt 0.6042873859405518 0.13347041606903076
vt 0.6042873859405518 0.07783275842666626
vt 0.6042873859405518 0.30038362741470337
vt 0.6042873859405518 0.35602128505706787
vt 0.6042873859405518 0.4116589426994324
vt 0.6042873859405518 0.46729665994644165
vt 0.6042873859405518 0.02219492197036743
vt 0.794326663017273 0.13347041606903076
vt 0.794326663017273 0.07783275842666626
vt 0.794326663017273 0.18910813331604004
vt 0.794326663017273 0.2447459101676941
vt 0.794326663017273 0.30038362741470337
vt 0.794326663017273 0.35602128505706787
vt 0.794326663017273 0.4116589426994324
vt 0.7943266034126282 0.46729665994644165
vt 0.794326663017273 0.02219492197036743
vt 0.9843659996986389 0.13347041606903076
vt 0.9843659996986389 0.07783275842666626
vt 0.9843659996986389 0.18910813331604004
vt 0.9843659400939941 0.2447459101676941
vt 0.9843659400939941 0.30038368701934814
vt 0.9843659400939941 0.35602128505706787
vt 0.9843659400939941 0.41165900230407715
vt 0.9843659400939941 0.4672967195510864
vt 0.9843659996986389 0.02219492197036743
vt 0.03416919708251953 0.4770655632019043
vt 0.2242085337638855 0.4770655632019043
vt 0.2242085337638855 0.5327032208442688
vt 0.03416919708251953 0.5327032208442688
vt 0.2242085337638855 0.5883410573005676
vt 0.03416919708251953 0.5883410573005676
vt 0.2242085337638855 0.6439787149429321
vt 0.03416919708251953 0.6439787149429321
vt 0.2242085337638855 0.6996163725852966
vt 0.03416919708251953 0.6996163725852966
vt 0.2242085337638855 0.7552542090415955
vt 0.03416919708251953 0.7552542090415955
vt 0.2242085337638855 0.81089186668396
vt 0.03416919708251953 0.81089186668396
vt 0.22420859336853027 0.8665295243263245
vt 0.03416919708251953 0.8665295243263245
vt 0.22420859336853027 0.922167181968689
vt 0.03416919708251953 0.922167181968689
vt 0.22420859336853027 0.9778050780296326
vt 0.03416919708251953 0.9778050780296326
vt 0.41424787044525146 0.6439787149429321
vt 0.41424787044525146 0.6996163725852966
vt 0.41424787044525146 0.7552542090415955
vt 0.41424787044525146 0.81089186668396
vt 0.41424787044525146 0.8665295243263245
vt 0.41424787044525146 0.922167181968689
vt 0.41424787044525146 0.9778050780296326
vt 0.6042873859405518 0.6996163725852966
vt 0.604287326335907 0.6439787149429321
vt 0.41424787044525146 0.5883410573005676
vt 0.41424787044525146 0.5327032208442688
vt 0.41424787044525146 0.4770655632019043
vt 0.604287326335907 0.5327032208442688
vt 0.6042873859405518 0.4770655632019043
vt 0.604287326335907 0.5883410573005676
vt 0.6042873859405518 0.81089186668396
vt 0.6042873859405518 0.8665295243263245
vt 0.6042873859405518 0.922167181968689
vt 0.6042873859405518 0.9778050780296326
vt 0.7943266034126282 0.5327032208442688
vt 0.7943266034126282 0.4770655632019043
vt 0.7943266034126282 0.5883410573005676
vt 0.7943266034126282 0.6439787149429321
vt 0.794326663017273 0.6996163725852966
vt 0.794326663017273 0.7552542090415955
vt 0.6042873859405518 0.7552542090415955
vt 0.794326663017273 0.81089186668396
vt 0.794326663017273 0.8665295243263245
vt 0.794326663017273 0.922167181968689
vt 0.794326663017273 0.9778051376342773
vt 0.9843659996986389 0.6996163725852966
vt 0.9843659996986389 0.7552542090415955
vt 0.9843659996986389 0.81089186668396
vt 0.9843659996986389 0.8665295243263245
vt 0.9843659400939941 0.922167181968689
vt 0.9843659400939941 0.9778051376342773
vt 0.9843659400939941 0.6439787149429321
vt 0.9843659400939941 0.5883410573005676
vt 0.9843659400939941 0.5327032208442688
vt 0.9843659400939941 0.4770656228065491

g Cone001
s 1
usemtl Cone001
f 3/3/3 2/2/2 1/1/1 
f 4/4/4 3/3/3 1/1/1 
f 5/5/5 3/3/3 4/4/4 
f 6/6/6 5/5/5 4/4/4 
f 7/7/7 5/5/5 6/6/6 
f 8/8/8 7/7/7 6/6/6 
f 9/9/9 7/7/7 8/8/8 
f 10/10/10 9/9/9 8/8/8 
f 11/11/11 9/9/9 10/10/10 
f 12/12/12 11/11/11 10/10/10 
f 13/13/13 11/11/11 12/12/12 
f 14/14/14 13/13/13 12/12/12 
f 15/15/15 13/13/13 14/14/14 
f 16/16/16 15/15/15 14/14/14 
f 1/1/1 2/2/2 17/17/17 
f 5/5/5 18/18/18 3/3/3 
f 19/19/19 18/18/18 5/5/5 
f 7/7/7 19/19/19 5/5/5 
f 20/20/20 19/19/19 7/7/7 
f 9/9/9 20/20/20 7/7/7 
f 21/21/21 20/20/20 9/9/9 
f 11/11/11 21/21/21 9/9/9 
f 22/22/22 21/21/21 11/11/11 
f 13/13/13 22/22/22 11/11/11 
f 23/23/23 22/22/22 13/13/13 
f 15/15/15 23/23/23 13/13/13 
f 19/19/19 24/24/24 18/18/18 
f 24/24/24 25/25/25 18/18/18 
f 18/18/18 25/25/25 26/26/26 
f 18/18/18 26/26/26 3/3/3 
f 3/3/3 26/26/26 2/2/2 
f 2/2/2 27/27/27 17/17/17 
f 26/26/26 28/28/28 2/2/2 
f 2/2/2 28/28/28 27/27/27 
f 28/28/28 29/29/29 27/27/27 
f 26/26/26 30/30/30 28/28/28 
f 25/25/25 30/30/30 26/26/26 
f 30/30/30 31/31/31 28/28/28 
f 28/28/28 31/31/31 29/29/29 
f 32/32/32 24/24/24 19/19/19 
f 20/20/20 32/32/32 19/19/19 
f 33/33/33 32/32/32 20/20/20 
f 21/21/21 33/33/33 20/20/20 
f 34/34/34 33/33/33 21/21/21 
f 22/22/22 34/34/34 21/21/21 
f 35/35/35 34/34/34 22/22/22 
f 23/23/23 35/35/35 22/22/22 
f 31/31/31 36/36/36 29/29/29 
f 30/30/30 37/37/37 31/31/31 
f 37/37/37 38/38/38 31/31/31 
f 31/31/31 38/38/38 36/36/36 
f 39/39/39 37/37/37 30/30/30 
f 25/25/25 39/39/39 30/30/30 
f 40/40/40 39/39/39 25/25/25 
f 24/24/24 40/40/40 25/25/25 
f 41/41/41 40/40/40 24/24/24 
f 32/32/32 41/41/41 24/24/24 
f 42/42/42 41/41/41 32/32/32 
f 33/33/33 42/42/42 32/32/32 
f 43/43/43 42/42/42 33/33/33 
f 34/34/34 43/43/43 33/33/33 
f 44/44/44 43/43/43 34/34/34 
f 35/35/35 44/44/44 34/34/34 
f 38/38/38 45/45/45 36/36/36 
f 37/37/37 46/46/46 38/38/38 
f 46/46/46 47/47/47 38/38/38 
f 38/38/38 47/47/47 45/45/45 
f 48/48/48 46/46/46 37/37/37 
f 39/39/39 48/48/48 37/37/37 
f 49/49/49 48/48/48 39/39/39 
f 40/40/40 49/49/49 39/39/39 
f 50/50/50 49/49/49 40/40/40 
f 41/41/41 50/50/50 40/40/40 
f 51/51/51 50/50/50 41/41/41 
f 42/42/42 51/51/51 41/41/41 
f 52/52/52 51/51/51 42/42/42 
f 43/43/43 52/52/52 42/42/42 
f 53/53/53 52/52/52 43/43/43 
f 44/44/44 53/53/53 43/43/43 
f 47/47/47 54/54/54 45/45/45 
f 57/57/57 56/56/56 55/55/55 
f 58/58/58 57/57/57 55/55/55 
f 59/59/59 57/57/57 58/58/58 
f 60/60/60 59/59/59 58/58/58 
f 61/61/61 59/59/59 60/60/60 
f 62/62/62 61/61/61 60/60/60 
f 63/63/63 61/61/61 62/62/62 
f 64/64/64 63/63/63 62/62/62 
f 65/65/65 63/63/63 64/64/64 
f 66/66/66 65/65/65 64/64/64 
f 67/67/67 65/65/65 66/66/66 
f 68/68/68 67/67/67 66/66/66 
f 69/69/69 67/67/67 68/68/68 
f 70/70/70 69/69/69 68/68/68 
f 71/71/71 69/69/69 70/70/70 
f 72/72/72 71/71/71 70/70/70 
f 73/73/73 71/71/71 72/72/72 
f 74/74/74 73/73/73 72/72/72 
f 61/61/61 75/75/75 59/59/59 
f 76/76/76 75/75/75 61/61/61 
f 63/63/63 76/76/76 61/61/61 
f 77/77/77 76/76/76 63/63/63 
f 65/65/65 77/77/77 63/63/63 
f 78/78/78 77/77/77 65/65/65 
f 67/67/67 78/78/78 65/65/65 
f 79/79/79 78/78/78 67/67/67 
f 69/69/69 79/79/79 67/67/67 
f 80/80/80 79/79/79 69/69/69 
f 71/71/71 80/80/80 69/69/69 
f 81/81/81 80/80/80 71/71/71 
f 73/73/73 81/81/81 71/71/71 
f 76/76/76 82/82/82 75/75/75 
f 82/82/82 83/83/83 75/75/75 
f 75/75/75 83/83/83 84/84/84 
f 75/75/75 84/84/84 59/59/59 
f 59/59/59 84/84/84 57/57/57 
f 84/84/84 85/85/85 57/57/57 
f 57/57/57 85/85/85 56/56/56 
f 85/85/85 86/86/86 56/56/56 
f 85/85/85 87/87/87 86/86/86 
f 87/87/87 88/88/88 86/86/86 
f 89/89/89 87/87/87 85/85/85 
f 84/84/84 89/89/89 85/85/85 
f 83/83/83 89/89/89 84/84/84 
f 78/78/78 90/90/90 77/77/77 
f 91/91/91 90/90/90 78/78/78 
f 79/79/79 91/91/91 78/78/78 
f 92/92/92 91/91/91 79/79/79 
f 80/80/80 92/92/92 79/79/79 
f 93/93/93 92/92/92 80/80/80 
f 81/81/81 93/93/93 80/80/80 
f 87/87/87 94/94/94 88/88/88 
f 94/94/94 95/95/95 88/88/88 
f 96/96/96 94/94/94 87/87/87 
f 89/89/89 96/96/96 87/87/87 
f 97/97/97 96/96/96 89/89/89 
f 83/83/83 97/97/97 89/89/89 
f 98/98/98 97/97/97 83/83/83 
f 82/82/82 98/98/98 83/83/83 
f 99/99/99 98/98/98 82/82/82 
f 100/100/100 99/99/99 82/82/82 
f 100/100/100 82/82/82 76/76/76 
f 77/77/77 100/100/100 76/76/76 
f 90/90/90 100/100/100 77/77/77 
f 101/101/101 99/99/99 100/100/100 
f 90/90/90 101/101/101 100/100/100 
f 102/102/102 101/101/101 90/90/90 
f 91/91/91 102/102/102 90/90/90 
f 103/103/103 102/102/102 91/91/91 
f 92/92/92 103/103/103 91/91/91 
f 104/104/104 103/103/103 92/92/92 
f 93/93/93 104/104/104 92/92/92 
f 98/98/98 105/105/105 97/97/97 
f 106/106/106 105/105/105 98/98/98 
f 99/99/99 106/106/106 98/98/98 
f 107/107/107 106/106/106 99/99/99 
f 101/101/101 107/107/107 99/99/99 
f 108/108/108 107/107/107 101/101/101 
f 102/102/102 108/108/108 101/101/101 
f 109/109/109 108/108/108 102/102/102 
f 103/103/103 109/109/109 102/102/102 
f 110/110/110 109/109/109 103/103/103 
f 104/104/104 110/110/110 103/103/103 
f 105/105/105 111/111/111 97/97/97 
f 97/97/97 111/111/111 96/96/96 
f 111/111/111 112/112/112 96/96/96 
f 96/96/96 112/112/112 94/94/94 
f 112/112/112 113/113/113 94/94/94 
f 94/94/94 113/113/113 95/95/95 
f 113/113/113 114/114/114 95/95/95 

