[
	{
		"ID": 1,
		"Name": "Friendship Voucher Summon"
	},
	{
		"ID": 2,
		"Name": "Available Heroes"
	},
	{
		"ID": 3,
		"Name": "Available Equipment"
	},
	{
		"ID": 4,
		"Name": "Available Heroes"
	},
	{
		"ID": 5,
		"Name": "Available Heroes"
	}
]