[
	{
		"ID": 1,
		"Description": "Scott",
		"GroupID": 1,
		"CardItems": [
			{
				"GoodsType": "GoodsType_Hero",
				"Id": 24,
				"Count": 1
			}
		],
		"DefaultWeight": 1
	},
	{
		"ID": 2,
		"Description": "Lester",
		"GroupID": 2,
		"CardItems": [
			{
				"GoodsType": "GoodsType_Hero",
				"Id": 19,
				"Count": 1
			}
		],
		"DefaultWeight": 10
	},
	{
		"ID": 3,
		"Description": "Jessica",
		"GroupID": 2,
		"CardItems": [
			{
				"GoodsType": "GoodsType_Hero",
				"Id": 22,
				"Count": 1
			}
		],
		"DefaultWeight": 10
	},
	{
		"ID": 4,
		"Description": "Rohga",
		"GroupID": 2,
		"CardItems": [
			{
				"GoodsType": "GoodsType_Hero",
				"Id": 23,
				"Count": 1
			}
		],
		"DefaultWeight": 10
	},
	{
		"ID": 5,
		"Description": "Scott",
		"GroupID": 2,
		"CardItems": [
			{
				"GoodsType": "GoodsType_Hero",
				"Id": 24,
				"Count": 1
			}
		],
		"DefaultWeight": 10
	},
	{
		"ID": 6,
		"Description": "Lewin",
		"GroupID": 2,
		"CardItems": [
			{
				"GoodsType": "GoodsType_Hero",
				"Id": 40,
				"Count": 1
			}
		],
		"DefaultWeight": 10
	},
	{
		"ID": 7,
		"Description": "Pierre",
		"GroupID": 2,
		"CardItems": [
			{
				"GoodsType": "GoodsType_Hero",
				"Id": 41,
				"Count": 1
			}
		],
		"DefaultWeight": 10
	},
	{
		"ID": 8,
		"Description": "Dios",
		"GroupID": 2,
		"CardItems": [
			{
				"GoodsType": "GoodsType_Hero",
				"Id": 42,
				"Count": 1
			}
		],
		"DefaultWeight": 10
	},
	{
		"ID": 9,
		"Description": "Anna",
		"GroupID": 2,
		"CardItems": [
			{
				"GoodsType": "GoodsType_Hero",
				"Id": 43,
				"Count": 1
			}
		],
		"DefaultWeight": 10
	},
	{
		"ID": 10,
		"Description": "Laird",
		"GroupID": 2,
		"CardItems": [
			{
				"GoodsType": "GoodsType_Hero",
				"Id": 44,
				"Count": 1
			}
		],
		"DefaultWeight": 10
	},
	{
		"ID": 11,
		"Description": "Keith",
		"GroupID": 2,
		"CardItems": [
			{
				"GoodsType": "GoodsType_Hero",
				"Id": 45,
				"Count": 1
			}
		],
		"DefaultWeight": 10
	},
	{
		"ID": 12,
		"Description": "Leticia",
		"GroupID": 2,
		"CardItems": [
			{
				"GoodsType": "GoodsType_Hero",
				"Id": 47,
				"Count": 1
			}
		],
		"DefaultWeight": 10
	},
	{
		"ID": 13,
		"Description": "Aaron",
		"GroupID": 2,
		"CardItems": [
			{
				"GoodsType": "GoodsType_Hero",
				"Id": 48,
				"Count": 1
			}
		],
		"DefaultWeight": 10
	},
	{
		"ID": 14,
		"Description": "Knife",
		"GroupID": 3,
		"CardItems": [
			{
				"GoodsType": "GoodsType_Equipment",
				"Id": 1,
				"Count": 1
			}
		],
		"DefaultWeight": 10
	},
	{
		"ID": 15,
		"Description": "Long Sword",
		"GroupID": 3,
		"CardItems": [
			{
				"GoodsType": "GoodsType_Equipment",
				"Id": 9,
				"Count": 1
			}
		],
		"DefaultWeight": 10
	},
	{
		"ID": 16,
		"Description": "Hatchet",
		"GroupID": 3,
		"CardItems": [
			{
				"GoodsType": "GoodsType_Equipment",
				"Id": 17,
				"Count": 1
			}
		],
		"DefaultWeight": 10
	},
	{
		"ID": 17,
		"Description": "Mallet",
		"GroupID": 3,
		"CardItems": [
			{
				"GoodsType": "GoodsType_Equipment",
				"Id": 25,
				"Count": 1
			}
		],
		"DefaultWeight": 10
	},
	{
		"ID": 18,
		"Description": "Lance",
		"GroupID": 3,
		"CardItems": [
			{
				"GoodsType": "GoodsType_Equipment",
				"Id": 33,
				"Count": 1
			}
		],
		"DefaultWeight": 10
	},
	{
		"ID": 19,
		"Description": "Staff",
		"GroupID": 3,
		"CardItems": [
			{
				"GoodsType": "GoodsType_Equipment",
				"Id": 41,
				"Count": 1
			}
		],
		"DefaultWeight": 10
	},
	{
		"ID": 20,
		"Description": "Long Bow",
		"GroupID": 3,
		"CardItems": [
			{
				"GoodsType": "GoodsType_Equipment",
				"Id": 49,
				"Count": 1
			}
		],
		"DefaultWeight": 10
	},
	{
		"ID": 21,
		"Description": "Chain Mail",
		"GroupID": 3,
		"CardItems": [
			{
				"GoodsType": "GoodsType_Equipment",
				"Id": 54,
				"Count": 1
			}
		],
		"DefaultWeight": 10
	},
	{
		"ID": 22,
		"Description": "Hard Leather Armor",
		"GroupID": 3,
		"CardItems": [
			{
				"GoodsType": "GoodsType_Equipment",
				"Id": 61,
				"Count": 1
			}
		],
		"DefaultWeight": 10
	},
	{
		"ID": 23,
		"Description": "Robe",
		"GroupID": 3,
		"CardItems": [
			{
				"GoodsType": "GoodsType_Equipment",
				"Id": 68,
				"Count": 1
			}
		],
		"DefaultWeight": 10
	},
	{
		"ID": 24,
		"Description": "Iron Helmet",
		"GroupID": 3,
		"CardItems": [
			{
				"GoodsType": "GoodsType_Equipment",
				"Id": 75,
				"Count": 1
			}
		],
		"DefaultWeight": 10
	},
	{
		"ID": 25,
		"Description": "Hard Leather Helmet",
		"GroupID": 3,
		"CardItems": [
			{
				"GoodsType": "GoodsType_Equipment",
				"Id": 82,
				"Count": 1
			}
		],
		"DefaultWeight": 10
	},
	{
		"ID": 26,
		"Description": "Cloth Hood",
		"GroupID": 3,
		"CardItems": [
			{
				"GoodsType": "GoodsType_Equipment",
				"Id": 89,
				"Count": 1
			}
		],
		"DefaultWeight": 10
	},
	{
		"ID": 27,
		"Description": "Combat Knife",
		"GroupID": 4,
		"CardItems": [
			{
				"GoodsType": "GoodsType_Equipment",
				"Id": 2,
				"Count": 1
			}
		],
		"DefaultWeight": 10
	},
	{
		"ID": 28,
		"Description": "Main Gauche",
		"GroupID": 4,
		"CardItems": [
			{
				"GoodsType": "GoodsType_Equipment",
				"Id": 3,
				"Count": 1
			}
		],
		"DefaultWeight": 10
	},
	{
		"ID": 29,
		"Description": "Claymore",
		"GroupID": 4,
		"CardItems": [
			{
				"GoodsType": "GoodsType_Equipment",
				"Id": 10,
				"Count": 1
			}
		],
		"DefaultWeight": 10
	},
	{
		"ID": 30,
		"Description": "Saber",
		"GroupID": 4,
		"CardItems": [
			{
				"GoodsType": "GoodsType_Equipment",
				"Id": 11,
				"Count": 1
			}
		],
		"DefaultWeight": 10
	},
	{
		"ID": 31,
		"Description": "Battle Axe",
		"GroupID": 4,
		"CardItems": [
			{
				"GoodsType": "GoodsType_Equipment",
				"Id": 18,
				"Count": 1
			}
		],
		"DefaultWeight": 10
	},
	{
		"ID": 32,
		"Description": "Double Bladed Axe",
		"GroupID": 4,
		"CardItems": [
			{
				"GoodsType": "GoodsType_Equipment",
				"Id": 19,
				"Count": 1
			}
		],
		"DefaultWeight": 10
	},
	{
		"ID": 33,
		"Description": "Mace",
		"GroupID": 4,
		"CardItems": [
			{
				"GoodsType": "GoodsType_Equipment",
				"Id": 26,
				"Count": 1
			}
		],
		"DefaultWeight": 10
	},
	{
		"ID": 34,
		"Description": "Morning Star",
		"GroupID": 4,
		"CardItems": [
			{
				"GoodsType": "GoodsType_Equipment",
				"Id": 27,
				"Count": 1
			}
		],
		"DefaultWeight": 10
	},
	{
		"ID": 35,
		"Description": "Knight Lance",
		"GroupID": 4,
		"CardItems": [
			{
				"GoodsType": "GoodsType_Equipment",
				"Id": 34,
				"Count": 1
			}
		],
		"DefaultWeight": 10
	},
	{
		"ID": 36,
		"Description": "Trident",
		"GroupID": 4,
		"CardItems": [
			{
				"GoodsType": "GoodsType_Equipment",
				"Id": 35,
				"Count": 1
			}
		],
		"DefaultWeight": 10
	},
	{
		"ID": 37,
		"Description": "Crystal Staff",
		"GroupID": 4,
		"CardItems": [
			{
				"GoodsType": "GoodsType_Equipment",
				"Id": 42,
				"Count": 1
			}
		],
		"DefaultWeight": 10
	},
	{
		"ID": 38,
		"Description": "Wizard Rod",
		"GroupID": 4,
		"CardItems": [
			{
				"GoodsType": "GoodsType_Equipment",
				"Id": 43,
				"Count": 1
			}
		],
		"DefaultWeight": 10
	},
	{
		"ID": 39,
		"Description": "Wood Bow",
		"GroupID": 4,
		"CardItems": [
			{
				"GoodsType": "GoodsType_Equipment",
				"Id": 50,
				"Count": 1
			}
		],
		"DefaultWeight": 10
	},
	{
		"ID": 40,
		"Description": "Knight Armor",
		"GroupID": 4,
		"CardItems": [
			{
				"GoodsType": "GoodsType_Equipment",
				"Id": 55,
				"Count": 1
			}
		],
		"DefaultWeight": 10
	},
	{
		"ID": 41,
		"Description": "Fierce Armor",
		"GroupID": 4,
		"CardItems": [
			{
				"GoodsType": "GoodsType_Equipment",
				"Id": 56,
				"Count": 1
			}
		],
		"DefaultWeight": 10
	},
	{
		"ID": 42,
		"Description": "Battle Vest",
		"GroupID": 4,
		"CardItems": [
			{
				"GoodsType": "GoodsType_Equipment",
				"Id": 62,
				"Count": 1
			}
		],
		"DefaultWeight": 10
	},
	{
		"ID": 43,
		"Description": "Studded Leather",
		"GroupID": 4,
		"CardItems": [
			{
				"GoodsType": "GoodsType_Equipment",
				"Id": 63,
				"Count": 1
			}
		],
		"DefaultWeight": 10
	},
	{
		"ID": 44,
		"Description": "Ritual Robe",
		"GroupID": 4,
		"CardItems": [
			{
				"GoodsType": "GoodsType_Equipment",
				"Id": 69,
				"Count": 1
			}
		],
		"DefaultWeight": 10
	},
	{
		"ID": 45,
		"Description": "Magic Cloak",
		"GroupID": 4,
		"CardItems": [
			{
				"GoodsType": "GoodsType_Equipment",
				"Id": 70,
				"Count": 1
			}
		],
		"DefaultWeight": 10
	},
	{
		"ID": 46,
		"Description": "Knight Helmet",
		"GroupID": 4,
		"CardItems": [
			{
				"GoodsType": "GoodsType_Equipment",
				"Id": 76,
				"Count": 1
			}
		],
		"DefaultWeight": 10
	},
	{
		"ID": 47,
		"Description": "Fierce Helmet",
		"GroupID": 4,
		"CardItems": [
			{
				"GoodsType": "GoodsType_Equipment",
				"Id": 77,
				"Count": 1
			}
		],
		"DefaultWeight": 10
	},
	{
		"ID": 48,
		"Description": "Battle Headband",
		"GroupID": 4,
		"CardItems": [
			{
				"GoodsType": "GoodsType_Equipment",
				"Id": 83,
				"Count": 1
			}
		],
		"DefaultWeight": 10
	},
	{
		"ID": 49,
		"Description": "Refined Leather Helmet",
		"GroupID": 4,
		"CardItems": [
			{
				"GoodsType": "GoodsType_Equipment",
				"Id": 84,
				"Count": 1
			}
		],
		"DefaultWeight": 10
	},
	{
		"ID": 50,
		"Description": "Ritual Hood",
		"GroupID": 4,
		"CardItems": [
			{
				"GoodsType": "GoodsType_Equipment",
				"Id": 90,
				"Count": 1
			}
		],
		"DefaultWeight": 10
	},
	{
		"ID": 51,
		"Description": "Magic Pointed Hat",
		"GroupID": 4,
		"CardItems": [
			{
				"GoodsType": "GoodsType_Equipment",
				"Id": 91,
				"Count": 1
			}
		],
		"DefaultWeight": 10
	},
	{
		"ID": 52,
		"Description": "Rare EXP Potion",
		"GroupID": 5,
		"CardItems": [
			{
				"GoodsType": "GoodsType_Item",
				"Id": 3004,
				"Count": 1
			}
		],
		"DefaultWeight": 10
	},
	{
		"ID": 53,
		"Description": "Special EXP Potion",
		"GroupID": 6,
		"CardItems": [
			{
				"GoodsType": "GoodsType_Item",
				"Id": 3003,
				"Count": 2
			}
		],
		"DefaultWeight": 10
	},
	{
		"ID": 54,
		"Description": "Basic EXP Potion",
		"GroupID": 7,
		"CardItems": [
			{
				"GoodsType": "GoodsType_Item",
				"Id": 3002,
				"Count": 5
			}
		],
		"DefaultWeight": 10
	},
	{
		"ID": 55,
		"Description": "Sonya",
		"GroupID": 8,
		"CardItems": [
			{
				"GoodsType": "GoodsType_Hero",
				"Id": 20,
				"Count": 1
			}
		],
		"DefaultWeight": 10
	},
	{
		"ID": 56,
		"Description": "Silver Wolf",
		"GroupID": 8,
		"CardItems": [
			{
				"GoodsType": "GoodsType_Hero",
				"Id": 36,
				"Count": 1
			}
		],
		"DefaultWeight": 10
	},
	{
		"ID": 57,
		"Description": "Chris",
		"GroupID": 8,
		"CardItems": [
			{
				"GoodsType": "GoodsType_Hero",
				"Id": 5,
				"Count": 1
			}
		],
		"DefaultWeight": 10
	},
	{
		"ID": 58,
		"Description": "Narm",
		"GroupID": 8,
		"CardItems": [
			{
				"GoodsType": "GoodsType_Hero",
				"Id": 11,
				"Count": 1
			}
		],
		"DefaultWeight": 10
	},
	{
		"ID": 59,
		"Description": "Hein",
		"GroupID": 8,
		"CardItems": [
			{
				"GoodsType": "GoodsType_Hero",
				"Id": 13,
				"Count": 1
			}
		],
		"DefaultWeight": 10
	},
	{
		"ID": 60,
		"Description": "Lance",
		"GroupID": 8,
		"CardItems": [
			{
				"GoodsType": "GoodsType_Hero",
				"Id": 16,
				"Count": 1
			}
		],
		"DefaultWeight": 10
	},
	{
		"ID": 61,
		"Description": "Egbert",
		"GroupID": 8,
		"CardItems": [
			{
				"GoodsType": "GoodsType_Hero",
				"Id": 17,
				"Count": 1
			}
		],
		"DefaultWeight": 10
	},
	{
		"ID": 62,
		"Description": "Imelda",
		"GroupID": 8,
		"CardItems": [
			{
				"GoodsType": "GoodsType_Hero",
				"Id": 18,
				"Count": 1
			}
		],
		"DefaultWeight": 10
	},
	{
		"ID": 63,
		"Description": "Vargas",
		"GroupID": 8,
		"CardItems": [
			{
				"GoodsType": "GoodsType_Hero",
				"Id": 21,
				"Count": 1
			}
		],
		"DefaultWeight": 10
	},
	{
		"ID": 64,
		"Description": "Sophia",
		"GroupID": 8,
		"CardItems": [
			{
				"GoodsType": "GoodsType_Hero",
				"Id": 31,
				"Count": 1
			}
		],
		"DefaultWeight": 10
	},
	{
		"ID": 65,
		"Description": "Emerick",
		"GroupID": 8,
		"CardItems": [
			{
				"GoodsType": "GoodsType_Hero",
				"Id": 32,
				"Count": 1
			}
		],
		"DefaultWeight": 10
	},
	{
		"ID": 66,
		"Description": "Freya",
		"GroupID": 8,
		"CardItems": [
			{
				"GoodsType": "GoodsType_Hero",
				"Id": 33,
				"Count": 1
			}
		],
		"DefaultWeight": 10
	},
	{
		"ID": 67,
		"Description": "Kirikaze",
		"GroupID": 8,
		"CardItems": [
			{
				"GoodsType": "GoodsType_Hero",
				"Id": 34,
				"Count": 1
			}
		],
		"DefaultWeight": 10
	},
	{
		"ID": 68,
		"Description": "Liffany",
		"GroupID": 8,
		"CardItems": [
			{
				"GoodsType": "GoodsType_Hero",
				"Id": 30,
				"Count": 1
			}
		],
		"DefaultWeight": 10
	},
	{
		"ID": 69,
		"Description": "Varna",
		"GroupID": 8,
		"CardItems": [
			{
				"GoodsType": "GoodsType_Hero",
				"Id": 49,
				"Count": 1
			}
		],
		"DefaultWeight": 10
	},
	{
		"ID": 70,
		"Description": "Feraquea",
		"GroupID": 8,
		"CardItems": [
			{
				"GoodsType": "GoodsType_Hero",
				"Id": 39,
				"Count": 1
			}
		],
		"DefaultWeight": 10
	},
	{
		"ID": 71,
		"Description": "Leon",
		"GroupID": 9,
		"CardItems": [
			{
				"GoodsType": "GoodsType_Hero",
				"Id": 6,
				"Count": 1
			}
		],
		"DefaultWeight": 10
	},
	{
		"ID": 72,
		"Description": "Bernhardt",
		"GroupID": 9,
		"CardItems": [
			{
				"GoodsType": "GoodsType_Hero",
				"Id": 7,
				"Count": 1
			}
		],
		"DefaultWeight": 10
	},
	{
		"ID": 73,
		"Description": "Bozel",
		"GroupID": 9,
		"CardItems": [
			{
				"GoodsType": "GoodsType_Hero",
				"Id": 9,
				"Count": 1
			}
		],
		"DefaultWeight": 10
	},
	{
		"ID": 74,
		"Description": "Ledin",
		"GroupID": 9,
		"CardItems": [
			{
				"GoodsType": "GoodsType_Hero",
				"Id": 10,
				"Count": 1
			}
		],
		"DefaultWeight": 10
	},
	{
		"ID": 75,
		"Description": "Elwin",
		"GroupID": 9,
		"CardItems": [
			{
				"GoodsType": "GoodsType_Hero",
				"Id": 12,
				"Count": 1
			}
		],
		"DefaultWeight": 10
	},
	{
		"ID": 76,
		"Description": "Cherie",
		"GroupID": 9,
		"CardItems": [
			{
				"GoodsType": "GoodsType_Hero",
				"Id": 14,
				"Count": 1
			}
		],
		"DefaultWeight": 10
	},
	{
		"ID": 77,
		"Description": "Liana",
		"GroupID": 9,
		"CardItems": [
			{
				"GoodsType": "GoodsType_Hero",
				"Id": 15,
				"Count": 1
			}
		],
		"DefaultWeight": 10
	},
	{
		"ID": 78,
		"Description": "Altemuller",
		"GroupID": 9,
		"CardItems": [
			{
				"GoodsType": "GoodsType_Hero",
				"Id": 25,
				"Count": 1
			}
		],
		"DefaultWeight": 10
	},
	{
		"ID": 79,
		"Description": "Luna",
		"GroupID": 9,
		"CardItems": [
			{
				"GoodsType": "GoodsType_Hero",
				"Id": 26,
				"Count": 1
			}
		],
		"DefaultWeight": 10
	},
	{
		"ID": 80,
		"Description": "Dieharte",
		"GroupID": 9,
		"CardItems": [
			{
				"GoodsType": "GoodsType_Hero",
				"Id": 27,
				"Count": 1
			}
		],
		"DefaultWeight": 10
	},
	{
		"ID": 81,
		"Description": "Tiaris",
		"GroupID": 9,
		"CardItems": [
			{
				"GoodsType": "GoodsType_Hero",
				"Id": 29,
				"Count": 1
			}
		],
		"DefaultWeight": 10
	},
	{
		"ID": 82,
		"Description": "Lana",
		"GroupID": 9,
		"CardItems": [
			{
				"GoodsType": "GoodsType_Hero",
				"Id": 8,
				"Count": 1
			}
		],
		"DefaultWeight": 10
	},
	{
		"ID": 83,
		"Description": "Kris",
		"GroupID": 10,
		"CardItems": [
			{
				"GoodsType": "GoodsType_Equipment",
				"Id": 4,
				"Count": 1
			}
		],
		"DefaultWeight": 63
	},
	{
		"ID": 84,
		"Description": "Aristocratic Dagger",
		"GroupID": 10,
		"CardItems": [
			{
				"GoodsType": "GoodsType_Equipment",
				"Id": 5,
				"Count": 1
			}
		],
		"DefaultWeight": 63
	},
	{
		"ID": 85,
		"Description": "Mithril Sword",
		"GroupID": 10,
		"CardItems": [
			{
				"GoodsType": "GoodsType_Equipment",
				"Id": 12,
				"Count": 1
			}
		],
		"DefaultWeight": 63
	},
	{
		"ID": 86,
		"Description": "Mithril Axe",
		"GroupID": 10,
		"CardItems": [
			{
				"GoodsType": "GoodsType_Equipment",
				"Id": 20,
				"Count": 1
			}
		],
		"DefaultWeight": 63
	},
	{
		"ID": 87,
		"Description": "Mithril War Hammer",
		"GroupID": 10,
		"CardItems": [
			{
				"GoodsType": "GoodsType_Equipment",
				"Id": 28,
				"Count": 1
			}
		],
		"DefaultWeight": 63
	},
	{
		"ID": 88,
		"Description": "Flail",
		"GroupID": 10,
		"CardItems": [
			{
				"GoodsType": "GoodsType_Equipment",
				"Id": 29,
				"Count": 1
			}
		],
		"DefaultWeight": 63
	},
	{
		"ID": 89,
		"Description": "Blood Lance",
		"GroupID": 10,
		"CardItems": [
			{
				"GoodsType": "GoodsType_Equipment",
				"Id": 36,
				"Count": 1
			}
		],
		"DefaultWeight": 63
	},
	{
		"ID": 90,
		"Description": "Life Staff",
		"GroupID": 10,
		"CardItems": [
			{
				"GoodsType": "GoodsType_Equipment",
				"Id": 45,
				"Count": 1
			}
		],
		"DefaultWeight": 63
	},
	{
		"ID": 91,
		"Description": "Elven Bow",
		"GroupID": 10,
		"CardItems": [
			{
				"GoodsType": "GoodsType_Equipment",
				"Id": 51,
				"Count": 1
			}
		],
		"DefaultWeight": 63
	},
	{
		"ID": 92,
		"Description": "Mithril Armor",
		"GroupID": 10,
		"CardItems": [
			{
				"GoodsType": "GoodsType_Equipment",
				"Id": 57,
				"Count": 1
			}
		],
		"DefaultWeight": 111
	},
	{
		"ID": 93,
		"Description": "Dragon Scale Armor",
		"GroupID": 10,
		"CardItems": [
			{
				"GoodsType": "GoodsType_Equipment",
				"Id": 58,
				"Count": 1
			}
		],
		"DefaultWeight": 111
	},
	{
		"ID": 94,
		"Description": "Feathered Light Armor",
		"GroupID": 10,
		"CardItems": [
			{
				"GoodsType": "GoodsType_Equipment",
				"Id": 65,
				"Count": 1
			}
		],
		"DefaultWeight": 111
	},
	{
		"ID": 95,
		"Description": "Ghost Robe",
		"GroupID": 10,
		"CardItems": [
			{
				"GoodsType": "GoodsType_Equipment",
				"Id": 72,
				"Count": 1
			}
		],
		"DefaultWeight": 111
	},
	{
		"ID": 96,
		"Description": "Chain Helmet",
		"GroupID": 10,
		"CardItems": [
			{
				"GoodsType": "GoodsType_Equipment",
				"Id": 78,
				"Count": 1
			}
		],
		"DefaultWeight": 111
	},
	{
		"ID": 97,
		"Description": "Dragon Scale Helmet",
		"GroupID": 10,
		"CardItems": [
			{
				"GoodsType": "GoodsType_Equipment",
				"Id": 79,
				"Count": 1
			}
		],
		"DefaultWeight": 111
	},
	{
		"ID": 98,
		"Description": "Feathered Hat",
		"GroupID": 10,
		"CardItems": [
			{
				"GoodsType": "GoodsType_Equipment",
				"Id": 86,
				"Count": 1
			}
		],
		"DefaultWeight": 111
	},
	{
		"ID": 99,
		"Description": "Ghost Mask",
		"GroupID": 10,
		"CardItems": [
			{
				"GoodsType": "GoodsType_Equipment",
				"Id": 93,
				"Count": 1
			}
		],
		"DefaultWeight": 111
	},
	{
		"ID": 100,
		"Description": "Greaves",
		"GroupID": 10,
		"CardItems": [
			{
				"GoodsType": "GoodsType_Equipment",
				"Id": 97,
				"Count": 1
			}
		],
		"DefaultWeight": 0
	},
	{
		"ID": 101,
		"Description": "Protect Ring",
		"GroupID": 10,
		"CardItems": [
			{
				"GoodsType": "GoodsType_Equipment",
				"Id": 104,
				"Count": 1
			}
		],
		"DefaultWeight": 0
	},
	{
		"ID": 102,
		"Description": "Sentinel Emblem",
		"GroupID": 10,
		"CardItems": [
			{
				"GoodsType": "GoodsType_Equipment",
				"Id": 111,
				"Count": 1
			}
		],
		"DefaultWeight": 0
	},
	{
		"ID": 103,
		"Description": "Prophet's Pendant",
		"GroupID": 10,
		"CardItems": [
			{
				"GoodsType": "GoodsType_Equipment",
				"Id": 112,
				"Count": 1
			}
		],
		"DefaultWeight": 0
	},
	{
		"ID": 104,
		"Description": "Emblem of Courage",
		"GroupID": 10,
		"CardItems": [
			{
				"GoodsType": "GoodsType_Equipment",
				"Id": 117,
				"Count": 1
			}
		],
		"DefaultWeight": 0
	},
	{
		"ID": 105,
		"Description": "Crystal Anklet",
		"GroupID": 10,
		"CardItems": [
			{
				"GoodsType": "GoodsType_Equipment",
				"Id": 118,
				"Count": 1
			}
		],
		"DefaultWeight": 0
	},
	{
		"ID": 106,
		"Description": "Cross",
		"GroupID": 10,
		"CardItems": [
			{
				"GoodsType": "GoodsType_Equipment",
				"Id": 123,
				"Count": 1
			}
		],
		"DefaultWeight": 0
	},
	{
		"ID": 107,
		"Description": "Scarab",
		"GroupID": 10,
		"CardItems": [
			{
				"GoodsType": "GoodsType_Equipment",
				"Id": 124,
				"Count": 1
			}
		],
		"DefaultWeight": 0
	},
	{
		"ID": 108,
		"Description": "Oath Sword",
		"GroupID": 10,
		"CardItems": [
			{
				"GoodsType": "GoodsType_Equipment",
				"Id": 138,
				"Count": 1
			}
		],
		"DefaultWeight": 63
	},
	{
		"ID": 109,
		"Description": "Crescent Axe",
		"GroupID": 10,
		"CardItems": [
			{
				"GoodsType": "GoodsType_Equipment",
				"Id": 142,
				"Count": 1
			}
		],
		"DefaultWeight": 63
	},
	{
		"ID": 110,
		"Description": "Emerald Lance",
		"GroupID": 10,
		"CardItems": [
			{
				"GoodsType": "GoodsType_Equipment",
				"Id": 148,
				"Count": 1
			}
		],
		"DefaultWeight": 63
	},
	{
		"ID": 111,
		"Description": "Sage Staff",
		"GroupID": 10,
		"CardItems": [
			{
				"GoodsType": "GoodsType_Equipment",
				"Id": 151,
				"Count": 1
			}
		],
		"DefaultWeight": 63
	},
	{
		"ID": 112,
		"Description": "Gemini Bow",
		"GroupID": 10,
		"CardItems": [
			{
				"GoodsType": "GoodsType_Equipment",
				"Id": 154,
				"Count": 1
			}
		],
		"DefaultWeight": 63
	},
	{
		"ID": 113,
		"Description": "Emerald Armor",
		"GroupID": 10,
		"CardItems": [
			{
				"GoodsType": "GoodsType_Equipment",
				"Id": 159,
				"Count": 1
			}
		],
		"DefaultWeight": 111
	},
	{
		"ID": 114,
		"Description": "Survival Vest",
		"GroupID": 10,
		"CardItems": [
			{
				"GoodsType": "GoodsType_Equipment",
				"Id": 167,
				"Count": 1
			}
		],
		"DefaultWeight": 111
	},
	{
		"ID": 115,
		"Description": "Adventurer Jacket",
		"GroupID": 10,
		"CardItems": [
			{
				"GoodsType": "GoodsType_Equipment",
				"Id": 168,
				"Count": 1
			}
		],
		"DefaultWeight": 111
	},
	{
		"ID": 116,
		"Description": "Green Leaf Coat",
		"GroupID": 10,
		"CardItems": [
			{
				"GoodsType": "GoodsType_Equipment",
				"Id": 175,
				"Count": 1
			}
		],
		"DefaultWeight": 111
	},
	{
		"ID": 117,
		"Description": "Emerald Robe",
		"GroupID": 10,
		"CardItems": [
			{
				"GoodsType": "GoodsType_Equipment",
				"Id": 176,
				"Count": 1
			}
		],
		"DefaultWeight": 111
	},
	{
		"ID": 118,
		"Description": "Emerald Helmet",
		"GroupID": 10,
		"CardItems": [
			{
				"GoodsType": "GoodsType_Equipment",
				"Id": 183,
				"Count": 1
			}
		],
		"DefaultWeight": 111
	},
	{
		"ID": 119,
		"Description": "Survival Helmet",
		"GroupID": 10,
		"CardItems": [
			{
				"GoodsType": "GoodsType_Equipment",
				"Id": 191,
				"Count": 1
			}
		],
		"DefaultWeight": 111
	},
	{
		"ID": 120,
		"Description": "Adventurer Hat",
		"GroupID": 10,
		"CardItems": [
			{
				"GoodsType": "GoodsType_Equipment",
				"Id": 192,
				"Count": 1
			}
		],
		"DefaultWeight": 111
	},
	{
		"ID": 121,
		"Description": "Green Leaf Crown",
		"GroupID": 10,
		"CardItems": [
			{
				"GoodsType": "GoodsType_Equipment",
				"Id": 199,
				"Count": 1
			}
		],
		"DefaultWeight": 111
	},
	{
		"ID": 122,
		"Description": "Emerald Crown",
		"GroupID": 10,
		"CardItems": [
			{
				"GoodsType": "GoodsType_Equipment",
				"Id": 200,
				"Count": 1
			}
		],
		"DefaultWeight": 111
	},
	{
		"ID": 123,
		"Description": "Secret Arts Staff",
		"GroupID": 10,
		"CardItems": [
			{
				"GoodsType": "GoodsType_Equipment",
				"Id": 207,
				"Count": 1
			}
		],
		"DefaultWeight": 63
	},
	{
		"ID": 124,
		"Description": "Blessing Staff",
		"GroupID": 10,
		"CardItems": [
			{
				"GoodsType": "GoodsType_Equipment",
				"Id": 215,
				"Count": 1
			}
		],
		"DefaultWeight": 63
	},
	{
		"ID": 125,
		"Description": "Basic Crafter's Hammer",
		"GroupID": 11,
		"CardItems": [
			{
				"GoodsType": "GoodsType_Equipment",
				"Id": 301,
				"Count": 1
			}
		],
		"DefaultWeight": 10
	},
	{
		"ID": 126,
		"Description": "Special Crafter's Hammer",
		"GroupID": 12,
		"CardItems": [
			{
				"GoodsType": "GoodsType_Equipment",
				"Id": 302,
				"Count": 1
			}
		],
		"DefaultWeight": 10
	},
	{
		"ID": 127,
		"Description": "Rare Crafter's Hammer",
		"GroupID": 13,
		"CardItems": [
			{
				"GoodsType": "GoodsType_Equipment",
				"Id": 303,
				"Count": 1
			}
		],
		"DefaultWeight": 10
	},
	{
		"ID": 128,
		"Description": "Epic Crafter's Hammer",
		"GroupID": 14,
		"CardItems": [
			{
				"GoodsType": "GoodsType_Equipment",
				"Id": 304,
				"Count": 1
			}
		],
		"DefaultWeight": 10
	}
]