[
	{
		"ID": 1,
		"Name": "Army March",
		"Desc": "安杰利卡的步兵训练",
		"TeamName": "Training School",
		"LevelList": [
			1,
			2,
			3,
			4,
			5,
			6,
			7,
			8,
			9,
			10
		],
		"StartTimeList": [
			1,
			4
		],
		"Model": "Spine/Char/NPC_Anjelica_ABS/NPC_Anjelica_prefab.prefab",
		"UIModelScale": 135,
		"UIModelOffsetX": 0,
		"UIModelOffsetY": 0
	},
	{
		"ID": 2,
		"Name": "Lancer Training",
		"Desc": "安杰利卡的枪兵训练",
		"TeamName": "Training School",
		"LevelList": [
			11,
			12,
			13,
			14,
			15,
			16,
			17,
			18,
			19,
			20
		],
		"StartTimeList": [
			2,
			5
		],
		"Model": "Spine/Char/NPC_Anjelica_ABS/NPC_Anjelica_prefab.prefab",
		"UIModelScale": 135,
		"UIModelOffsetX": 0,
		"UIModelOffsetY": 0
	},
	{
		"ID": 3,
		"Name": "Cavalry Training",
		"Desc": "安杰利卡的骑兵训练",
		"TeamName": "Training School",
		"LevelList": [
			21,
			22,
			23,
			24,
			25,
			26,
			27,
			28,
			29,
			30
		],
		"StartTimeList": [
			3,
			6
		],
		"Model": "Spine/Char/NPC_Anjelica_ABS/NPC_Anjelica_prefab.prefab",
		"UIModelScale": 135,
		"UIModelOffsetX": 0,
		"UIModelOffsetY": 0
	},
	{
		"ID": 4,
		"Name": "魔物训练",
		"Desc": "安杰利卡的魔物训练",
		"TeamName": "Training School",
		"LevelList": [
			31,
			32,
			33,
			34,
			35,
			36,
			37,
			38,
			39,
			40
		],
		"StartTimeList": [
			7
		],
		"Model": "Spine/Char/NPC_Anjelica_ABS/NPC_Anjelica_prefab.prefab",
		"UIModelScale": 135,
		"UIModelOffsetX": 0,
		"UIModelOffsetY": 0
	}
]