[
	{
		"ID": 1
	},
	{
		"ID": 2
	},
	{
		"ID": 3,
		"BonusItems": [
			{
				"GoodsType": "GoodsType_Gold",
				"Id": 0,
				"Count": 8000
			}
		]
	},
	{
		"ID": 4,
		"BonusItems": [
			{
				"GoodsType": "GoodsType_Gold",
				"Id": 0,
				"Count": 24000
			}
		]
	},
	{
		"ID": 5,
		"BonusItems": [
			{
				"GoodsType": "GoodsType_Gold",
				"Id": 0,
				"Count": 48000
			}
		]
	},
	{
		"ID": 6
	},
	{
		"ID": 7
	},
	{
		"ID": 8,
		"BonusItems": [
			{
				"GoodsType": "GoodsType_Gold",
				"Id": 0,
				"Count": 10000
			}
		]
	},
	{
		"ID": 9,
		"BonusItems": [
			{
				"GoodsType": "GoodsType_Gold",
				"Id": 0,
				"Count": 30000
			}
		]
	},
	{
		"ID": 10,
		"BonusItems": [
			{
				"GoodsType": "GoodsType_Gold",
				"Id": 0,
				"Count": 60000
			}
		]
	},
	{
		"ID": 11
	},
	{
		"ID": 12
	},
	{
		"ID": 13,
		"BonusItems": [
			{
				"GoodsType": "GoodsType_Gold",
				"Id": 0,
				"Count": 15000
			}
		]
	},
	{
		"ID": 14,
		"BonusItems": [
			{
				"GoodsType": "GoodsType_Gold",
				"Id": 0,
				"Count": 45000
			}
		]
	},
	{
		"ID": 15,
		"BonusItems": [
			{
				"GoodsType": "GoodsType_Gold",
				"Id": 0,
				"Count": 90000
			}
		]
	},
	{
		"ID": 16
	},
	{
		"ID": 17
	},
	{
		"ID": 18,
		"BonusItems": [
			{
				"GoodsType": "GoodsType_Gold",
				"Id": 0,
				"Count": 20000
			}
		]
	},
	{
		"ID": 19,
		"BonusItems": [
			{
				"GoodsType": "GoodsType_Gold",
				"Id": 0,
				"Count": 60000
			}
		]
	},
	{
		"ID": 20,
		"BonusItems": [
			{
				"GoodsType": "GoodsType_Gold",
				"Id": 0,
				"Count": 120000
			}
		]
	},
	{
		"ID": 21
	},
	{
		"ID": 22
	},
	{
		"ID": 23,
		"BonusItems": [
			{
				"GoodsType": "GoodsType_Gold",
				"Id": 0,
				"Count": 25000
			}
		]
	},
	{
		"ID": 24,
		"BonusItems": [
			{
				"GoodsType": "GoodsType_Gold",
				"Id": 0,
				"Count": 75000
			}
		]
	},
	{
		"ID": 25,
		"BonusItems": [
			{
				"GoodsType": "GoodsType_Gold",
				"Id": 0,
				"Count": 150000
			}
		]
	},
	{
		"ID": 26
	},
	{
		"ID": 27
	},
	{
		"ID": 28,
		"BonusItems": [
			{
				"GoodsType": "GoodsType_Gold",
				"Id": 0,
				"Count": 30000
			}
		]
	},
	{
		"ID": 29,
		"BonusItems": [
			{
				"GoodsType": "GoodsType_Gold",
				"Id": 0,
				"Count": 90000
			}
		]
	},
	{
		"ID": 30,
		"BonusItems": [
			{
				"GoodsType": "GoodsType_Gold",
				"Id": 0,
				"Count": 180000
			}
		]
	}
]