[
	{
		"ID": 1,
		"BigFloorName": "D",
		"Name": "D-Trial 1",
		"RewardList": [
			{
				"GoodsType": "GoodsType_Gold",
				"Id": 0,
				"Count": 5000
			}
		],
		"RandomLevelIdList": [
			1,
			2,
			3,
			4,
			5,
			21,
			22,
			23,
			24,
			25,
			41,
			42,
			43,
			44,
			45,
			61,
			62,
			63,
			64,
			65,
			81,
			82,
			83,
			84,
			85,
			101,
			102,
			103,
			104,
			105,
			121,
			122,
			123,
			124,
			125,
			141,
			142,
			143,
			144,
			145,
			161,
			162,
			163,
			164,
			165,
			181,
			182,
			183,
			184,
			185
		],
		"EnergySuccess": 5,
		"EnergyFail": 1,
		"MonsterLevel": 30,
		"PlayerExp": 5,
		"BonusSkillID": 73000,
		"HasBonusHero": 0,
		"BonusHeroDesc": "Use Recommended Heroes to\nReceive a <color=#FFFF00FF>{0}%</color> Stat Bonus (not including HP)",
		"BonusHeroDescParam": [
			"20"
		]
	},
	{
		"ID": 2,
		"BigFloorName": "D",
		"Name": "D-Trial 2",
		"RewardList": [
			{
				"GoodsType": "GoodsType_Gold",
				"Id": 0,
				"Count": 5000
			}
		],
		"RandomLevelIdList": [
			6,
			7,
			8,
			9,
			10,
			26,
			27,
			28,
			29,
			30,
			46,
			47,
			48,
			49,
			50,
			66,
			67,
			68,
			69,
			70,
			86,
			87,
			88,
			89,
			90,
			106,
			107,
			108,
			109,
			110,
			126,
			127,
			128,
			129,
			130,
			146,
			147,
			148,
			149,
			150,
			166,
			167,
			168,
			169,
			170,
			186,
			187,
			188,
			189,
			190
		],
		"EnergySuccess": 5,
		"EnergyFail": 1,
		"MonsterLevel": 30,
		"PlayerExp": 5,
		"BonusSkillID": 73000,
		"HasBonusHero": 0,
		"BonusHeroDesc": "Use Recommended Heroes to\nReceive a <color=#FFFF00FF>{0}%</color> Stat Bonus (not including HP)",
		"BonusHeroDescParam": [
			"20"
		]
	},
	{
		"ID": 3,
		"BigFloorName": "D",
		"Name": "D-Trial 3",
		"RewardList": [
			{
				"GoodsType": "GoodsType_Gold",
				"Id": 0,
				"Count": 5000
			}
		],
		"RandomLevelIdList": [
			11,
			12,
			13,
			14,
			15,
			31,
			32,
			33,
			34,
			35,
			51,
			52,
			53,
			54,
			55,
			71,
			72,
			73,
			74,
			75,
			91,
			92,
			93,
			94,
			95,
			111,
			112,
			113,
			114,
			115,
			131,
			132,
			133,
			134,
			135,
			151,
			152,
			153,
			154,
			155,
			171,
			172,
			173,
			174,
			175,
			191,
			192,
			193,
			194,
			195
		],
		"EnergySuccess": 5,
		"EnergyFail": 1,
		"MonsterLevel": 30,
		"PlayerExp": 5,
		"BonusSkillID": 73000,
		"HasBonusHero": 0,
		"BonusHeroDesc": "Use Recommended Heroes to\nReceive a <color=#FFFF00FF>{0}%</color> Stat Bonus (not including HP)",
		"BonusHeroDescParam": [
			"20"
		]
	},
	{
		"ID": 4,
		"BigFloorName": "D",
		"Name": "D-Trial 4",
		"RewardList": [
			{
				"GoodsType": "GoodsType_Gold",
				"Id": 0,
				"Count": 5000
			}
		],
		"RandomLevelIdList": [
			16,
			17,
			18,
			19,
			20,
			36,
			37,
			38,
			39,
			40,
			56,
			57,
			58,
			59,
			60,
			76,
			77,
			78,
			79,
			80,
			96,
			97,
			98,
			99,
			100,
			116,
			117,
			118,
			119,
			120,
			136,
			137,
			138,
			139,
			140,
			156,
			157,
			158,
			159,
			160,
			176,
			177,
			178,
			179,
			180,
			196,
			197,
			198,
			199,
			200
		],
		"EnergySuccess": 5,
		"EnergyFail": 1,
		"MonsterLevel": 30,
		"PlayerExp": 5,
		"BonusSkillID": 73000,
		"HasBonusHero": 0,
		"BonusHeroDesc": "Use Recommended Heroes to\nReceive a <color=#FFFF00FF>{0}%</color> Stat Bonus (not including HP)",
		"BonusHeroDescParam": [
			"20"
		]
	},
	{
		"ID": 5,
		"BigFloorName": "D",
		"Name": "D-Ultimate Trial",
		"RewardList": [
			{
				"GoodsType": "GoodsType_Gold",
				"Id": 0,
				"Count": 5000
			},
			{
				"GoodsType": "GoodsType_Crystal",
				"Id": 0,
				"Count": 20
			},
			{
				"GoodsType": "GoodsType_Item",
				"Id": 3503,
				"Count": 1
			}
		],
		"RandomLevelIdList": [
			1201,
			1202,
			1203,
			1204
		],
		"EnergySuccess": 5,
		"EnergyFail": 1,
		"MonsterLevel": 30,
		"PlayerExp": 5,
		"BonusSkillID": 73000,
		"HasBonusHero": 1,
		"BonusHeroDesc": "Use Recommended Heroes to\nReceive a <color=#FFFF00FF>{0}%</color> Stat Bonus (not including HP)",
		"BonusHeroDescParam": [
			"20"
		]
	},
	{
		"ID": 6,
		"BigFloorName": "D+",
		"Name": "D+-Trial 1",
		"RewardList": [
			{
				"GoodsType": "GoodsType_Gold",
				"Id": 0,
				"Count": 6000
			}
		],
		"RandomLevelIdList": [
			1,
			2,
			3,
			4,
			5,
			21,
			22,
			23,
			24,
			25,
			41,
			42,
			43,
			44,
			45,
			61,
			62,
			63,
			64,
			65,
			81,
			82,
			83,
			84,
			85,
			101,
			102,
			103,
			104,
			105,
			121,
			122,
			123,
			124,
			125,
			141,
			142,
			143,
			144,
			145,
			161,
			162,
			163,
			164,
			165,
			181,
			182,
			183,
			184,
			185
		],
		"EnergySuccess": 5,
		"EnergyFail": 1,
		"MonsterLevel": 31,
		"PlayerExp": 5,
		"BonusSkillID": 73000,
		"HasBonusHero": 0,
		"BonusHeroDesc": "Use Recommended Heroes to\nReceive a <color=#FFFF00FF>{0}%</color> Stat Bonus (not including HP)",
		"BonusHeroDescParam": [
			"20"
		]
	},
	{
		"ID": 7,
		"BigFloorName": "D+",
		"Name": "D+-Trial 2",
		"RewardList": [
			{
				"GoodsType": "GoodsType_Gold",
				"Id": 0,
				"Count": 6000
			}
		],
		"RandomLevelIdList": [
			6,
			7,
			8,
			9,
			10,
			26,
			27,
			28,
			29,
			30,
			46,
			47,
			48,
			49,
			50,
			66,
			67,
			68,
			69,
			70,
			86,
			87,
			88,
			89,
			90,
			106,
			107,
			108,
			109,
			110,
			126,
			127,
			128,
			129,
			130,
			146,
			147,
			148,
			149,
			150,
			166,
			167,
			168,
			169,
			170,
			186,
			187,
			188,
			189,
			190
		],
		"EnergySuccess": 5,
		"EnergyFail": 1,
		"MonsterLevel": 32,
		"PlayerExp": 5,
		"BonusSkillID": 73000,
		"HasBonusHero": 0,
		"BonusHeroDesc": "Use Recommended Heroes to\nReceive a <color=#FFFF00FF>{0}%</color> Stat Bonus (not including HP)",
		"BonusHeroDescParam": [
			"20"
		]
	},
	{
		"ID": 8,
		"BigFloorName": "D+",
		"Name": "D+-Trial 3",
		"RewardList": [
			{
				"GoodsType": "GoodsType_Gold",
				"Id": 0,
				"Count": 6000
			}
		],
		"RandomLevelIdList": [
			11,
			12,
			13,
			14,
			15,
			31,
			32,
			33,
			34,
			35,
			51,
			52,
			53,
			54,
			55,
			71,
			72,
			73,
			74,
			75,
			91,
			92,
			93,
			94,
			95,
			111,
			112,
			113,
			114,
			115,
			131,
			132,
			133,
			134,
			135,
			151,
			152,
			153,
			154,
			155,
			171,
			172,
			173,
			174,
			175,
			191,
			192,
			193,
			194,
			195
		],
		"EnergySuccess": 5,
		"EnergyFail": 1,
		"MonsterLevel": 33,
		"PlayerExp": 5,
		"BonusSkillID": 73000,
		"HasBonusHero": 0,
		"BonusHeroDesc": "Use Recommended Heroes to\nReceive a <color=#FFFF00FF>{0}%</color> Stat Bonus (not including HP)",
		"BonusHeroDescParam": [
			"20"
		]
	},
	{
		"ID": 9,
		"BigFloorName": "D+",
		"Name": "D+-Trial 4",
		"RewardList": [
			{
				"GoodsType": "GoodsType_Gold",
				"Id": 0,
				"Count": 6000
			}
		],
		"RandomLevelIdList": [
			16,
			17,
			18,
			19,
			20,
			36,
			37,
			38,
			39,
			40,
			56,
			57,
			58,
			59,
			60,
			76,
			77,
			78,
			79,
			80,
			96,
			97,
			98,
			99,
			100,
			116,
			117,
			118,
			119,
			120,
			136,
			137,
			138,
			139,
			140,
			156,
			157,
			158,
			159,
			160,
			176,
			177,
			178,
			179,
			180,
			196,
			197,
			198,
			199,
			200
		],
		"EnergySuccess": 5,
		"EnergyFail": 1,
		"MonsterLevel": 34,
		"PlayerExp": 5,
		"BonusSkillID": 73000,
		"HasBonusHero": 0,
		"BonusHeroDesc": "Use Recommended Heroes to\nReceive a <color=#FFFF00FF>{0}%</color> Stat Bonus (not including HP)",
		"BonusHeroDescParam": [
			"20"
		]
	},
	{
		"ID": 10,
		"BigFloorName": "D+",
		"Name": "D+-Ultimate Trial",
		"RewardList": [
			{
				"GoodsType": "GoodsType_Gold",
				"Id": 0,
				"Count": 6000
			},
			{
				"GoodsType": "GoodsType_Crystal",
				"Id": 0,
				"Count": 20
			},
			{
				"GoodsType": "GoodsType_BrillianceMithralStone",
				"Id": 0,
				"Count": 50
			}
		],
		"RandomLevelIdList": [
			1201,
			1202,
			1203,
			1204
		],
		"EnergySuccess": 5,
		"EnergyFail": 1,
		"MonsterLevel": 35,
		"PlayerExp": 5,
		"BonusSkillID": 73000,
		"HasBonusHero": 1,
		"BonusHeroDesc": "Use Recommended Heroes to\nReceive a <color=#FFFF00FF>{0}%</color> Stat Bonus (not including HP)",
		"BonusHeroDescParam": [
			"20"
		]
	},
	{
		"ID": 11,
		"BigFloorName": "C",
		"Name": "C-Trial 1",
		"RewardList": [
			{
				"GoodsType": "GoodsType_Gold",
				"Id": 0,
				"Count": 7000
			}
		],
		"RandomLevelIdList": [
			6,
			7,
			8,
			9,
			10,
			26,
			27,
			28,
			29,
			30,
			46,
			47,
			48,
			49,
			50,
			66,
			67,
			68,
			69,
			70,
			86,
			87,
			88,
			89,
			90,
			106,
			107,
			108,
			109,
			110,
			126,
			127,
			128,
			129,
			130,
			146,
			147,
			148,
			149,
			150,
			166,
			167,
			168,
			169,
			170,
			186,
			187,
			188,
			189,
			190
		],
		"EnergySuccess": 5,
		"EnergyFail": 1,
		"MonsterLevel": 36,
		"PlayerExp": 5,
		"BonusSkillID": 73000,
		"HasBonusHero": 0,
		"BonusHeroDesc": "Use Recommended Heroes to\nReceive a <color=#FFFF00FF>{0}%</color> Stat Bonus (not including HP)",
		"BonusHeroDescParam": [
			"20"
		]
	},
	{
		"ID": 12,
		"BigFloorName": "C",
		"Name": "C-Trial 2",
		"RewardList": [
			{
				"GoodsType": "GoodsType_Gold",
				"Id": 0,
				"Count": 7000
			}
		],
		"RandomLevelIdList": [
			16,
			17,
			18,
			19,
			20,
			36,
			37,
			38,
			39,
			40,
			56,
			57,
			58,
			59,
			60,
			76,
			77,
			78,
			79,
			80,
			96,
			97,
			98,
			99,
			100,
			116,
			117,
			118,
			119,
			120,
			136,
			137,
			138,
			139,
			140,
			156,
			157,
			158,
			159,
			160,
			176,
			177,
			178,
			179,
			180,
			196,
			197,
			198,
			199,
			200
		],
		"EnergySuccess": 5,
		"EnergyFail": 1,
		"MonsterLevel": 37,
		"PlayerExp": 5,
		"BonusSkillID": 73000,
		"HasBonusHero": 0,
		"BonusHeroDesc": "Use Recommended Heroes to\nReceive a <color=#FFFF00FF>{0}%</color> Stat Bonus (not including HP)",
		"BonusHeroDescParam": [
			"20"
		]
	},
	{
		"ID": 13,
		"BigFloorName": "C",
		"Name": "C-Trial 3",
		"RewardList": [
			{
				"GoodsType": "GoodsType_Gold",
				"Id": 0,
				"Count": 7000
			}
		],
		"RandomLevelIdList": [
			1,
			2,
			3,
			4,
			5,
			21,
			22,
			23,
			24,
			25,
			41,
			42,
			43,
			44,
			45,
			61,
			62,
			63,
			64,
			65,
			81,
			82,
			83,
			84,
			85,
			101,
			102,
			103,
			104,
			105,
			121,
			122,
			123,
			124,
			125,
			141,
			142,
			143,
			144,
			145,
			161,
			162,
			163,
			164,
			165,
			181,
			182,
			183,
			184,
			185
		],
		"EnergySuccess": 5,
		"EnergyFail": 1,
		"MonsterLevel": 38,
		"PlayerExp": 5,
		"BonusSkillID": 73000,
		"HasBonusHero": 0,
		"BonusHeroDesc": "Use Recommended Heroes to\nReceive a <color=#FFFF00FF>{0}%</color> Stat Bonus (not including HP)",
		"BonusHeroDescParam": [
			"20"
		]
	},
	{
		"ID": 14,
		"BigFloorName": "C",
		"Name": "C-Trial 4",
		"RewardList": [
			{
				"GoodsType": "GoodsType_Gold",
				"Id": 0,
				"Count": 7000
			}
		],
		"RandomLevelIdList": [
			11,
			12,
			13,
			14,
			15,
			31,
			32,
			33,
			34,
			35,
			51,
			52,
			53,
			54,
			55,
			71,
			72,
			73,
			74,
			75,
			91,
			92,
			93,
			94,
			95,
			111,
			112,
			113,
			114,
			115,
			131,
			132,
			133,
			134,
			135,
			151,
			152,
			153,
			154,
			155,
			171,
			172,
			173,
			174,
			175,
			191,
			192,
			193,
			194,
			195
		],
		"EnergySuccess": 5,
		"EnergyFail": 1,
		"MonsterLevel": 39,
		"PlayerExp": 5,
		"BonusSkillID": 73000,
		"HasBonusHero": 0,
		"BonusHeroDesc": "Use Recommended Heroes to\nReceive a <color=#FFFF00FF>{0}%</color> Stat Bonus (not including HP)",
		"BonusHeroDescParam": [
			"20"
		]
	},
	{
		"ID": 15,
		"BigFloorName": "C",
		"Name": "C-Ultimate Trial",
		"RewardList": [
			{
				"GoodsType": "GoodsType_Gold",
				"Id": 0,
				"Count": 7000
			},
			{
				"GoodsType": "GoodsType_Crystal",
				"Id": 0,
				"Count": 20
			},
			{
				"GoodsType": "GoodsType_Item",
				"Id": 4001,
				"Count": 1
			}
		],
		"RandomLevelIdList": [
			1205,
			1206,
			1207,
			1208,
			1209
		],
		"EnergySuccess": 5,
		"EnergyFail": 1,
		"MonsterLevel": 40,
		"PlayerExp": 5,
		"BonusSkillID": 73000,
		"HasBonusHero": 1,
		"BonusHeroDesc": "Use Recommended Heroes to\nReceive a <color=#FFFF00FF>{0}%</color> Stat Bonus (not including HP)",
		"BonusHeroDescParam": [
			"20"
		]
	},
	{
		"ID": 16,
		"BigFloorName": "C+",
		"Name": "C+-Trial 1",
		"RewardList": [
			{
				"GoodsType": "GoodsType_Gold",
				"Id": 0,
				"Count": 8000
			}
		],
		"RandomLevelIdList": [
			211,
			212,
			213,
			214,
			215,
			231,
			232,
			233,
			234,
			235,
			251,
			252,
			253,
			254,
			255,
			271,
			272,
			273,
			274,
			275,
			291,
			292,
			293,
			294,
			295,
			311,
			312,
			313,
			314,
			315,
			331,
			332,
			333,
			334,
			335,
			351,
			352,
			353,
			354,
			355,
			371,
			372,
			373,
			374,
			375,
			391,
			392,
			393,
			394,
			395
		],
		"EnergySuccess": 5,
		"EnergyFail": 1,
		"MonsterLevel": 41,
		"PlayerExp": 5,
		"BonusSkillID": 73000,
		"HasBonusHero": 0,
		"BonusHeroDesc": "Use Recommended Heroes to\nReceive a <color=#FFFF00FF>{0}%</color> Stat Bonus (not including HP)",
		"BonusHeroDescParam": [
			"20"
		]
	},
	{
		"ID": 17,
		"BigFloorName": "C+",
		"Name": "C+-Trial 2",
		"RewardList": [
			{
				"GoodsType": "GoodsType_Gold",
				"Id": 0,
				"Count": 8000
			}
		],
		"RandomLevelIdList": [
			216,
			217,
			218,
			219,
			220,
			236,
			237,
			238,
			239,
			240,
			256,
			257,
			258,
			259,
			260,
			276,
			277,
			278,
			279,
			280,
			296,
			297,
			298,
			299,
			300,
			316,
			317,
			318,
			319,
			320,
			336,
			337,
			338,
			339,
			340,
			356,
			357,
			358,
			359,
			360,
			376,
			377,
			378,
			379,
			380,
			396,
			397,
			398,
			399,
			400
		],
		"EnergySuccess": 5,
		"EnergyFail": 1,
		"MonsterLevel": 42,
		"PlayerExp": 5,
		"BonusSkillID": 73000,
		"HasBonusHero": 0,
		"BonusHeroDesc": "Use Recommended Heroes to\nReceive a <color=#FFFF00FF>{0}%</color> Stat Bonus (not including HP)",
		"BonusHeroDescParam": [
			"20"
		]
	},
	{
		"ID": 18,
		"BigFloorName": "C+",
		"Name": "C+-Trial 3",
		"RewardList": [
			{
				"GoodsType": "GoodsType_Gold",
				"Id": 0,
				"Count": 8000
			}
		],
		"RandomLevelIdList": [
			201,
			202,
			203,
			204,
			205,
			221,
			222,
			223,
			224,
			225,
			241,
			242,
			243,
			244,
			245,
			261,
			262,
			263,
			264,
			265,
			281,
			282,
			283,
			284,
			285,
			301,
			302,
			303,
			304,
			305,
			321,
			322,
			323,
			324,
			325,
			341,
			342,
			343,
			344,
			345,
			361,
			362,
			363,
			364,
			365,
			381,
			382,
			383,
			384,
			385
		],
		"EnergySuccess": 5,
		"EnergyFail": 1,
		"MonsterLevel": 43,
		"PlayerExp": 5,
		"BonusSkillID": 73000,
		"HasBonusHero": 0,
		"BonusHeroDesc": "Use Recommended Heroes to\nReceive a <color=#FFFF00FF>{0}%</color> Stat Bonus (not including HP)",
		"BonusHeroDescParam": [
			"20"
		]
	},
	{
		"ID": 19,
		"BigFloorName": "C+",
		"Name": "C+-Trial 4",
		"RewardList": [
			{
				"GoodsType": "GoodsType_Gold",
				"Id": 0,
				"Count": 8000
			}
		],
		"RandomLevelIdList": [
			206,
			207,
			208,
			209,
			210,
			226,
			227,
			228,
			229,
			230,
			246,
			247,
			248,
			249,
			250,
			266,
			267,
			268,
			269,
			270,
			286,
			287,
			288,
			289,
			290,
			306,
			307,
			308,
			309,
			310,
			326,
			327,
			328,
			329,
			330,
			346,
			347,
			348,
			349,
			350,
			366,
			367,
			368,
			369,
			370,
			386,
			387,
			388,
			389,
			390
		],
		"EnergySuccess": 5,
		"EnergyFail": 1,
		"MonsterLevel": 44,
		"PlayerExp": 5,
		"BonusSkillID": 73000,
		"HasBonusHero": 0,
		"BonusHeroDesc": "Use Recommended Heroes to\nReceive a <color=#FFFF00FF>{0}%</color> Stat Bonus (not including HP)",
		"BonusHeroDescParam": [
			"20"
		]
	},
	{
		"ID": 20,
		"BigFloorName": "C+",
		"Name": "C+-Ultimate Trial",
		"RewardList": [
			{
				"GoodsType": "GoodsType_Gold",
				"Id": 0,
				"Count": 8000
			},
			{
				"GoodsType": "GoodsType_Crystal",
				"Id": 0,
				"Count": 20
			},
			{
				"GoodsType": "GoodsType_Equipment",
				"Id": 304,
				"Count": 3
			}
		],
		"RandomLevelIdList": [
			1210,
			1211,
			1212,
			1213,
			1214,
			1215
		],
		"EnergySuccess": 5,
		"EnergyFail": 1,
		"MonsterLevel": 45,
		"PlayerExp": 5,
		"BonusSkillID": 73000,
		"HasBonusHero": 1,
		"BonusHeroDesc": "Use Recommended Heroes to\nReceive a <color=#FFFF00FF>{0}%</color> Stat Bonus (not including HP)",
		"BonusHeroDescParam": [
			"20"
		]
	},
	{
		"ID": 21,
		"BigFloorName": "B",
		"Name": "B-Trial 1",
		"RewardList": [
			{
				"GoodsType": "GoodsType_Gold",
				"Id": 0,
				"Count": 9000
			}
		],
		"RandomLevelIdList": [
			401,
			402,
			403,
			404,
			405,
			421,
			422,
			423,
			424,
			425,
			441,
			442,
			443,
			444,
			445,
			461,
			462,
			463,
			464,
			465,
			481,
			482,
			483,
			484,
			485,
			501,
			502,
			503,
			504,
			505,
			521,
			522,
			523,
			524,
			525,
			541,
			542,
			543,
			544,
			545,
			561,
			562,
			563,
			564,
			565,
			581,
			582,
			583,
			584,
			585
		],
		"EnergySuccess": 5,
		"EnergyFail": 1,
		"MonsterLevel": 46,
		"PlayerExp": 5,
		"BonusSkillID": 73000,
		"HasBonusHero": 0,
		"BonusHeroDesc": "Use Recommended Heroes to\nReceive a <color=#FFFF00FF>{0}%</color> Stat Bonus (not including HP)",
		"BonusHeroDescParam": [
			"20"
		]
	},
	{
		"ID": 22,
		"BigFloorName": "B",
		"Name": "B-Trial 2",
		"RewardList": [
			{
				"GoodsType": "GoodsType_Gold",
				"Id": 0,
				"Count": 9000
			}
		],
		"RandomLevelIdList": [
			416,
			417,
			418,
			419,
			420,
			436,
			437,
			438,
			439,
			440,
			456,
			457,
			458,
			459,
			460,
			476,
			477,
			478,
			479,
			480,
			496,
			497,
			498,
			499,
			500,
			516,
			517,
			518,
			519,
			520,
			536,
			537,
			538,
			539,
			540,
			556,
			557,
			558,
			559,
			560,
			576,
			577,
			578,
			579,
			580,
			596,
			597,
			598,
			599,
			600
		],
		"EnergySuccess": 5,
		"EnergyFail": 1,
		"MonsterLevel": 47,
		"PlayerExp": 5,
		"BonusSkillID": 73000,
		"HasBonusHero": 0,
		"BonusHeroDesc": "Use Recommended Heroes to\nReceive a <color=#FFFF00FF>{0}%</color> Stat Bonus (not including HP)",
		"BonusHeroDescParam": [
			"20"
		]
	},
	{
		"ID": 23,
		"BigFloorName": "B",
		"Name": "B-Trial 3",
		"RewardList": [
			{
				"GoodsType": "GoodsType_Gold",
				"Id": 0,
				"Count": 9000
			}
		],
		"RandomLevelIdList": [
			406,
			407,
			408,
			409,
			410,
			426,
			427,
			428,
			429,
			430,
			446,
			447,
			448,
			449,
			450,
			466,
			467,
			468,
			469,
			470,
			486,
			487,
			488,
			489,
			490,
			506,
			507,
			508,
			509,
			510,
			526,
			527,
			528,
			529,
			530,
			546,
			547,
			548,
			549,
			550,
			566,
			567,
			568,
			569,
			570,
			586,
			587,
			588,
			589,
			590
		],
		"EnergySuccess": 5,
		"EnergyFail": 1,
		"MonsterLevel": 48,
		"PlayerExp": 5,
		"BonusSkillID": 73000,
		"HasBonusHero": 0,
		"BonusHeroDesc": "Use Recommended Heroes to\nReceive a <color=#FFFF00FF>{0}%</color> Stat Bonus (not including HP)",
		"BonusHeroDescParam": [
			"20"
		]
	},
	{
		"ID": 24,
		"BigFloorName": "B",
		"Name": "B-Trial 4",
		"RewardList": [
			{
				"GoodsType": "GoodsType_Gold",
				"Id": 0,
				"Count": 9000
			}
		],
		"RandomLevelIdList": [
			411,
			412,
			413,
			414,
			415,
			431,
			432,
			433,
			434,
			435,
			451,
			452,
			453,
			454,
			455,
			471,
			472,
			473,
			474,
			475,
			491,
			492,
			493,
			494,
			495,
			511,
			512,
			513,
			514,
			515,
			531,
			532,
			533,
			534,
			535,
			551,
			552,
			553,
			554,
			555,
			571,
			572,
			573,
			574,
			575,
			591,
			592,
			593,
			594,
			595
		],
		"EnergySuccess": 5,
		"EnergyFail": 1,
		"MonsterLevel": 49,
		"PlayerExp": 5,
		"BonusSkillID": 73000,
		"HasBonusHero": 0,
		"BonusHeroDesc": "Use Recommended Heroes to\nReceive a <color=#FFFF00FF>{0}%</color> Stat Bonus (not including HP)",
		"BonusHeroDescParam": [
			"20"
		]
	},
	{
		"ID": 25,
		"BigFloorName": "B",
		"Name": "B-Ultimate Trial",
		"RewardList": [
			{
				"GoodsType": "GoodsType_Gold",
				"Id": 0,
				"Count": 9000
			},
			{
				"GoodsType": "GoodsType_Crystal",
				"Id": 0,
				"Count": 100
			}
		],
		"RandomLevelIdList": [
			1216,
			1217,
			1218,
			1219,
			1220,
			1221
		],
		"EnergySuccess": 5,
		"EnergyFail": 1,
		"MonsterLevel": 50,
		"PlayerExp": 5,
		"BonusSkillID": 73000,
		"HasBonusHero": 1,
		"BonusHeroDesc": "Use Recommended Heroes to\nReceive a <color=#FFFF00FF>{0}%</color> Stat Bonus (not including HP)",
		"BonusHeroDescParam": [
			"20"
		]
	},
	{
		"ID": 26,
		"BigFloorName": "B+",
		"Name": "B+-Trial 1",
		"RewardList": [
			{
				"GoodsType": "GoodsType_Gold",
				"Id": 0,
				"Count": 10000
			}
		],
		"RandomLevelIdList": [
			606,
			607,
			608,
			609,
			610,
			626,
			627,
			628,
			629,
			630,
			646,
			647,
			648,
			649,
			650,
			666,
			667,
			668,
			669,
			670,
			686,
			687,
			688,
			689,
			690,
			706,
			707,
			708,
			709,
			710,
			726,
			727,
			728,
			729,
			730,
			746,
			747,
			748,
			749,
			750,
			766,
			767,
			768,
			769,
			770,
			786,
			787,
			788,
			789,
			790
		],
		"EnergySuccess": 5,
		"EnergyFail": 1,
		"MonsterLevel": 51,
		"PlayerExp": 5,
		"BonusSkillID": 73000,
		"HasBonusHero": 0,
		"BonusHeroDesc": "Use Recommended Heroes to\nReceive a <color=#FFFF00FF>{0}%</color> Stat Bonus (not including HP)",
		"BonusHeroDescParam": [
			"20"
		]
	},
	{
		"ID": 27,
		"BigFloorName": "B+",
		"Name": "B+-Trial 2",
		"RewardList": [
			{
				"GoodsType": "GoodsType_Gold",
				"Id": 0,
				"Count": 10000
			}
		],
		"RandomLevelIdList": [
			601,
			602,
			603,
			604,
			605,
			621,
			622,
			623,
			624,
			625,
			641,
			642,
			643,
			644,
			645,
			661,
			662,
			663,
			664,
			665,
			681,
			682,
			683,
			684,
			685,
			701,
			702,
			703,
			704,
			705,
			721,
			722,
			723,
			724,
			725,
			741,
			742,
			743,
			744,
			745,
			761,
			762,
			763,
			764,
			765,
			781,
			782,
			783,
			784,
			785
		],
		"EnergySuccess": 5,
		"EnergyFail": 1,
		"MonsterLevel": 52,
		"PlayerExp": 5,
		"BonusSkillID": 73000,
		"HasBonusHero": 0,
		"BonusHeroDesc": "Use Recommended Heroes to\nReceive a <color=#FFFF00FF>{0}%</color> Stat Bonus (not including HP)",
		"BonusHeroDescParam": [
			"20"
		]
	},
	{
		"ID": 28,
		"BigFloorName": "B+",
		"Name": "B+-Trial 3",
		"RewardList": [
			{
				"GoodsType": "GoodsType_Gold",
				"Id": 0,
				"Count": 10000
			}
		],
		"RandomLevelIdList": [
			616,
			617,
			618,
			619,
			620,
			636,
			637,
			638,
			639,
			640,
			656,
			657,
			658,
			659,
			660,
			676,
			677,
			678,
			679,
			680,
			696,
			697,
			698,
			699,
			700,
			716,
			717,
			718,
			719,
			720,
			736,
			737,
			738,
			739,
			740,
			756,
			757,
			758,
			759,
			760,
			776,
			777,
			778,
			779,
			780,
			796,
			797,
			798,
			799,
			800
		],
		"EnergySuccess": 5,
		"EnergyFail": 1,
		"MonsterLevel": 53,
		"PlayerExp": 5,
		"BonusSkillID": 73000,
		"HasBonusHero": 0,
		"BonusHeroDesc": "Use Recommended Heroes to\nReceive a <color=#FFFF00FF>{0}%</color> Stat Bonus (not including HP)",
		"BonusHeroDescParam": [
			"20"
		]
	},
	{
		"ID": 29,
		"BigFloorName": "B+",
		"Name": "B+-Trial 4",
		"RewardList": [
			{
				"GoodsType": "GoodsType_Gold",
				"Id": 0,
				"Count": 10000
			}
		],
		"RandomLevelIdList": [
			611,
			612,
			613,
			614,
			615,
			631,
			632,
			633,
			634,
			635,
			651,
			652,
			653,
			654,
			655,
			671,
			672,
			673,
			674,
			675,
			691,
			692,
			693,
			694,
			695,
			711,
			712,
			713,
			714,
			715,
			731,
			732,
			733,
			734,
			735,
			751,
			752,
			753,
			754,
			755,
			771,
			772,
			773,
			774,
			775,
			791,
			792,
			793,
			794,
			795
		],
		"EnergySuccess": 5,
		"EnergyFail": 1,
		"MonsterLevel": 54,
		"PlayerExp": 5,
		"BonusSkillID": 73000,
		"HasBonusHero": 0,
		"BonusHeroDesc": "Use Recommended Heroes to\nReceive a <color=#FFFF00FF>{0}%</color> Stat Bonus (not including HP)",
		"BonusHeroDescParam": [
			"20"
		]
	},
	{
		"ID": 30,
		"BigFloorName": "B+",
		"Name": "B+-Ultimate Trial",
		"RewardList": [
			{
				"GoodsType": "GoodsType_Gold",
				"Id": 0,
				"Count": 10000
			},
			{
				"GoodsType": "GoodsType_Crystal",
				"Id": 0,
				"Count": 20
			},
			{
				"GoodsType": "GoodsType_Item",
				"Id": 4001,
				"Count": 2
			}
		],
		"RandomLevelIdList": [
			1222,
			1223,
			1224,
			1225,
			1226,
			1227
		],
		"EnergySuccess": 5,
		"EnergyFail": 1,
		"MonsterLevel": 55,
		"PlayerExp": 5,
		"BonusSkillID": 73000,
		"HasBonusHero": 1,
		"BonusHeroDesc": "Use Recommended Heroes to\nReceive a <color=#FFFF00FF>{0}%</color> Stat Bonus (not including HP)",
		"BonusHeroDescParam": [
			"20"
		]
	},
	{
		"ID": 31,
		"BigFloorName": "A",
		"Name": "A-Trial 1",
		"RewardList": [
			{
				"GoodsType": "GoodsType_Gold",
				"Id": 0,
				"Count": 15000
			}
		],
		"RandomLevelIdList": [
			811,
			812,
			813,
			814,
			815,
			831,
			832,
			833,
			834,
			835,
			851,
			852,
			853,
			854,
			855,
			871,
			872,
			873,
			874,
			875,
			891,
			892,
			893,
			894,
			895,
			911,
			912,
			913,
			914,
			915,
			931,
			932,
			933,
			934,
			935,
			951,
			952,
			953,
			954,
			955,
			971,
			972,
			973,
			974,
			975,
			991,
			992,
			993,
			994,
			995
		],
		"EnergySuccess": 5,
		"EnergyFail": 1,
		"MonsterLevel": 56,
		"PlayerExp": 5,
		"BonusSkillID": 73000,
		"HasBonusHero": 0,
		"BonusHeroDesc": "Use Recommended Heroes to\nReceive a <color=#FFFF00FF>{0}%</color> Stat Bonus (not including HP)",
		"BonusHeroDescParam": [
			"20"
		]
	},
	{
		"ID": 32,
		"BigFloorName": "A",
		"Name": "A-Trial 2",
		"RewardList": [
			{
				"GoodsType": "GoodsType_Gold",
				"Id": 0,
				"Count": 15000
			}
		],
		"RandomLevelIdList": [
			801,
			802,
			803,
			804,
			805,
			821,
			822,
			823,
			824,
			825,
			841,
			842,
			843,
			844,
			845,
			861,
			862,
			863,
			864,
			865,
			881,
			882,
			883,
			884,
			885,
			901,
			902,
			903,
			904,
			905,
			921,
			922,
			923,
			924,
			925,
			941,
			942,
			943,
			944,
			945,
			961,
			962,
			963,
			964,
			965,
			981,
			982,
			983,
			984,
			985
		],
		"EnergySuccess": 5,
		"EnergyFail": 1,
		"MonsterLevel": 57,
		"PlayerExp": 5,
		"BonusSkillID": 73000,
		"HasBonusHero": 0,
		"BonusHeroDesc": "Use Recommended Heroes to\nReceive a <color=#FFFF00FF>{0}%</color> Stat Bonus (not including HP)",
		"BonusHeroDescParam": [
			"20"
		]
	},
	{
		"ID": 33,
		"BigFloorName": "A",
		"Name": "A-Trial 3",
		"RewardList": [
			{
				"GoodsType": "GoodsType_Gold",
				"Id": 0,
				"Count": 15000
			}
		],
		"RandomLevelIdList": [
			806,
			807,
			808,
			809,
			810,
			826,
			827,
			828,
			829,
			830,
			846,
			847,
			848,
			849,
			850,
			866,
			867,
			868,
			869,
			870,
			886,
			887,
			888,
			889,
			890,
			906,
			907,
			908,
			909,
			910,
			926,
			927,
			928,
			929,
			930,
			946,
			947,
			948,
			949,
			950,
			966,
			967,
			968,
			969,
			970,
			986,
			987,
			988,
			989,
			990
		],
		"EnergySuccess": 5,
		"EnergyFail": 1,
		"MonsterLevel": 58,
		"PlayerExp": 5,
		"BonusSkillID": 73000,
		"HasBonusHero": 0,
		"BonusHeroDesc": "Use Recommended Heroes to\nReceive a <color=#FFFF00FF>{0}%</color> Stat Bonus (not including HP)",
		"BonusHeroDescParam": [
			"20"
		]
	},
	{
		"ID": 34,
		"BigFloorName": "A",
		"Name": "A-Trial 4",
		"RewardList": [
			{
				"GoodsType": "GoodsType_Gold",
				"Id": 0,
				"Count": 15000
			}
		],
		"RandomLevelIdList": [
			816,
			817,
			818,
			819,
			820,
			836,
			837,
			838,
			839,
			840,
			856,
			857,
			858,
			859,
			860,
			876,
			877,
			878,
			879,
			880,
			896,
			897,
			898,
			899,
			900,
			916,
			917,
			918,
			919,
			920,
			936,
			937,
			938,
			939,
			940,
			956,
			957,
			958,
			959,
			960,
			976,
			977,
			978,
			979,
			980,
			996,
			997,
			998,
			999,
			1000
		],
		"EnergySuccess": 5,
		"EnergyFail": 1,
		"MonsterLevel": 59,
		"PlayerExp": 5,
		"BonusSkillID": 73000,
		"HasBonusHero": 0,
		"BonusHeroDesc": "Use Recommended Heroes to\nReceive a <color=#FFFF00FF>{0}%</color> Stat Bonus (not including HP)",
		"BonusHeroDescParam": [
			"20"
		]
	},
	{
		"ID": 35,
		"BigFloorName": "A",
		"Name": "A-Ultimate Trial",
		"RewardList": [
			{
				"GoodsType": "GoodsType_Gold",
				"Id": 0,
				"Count": 15000
			},
			{
				"GoodsType": "GoodsType_Crystal",
				"Id": 0,
				"Count": 20
			},
			{
				"GoodsType": "GoodsType_BrillianceMithralStone",
				"Id": 0,
				"Count": 200
			}
		],
		"RandomLevelIdList": [
			1228,
			1229,
			1230,
			1231,
			1232,
			1233,
			1234,
			1235
		],
		"EnergySuccess": 5,
		"EnergyFail": 1,
		"MonsterLevel": 60,
		"PlayerExp": 5,
		"BonusSkillID": 73000,
		"HasBonusHero": 1,
		"BonusHeroDesc": "Use Recommended Heroes to\nReceive a <color=#FFFF00FF>{0}%</color> Stat Bonus (not including HP)",
		"BonusHeroDescParam": [
			"20"
		]
	},
	{
		"ID": 36,
		"BigFloorName": "A+",
		"Name": "A+-Trial 1",
		"RewardList": [
			{
				"GoodsType": "GoodsType_Gold",
				"Id": 0,
				"Count": 20000
			}
		],
		"RandomLevelIdList": [
			1001,
			1002,
			1003,
			1004,
			1005,
			1021,
			1022,
			1023,
			1024,
			1025,
			1041,
			1042,
			1043,
			1044,
			1045,
			1061,
			1062,
			1063,
			1064,
			1065,
			1081,
			1082,
			1083,
			1084,
			1085,
			1101,
			1102,
			1103,
			1104,
			1105,
			1121,
			1122,
			1123,
			1124,
			1125,
			1141,
			1142,
			1143,
			1144,
			1145,
			1161,
			1162,
			1163,
			1164,
			1165,
			1181,
			1182,
			1183,
			1184,
			1185
		],
		"EnergySuccess": 5,
		"EnergyFail": 1,
		"MonsterLevel": 61,
		"PlayerExp": 5,
		"BonusSkillID": 73000,
		"HasBonusHero": 0,
		"BonusHeroDesc": "Use Recommended Heroes to\nReceive a <color=#FFFF00FF>{0}%</color> Stat Bonus (not including HP)",
		"BonusHeroDescParam": [
			"20"
		]
	},
	{
		"ID": 37,
		"BigFloorName": "A+",
		"Name": "A+-Trial 2",
		"RewardList": [
			{
				"GoodsType": "GoodsType_Gold",
				"Id": 0,
				"Count": 20000
			}
		],
		"RandomLevelIdList": [
			1006,
			1007,
			1008,
			1009,
			1010,
			1026,
			1027,
			1028,
			1029,
			1030,
			1046,
			1047,
			1048,
			1049,
			1050,
			1066,
			1067,
			1068,
			1069,
			1070,
			1086,
			1087,
			1088,
			1089,
			1090,
			1106,
			1107,
			1108,
			1109,
			1110,
			1126,
			1127,
			1128,
			1129,
			1130,
			1146,
			1147,
			1148,
			1149,
			1150,
			1166,
			1167,
			1168,
			1169,
			1170,
			1186,
			1187,
			1188,
			1189,
			1190
		],
		"EnergySuccess": 5,
		"EnergyFail": 1,
		"MonsterLevel": 62,
		"PlayerExp": 5,
		"BonusSkillID": 73000,
		"HasBonusHero": 0,
		"BonusHeroDesc": "Use Recommended Heroes to\nReceive a <color=#FFFF00FF>{0}%</color> Stat Bonus (not including HP)",
		"BonusHeroDescParam": [
			"20"
		]
	},
	{
		"ID": 38,
		"BigFloorName": "A+",
		"Name": "A+-Trial 3",
		"RewardList": [
			{
				"GoodsType": "GoodsType_Gold",
				"Id": 0,
				"Count": 20000
			}
		],
		"RandomLevelIdList": [
			1011,
			1012,
			1013,
			1014,
			1015,
			1031,
			1032,
			1033,
			1034,
			1035,
			1051,
			1052,
			1053,
			1054,
			1055,
			1071,
			1072,
			1073,
			1074,
			1075,
			1091,
			1092,
			1093,
			1094,
			1095,
			1111,
			1112,
			1113,
			1114,
			1115,
			1131,
			1132,
			1133,
			1134,
			1135,
			1151,
			1152,
			1153,
			1154,
			1155,
			1171,
			1172,
			1173,
			1174,
			1175,
			1191,
			1192,
			1193,
			1194,
			1195
		],
		"EnergySuccess": 5,
		"EnergyFail": 1,
		"MonsterLevel": 63,
		"PlayerExp": 5,
		"BonusSkillID": 73000,
		"HasBonusHero": 0,
		"BonusHeroDesc": "Use Recommended Heroes to\nReceive a <color=#FFFF00FF>{0}%</color> Stat Bonus (not including HP)",
		"BonusHeroDescParam": [
			"20"
		]
	},
	{
		"ID": 39,
		"BigFloorName": "A+",
		"Name": "A+-Trial 4",
		"RewardList": [
			{
				"GoodsType": "GoodsType_Gold",
				"Id": 0,
				"Count": 20000
			}
		],
		"RandomLevelIdList": [
			1016,
			1017,
			1018,
			1019,
			1020,
			1036,
			1037,
			1038,
			1039,
			1040,
			1056,
			1057,
			1058,
			1059,
			1060,
			1076,
			1077,
			1078,
			1079,
			1080,
			1096,
			1097,
			1098,
			1099,
			1100,
			1116,
			1117,
			1118,
			1119,
			1120,
			1136,
			1137,
			1138,
			1139,
			1140,
			1156,
			1157,
			1158,
			1159,
			1160,
			1176,
			1177,
			1178,
			1179,
			1180,
			1196,
			1197,
			1198,
			1199,
			1200
		],
		"EnergySuccess": 5,
		"EnergyFail": 1,
		"MonsterLevel": 64,
		"PlayerExp": 5,
		"BonusSkillID": 73000,
		"HasBonusHero": 0,
		"BonusHeroDesc": "Use Recommended Heroes to\nReceive a <color=#FFFF00FF>{0}%</color> Stat Bonus (not including HP)",
		"BonusHeroDescParam": [
			"20"
		]
	},
	{
		"ID": 40,
		"BigFloorName": "A+",
		"Name": "A+-Ultimate Trial",
		"RewardList": [
			{
				"GoodsType": "GoodsType_Gold",
				"Id": 0,
				"Count": 20000
			},
			{
				"GoodsType": "GoodsType_Crystal",
				"Id": 0,
				"Count": 20
			},
			{
				"GoodsType": "GoodsType_Item",
				"Id": 3203,
				"Count": 10
			}
		],
		"RandomLevelIdList": [
			1236,
			1237,
			1238,
			1239,
			1240,
			1241,
			1242,
			1243
		],
		"EnergySuccess": 5,
		"EnergyFail": 1,
		"MonsterLevel": 65,
		"PlayerExp": 5,
		"BonusSkillID": 73000,
		"HasBonusHero": 1,
		"BonusHeroDesc": "Use Recommended Heroes to\nReceive a <color=#FFFF00FF>{0}%</color> Stat Bonus (not including HP)",
		"BonusHeroDescParam": [
			"20"
		]
	},
	{
		"ID": 41,
		"BigFloorName": "S",
		"Name": "S-Trial 1",
		"RewardList": [
			{
				"GoodsType": "GoodsType_Gold",
				"Id": 0,
				"Count": 25000
			}
		],
		"RandomLevelIdList": [
			1011,
			1012,
			1013,
			1014,
			1015,
			1031,
			1032,
			1033,
			1034,
			1035,
			1051,
			1052,
			1053,
			1054,
			1055,
			1071,
			1072,
			1073,
			1074,
			1075,
			1091,
			1092,
			1093,
			1094,
			1095,
			1111,
			1112,
			1113,
			1114,
			1115,
			1131,
			1132,
			1133,
			1134,
			1135,
			1151,
			1152,
			1153,
			1154,
			1155,
			1171,
			1172,
			1173,
			1174,
			1175,
			1191,
			1192,
			1193,
			1194,
			1195
		],
		"EnergySuccess": 5,
		"EnergyFail": 1,
		"MonsterLevel": 65,
		"PlayerExp": 5,
		"BonusSkillID": 73000,
		"HasBonusHero": 0,
		"BonusHeroDesc": "Use Recommended Heroes to\nReceive a <color=#FFFF00FF>{0}%</color> Stat Bonus (not including HP)",
		"BonusHeroDescParam": [
			"20"
		]
	},
	{
		"ID": 42,
		"BigFloorName": "S",
		"Name": "S-Trial 2",
		"RewardList": [
			{
				"GoodsType": "GoodsType_Gold",
				"Id": 0,
				"Count": 25000
			}
		],
		"RandomLevelIdList": [
			1006,
			1007,
			1008,
			1009,
			1010,
			1026,
			1027,
			1028,
			1029,
			1030,
			1046,
			1047,
			1048,
			1049,
			1050,
			1066,
			1067,
			1068,
			1069,
			1070,
			1086,
			1087,
			1088,
			1089,
			1090,
			1106,
			1107,
			1108,
			1109,
			1110,
			1126,
			1127,
			1128,
			1129,
			1130,
			1146,
			1147,
			1148,
			1149,
			1150,
			1166,
			1167,
			1168,
			1169,
			1170,
			1186,
			1187,
			1188,
			1189,
			1190
		],
		"EnergySuccess": 5,
		"EnergyFail": 1,
		"MonsterLevel": 66,
		"PlayerExp": 5,
		"BonusSkillID": 73000,
		"HasBonusHero": 0,
		"BonusHeroDesc": "Use Recommended Heroes to\nReceive a <color=#FFFF00FF>{0}%</color> Stat Bonus (not including HP)",
		"BonusHeroDescParam": [
			"20"
		]
	},
	{
		"ID": 43,
		"BigFloorName": "S",
		"Name": "S-Trial 3",
		"RewardList": [
			{
				"GoodsType": "GoodsType_Gold",
				"Id": 0,
				"Count": 25000
			}
		],
		"RandomLevelIdList": [
			1001,
			1002,
			1003,
			1004,
			1005,
			1021,
			1022,
			1023,
			1024,
			1025,
			1041,
			1042,
			1043,
			1044,
			1045,
			1061,
			1062,
			1063,
			1064,
			1065,
			1081,
			1082,
			1083,
			1084,
			1085,
			1101,
			1102,
			1103,
			1104,
			1105,
			1121,
			1122,
			1123,
			1124,
			1125,
			1141,
			1142,
			1143,
			1144,
			1145,
			1161,
			1162,
			1163,
			1164,
			1165,
			1181,
			1182,
			1183,
			1184,
			1185
		],
		"EnergySuccess": 5,
		"EnergyFail": 1,
		"MonsterLevel": 66,
		"PlayerExp": 5,
		"BonusSkillID": 73000,
		"HasBonusHero": 0,
		"BonusHeroDesc": "Use Recommended Heroes to\nReceive a <color=#FFFF00FF>{0}%</color> Stat Bonus (not including HP)",
		"BonusHeroDescParam": [
			"20"
		]
	},
	{
		"ID": 44,
		"BigFloorName": "S",
		"Name": "S-Trial 4",
		"RewardList": [
			{
				"GoodsType": "GoodsType_Gold",
				"Id": 0,
				"Count": 25000
			}
		],
		"RandomLevelIdList": [
			1016,
			1017,
			1018,
			1019,
			1020,
			1036,
			1037,
			1038,
			1039,
			1040,
			1056,
			1057,
			1058,
			1059,
			1060,
			1076,
			1077,
			1078,
			1079,
			1080,
			1096,
			1097,
			1098,
			1099,
			1100,
			1116,
			1117,
			1118,
			1119,
			1120,
			1136,
			1137,
			1138,
			1139,
			1140,
			1156,
			1157,
			1158,
			1159,
			1160,
			1176,
			1177,
			1178,
			1179,
			1180,
			1196,
			1197,
			1198,
			1199,
			1200
		],
		"EnergySuccess": 5,
		"EnergyFail": 1,
		"MonsterLevel": 67,
		"PlayerExp": 5,
		"BonusSkillID": 73000,
		"HasBonusHero": 0,
		"BonusHeroDesc": "Use Recommended Heroes to\nReceive a <color=#FFFF00FF>{0}%</color> Stat Bonus (not including HP)",
		"BonusHeroDescParam": [
			"20"
		]
	},
	{
		"ID": 45,
		"BigFloorName": "S",
		"Name": "S-Ultimate Trial",
		"RewardList": [
			{
				"GoodsType": "GoodsType_Gold",
				"Id": 0,
				"Count": 25000
			},
			{
				"GoodsType": "GoodsType_Crystal",
				"Id": 0,
				"Count": 300
			}
		],
		"RandomLevelIdList": [
			1244,
			1245,
			1246,
			1247,
			1248,
			1249,
			1250,
			1251,
			1268,
			1269,
			1270,
			1271,
			1272
		],
		"EnergySuccess": 5,
		"EnergyFail": 1,
		"MonsterLevel": 67,
		"PlayerExp": 5,
		"BonusSkillID": 73000,
		"HasBonusHero": 1,
		"BonusHeroDesc": "Use Recommended Heroes to\nReceive a <color=#FFFF00FF>{0}%</color> Stat Bonus (not including HP)",
		"BonusHeroDescParam": [
			"20"
		]
	},
	{
		"ID": 46,
		"BigFloorName": "SS",
		"Name": "SS-Trial 1",
		"RewardList": [
			{
				"GoodsType": "GoodsType_Gold",
				"Id": 0,
				"Count": 30000
			}
		],
		"RandomLevelIdList": [
			1006,
			1007,
			1008,
			1009,
			1010,
			1026,
			1027,
			1028,
			1029,
			1030,
			1046,
			1047,
			1048,
			1049,
			1050,
			1066,
			1067,
			1068,
			1069,
			1070,
			1086,
			1087,
			1088,
			1089,
			1090,
			1106,
			1107,
			1108,
			1109,
			1110,
			1126,
			1127,
			1128,
			1129,
			1130,
			1146,
			1147,
			1148,
			1149,
			1150,
			1166,
			1167,
			1168,
			1169,
			1170,
			1186,
			1187,
			1188,
			1189,
			1190
		],
		"EnergySuccess": 5,
		"EnergyFail": 1,
		"MonsterLevel": 68,
		"PlayerExp": 5,
		"BonusSkillID": 73000,
		"HasBonusHero": 0,
		"BonusHeroDesc": "Use Recommended Heroes to\nReceive a <color=#FFFF00FF>{0}%</color> Stat Bonus (not including HP)",
		"BonusHeroDescParam": [
			"20"
		]
	},
	{
		"ID": 47,
		"BigFloorName": "SS",
		"Name": "SS-Trial 2",
		"RewardList": [
			{
				"GoodsType": "GoodsType_Gold",
				"Id": 0,
				"Count": 30000
			}
		],
		"RandomLevelIdList": [
			1011,
			1012,
			1013,
			1014,
			1015,
			1031,
			1032,
			1033,
			1034,
			1035,
			1051,
			1052,
			1053,
			1054,
			1055,
			1071,
			1072,
			1073,
			1074,
			1075,
			1091,
			1092,
			1093,
			1094,
			1095,
			1111,
			1112,
			1113,
			1114,
			1115,
			1131,
			1132,
			1133,
			1134,
			1135,
			1151,
			1152,
			1153,
			1154,
			1155,
			1171,
			1172,
			1173,
			1174,
			1175,
			1191,
			1192,
			1193,
			1194,
			1195
		],
		"EnergySuccess": 5,
		"EnergyFail": 1,
		"MonsterLevel": 68,
		"PlayerExp": 5,
		"BonusSkillID": 73000,
		"HasBonusHero": 0,
		"BonusHeroDesc": "Use Recommended Heroes to\nReceive a <color=#FFFF00FF>{0}%</color> Stat Bonus (not including HP)",
		"BonusHeroDescParam": [
			"20"
		]
	},
	{
		"ID": 48,
		"BigFloorName": "SS",
		"Name": "SS-Trial 3",
		"RewardList": [
			{
				"GoodsType": "GoodsType_Gold",
				"Id": 0,
				"Count": 30000
			}
		],
		"RandomLevelIdList": [
			1016,
			1017,
			1018,
			1019,
			1020,
			1036,
			1037,
			1038,
			1039,
			1040,
			1056,
			1057,
			1058,
			1059,
			1060,
			1076,
			1077,
			1078,
			1079,
			1080,
			1096,
			1097,
			1098,
			1099,
			1100,
			1116,
			1117,
			1118,
			1119,
			1120,
			1136,
			1137,
			1138,
			1139,
			1140,
			1156,
			1157,
			1158,
			1159,
			1160,
			1176,
			1177,
			1178,
			1179,
			1180,
			1196,
			1197,
			1198,
			1199,
			1200
		],
		"EnergySuccess": 5,
		"EnergyFail": 1,
		"MonsterLevel": 69,
		"PlayerExp": 5,
		"BonusSkillID": 73000,
		"HasBonusHero": 0,
		"BonusHeroDesc": "Use Recommended Heroes to\nReceive a <color=#FFFF00FF>{0}%</color> Stat Bonus (not including HP)",
		"BonusHeroDescParam": [
			"20"
		]
	},
	{
		"ID": 49,
		"BigFloorName": "SS",
		"Name": "SS-Trial 4",
		"RewardList": [
			{
				"GoodsType": "GoodsType_Gold",
				"Id": 0,
				"Count": 30000
			}
		],
		"RandomLevelIdList": [
			1001,
			1002,
			1003,
			1004,
			1005,
			1021,
			1022,
			1023,
			1024,
			1025,
			1041,
			1042,
			1043,
			1044,
			1045,
			1061,
			1062,
			1063,
			1064,
			1065,
			1081,
			1082,
			1083,
			1084,
			1085,
			1101,
			1102,
			1103,
			1104,
			1105,
			1121,
			1122,
			1123,
			1124,
			1125,
			1141,
			1142,
			1143,
			1144,
			1145,
			1161,
			1162,
			1163,
			1164,
			1165,
			1181,
			1182,
			1183,
			1184,
			1185
		],
		"EnergySuccess": 5,
		"EnergyFail": 1,
		"MonsterLevel": 69,
		"PlayerExp": 5,
		"BonusSkillID": 73000,
		"HasBonusHero": 0,
		"BonusHeroDesc": "Use Recommended Heroes to\nReceive a <color=#FFFF00FF>{0}%</color> Stat Bonus (not including HP)",
		"BonusHeroDescParam": [
			"20"
		]
	},
	{
		"ID": 50,
		"BigFloorName": "SS",
		"Name": "SS-Ultimate Trial",
		"RewardList": [
			{
				"GoodsType": "GoodsType_Gold",
				"Id": 0,
				"Count": 30000
			},
			{
				"GoodsType": "GoodsType_Crystal",
				"Id": 0,
				"Count": 50
			},
			{
				"GoodsType": "GoodsType_Item",
				"Id": 4013,
				"Count": 1
			}
		],
		"RandomLevelIdList": [
			1260,
			1261,
			1262,
			1263,
			1264,
			1265,
			1266,
			1267,
			1273,
			1274,
			1275,
			1276,
			1277
		],
		"EnergySuccess": 5,
		"EnergyFail": 1,
		"MonsterLevel": 70,
		"PlayerExp": 5,
		"BonusSkillID": 73000,
		"HasBonusHero": 1,
		"BonusHeroDesc": "Use Recommended Heroes to\nReceive a <color=#FFFF00FF>{0}%</color> Stat Bonus (not including HP)",
		"BonusHeroDescParam": [
			"20"
		]
	}
]