v 0.0029125213623046875 1.506540298461914 -0.001208571600727737
v -0.5293655395507812 1.3919391632080078 0.21926698088645935
v -0.5732192993164062 1.3919391632080078 -0.0012084635673090816
v 0.5351905822753906 1.3919391632080078 -0.22168418765068054
v 0.5790443420410156 1.3919391632080078 -0.0012085706694051623
v 0.0029125213623046875 1.506540298461914 -0.001208571600727737
v -0.4044780731201172 1.3919391632080078 0.4061776101589203
v -0.5293655395507812 1.3919391632080078 0.21926698088645935
v 0.4102954864501953 1.3919391632080078 -0.4085947573184967
v 0.5351905822753906 1.3919391632080078 -0.22168418765068054
v 0.0029125213623046875 1.506540298461914 -0.001208571600727737
v -0.21756362915039062 1.3919391632080078 0.5310681462287903
v -0.4044780731201172 1.3919391632080078 0.4061776101589203
v 0.22338104248046875 1.3919391632080078 -0.5334852337837219
v 0.4102954864501953 1.3919391632080078 -0.4085947573184967
v 0.0029125213623046875 1.506540298461914 -0.001208571600727737
v 0.0029125213623046875 1.3919391632080078 0.5749229788780212
v -0.21756362915039062 1.3919391632080078 0.5310681462287903
v 0.0029125213623046875 1.3919391632080078 -0.5773401260375977
v 0.22338104248046875 1.3919391632080078 -0.5334852337837219
v 0.0029125213623046875 1.506540298461914 -0.001208571600727737
v 0.22338104248046875 1.3919391632080078 0.5310680866241455
v 0.0029125213623046875 1.3919391632080078 0.5749229788780212
v -0.21756362915039062 1.3919391632080078 -0.5334851741790771
v 0.0029125213623046875 1.3919391632080078 -0.5773401260375977
v 0.0029125213623046875 1.506540298461914 -0.001208571600727737
v 0.4102954864501953 1.3919391632080078 0.4061775207519531
v 0.22338104248046875 1.3919391632080078 0.5310680866241455
v -0.4044780731201172 1.3919391632080078 -0.40859466791152954
v -0.21756362915039062 1.3919391632080078 -0.5334851741790771
v 0.0029125213623046875 1.506540298461914 -0.001208571600727737
v 0.5351905822753906 1.3919391632080078 0.219266876578331
v 0.4102954864501953 1.3919391632080078 0.4061775207519531
v -0.5293655395507812 1.3919391632080078 -0.22168408334255219
v -0.4044780731201172 1.3919391632080078 -0.40859466791152954
v 0.0029125213623046875 1.506540298461914 -0.001208571600727737
v 0.5790443420410156 1.3919391632080078 -0.0012085706694051623
v 0.5351905822753906 1.3919391632080078 0.219266876578331
v -0.5732192993164062 1.3919391632080078 -0.0012084635673090816
v -0.5293655395507812 1.3919391632080078 -0.22168408334255219
v -0.5732192993164062 1.3919391632080078 -0.0012084635673090816
v -0.5293655395507812 1.3919391632080078 0.21926698088645935
v -0.9806098937988281 1.0655860900878906 0.4061775505542755
v -1.0616455078125 1.0655879974365234 -0.001208454486913979
v -0.5293655395507812 1.3919391632080078 0.21926698088645935
v -0.4044780731201172 1.3919391632080078 0.4061776101589203
v -0.7498435974121094 1.0655860900878906 0.7515447735786438
v -0.9806098937988281 1.0655860900878906 0.4061775505542755
v -0.4044780731201172 1.3919391632080078 0.4061776101589203
v -0.21756362915039062 1.3919391632080078 0.5310681462287903
v -0.4044780731201172 1.0655860900878906 0.9823108911514282
v -0.7498435974121094 1.0655860900878906 0.7515447735786438
v -0.21756362915039062 1.3919391632080078 0.5310681462287903
v 0.0029125213623046875 1.3919391632080078 0.5749229788780212
v 0.0029125213623046875 1.0655879974365234 1.0633459091186523
v -0.4044780731201172 1.0655860900878906 0.9823108911514282
v 0.0029125213623046875 1.3919391632080078 0.5749229788780212
v 0.22338104248046875 1.3919391632080078 0.5310680866241455
v 0.4102954864501953 1.0655879974365234 0.9823108315467834
v 0.0029125213623046875 1.0655879974365234 1.0633459091186523
v 0.22338104248046875 1.3919391632080078 0.5310680866241455
v 0.4102954864501953 1.3919391632080078 0.4061775207519531
v 0.7556686401367188 1.0655879974365234 0.7515446543693542
v 0.4102954864501953 1.0655879974365234 0.9823108315467834
v 0.4102954864501953 1.3919391632080078 0.4061775207519531
v 0.5351905822753906 1.3919391632080078 0.219266876578331
v 0.9864368438720703 1.0655879974365234 0.4061773717403412
v 0.7556686401367188 1.0655879974365234 0.7515446543693542
v 0.5351905822753906 1.3919391632080078 0.219266876578331
v 0.5790443420410156 1.3919391632080078 -0.0012085706694051623
v 1.0674610137939453 1.0655879974365234 -0.001208652276545763
v 0.9864368438720703 1.0655879974365234 0.4061773717403412
v -1.0616455078125 1.0655879974365234 -0.001208454486913979
v -0.9806098937988281 1.0655860900878906 0.4061775505542755
v -1.2821197509765625 0.5771636962890625 0.5310680270195007
v -1.38800048828125 0.5771636962890625 -0.0012083981418982148
v -0.9806098937988281 1.0655860900878906 0.4061775505542755
v -0.7498435974121094 1.0655860900878906 0.7515447735786438
v -0.9806098937988281 0.5771636962890625 0.9823108315467834
v -1.2821197509765625 0.5771636962890625 0.5310680270195007
v -0.7498435974121094 1.0655860900878906 0.7515447735786438
v -0.4044780731201172 1.0655860900878906 0.9823108911514282
v -0.5293655395507812 0.5771636962890625 1.2838222980499268
v -0.9806098937988281 0.5771636962890625 0.9823108315467834
v -0.4044780731201172 1.0655860900878906 0.9823108911514282
v 0.0029125213623046875 1.0655879974365234 1.0633459091186523
v 0.0029125213623046875 0.5771636962890625 1.389699101448059
v -0.5293655395507812 0.5771636962890625 1.2838222980499268
v 0.0029125213623046875 1.0655879974365234 1.0633459091186523
v 0.4102954864501953 1.0655879974365234 0.9823108315467834
v 0.5351905822753906 0.5771656036376953 1.2838221788406372
v 0.0029125213623046875 0.5771636962890625 1.389699101448059
v 0.4102954864501953 1.0655879974365234 0.9823108315467834
v 0.7556686401367188 1.0655879974365234 0.7515446543693542
v 0.9864368438720703 0.5771656036376953 0.9823106527328491
v 0.5351905822753906 0.5771656036376953 1.2838221788406372
v 0.7556686401367188 1.0655879974365234 0.7515446543693542
v 0.9864368438720703 1.0655879974365234 0.4061773717403412
v 1.2879371643066406 0.5771656036376953 0.5310677886009216
v 0.9864368438720703 0.5771656036376953 0.9823106527328491
v 0.9864368438720703 1.0655879974365234 0.4061773717403412
v 1.0674610137939453 1.0655879974365234 -0.001208652276545763
v 1.3938179016113281 0.5771656036376953 -0.0012086565839126706
v 1.2879371643066406 0.5771656036376953 0.5310677886009216
v -1.38800048828125 0.5771636962890625 -0.0012083981418982148
v -1.2821197509765625 0.5771636962890625 0.5310680270195007
v -1.38800048828125 0.0010318756103515625 0.5749227404594421
v -1.5025978088378906 0.0010318756103515625 -0.0012084412155672908
v -1.2821197509765625 0.5771636962890625 0.5310680270195007
v -0.9806098937988281 0.5771636962890625 0.9823108315467834
v -1.0616455078125 0.0010318756103515625 1.0633450746536255
v -1.38800048828125 0.0010318756103515625 0.5749227404594421
v -0.9806098937988281 0.5771636962890625 0.9823108315467834
v -0.5293655395507812 0.5771636962890625 1.2838222980499268
v -0.5732269287109375 0.0010318756103515625 1.3896992206573486
v -1.0616455078125 0.0010318756103515625 1.0633450746536255
v -0.5293655395507812 0.5771636962890625 1.2838222980499268
v 0.0029125213623046875 0.5771636962890625 1.389699101448059
v 0.0029125213623046875 0.0010318756103515625 1.5042985677719116
v -0.5732269287109375 0.0010318756103515625 1.3896992206573486
v 0.0029125213623046875 0.5771636962890625 1.389699101448059
v 0.5351905822753906 0.5771656036376953 1.2838221788406372
v 0.5790443420410156 0.0010318756103515625 1.389699101448059
v 0.0029125213623046875 0.0010318756103515625 1.5042985677719116
v 0.5351905822753906 0.5771656036376953 1.2838221788406372
v 0.9864368438720703 0.5771656036376953 0.9823106527328491
v 1.0674610137939453 0.0010318756103515625 1.063344955444336
v 0.5790443420410156 0.0010318756103515625 1.389699101448059
v 0.9864368438720703 0.5771656036376953 0.9823106527328491
v 1.2879371643066406 0.5771656036376953 0.5310677886009216
v 1.3938179016113281 0.0010318756103515625 0.574922502040863
v 1.0674610137939453 0.0010318756103515625 1.063344955444336
v 1.2879371643066406 0.5771656036376953 0.5310677886009216
v 1.3938179016113281 0.5771656036376953 -0.0012086565839126706
v 1.5084152221679688 0.0010318756103515625 -0.001208720961585641
v 1.3938179016113281 0.0010318756103515625 0.574922502040863
v -1.5025978088378906 0.0010318756103515625 -0.0012084412155672908
v -1.38800048828125 0.0010318756103515625 0.5749227404594421
v -1.2821197509765625 -0.5751018524169922 0.5310677886009216
v -1.38800048828125 -0.5751018524169922 -0.0012084428453817964
v -1.38800048828125 0.0010318756103515625 0.5749227404594421
v -1.0616455078125 0.0010318756103515625 1.0633450746536255
v -0.9806098937988281 -0.5751018524169922 0.9823105931282043
v -1.2821197509765625 -0.5751018524169922 0.5310677886009216
v -1.0616455078125 0.0010318756103515625 1.0633450746536255
v -0.5732269287109375 0.0010318756103515625 1.3896992206573486
v -0.5293655395507812 -0.5751018524169922 1.2838222980499268
v -0.9806098937988281 -0.5751018524169922 0.9823105931282043
v -0.5732269287109375 0.0010318756103515625 1.3896992206573486
v 0.0029125213623046875 0.0010318756103515625 1.5042985677719116
v 0.0029125213623046875 -0.5751018524169922 1.3896989822387695
v -0.5293655395507812 -0.5751018524169922 1.2838222980499268
v 0.0029125213623046875 0.0010318756103515625 1.5042985677719116
v 0.5790443420410156 0.0010318756103515625 1.389699101448059
v 0.5351905822753906 -0.5751018524169922 1.2838221788406372
v 0.0029125213623046875 -0.5751018524169922 1.3896989822387695
v 0.5790443420410156 0.0010318756103515625 1.389699101448059
v 1.0674610137939453 0.0010318756103515625 1.063344955444336
v 0.9864368438720703 -0.5751018524169922 0.98231041431427
v 0.5351905822753906 -0.5751018524169922 1.2838221788406372
v 1.0674610137939453 0.0010318756103515625 1.063344955444336
v 1.3938179016113281 0.0010318756103515625 0.574922502040863
v 1.2879371643066406 -0.5750999450683594 0.5310675501823425
v 0.9864368438720703 -0.5751018524169922 0.98231041431427
v 1.3938179016113281 -0.5750999450683594 -0.0012087012873962522
v 1.0674610137939453 -1.0635223388671875 -0.001208644942380488
v 0.9864368438720703 -1.0635223388671875 0.40617644786834717
v 1.3938179016113281 0.0010318756103515625 0.574922502040863
v 1.5084152221679688 0.0010318756103515625 -0.001208720961585641
v 1.3938179016113281 -0.5750999450683594 -0.0012087012873962522
v 1.2879371643066406 -0.5750999450683594 0.5310675501823425
v -1.38800048828125 -0.5751018524169922 -0.0012084428453817964
v -1.2821197509765625 -0.5751018524169922 0.5310677886009216
v -0.9806098937988281 -1.0635242462158203 0.4061766266822815
v -1.0616455078125 -1.0635242462158203 -0.001208447152748704
v -1.2821197509765625 -0.5751018524169922 0.5310677886009216
v -0.9806098937988281 -0.5751018524169922 0.9823105931282043
v -0.7498435974121094 -1.0635242462158203 0.7515438199043274
v -0.9806098937988281 -1.0635242462158203 0.4061766266822815
v -0.9806098937988281 -0.5751018524169922 0.9823105931282043
v -0.5293655395507812 -0.5751018524169922 1.2838222980499268
v -0.4044780731201172 -1.0635242462158203 0.982309877872467
v -0.7498435974121094 -1.0635242462158203 0.7515438199043274
v -0.5293655395507812 -0.5751018524169922 1.2838222980499268
v 0.0029125213623046875 -0.5751018524169922 1.3896989822387695
v 0.0029125213623046875 -1.0635242462158203 1.063344955444336
v -0.4044780731201172 -1.0635242462158203 0.982309877872467
v 0.0029125213623046875 -0.5751018524169922 1.3896989822387695
v 0.5351905822753906 -0.5751018524169922 1.2838221788406372
v 0.4102954864501953 -1.0635242462158203 0.9823098182678223
v 0.0029125213623046875 -1.0635242462158203 1.063344955444336
v 0.5351905822753906 -0.5751018524169922 1.2838221788406372
v 0.9864368438720703 -0.5751018524169922 0.98231041431427
v 0.7556686401367188 -1.0635242462158203 0.7515437006950378
v 0.4102954864501953 -1.0635242462158203 0.9823098182678223
v 0.9864368438720703 -0.5751018524169922 0.98231041431427
v 1.2879371643066406 -0.5750999450683594 0.5310675501823425
v 0.9864368438720703 -1.0635223388671875 0.40617644786834717
v 0.7556686401367188 -1.0635242462158203 0.7515437006950378
v -1.0616455078125 -1.0635242462158203 -0.001208447152748704
v -0.9806098937988281 -1.0635242462158203 0.4061766266822815
v -0.5293655395507812 -1.3898773193359375 0.21926529705524445
v -0.5732269287109375 -1.3898773193359375 -0.0012085287598893046
v -0.9806098937988281 -1.0635242462158203 0.4061766266822815
v -0.7498435974121094 -1.0635242462158203 0.7515438199043274
v -0.4044780731201172 -1.3898773193359375 0.40617647767066956
v -0.5293655395507812 -1.3898773193359375 0.21926529705524445
v -0.7498435974121094 -1.0635242462158203 0.7515438199043274
v -0.4044780731201172 -1.0635242462158203 0.982309877872467
v -0.21756362915039062 -1.3898773193359375 0.5310669541358948
v -0.4044780731201172 -1.3898773193359375 0.40617647767066956
v -0.4044780731201172 -1.0635242462158203 0.982309877872467
v 0.0029125213623046875 -1.0635242462158203 1.063344955444336
v 0.0029125213623046875 -1.3898773193359375 0.5749235153198242
v -0.21756362915039062 -1.3898773193359375 0.5310669541358948
v 0.0029125213623046875 -1.0635242462158203 1.063344955444336
v 0.4102954864501953 -1.0635242462158203 0.9823098182678223
v 0.22338104248046875 -1.3898773193359375 0.53106689453125
v 0.0029125213623046875 -1.3898773193359375 0.5749235153198242
v 0.4102954864501953 -1.0635242462158203 0.9823098182678223
v 0.7556686401367188 -1.0635242462158203 0.7515437006950378
v 0.4102954864501953 -1.3898773193359375 0.4061763882637024
v 0.22338104248046875 -1.3898773193359375 0.53106689453125
v 0.7556686401367188 -1.0635242462158203 0.7515437006950378
v 0.9864368438720703 -1.0635223388671875 0.40617644786834717
v 0.5351905822753906 -1.3898773193359375 0.2192651927471161
v 0.4102954864501953 -1.3898773193359375 0.4061763882637024
v 0.9864368438720703 -1.0635223388671875 0.40617644786834717
v 1.0674610137939453 -1.0635223388671875 -0.001208644942380488
v 0.5790443420410156 -1.3898773193359375 -0.0012086358619853854
v 0.5351905822753906 -1.3898773193359375 0.2192651927471161
v 0.0029125213623046875 -1.504476547241211 -0.001208590460009873
v -0.5732269287109375 -1.3898773193359375 -0.0012085287598893046
v -0.5293655395507812 -1.3898773193359375 0.21926529705524445
v 0.5790443420410156 -1.3898773193359375 -0.0012086358619853854
v 0.5351905822753906 -1.3898773193359375 -0.22168250381946564
v 0.0029125213623046875 -1.504476547241211 -0.001208590460009873
v -0.5293655395507812 -1.3898773193359375 0.21926529705524445
v -0.4044780731201172 -1.3898773193359375 0.40617647767066956
v 0.5351905822753906 -1.3898773193359375 -0.22168250381946564
v 0.4102954864501953 -1.3898773193359375 -0.40859368443489075
v 0.0029125213623046875 -1.504476547241211 -0.001208590460009873
v -0.4044780731201172 -1.3898773193359375 0.40617647767066956
v -0.21756362915039062 -1.3898773193359375 0.5310669541358948
v 0.4102954864501953 -1.3898773193359375 -0.40859368443489075
v 0.22338104248046875 -1.3898773193359375 -0.533484160900116
v 0.0029125213623046875 -1.504476547241211 -0.001208590460009873
v -0.21756362915039062 -1.3898773193359375 0.5310669541358948
v 0.0029125213623046875 -1.3898773193359375 0.5749235153198242
v 0.22338104248046875 -1.3898773193359375 -0.533484160900116
v 0.0029125213623046875 -1.3898773193359375 -0.5773407816886902
v 0.0029125213623046875 -1.504476547241211 -0.001208590460009873
v 0.0029125213623046875 -1.3898773193359375 0.5749235153198242
v 0.22338104248046875 -1.3898773193359375 0.53106689453125
v 0.0029125213623046875 -1.3898773193359375 -0.5773407816886902
v -0.21756362915039062 -1.3898773193359375 -0.5334841012954712
v 0.0029125213623046875 -1.504476547241211 -0.001208590460009873
v 0.22338104248046875 -1.3898773193359375 0.53106689453125
v 0.4102954864501953 -1.3898773193359375 0.4061763882637024
v -0.21756362915039062 -1.3898773193359375 -0.5334841012954712
v -0.4044780731201172 -1.3898773193359375 -0.4085935950279236
v 0.0029125213623046875 -1.504476547241211 -0.001208590460009873
v 0.4102954864501953 -1.3898773193359375 0.4061763882637024
v 0.5351905822753906 -1.3898773193359375 0.2192651927471161
v -0.4044780731201172 -1.3898773193359375 -0.4085935950279236
v -0.5293655395507812 -1.3898773193359375 -0.22168239951133728
v 0.0029125213623046875 -1.504476547241211 -0.001208590460009873
v 0.5351905822753906 -1.3898773193359375 0.2192651927471161
v 0.5790443420410156 -1.3898773193359375 -0.0012086358619853854
v -0.5293655395507812 -1.3898773193359375 -0.22168239951133728
v -0.5732269287109375 -1.3898773193359375 -0.0012085287598893046
v -0.5732192993164062 1.3919391632080078 -0.0012084635673090816
v -1.0616455078125 1.0655879974365234 -0.001208454486913979
v -0.9806098937988281 1.0655860900878906 -0.4085945188999176
v -0.5293655395507812 1.3919391632080078 -0.22168408334255219
v -0.5293655395507812 1.3919391632080078 -0.22168408334255219
v -0.9806098937988281 1.0655860900878906 -0.4085945188999176
v -0.7498435974121094 1.0655860900878906 -0.7539618611335754
v -0.4044780731201172 1.3919391632080078 -0.40859466791152954
v -0.4044780731201172 1.3919391632080078 -0.40859466791152954
v -0.7498435974121094 1.0655860900878906 -0.7539618611335754
v -0.4044780731201172 1.0655860900878906 -0.9847279787063599
v -0.21756362915039062 1.3919391632080078 -0.5334851741790771
v -0.21756362915039062 1.3919391632080078 -0.5334851741790771
v -0.4044780731201172 1.0655860900878906 -0.9847279787063599
v 0.0029125213623046875 1.0655879974365234 -1.065762996673584
v 0.0029125213623046875 1.3919391632080078 -0.5773401260375977
v 0.0029125213623046875 1.3919391632080078 -0.5773401260375977
v 0.0029125213623046875 1.0655879974365234 -1.065762996673584
v 0.4102954864501953 1.0655879974365234 -0.9847280383110046
v 0.22338104248046875 1.3919391632080078 -0.5334852337837219
v 0.22338104248046875 1.3919391632080078 -0.5334852337837219
v 0.4102954864501953 1.0655879974365234 -0.9847280383110046
v 0.7556686401367188 1.0655879974365234 -0.753961980342865
v 0.4102954864501953 1.3919391632080078 -0.4085947573184967
v 0.4102954864501953 1.3919391632080078 -0.4085947573184967
v 0.7556686401367188 1.0655879974365234 -0.753961980342865
v 0.9864368438720703 1.0655879974365234 -0.40859469771385193
v 0.5351905822753906 1.3919391632080078 -0.22168418765068054
v 0.5351905822753906 1.3919391632080078 -0.22168418765068054
v 0.9864368438720703 1.0655879974365234 -0.40859469771385193
v 1.0674610137939453 1.0655879974365234 -0.001208652276545763
v 0.5790443420410156 1.3919391632080078 -0.0012085706694051623
v -1.0616455078125 1.0655879974365234 -0.001208454486913979
v -1.38800048828125 0.5771636962890625 -0.0012083981418982148
v -1.2821197509765625 0.5771636962890625 -0.5334848761558533
v -0.9806098937988281 1.0655860900878906 -0.4085945188999176
v -0.9806098937988281 1.0655860900878906 -0.4085945188999176
v -1.2821197509765625 0.5771636962890625 -0.5334848761558533
v -0.9806098937988281 0.5771636962890625 -0.9847276210784912
v -0.7498435974121094 1.0655860900878906 -0.7539618611335754
v -0.7498435974121094 1.0655860900878906 -0.7539618611335754
v -0.9806098937988281 0.5771636962890625 -0.9847276210784912
v -0.5293655395507812 0.5771636962890625 -1.2862396240234375
v -0.4044780731201172 1.0655860900878906 -0.9847279787063599
v -0.4044780731201172 1.0655860900878906 -0.9847279787063599
v -0.5293655395507812 0.5771636962890625 -1.2862396240234375
v 0.0029125213623046875 0.5771636962890625 -1.3921163082122803
v 0.0029125213623046875 1.0655879974365234 -1.065762996673584
v 0.0029125213623046875 1.0655879974365234 -1.065762996673584
v 0.0029125213623046875 0.5771636962890625 -1.3921163082122803
v 0.5351905822753906 0.5771656036376953 -1.286239743232727
v 0.4102954864501953 1.0655879974365234 -0.9847280383110046
v 0.4102954864501953 1.0655879974365234 -0.9847280383110046
v 0.5351905822753906 0.5771656036376953 -1.286239743232727
v 0.9864368438720703 0.5771656036376953 -0.9847277998924255
v 0.7556686401367188 1.0655879974365234 -0.753961980342865
v 0.7556686401367188 1.0655879974365234 -0.753961980342865
v 0.9864368438720703 0.5771656036376953 -0.9847277998924255
v 1.2879371643066406 0.5771656036376953 -0.5334851145744324
v 0.9864368438720703 1.0655879974365234 -0.40859469771385193
v 0.9864368438720703 1.0655879974365234 -0.40859469771385193
v 1.2879371643066406 0.5771656036376953 -0.5334851145744324
v 1.3938179016113281 0.5771656036376953 -0.0012086565839126706
v 1.0674610137939453 1.0655879974365234 -0.001208652276545763
v -1.38800048828125 0.5771636962890625 -0.0012083981418982148
v -1.5025978088378906 0.0010318756103515625 -0.0012084412155672908
v -1.38800048828125 0.0010318756103515625 -0.5773398280143738
v -1.2821197509765625 0.5771636962890625 -0.5334848761558533
v -1.2821197509765625 0.5771636962890625 -0.5334848761558533
v -1.38800048828125 0.0010318756103515625 -0.5773398280143738
v -1.0616455078125 0.0010318756103515625 -1.0657622814178467
v -0.9806098937988281 0.5771636962890625 -0.9847276210784912
v -0.9806098937988281 0.5771636962890625 -0.9847276210784912
v -1.0616455078125 0.0010318756103515625 -1.0657622814178467
v -0.5732269287109375 0.0010318756103515625 -1.3921161890029907
v -0.5293655395507812 0.5771636962890625 -1.2862396240234375
v -0.5293655395507812 0.5771636962890625 -1.2862396240234375
v -0.5732269287109375 0.0010318756103515625 -1.3921161890029907
v 0.0029125213623046875 0.0010318756103515625 -1.5067155361175537
v 0.0029125213623046875 0.5771636962890625 -1.3921163082122803
v 0.0029125213623046875 0.5771636962890625 -1.3921163082122803
v 0.0029125213623046875 0.0010318756103515625 -1.5067155361175537
v 0.5790443420410156 0.0010318756103515625 -1.3921163082122803
v 0.5351905822753906 0.5771656036376953 -1.286239743232727
v 0.5351905822753906 0.5771656036376953 -1.286239743232727
v 0.5790443420410156 0.0010318756103515625 -1.3921163082122803
v 1.0674610137939453 0.0010318756103515625 -1.0657624006271362
v 0.9864368438720703 0.5771656036376953 -0.9847277998924255
v 0.9864368438720703 0.5771656036376953 -0.9847277998924255
v 1.0674610137939453 0.0010318756103515625 -1.0657624006271362
v 1.3938179016113281 0.0010318756103515625 -0.5773400664329529
v 1.2879371643066406 0.5771656036376953 -0.5334851145744324
v 1.2879371643066406 0.5771656036376953 -0.5334851145744324
v 1.3938179016113281 0.0010318756103515625 -0.5773400664329529
v 1.5084152221679688 0.0010318756103515625 -0.001208720961585641
v 1.3938179016113281 0.5771656036376953 -0.0012086565839126706
v -1.5025978088378906 0.0010318756103515625 -0.0012084412155672908
v -1.38800048828125 -0.5751018524169922 -0.0012084428453817964
v -1.2821197509765625 -0.5751018524169922 -0.5334846377372742
v -1.38800048828125 0.0010318756103515625 -0.5773398280143738
v -1.38800048828125 0.0010318756103515625 -0.5773398280143738
v -1.2821197509765625 -0.5751018524169922 -0.5334846377372742
v -0.9806098937988281 -0.5751018524169922 -0.9847273826599121
v -1.0616455078125 0.0010318756103515625 -1.0657622814178467
v -1.0616455078125 0.0010318756103515625 -1.0657622814178467
v -0.9806098937988281 -0.5751018524169922 -0.9847273826599121
v -0.5293655395507812 -0.5751018524169922 -1.2862391471862793
v -0.5732269287109375 0.0010318756103515625 -1.3921161890029907
v -0.5732269287109375 0.0010318756103515625 -1.3921161890029907
v -0.5293655395507812 -0.5751018524169922 -1.2862391471862793
v 0.0029125213623046875 -0.5751018524169922 -1.3921159505844116
v 0.0029125213623046875 0.0010318756103515625 -1.5067155361175537
v 0.0029125213623046875 0.0010318756103515625 -1.5067155361175537
v 0.0029125213623046875 -0.5751018524169922 -1.3921159505844116
v 0.5351905822753906 -0.5751018524169922 -1.2862392663955688
v 0.5790443420410156 0.0010318756103515625 -1.3921163082122803
v 0.5790443420410156 0.0010318756103515625 -1.3921163082122803
v 0.5351905822753906 -0.5751018524169922 -1.2862392663955688
v 0.9864368438720703 -0.5751018524169922 -0.9847275614738464
v 1.0674610137939453 0.0010318756103515625 -1.0657624006271362
v 1.0674610137939453 0.0010318756103515625 -1.0657624006271362
v 0.9864368438720703 -0.5751018524169922 -0.9847275614738464
v 1.2879371643066406 -0.5750999450683594 -0.5334848761558533
v 1.3938179016113281 0.0010318756103515625 -0.5773400664329529
v 0.9864368438720703 -1.0635223388671875 -0.40859368443489075
v 1.0674610137939453 -1.0635223388671875 -0.001208644942380488
v 1.3938179016113281 -0.5750999450683594 -0.0012087012873962522
v 1.3938179016113281 0.0010318756103515625 -0.5773400664329529
v 1.2879371643066406 -0.5750999450683594 -0.5334848761558533
v 1.3938179016113281 -0.5750999450683594 -0.0012087012873962522
v 1.5084152221679688 0.0010318756103515625 -0.001208720961585641
v -1.38800048828125 -0.5751018524169922 -0.0012084428453817964
v -1.0616455078125 -1.0635242462158203 -0.001208447152748704
v -0.9806098937988281 -1.0635242462158203 -0.4085935056209564
v -1.2821197509765625 -0.5751018524169922 -0.5334846377372742
v -1.2821197509765625 -0.5751018524169922 -0.5334846377372742
v -0.9806098937988281 -1.0635242462158203 -0.4085935056209564
v -0.7498435974121094 -1.0635242462158203 -0.7539607882499695
v -0.9806098937988281 -0.5751018524169922 -0.9847273826599121
v -0.9806098937988281 -0.5751018524169922 -0.9847273826599121
v -0.7498435974121094 -1.0635242462158203 -0.7539607882499695
v -0.4044780731201172 -1.0635242462158203 -0.9847269058227539
v -0.5293655395507812 -0.5751018524169922 -1.2862391471862793
v -0.5293655395507812 -0.5751018524169922 -1.2862391471862793
v -0.4044780731201172 -1.0635242462158203 -0.9847269058227539
v 0.0029125213623046875 -1.0635242462158203 -1.0657618045806885
v 0.0029125213623046875 -0.5751018524169922 -1.3921159505844116
v 0.0029125213623046875 -0.5751018524169922 -1.3921159505844116
v 0.0029125213623046875 -1.0635242462158203 -1.0657618045806885
v 0.4102954864501953 -1.0635242462158203 -0.9847269654273987
v 0.5351905822753906 -0.5751018524169922 -1.2862392663955688
v 0.5351905822753906 -0.5751018524169922 -1.2862392663955688
v 0.4102954864501953 -1.0635242462158203 -0.9847269654273987
v 0.7556686401367188 -1.0635242462158203 -0.753960907459259
v 0.9864368438720703 -0.5751018524169922 -0.9847275614738464
v 0.9864368438720703 -0.5751018524169922 -0.9847275614738464
v 0.7556686401367188 -1.0635242462158203 -0.753960907459259
v 0.9864368438720703 -1.0635223388671875 -0.40859368443489075
v 1.2879371643066406 -0.5750999450683594 -0.5334848761558533
v -1.0616455078125 -1.0635242462158203 -0.001208447152748704
v -0.5732269287109375 -1.3898773193359375 -0.0012085287598893046
v -0.5293655395507812 -1.3898773193359375 -0.22168239951133728
v -0.9806098937988281 -1.0635242462158203 -0.4085935056209564
v -0.9806098937988281 -1.0635242462158203 -0.4085935056209564
v -0.5293655395507812 -1.3898773193359375 -0.22168239951133728
v -0.4044780731201172 -1.3898773193359375 -0.4085935950279236
v -0.7498435974121094 -1.0635242462158203 -0.7539607882499695
v -0.7498435974121094 -1.0635242462158203 -0.7539607882499695
v -0.4044780731201172 -1.3898773193359375 -0.4085935950279236
v -0.21756362915039062 -1.3898773193359375 -0.5334841012954712
v -0.4044780731201172 -1.0635242462158203 -0.9847269058227539
v -0.4044780731201172 -1.0635242462158203 -0.9847269058227539
v -0.21756362915039062 -1.3898773193359375 -0.5334841012954712
v 0.0029125213623046875 -1.3898773193359375 -0.5773407816886902
v 0.0029125213623046875 -1.0635242462158203 -1.0657618045806885
v 0.0029125213623046875 -1.0635242462158203 -1.0657618045806885
v 0.0029125213623046875 -1.3898773193359375 -0.5773407816886902
v 0.22338104248046875 -1.3898773193359375 -0.533484160900116
v 0.4102954864501953 -1.0635242462158203 -0.9847269654273987
v 0.4102954864501953 -1.0635242462158203 -0.9847269654273987
v 0.22338104248046875 -1.3898773193359375 -0.533484160900116
v 0.4102954864501953 -1.3898773193359375 -0.40859368443489075
v 0.7556686401367188 -1.0635242462158203 -0.753960907459259
v 0.7556686401367188 -1.0635242462158203 -0.753960907459259
v 0.4102954864501953 -1.3898773193359375 -0.40859368443489075
v 0.5351905822753906 -1.3898773193359375 -0.22168250381946564
v 0.9864368438720703 -1.0635223388671875 -0.40859368443489075
v 0.9864368438720703 -1.0635223388671875 -0.40859368443489075
v 0.5351905822753906 -1.3898773193359375 -0.22168250381946564
v 0.5790443420410156 -1.3898773193359375 -0.0012086358619853854
v 1.0674610137939453 -1.0635223388671875 -0.001208644942380488
vn -0.0 1.0 0.0
vn -0.37240907549858093 0.915159285068512 0.15425632894039154
vn -0.4030906558036804 0.915160059928894 0.0
vn 0.37240877747535706 0.9151594638824463 -0.15425585210323334
vn 0.4030928909778595 0.9151591062545776 0.0
vn -0.0 1.0 0.0
vn -0.2850306034088135 0.915158748626709 0.2850298583507538
vn -0.37240907549858093 0.915159285068512 0.15425632894039154
vn 0.28502461314201355 0.9151602983474731 -0.2850310206413269
vn 0.37240877747535706 0.9151594638824463 -0.15425585210323334
vn -0.0 1.0 0.0
vn -0.15425656735897064 0.9151591658592224 0.3724093437194824
vn -0.2850306034088135 0.915158748626709 0.2850298583507538
vn 0.1542551964521408 0.9151597023010254 -0.3724084198474884
vn 0.28502461314201355 0.9151602983474731 -0.2850310206413269
vn -0.0 1.0 0.0
vn -0.0 0.9151594042778015 0.4030921161174774
vn -0.15425656735897064 0.9151591658592224 0.3724093437194824
vn -0.0 0.9151594042778015 -0.4030922055244446
vn 0.1542551964521408 0.9151597023010254 -0.3724084198474884
vn -0.0 1.0 0.0
vn 0.15425527095794678 0.9151597619056702 0.3724084198474884
vn -0.0 0.9151594042778015 0.4030921161174774
vn -0.15425658226013184 0.9151591658592224 -0.37240928411483765
vn -0.0 0.9151594042778015 -0.4030922055244446
vn -0.0 1.0 0.0
vn 0.28502464294433594 0.9151602983474731 0.28503096103668213
vn 0.15425527095794678 0.9151597619056702 0.3724084198474884
vn -0.2850306034088135 0.915158748626709 -0.2850298583507538
vn -0.15425658226013184 0.9151591658592224 -0.37240928411483765
vn -0.0 1.0 0.0
vn 0.37240880727767944 0.9151594042778015 0.15425586700439453
vn 0.28502464294433594 0.9151602983474731 0.28503096103668213
vn -0.3724091053009033 0.915159285068512 -0.15425632894039154
vn -0.2850306034088135 0.915158748626709 -0.2850298583507538
vn -0.0 1.0 0.0
vn 0.4030928909778595 0.9151591062545776 0.0
vn 0.37240880727767944 0.9151594042778015 0.15425586700439453
vn -0.4030906558036804 0.915160059928894 0.0
vn -0.3724091053009033 0.915159285068512 -0.15425632894039154
vn -0.4030906558036804 0.915160059928894 0.0
vn -0.37240907549858093 0.915159285068512 0.15425632894039154
vn -0.6641378402709961 0.6951567530632019 0.2750963866710663
vn -0.7188568115234375 0.6951582431793213 0.0
vn -0.37240907549858093 0.915159285068512 0.15425632894039154
vn -0.2850306034088135 0.915158748626709 0.2850298583507538
vn -0.5083100199699402 0.695156455039978 0.5083093047142029
vn -0.6641378402709961 0.6951567530632019 0.2750963866710663
vn -0.2850306034088135 0.915158748626709 0.2850298583507538
vn -0.15425656735897064 0.9151591658592224 0.3724093437194824
vn -0.2750960886478424 0.6951563358306885 0.6641383171081543
vn -0.5083100199699402 0.695156455039978 0.5083093047142029
vn -0.15425656735897064 0.9151591658592224 0.3724093437194824
vn -0.0 0.9151594042778015 0.4030921161174774
vn -0.0 0.6951574683189392 0.7188575267791748
vn -0.2750960886478424 0.6951563358306885 0.6641383171081543
vn -0.0 0.9151594042778015 0.4030921161174774
vn 0.15425527095794678 0.9151597619056702 0.3724084198474884
vn 0.2750925123691559 0.6951587200164795 0.6641374826431274
vn -0.0 0.6951574683189392 0.7188575267791748
vn 0.15425527095794678 0.9151597619056702 0.3724084198474884
vn 0.28502464294433594 0.9151602983474731 0.28503096103668213
vn 0.5083076357841492 0.6951580047607422 0.5083094835281372
vn 0.2750925123691559 0.6951587200164795 0.6641374826431274
vn 0.28502464294433594 0.9151602983474731 0.28503096103668213
vn 0.37240880727767944 0.9151594042778015 0.15425586700439453
vn 0.6641414761543274 0.6951554417610168 0.2750909626483917
vn 0.5083076357841492 0.6951580047607422 0.5083094835281372
vn 0.37240880727767944 0.9151594042778015 0.15425586700439453
vn 0.4030928909778595 0.9151591062545776 0.0
vn 0.7188589572906494 0.6951559782028198 0.0
vn 0.6641414761543274 0.6951554417610168 0.2750909626483917
vn -0.7188568115234375 0.6951582431793213 0.0
vn -0.6641378402709961 0.6951567530632019 0.2750963866710663
vn -0.8566945195198059 0.3743678331375122 0.3548567295074463
vn -0.9272805452346802 0.3743673861026764 0.0
vn -0.6641378402709961 0.6951567530632019 0.2750963866710663
vn -0.5083100199699402 0.695156455039978 0.5083093047142029
vn -0.6556864976882935 0.37436816096305847 0.6556856632232666
vn -0.8566945195198059 0.3743678331375122 0.3548567295074463
vn -0.5083100199699402 0.695156455039978 0.5083093047142029
vn -0.2750960886478424 0.6951563358306885 0.6641383171081543
vn -0.35485443472862244 0.3743676245212555 0.8566954731941223
vn -0.6556864976882935 0.37436816096305847 0.6556856632232666
vn -0.2750960886478424 0.6951563358306885 0.6641383171081543
vn -0.0 0.6951574683189392 0.7188575267791748
vn -0.0 0.3743666708469391 0.9272807240486145
vn -0.35485443472862244 0.3743676245212555 0.8566954731941223
vn -0.0 0.6951574683189392 0.7188575267791748
vn 0.2750925123691559 0.6951587200164795 0.6641374826431274
vn 0.35485517978668213 0.3743661344051361 0.856695830821991
vn -0.0 0.3743666708469391 0.9272807240486145
vn 0.2750925123691559 0.6951587200164795 0.6641374826431274
vn 0.5083076357841492 0.6951580047607422 0.5083094835281372
vn 0.6556898355484009 0.37436360120773315 0.6556850075721741
vn 0.35485517978668213 0.3743661344051361 0.856695830821991
vn 0.5083076357841492 0.6951580047607422 0.5083094835281372
vn 0.6641414761543274 0.6951554417610168 0.2750909626483917
vn 0.8566977381706238 0.3743639886379242 0.35485273599624634
vn 0.6556898355484009 0.37436360120773315 0.6556850075721741
vn 0.6641414761543274 0.6951554417610168 0.2750909626483917
vn 0.7188589572906494 0.6951559782028198 0.0
vn 0.9272815585136414 0.3743646740913391 0.0
vn 0.8566977381706238 0.3743639886379242 0.35485273599624634
vn -0.9272805452346802 0.3743673861026764 0.0
vn -0.8566945195198059 0.3743678331375122 0.3548567295074463
vn -0.9238793253898621 0.0 0.38268402218818665
vn -1.0 0.0 0.0
vn -0.8566945195198059 0.3743678331375122 0.3548567295074463
vn -0.6556864976882935 0.37436816096305847 0.6556856632232666
vn -0.7071075439453125 0.0 0.7071059942245483
vn -0.9238793253898621 0.0 0.38268402218818665
vn -0.6556864976882935 0.37436816096305847 0.6556856632232666
vn -0.35485443472862244 0.3743676245212555 0.8566954731941223
vn -0.38268470764160156 0.0 0.9238790273666382
vn -0.7071075439453125 0.0 0.7071059942245483
vn -0.35485443472862244 0.3743676245212555 0.8566954731941223
vn -0.0 0.3743666708469391 0.9272807240486145
vn -0.0 0.0 1.0
vn -0.38268470764160156 0.0 0.9238790273666382
vn -0.0 0.3743666708469391 0.9272807240486145
vn 0.35485517978668213 0.3743661344051361 0.856695830821991
vn 0.38268402218818665 0.0 0.9238793253898621
vn -0.0 0.0 1.0
vn 0.35485517978668213 0.3743661344051361 0.856695830821991
vn 0.6556898355484009 0.37436360120773315 0.6556850075721741
vn 0.7071082592010498 0.0 0.7071052193641663
vn 0.38268402218818665 0.0 0.9238793253898621
vn 0.6556898355484009 0.37436360120773315 0.6556850075721741
vn 0.8566977381706238 0.3743639886379242 0.35485273599624634
vn 0.9238803386688232 0.0 0.3826814889907837
vn 0.7071082592010498 0.0 0.7071052193641663
vn 0.8566977381706238 0.3743639886379242 0.35485273599624634
vn 0.9272815585136414 0.3743646740913391 0.0
vn 1.0 0.0 0.0
vn 0.9238803386688232 0.0 0.3826814889907837
vn -1.0 0.0 0.0
vn -0.9238793253898621 0.0 0.38268402218818665
vn -0.8566944599151611 -0.37436801195144653 0.35485658049583435
vn -0.9272804260253906 -0.37436750531196594 0.0
vn -0.9238793253898621 0.0 0.38268402218818665
vn -0.7071075439453125 0.0 0.7071059942245483
vn -0.6556864976882935 -0.374368280172348 0.655685544013977
vn -0.8566944599151611 -0.37436801195144653 0.35485658049583435
vn -0.7071075439453125 0.0 0.7071059942245483
vn -0.38268470764160156 0.0 0.9238790273666382
vn -0.35485416650772095 -0.3743681013584137 0.8566954135894775
vn -0.6556864976882935 -0.374368280172348 0.655685544013977
vn -0.38268470764160156 0.0 0.9238790273666382
vn -0.0 0.0 1.0
vn -0.0 -0.3743675947189331 0.9272803068161011
vn -0.35485416650772095 -0.3743681013584137 0.8566954135894775
vn -0.0 0.0 1.0
vn 0.38268402218818665 0.0 0.9238793253898621
vn 0.3548554480075836 -0.3743666112422943 0.8566955924034119
vn -0.0 -0.3743675947189331 0.9272803068161011
vn 0.38268402218818665 0.0 0.9238793253898621
vn 0.7071082592010498 0.0 0.7071052193641663
vn 0.65569007396698 -0.37436434626579285 0.6556842923164368
vn 0.3548554480075836 -0.3743666112422943 0.8566955924034119
vn 0.7071082592010498 0.0 0.7071052193641663
vn 0.9238803386688232 0.0 0.3826814889907837
vn 0.8566979169845581 -0.3743641972541809 0.35485225915908813
vn 0.65569007396698 -0.37436434626579285 0.6556842923164368
vn 0.9272814393043518 -0.37436503171920776 0.0
vn 0.7188605666160583 -0.6951543688774109 0.0
vn 0.6641433238983154 -0.6951538920402527 0.2750905156135559
vn 0.9238803386688232 0.0 0.3826814889907837
vn 1.0 0.0 0.0
vn 0.9272814393043518 -0.37436503171920776 0.0
vn 0.8566979169845581 -0.3743641972541809 0.35485225915908813
vn -0.9272804260253906 -0.37436750531196594 0.0
vn -0.8566944599151611 -0.37436801195144653 0.35485658049583435
vn -0.6641379594802856 -0.6951563358306885 0.275097131729126
vn -0.7188581228256226 -0.6951568126678467 0.0
vn -0.8566944599151611 -0.37436801195144653 0.35485658049583435
vn -0.6556864976882935 -0.374368280172348 0.655685544013977
vn -0.5083099007606506 -0.6951568126678467 0.508309006690979
vn -0.6641379594802856 -0.6951563358306885 0.275097131729126
vn -0.6556864976882935 -0.374368280172348 0.655685544013977
vn -0.35485416650772095 -0.3743681013584137 0.8566954135894775
vn -0.27509549260139465 -0.6951569318771362 0.6641380190849304
vn -0.5083099007606506 -0.6951568126678467 0.508309006690979
vn -0.35485416650772095 -0.3743681013584137 0.8566954135894775
vn -0.0 -0.3743675947189331 0.9272803068161011
vn -0.0 -0.6951572895050049 0.7188576459884644
vn -0.27509549260139465 -0.6951569318771362 0.6641380190849304
vn -0.0 -0.3743675947189331 0.9272803068161011
vn 0.3548554480075836 -0.3743666112422943 0.8566955924034119
vn 0.2750932574272156 -0.6951583027839661 0.6641374826431274
vn -0.0 -0.6951572895050049 0.7188576459884644
vn 0.3548554480075836 -0.3743666112422943 0.8566955924034119
vn 0.65569007396698 -0.37436434626579285 0.6556842923164368
vn 0.5083088874816895 -0.6951575875282288 0.5083088874816895
vn 0.2750932574272156 -0.6951583027839661 0.6641374826431274
vn 0.65569007396698 -0.37436434626579285 0.6556842923164368
vn 0.8566979169845581 -0.3743641972541809 0.35485225915908813
vn 0.6641433238983154 -0.6951538920402527 0.2750905156135559
vn 0.5083088874816895 -0.6951575875282288 0.5083088874816895
vn -0.7188581228256226 -0.6951568126678467 0.0
vn -0.6641379594802856 -0.6951563358306885 0.275097131729126
vn -0.3724064528942108 -0.9151600003242493 0.15425816178321838
vn -0.403094083070755 -0.9151584506034851 0.0
vn -0.6641379594802856 -0.6951563358306885 0.275097131729126
vn -0.5083099007606506 -0.6951568126678467 0.508309006690979
vn -0.2850298285484314 -0.915159285068512 0.285028874874115
vn -0.3724064528942108 -0.9151600003242493 0.15425816178321838
vn -0.5083099007606506 -0.6951568126678467 0.508309006690979
vn -0.27509549260139465 -0.6951569318771362 0.6641380190849304
vn -0.15425615012645721 -0.9151597023010254 0.3724082112312317
vn -0.2850298285484314 -0.915159285068512 0.285028874874115
vn -0.27509549260139465 -0.6951569318771362 0.6641380190849304
vn -0.0 -0.6951572895050049 0.7188576459884644
vn -0.0 -0.9151591062545776 0.4030928611755371
vn -0.15425615012645721 -0.9151597023010254 0.3724082112312317
vn -0.0 -0.6951572895050049 0.7188576459884644
vn 0.2750932574272156 -0.6951583027839661 0.6641374826431274
vn 0.15425603091716766 -0.9151597619056702 0.37240806221961975
vn -0.0 -0.9151591062545776 0.4030928611755371
vn 0.2750932574272156 -0.6951583027839661 0.6641374826431274
vn 0.5083088874816895 -0.6951575875282288 0.5083088874816895
vn 0.28502553701400757 -0.9151601791381836 0.2850305736064911
vn 0.15425603091716766 -0.9151597619056702 0.37240806221961975
vn 0.5083088874816895 -0.6951575875282288 0.5083088874816895
vn 0.6641433238983154 -0.6951538920402527 0.2750905156135559
vn 0.3724100887775421 -0.9151589870452881 0.15425555408000946
vn 0.28502553701400757 -0.9151601791381836 0.2850305736064911
vn 0.6641433238983154 -0.6951538920402527 0.2750905156135559
vn 0.7188605666160583 -0.6951543688774109 0.0
vn 0.40309441089630127 -0.9151583909988403 0.0
vn 0.3724100887775421 -0.9151589870452881 0.15425555408000946
vn -0.0 -1.0 0.0
vn -0.403094083070755 -0.9151584506034851 0.0
vn -0.3724064528942108 -0.9151600003242493 0.15425816178321838
vn 0.40309441089630127 -0.9151583909988403 0.0
vn 0.3724101483821869 -0.9151589870452881 -0.15425556898117065
vn -0.0 -1.0 0.0
vn -0.3724064528942108 -0.9151600003242493 0.15425816178321838
vn -0.2850298285484314 -0.915159285068512 0.285028874874115
vn 0.3724101483821869 -0.9151589870452881 -0.15425556898117065
vn 0.28502553701400757 -0.915160059928894 -0.2850306034088135
vn -0.0 -1.0 0.0
vn -0.2850298285484314 -0.915159285068512 0.285028874874115
vn -0.15425615012645721 -0.9151597023010254 0.3724082112312317
vn 0.28502553701400757 -0.915160059928894 -0.2850306034088135
vn 0.1542559266090393 -0.9151597023010254 -0.3724082112312317
vn -0.0 -1.0 0.0
vn -0.15425615012645721 -0.9151597023010254 0.3724082112312317
vn -0.0 -0.9151591062545776 0.4030928611755371
vn 0.1542559266090393 -0.9151597023010254 -0.3724082112312317
vn -0.0 -0.9151589870452881 -0.40309303998947144
vn -0.0 -1.0 0.0
vn -0.0 -0.9151591062545776 0.4030928611755371
vn 0.15425603091716766 -0.9151597619056702 0.37240806221961975
vn -0.0 -0.9151589870452881 -0.40309303998947144
vn -0.154256209731102 -0.9151595830917358 -0.3724082410335541
vn -0.0 -1.0 0.0
vn 0.15425603091716766 -0.9151597619056702 0.37240806221961975
vn 0.28502553701400757 -0.9151601791381836 0.2850305736064911
vn -0.154256209731102 -0.9151595830917358 -0.3724082410335541
vn -0.28502991795539856 -0.915159285068512 -0.2850289046764374
vn -0.0 -1.0 0.0
vn 0.28502553701400757 -0.9151601791381836 0.2850305736064911
vn 0.3724100887775421 -0.9151589870452881 0.15425555408000946
vn -0.28502991795539856 -0.915159285068512 -0.2850289046764374
vn -0.3724064826965332 -0.9151600003242493 -0.15425816178321838
vn -0.0 -1.0 0.0
vn 0.3724100887775421 -0.9151589870452881 0.15425555408000946
vn 0.40309441089630127 -0.9151583909988403 0.0
vn -0.3724064826965332 -0.9151600003242493 -0.15425816178321838
vn -0.403094083070755 -0.9151584506034851 0.0
vn -0.4030906558036804 0.915160059928894 0.0
vn -0.7188568115234375 0.6951582431793213 0.0
vn -0.6641378998756409 0.6951566934585571 -0.2750963866710663
vn -0.3724091053009033 0.915159285068512 -0.15425632894039154
vn -0.3724091053009033 0.915159285068512 -0.15425632894039154
vn -0.6641378998756409 0.6951566934585571 -0.2750963866710663
vn -0.508310079574585 0.695156455039978 -0.5083093047142029
vn -0.2850306034088135 0.915158748626709 -0.2850298583507538
vn -0.2850306034088135 0.915158748626709 -0.2850298583507538
vn -0.508310079574585 0.695156455039978 -0.5083093047142029
vn -0.27509620785713196 0.695156455039978 -0.6641382575035095
vn -0.15425658226013184 0.9151591658592224 -0.37240928411483765
vn -0.15425658226013184 0.9151591658592224 -0.37240928411483765
vn -0.27509620785713196 0.695156455039978 -0.6641382575035095
vn -0.0 0.6951575875282288 -0.7188574075698853
vn -0.0 0.9151594042778015 -0.4030922055244446
vn -0.0 0.9151594042778015 -0.4030922055244446
vn -0.0 0.6951575875282288 -0.7188574075698853
vn 0.27509236335754395 0.6951587796211243 -0.6641374230384827
vn 0.1542551964521408 0.9151597023010254 -0.3724084198474884
vn 0.1542551964521408 0.9151597023010254 -0.3724084198474884
vn 0.27509236335754395 0.6951587796211243 -0.6641374230384827
vn 0.508307695388794 0.695158064365387 -0.5083094835281372
vn 0.28502461314201355 0.9151602983474731 -0.2850310206413269
vn 0.28502461314201355 0.9151602983474731 -0.2850310206413269
vn 0.508307695388794 0.695158064365387 -0.5083094835281372
vn 0.6641414761543274 0.6951554417610168 -0.2750909626483917
vn 0.37240877747535706 0.9151594638824463 -0.15425585210323334
vn 0.37240877747535706 0.9151594638824463 -0.15425585210323334
vn 0.6641414761543274 0.6951554417610168 -0.2750909626483917
vn 0.7188589572906494 0.6951559782028198 0.0
vn 0.4030928909778595 0.9151591062545776 0.0
vn -0.7188568115234375 0.6951582431793213 0.0
vn -0.9272805452346802 0.3743673861026764 0.0
vn -0.8566945195198059 0.37436792254447937 -0.3548566699028015
vn -0.6641378998756409 0.6951566934585571 -0.2750963866710663
vn -0.6641378998756409 0.6951566934585571 -0.2750963866710663
vn -0.8566945195198059 0.37436792254447937 -0.3548566699028015
vn -0.655686616897583 0.37436819076538086 -0.6556854844093323
vn -0.508310079574585 0.695156455039978 -0.5083093047142029
vn -0.508310079574585 0.695156455039978 -0.5083093047142029
vn -0.655686616897583 0.37436819076538086 -0.6556854844093323
vn -0.354854553937912 0.3743675947189331 -0.8566954731941223
vn -0.27509620785713196 0.695156455039978 -0.6641382575035095
vn -0.27509620785713196 0.695156455039978 -0.6641382575035095
vn -0.354854553937912 0.3743675947189331 -0.8566954731941223
vn -0.0 0.3743665814399719 -0.927280843257904
vn -0.0 0.6951575875282288 -0.7188574075698853
vn -0.0 0.6951575875282288 -0.7188574075698853
vn -0.0 0.3743665814399719 -0.927280843257904
vn 0.3548550307750702 0.3743661046028137 -0.8566959500312805
vn 0.27509236335754395 0.6951587796211243 -0.6641374230384827
vn 0.27509236335754395 0.6951587796211243 -0.6641374230384827
vn 0.3548550307750702 0.3743661046028137 -0.8566959500312805
vn 0.6556898355484009 0.37436363101005554 -0.6556848883628845
vn 0.508307695388794 0.695158064365387 -0.5083094835281372
vn 0.508307695388794 0.695158064365387 -0.5083094835281372
vn 0.6556898355484009 0.37436363101005554 -0.6556848883628845
vn 0.8566977381706238 0.37436410784721375 -0.35485273599624634
vn 0.6641414761543274 0.6951554417610168 -0.2750909626483917
vn 0.6641414761543274 0.6951554417610168 -0.2750909626483917
vn 0.8566977381706238 0.37436410784721375 -0.35485273599624634
vn 0.9272815585136414 0.3743646740913391 0.0
vn 0.7188589572906494 0.6951559782028198 0.0
vn -0.9272805452346802 0.3743673861026764 0.0
vn -1.0 0.0 0.0
vn -0.9238793253898621 0.0 -0.3826840817928314
vn -0.8566945195198059 0.37436792254447937 -0.3548566699028015
vn -0.8566945195198059 0.37436792254447937 -0.3548566699028015
vn -0.9238793253898621 0.0 -0.3826840817928314
vn -0.707107424736023 0.0 -0.7071060538291931
vn -0.655686616897583 0.37436819076538086 -0.6556854844093323
vn -0.655686616897583 0.37436819076538086 -0.6556854844093323
vn -0.707107424736023 0.0 -0.7071060538291931
vn -0.38268473744392395 0.0 -0.9238789081573486
vn -0.354854553937912 0.3743675947189331 -0.8566954731941223
vn -0.354854553937912 0.3743675947189331 -0.8566954731941223
vn -0.38268473744392395 0.0 -0.9238789081573486
vn -0.0 0.0 -1.0
vn -0.0 0.3743665814399719 -0.927280843257904
vn -0.0 0.3743665814399719 -0.927280843257904
vn -0.0 0.0 -1.0
vn 0.3826838731765747 0.0 -0.9238794445991516
vn 0.3548550307750702 0.3743661046028137 -0.8566959500312805
vn 0.3548550307750702 0.3743661046028137 -0.8566959500312805
vn 0.3826838731765747 0.0 -0.9238794445991516
vn 0.7071081399917603 0.0 -0.7071053385734558
vn 0.6556898355484009 0.37436363101005554 -0.6556848883628845
vn 0.6556898355484009 0.37436363101005554 -0.6556848883628845
vn 0.7071081399917603 0.0 -0.7071053385734558
vn 0.9238803386688232 0.0 -0.38268160820007324
vn 0.8566977381706238 0.37436410784721375 -0.35485273599624634
vn 0.8566977381706238 0.37436410784721375 -0.35485273599624634
vn 0.9238803386688232 0.0 -0.38268160820007324
vn 1.0 0.0 0.0
vn 0.9272815585136414 0.3743646740913391 0.0
vn -1.0 0.0 0.0
vn -0.9272804260253906 -0.37436750531196594 0.0
vn -0.8566945195198059 -0.3743680417537689 -0.3548565208911896
vn -0.9238793253898621 0.0 -0.3826840817928314
vn -0.9238793253898621 0.0 -0.3826840817928314
vn -0.8566945195198059 -0.3743680417537689 -0.3548565208911896
vn -0.6556864976882935 -0.3743683993816376 -0.6556854844093323
vn -0.707107424736023 0.0 -0.7071060538291931
vn -0.707107424736023 0.0 -0.7071060538291931
vn -0.6556864976882935 -0.3743683993816376 -0.6556854844093323
vn -0.35485419631004333 -0.3743681311607361 -0.8566954135894775
vn -0.38268473744392395 0.0 -0.9238789081573486
vn -0.38268473744392395 0.0 -0.9238789081573486
vn -0.35485419631004333 -0.3743681311607361 -0.8566954135894775
vn -0.0 -0.3743676543235779 -0.9272803068161011
vn -0.0 0.0 -1.0
vn -0.0 0.0 -1.0
vn -0.0 -0.3743676543235779 -0.9272803068161011
vn 0.3548552095890045 -0.3743667006492615 -0.8566955924034119
vn 0.3826838731765747 0.0 -0.9238794445991516
vn 0.3826838731765747 0.0 -0.9238794445991516
vn 0.3548552095890045 -0.3743667006492615 -0.8566955924034119
vn 0.6556899547576904 -0.37436443567276 -0.6556843519210815
vn 0.7071081399917603 0.0 -0.7071053385734558
vn 0.7071081399917603 0.0 -0.7071053385734558
vn 0.6556899547576904 -0.37436443567276 -0.6556843519210815
vn 0.8566978573799133 -0.37436428666114807 -0.35485225915908813
vn 0.9238803386688232 0.0 -0.38268160820007324
vn 0.6641433238983154 -0.6951538920402527 -0.2750905156135559
vn 0.7188605666160583 -0.6951543688774109 0.0
vn 0.9272814393043518 -0.37436503171920776 0.0
vn 0.9238803386688232 0.0 -0.38268160820007324
vn 0.8566978573799133 -0.37436428666114807 -0.35485225915908813
vn 0.9272814393043518 -0.37436503171920776 0.0
vn 1.0 0.0 0.0
vn -0.9272804260253906 -0.37436750531196594 0.0
vn -0.7188581228256226 -0.6951568126678467 0.0
vn -0.6641380190849304 -0.6951562762260437 -0.2750971019268036
vn -0.8566945195198059 -0.3743680417537689 -0.3548565208911896
vn -0.8566945195198059 -0.3743680417537689 -0.3548565208911896
vn -0.6641380190849304 -0.6951562762260437 -0.2750971019268036
vn -0.5083100199699402 -0.6951566934585571 -0.5083090662956238
vn -0.6556864976882935 -0.3743683993816376 -0.6556854844093323
vn -0.6556864976882935 -0.3743683993816376 -0.6556854844093323
vn -0.5083100199699402 -0.6951566934585571 -0.5083090662956238
vn -0.27509555220603943 -0.6951567530632019 -0.66413813829422
vn -0.35485419631004333 -0.3743681311607361 -0.8566954135894775
vn -0.35485419631004333 -0.3743681311607361 -0.8566954135894775
vn -0.27509555220603943 -0.6951567530632019 -0.66413813829422
vn -0.0 -0.6951572299003601 -0.7188576459884644
vn -0.0 -0.3743676543235779 -0.9272803068161011
vn -0.0 -0.3743676543235779 -0.9272803068161011
vn -0.0 -0.6951572299003601 -0.7188576459884644
vn 0.27509310841560364 -0.6951581835746765 -0.6641377210617065
vn 0.3548552095890045 -0.3743667006492615 -0.8566955924034119
vn 0.3548552095890045 -0.3743667006492615 -0.8566955924034119
vn 0.27509310841560364 -0.6951581835746765 -0.6641377210617065
vn 0.5083088874816895 -0.6951575875282288 -0.508309006690979
vn 0.6556899547576904 -0.37436443567276 -0.6556843519210815
vn 0.6556899547576904 -0.37436443567276 -0.6556843519210815
vn 0.5083088874816895 -0.6951575875282288 -0.508309006690979
vn 0.6641433238983154 -0.6951538920402527 -0.2750905156135559
vn 0.8566978573799133 -0.37436428666114807 -0.35485225915908813
vn -0.7188581228256226 -0.6951568126678467 0.0
vn -0.403094083070755 -0.9151584506034851 0.0
vn -0.3724064826965332 -0.9151600003242493 -0.15425816178321838
vn -0.6641380190849304 -0.6951562762260437 -0.2750971019268036
vn -0.6641380190849304 -0.6951562762260437 -0.2750971019268036
vn -0.3724064826965332 -0.9151600003242493 -0.15425816178321838
vn -0.28502991795539856 -0.915159285068512 -0.2850289046764374
vn -0.5083100199699402 -0.6951566934585571 -0.5083090662956238
vn -0.5083100199699402 -0.6951566934585571 -0.5083090662956238
vn -0.28502991795539856 -0.915159285068512 -0.2850289046764374
vn -0.154256209731102 -0.9151595830917358 -0.3724082410335541
vn -0.27509555220603943 -0.6951567530632019 -0.66413813829422
vn -0.27509555220603943 -0.6951567530632019 -0.66413813829422
vn -0.154256209731102 -0.9151595830917358 -0.3724082410335541
vn -0.0 -0.9151589870452881 -0.40309303998947144
vn -0.0 -0.6951572299003601 -0.7188576459884644
vn -0.0 -0.6951572299003601 -0.7188576459884644
vn -0.0 -0.9151589870452881 -0.40309303998947144
vn 0.1542559266090393 -0.9151597023010254 -0.3724082112312317
vn 0.27509310841560364 -0.6951581835746765 -0.6641377210617065
vn 0.27509310841560364 -0.6951581835746765 -0.6641377210617065
vn 0.1542559266090393 -0.9151597023010254 -0.3724082112312317
vn 0.28502553701400757 -0.915160059928894 -0.2850306034088135
vn 0.5083088874816895 -0.6951575875282288 -0.508309006690979
vn 0.5083088874816895 -0.6951575875282288 -0.508309006690979
vn 0.28502553701400757 -0.915160059928894 -0.2850306034088135
vn 0.3724101483821869 -0.9151589870452881 -0.15425556898117065
vn 0.6641433238983154 -0.6951538920402527 -0.2750905156135559
vn 0.6641433238983154 -0.6951538920402527 -0.2750905156135559
vn 0.3724101483821869 -0.9151589870452881 -0.15425556898117065
vn 0.40309441089630127 -0.9151583909988403 0.0
vn 0.7188605666160583 -0.6951543688774109 0.0
vt 0.5 0.5000000298023224
vt 0.3086581230163574 0.5000000894069672
vt 0.3232225179672241 0.42677736282348633
vt 0.6913444995880127 0.5
vt 0.6767774820327759 0.5732226967811584
vt 0.5 0.5000000298023224
vt 0.3232225179672241 0.42677736282348633
vt 0.36469870805740356 0.36470186710357666
vt 0.6767774820327759 0.5732226967811584
vt 0.6352987885475159 0.6352982521057129
vt 0.5 0.5000000298023224
vt 0.36469870805740356 0.36470186710357666
vt 0.42677998542785645 0.3232240080833435
vt 0.6352987885475159 0.6352982521057129
vt 0.5732225775718689 0.6767760515213013
vt 0.5 0.5000000298023224
vt 0.42677998542785645 0.3232240080833435
vt 0.4999999701976776 0.30865901708602905
vt 0.5732225775718689 0.6767760515213013
vt 0.5000000596046448 0.6913410723209381
vt 0.5 0.5000000298023224
vt 0.4999999701976776 0.30865901708602905
vt 0.5732225179672241 0.3232240080833435
vt 0.5000000596046448 0.6913410723209381
vt 0.4267800450325012 0.676776111125946
vt 0.5 0.5000000298023224
vt 0.5732225179672241 0.3232240080833435
vt 0.6352987289428711 0.3647017478942871
vt 0.4267800450325012 0.676776111125946
vt 0.36469876766204834 0.6352983117103577
vt 0.5 0.5000000298023224
vt 0.6352987289428711 0.3647017478942871
vt 0.6767774820327759 0.4267772436141968
vt 0.36469876766204834 0.6352983117103577
vt 0.3232225775718689 0.573222815990448
vt 0.5 0.5000000298023224
vt 0.6767774820327759 0.4267772436141968
vt 0.6913444995880127 0.5
vt 0.3232225775718689 0.573222815990448
vt 0.3086581230163574 0.5000000894069672
vt 0.3086581230163574 0.5000000894069672
vt 0.14644759893417358 0.5000001192092896
vt 0.1733618974685669 0.36470192670822144
vt 0.3232225179672241 0.42677736282348633
vt 0.3232225179672241 0.42677736282348633
vt 0.1733618974685669 0.36470192670822144
vt 0.25000250339508057 0.25000059604644775
vt 0.36469870805740356 0.36470186710357666
vt 0.36469870805740356 0.36470186710357666
vt 0.25000250339508057 0.25000059604644775
vt 0.36470121145248413 0.17336022853851318
vt 0.42677998542785645 0.3232240080833435
vt 0.42677998542785645 0.3232240080833435
vt 0.36470121145248413 0.17336022853851318
vt 0.4999999403953552 0.14644724130630493
vt 0.4999999701976776 0.30865901708602905
vt 0.4999999701976776 0.30865901708602905
vt 0.4999999403953552 0.14644724130630493
vt 0.6352987289428711 0.1733601689338684
vt 0.5732225179672241 0.3232240080833435
vt 0.5732225179672241 0.3232240080833435
vt 0.6352987289428711 0.1733601689338684
vt 0.7500025033950806 0.2500004768371582
vt 0.6352987289428711 0.3647017478942871
vt 0.6352987289428711 0.3647017478942871
vt 0.7500025033950806 0.2500004768371582
vt 0.8266406655311584 0.3647017478942871
vt 0.6767774820327759 0.4267772436141968
vt 0.6767774820327759 0.4267772436141968
vt 0.8266406655311584 0.3647017478942871
vt 0.8535524606704712 0.4999999403953552
vt 0.6913444995880127 0.5
vt 0.14644759893417358 0.5000001192092896
vt 0.03806060552597046 0.5000001192092896
vt 0.07322502136230469 0.32322412729263306
vt 0.1733618974685669 0.36470192670822144
vt 0.1733618974685669 0.36470192670822144
vt 0.07322502136230469 0.32322412729263306
vt 0.17336183786392212 0.17336034774780273
vt 0.25000250339508057 0.25000059604644775
vt 0.25000250339508057 0.25000059604644775
vt 0.17336183786392212 0.17336034774780273
vt 0.32322245836257935 0.07322418689727783
vt 0.36470121145248413 0.17336022853851318
vt 0.36470121145248413 0.17336022853851318
vt 0.32322245836257935 0.07322418689727783
vt 0.4999999403953552 0.038060903549194336
vt 0.4999999403953552 0.14644724130630493
vt 0.4999999403953552 0.14644724130630493
vt 0.4999999403953552 0.038060903549194336
vt 0.6767799854278564 0.07322406768798828
vt 0.6352987289428711 0.1733601689338684
vt 0.6352987289428711 0.1733601689338684
vt 0.6767799854278564 0.07322406768798828
vt 0.826643168926239 0.17336022853851318
vt 0.7500025033950806 0.2500004768371582
vt 0.7500025033950806 0.2500004768371582
vt 0.826643168926239 0.17336022853851318
vt 0.9267774820327759 0.32322394847869873
vt 0.8266406655311584 0.3647017478942871
vt 0.8266406655311584 0.3647017478942871
vt 0.9267774820327759 0.32322394847869873
vt 0.9619393944740295 0.49999988079071045
vt 0.8535524606704712 0.4999999403953552
vt 0.03806060552597046 0.5000001192092896
vt 0.0 0.5000000894069672
vt 0.03806060552597046 0.30865931510925293
vt 0.07322502136230469 0.32322412729263306
vt 0.07322502136230469 0.32322412729263306
vt 0.03806060552597046 0.30865931510925293
vt 0.1464475393295288 0.1464473009109497
vt 0.17336183786392212 0.17336034774780273
vt 0.17336183786392212 0.17336034774780273
vt 0.1464475393295288 0.1464473009109497
vt 0.30865800380706787 0.03806096315383911
vt 0.32322245836257935 0.07322418689727783
vt 0.32322245836257935 0.07322418689727783
vt 0.30865800380706787 0.03806096315383911
vt 0.4999999403953552 0.0
vt 0.4999999403953552 0.038060903549194336
vt 0.4999999403953552 0.038060903549194336
vt 0.4999999403953552 0.0
vt 0.6913443803787231 0.03806084394454956
vt 0.6767799854278564 0.07322406768798828
vt 0.6767799854278564 0.07322406768798828
vt 0.6913443803787231 0.03806084394454956
vt 0.8535524010658264 0.14644718170166016
vt 0.826643168926239 0.17336022853851318
vt 0.826643168926239 0.17336022853851318
vt 0.8535524010658264 0.14644718170166016
vt 0.9619418978691101 0.30865907669067383
vt 0.9267774820327759 0.32322394847869873
vt 0.9267774820327759 0.32322394847869873
vt 0.9619418978691101 0.30865907669067383
vt 1.0 0.4999998211860657
vt 0.9619393944740295 0.49999988079071045
vt 0.0 0.5000000894069672
vt 0.03806060552597046 0.5000000596046448
vt 0.07322502136230469 0.32322418689727783
vt 0.03806060552597046 0.30865931510925293
vt 0.03806060552597046 0.30865931510925293
vt 0.07322502136230469 0.32322418689727783
vt 0.17336183786392212 0.1733604073524475
vt 0.1464475393295288 0.1464473009109497
vt 0.1464475393295288 0.1464473009109497
vt 0.17336183786392212 0.1733604073524475
vt 0.32322245836257935 0.07322424650192261
vt 0.30865800380706787 0.03806096315383911
vt 0.30865800380706787 0.03806096315383911
vt 0.32322245836257935 0.07322424650192261
vt 0.4999999403953552 0.03806096315383911
vt 0.4999999403953552 0.0
vt 0.4999999403953552 0.0
vt 0.4999999403953552 0.03806096315383911
vt 0.6767799854278564 0.07322418689727783
vt 0.6913443803787231 0.03806084394454956
vt 0.6913443803787231 0.03806084394454956
vt 0.6767799854278564 0.07322418689727783
vt 0.826643168926239 0.17336022853851318
vt 0.8535524010658264 0.14644718170166016
vt 0.8535524010658264 0.14644718170166016
vt 0.826643168926239 0.17336022853851318
vt 0.9267774820327759 0.32322394847869873
vt 0.9619418978691101 0.30865907669067383
vt 0.826643168926239 0.3647017478942871
vt 0.8535524606704712 0.4999998211860657
vt 0.9619393944740295 0.4999998211860657
vt 0.9619418978691101 0.30865907669067383
vt 0.9267774820327759 0.32322394847869873
vt 0.9619393944740295 0.4999998211860657
vt 1.0 0.4999998211860657
vt 0.03806060552597046 0.5000000596046448
vt 0.14644503593444824 0.5
vt 0.1733618974685669 0.36470192670822144
vt 0.07322502136230469 0.32322418689727783
vt 0.07322502136230469 0.32322418689727783
vt 0.1733618974685669 0.36470192670822144
vt 0.25000250339508057 0.2500010132789612
vt 0.17336183786392212 0.1733604073524475
vt 0.17336183786392212 0.1733604073524475
vt 0.25000250339508057 0.2500010132789612
vt 0.36470121145248413 0.17336034774780273
vt 0.32322245836257935 0.07322424650192261
vt 0.32322245836257935 0.07322424650192261
vt 0.36470121145248413 0.17336034774780273
vt 0.4999999403953552 0.1464475393295288
vt 0.4999999403953552 0.03806096315383911
vt 0.4999999403953552 0.03806096315383911
vt 0.4999999403953552 0.1464475393295288
vt 0.6352987289428711 0.17336022853851318
vt 0.6767799854278564 0.07322418689727783
vt 0.6767799854278564 0.07322418689727783
vt 0.6352987289428711 0.17336022853851318
vt 0.7500025033950806 0.2500009536743164
vt 0.826643168926239 0.17336022853851318
vt 0.826643168926239 0.17336022853851318
vt 0.7500025033950806 0.2500009536743164
vt 0.826643168926239 0.3647017478942871
vt 0.9267774820327759 0.32322394847869873
vt 0.14644503593444824 0.5
vt 0.3086581230163574 0.4999999403953552
vt 0.32322508096694946 0.42677736282348633
vt 0.1733618974685669 0.36470192670822144
vt 0.1733618974685669 0.36470192670822144
vt 0.32322508096694946 0.42677736282348633
vt 0.3647012710571289 0.36470186710357666
vt 0.25000250339508057 0.2500010132789612
vt 0.25000250339508057 0.2500010132789612
vt 0.3647012710571289 0.36470186710357666
vt 0.42677998542785645 0.3232240080833435
vt 0.36470121145248413 0.17336034774780273
vt 0.36470121145248413 0.17336034774780273
vt 0.42677998542785645 0.3232240080833435
vt 0.4999999701976776 0.3086588382720947
vt 0.4999999403953552 0.1464475393295288
vt 0.4999999403953552 0.1464475393295288
vt 0.4999999701976776 0.3086588382720947
vt 0.5732225179672241 0.3232240080833435
vt 0.6352987289428711 0.17336022853851318
vt 0.6352987289428711 0.17336022853851318
vt 0.5732225179672241 0.3232240080833435
vt 0.6352987289428711 0.3647017478942871
vt 0.7500025033950806 0.2500009536743164
vt 0.7500025033950806 0.2500009536743164
vt 0.6352987289428711 0.3647017478942871
vt 0.6767774820327759 0.42677730321884155
vt 0.826643168926239 0.3647017478942871
vt 0.826643168926239 0.3647017478942871
vt 0.6767774820327759 0.42677730321884155
vt 0.6913444995880127 0.4999998211860657
vt 0.8535524606704712 0.4999998211860657
vt 0.5 0.49999988079071045
vt 0.32322508096694946 0.42677736282348633
vt 0.3086581230163574 0.4999999403953552
vt 0.6767774820327759 0.5732223689556122
vt 0.6913444995880127 0.4999998211860657
vt 0.5 0.49999988079071045
vt 0.3647012710571289 0.36470186710357666
vt 0.32322508096694946 0.42677736282348633
vt 0.6352987885475159 0.6352978944778442
vt 0.6767774820327759 0.5732223689556122
vt 0.5 0.49999988079071045
vt 0.42677998542785645 0.3232240080833435
vt 0.3647012710571289 0.36470186710357666
vt 0.5732225775718689 0.6767757534980774
vt 0.6352987885475159 0.6352978944778442
vt 0.5 0.49999988079071045
vt 0.4999999701976776 0.3086588382720947
vt 0.42677998542785645 0.3232240080833435
vt 0.5000000596046448 0.6913409233093262
vt 0.5732225775718689 0.6767757534980774
vt 0.5 0.49999988079071045
vt 0.5732225179672241 0.3232240080833435
vt 0.4999999701976776 0.3086588382720947
vt 0.4267800450325012 0.6767757534980774
vt 0.5000000596046448 0.6913409233093262
vt 0.5 0.49999988079071045
vt 0.6352987289428711 0.3647017478942871
vt 0.5732225179672241 0.3232240080833435
vt 0.3647013306617737 0.635297954082489
vt 0.4267800450325012 0.6767757534980774
vt 0.5 0.49999988079071045
vt 0.6767774820327759 0.42677730321884155
vt 0.6352987289428711 0.3647017478942871
vt 0.32322508096694946 0.5732224583625793
vt 0.3647013306617737 0.635297954082489
vt 0.5 0.49999988079071045
vt 0.6913444995880127 0.4999998211860657
vt 0.6767774820327759 0.42677730321884155
vt 0.3086581230163574 0.4999999403953552
vt 0.32322508096694946 0.5732224583625793
vt 0.3086581230163574 0.5000000894069672
vt 0.3232225775718689 0.573222815990448
vt 0.17336195707321167 0.6352983117103577
vt 0.14644759893417358 0.5000001192092896
vt 0.3232225775718689 0.573222815990448
vt 0.36469876766204834 0.6352983117103577
vt 0.2500026226043701 0.7499995231628418
vt 0.17336195707321167 0.6352983117103577
vt 0.36469876766204834 0.6352983117103577
vt 0.4267800450325012 0.676776111125946
vt 0.3647013306617737 0.8266398310661316
vt 0.2500026226043701 0.7499995231628418
vt 0.4267800450325012 0.676776111125946
vt 0.5000000596046448 0.6913410723209381
vt 0.5000000596046448 0.8535528182983398
vt 0.3647013306617737 0.8266398310661316
vt 0.5000000596046448 0.6913410723209381
vt 0.5732225775718689 0.6767760515213013
vt 0.6352988481521606 0.8266397416591644
vt 0.5000000596046448 0.8535528182983398
vt 0.5732225775718689 0.6767760515213013
vt 0.6352987885475159 0.6352982521057129
vt 0.7500026226043701 0.7499994039535522
vt 0.6352988481521606 0.8266397416591644
vt 0.6352987885475159 0.6352982521057129
vt 0.6767774820327759 0.5732226967811584
vt 0.8266407251358032 0.6352981328964233
vt 0.7500026226043701 0.7499994039535522
vt 0.6767774820327759 0.5732226967811584
vt 0.6913444995880127 0.5
vt 0.8535524606704712 0.4999999403953552
vt 0.8266407251358032 0.6352981328964233
vt 0.14644759893417358 0.5000001192092896
vt 0.17336195707321167 0.6352983117103577
vt 0.07322508096694946 0.676776111125946
vt 0.03806060552597046 0.5000001192092896
vt 0.17336195707321167 0.6352983117103577
vt 0.2500026226043701 0.7499995231628418
vt 0.17336195707321167 0.826639860868454
vt 0.07322508096694946 0.676776111125946
vt 0.2500026226043701 0.7499995231628418
vt 0.3647013306617737 0.8266398310661316
vt 0.32322263717651367 0.9267758131027222
vt 0.17336195707321167 0.826639860868454
vt 0.3647013306617737 0.8266398310661316
vt 0.5000000596046448 0.8535528182983398
vt 0.5000001192092896 0.9619390368461609
vt 0.32322263717651367 0.9267758131027222
vt 0.5000000596046448 0.8535528182983398
vt 0.6352988481521606 0.8266397416591644
vt 0.676780104637146 0.926775723695755
vt 0.5000001192092896 0.9619390368461609
vt 0.6352988481521606 0.8266397416591644
vt 0.7500026226043701 0.7499994039535522
vt 0.8266432881355286 0.8266396820545197
vt 0.676780104637146 0.926775723695755
vt 0.7500026226043701 0.7499994039535522
vt 0.8266407251358032 0.6352981328964233
vt 0.9267775416374207 0.6767758727073669
vt 0.8266432881355286 0.8266396820545197
vt 0.8266407251358032 0.6352981328964233
vt 0.8535524606704712 0.4999999403953552
vt 0.9619393944740295 0.49999988079071045
vt 0.9267775416374207 0.6767758727073669
vt 0.03806060552597046 0.5000001192092896
vt 0.07322508096694946 0.676776111125946
vt 0.038060665130615234 0.6913408041000366
vt 0.0 0.5000000894069672
vt 0.07322508096694946 0.676776111125946
vt 0.17336195707321167 0.826639860868454
vt 0.14644765853881836 0.8535527884960175
vt 0.038060665130615234 0.6913408041000366
vt 0.17336195707321167 0.826639860868454
vt 0.32322263717651367 0.9267758131027222
vt 0.3086581826210022 0.9619390666484833
vt 0.14644765853881836 0.8535527884960175
vt 0.32322263717651367 0.9267758131027222
vt 0.5000001192092896 0.9619390368461609
vt 0.5000001192092896 1.0
vt 0.3086581826210022 0.9619390666484833
vt 0.5000001192092896 0.9619390368461609
vt 0.676780104637146 0.926775723695755
vt 0.6913445591926575 0.9619389772415161
vt 0.5000001192092896 1.0
vt 0.676780104637146 0.926775723695755
vt 0.8266432881355286 0.8266396820545197
vt 0.853552520275116 0.8535526096820831
vt 0.6913445591926575 0.9619389772415161
vt 0.8266432881355286 0.8266396820545197
vt 0.9267775416374207 0.6767758727073669
vt 0.9619419574737549 0.6913405656814575
vt 0.853552520275116 0.8535526096820831
vt 0.9267775416374207 0.6767758727073669
vt 0.9619393944740295 0.49999988079071045
vt 1.0 0.4999998211860657
vt 0.9619419574737549 0.6913405656814575
vt 0.0 0.5000000894069672
vt 0.038060665130615234 0.6913408041000366
vt 0.07322508096694946 0.6767759323120117
vt 0.03806060552597046 0.5000000596046448
vt 0.038060665130615234 0.6913408041000366
vt 0.14644765853881836 0.8535527884960175
vt 0.17336195707321167 0.826639711856842
vt 0.07322508096694946 0.6767759323120117
vt 0.14644765853881836 0.8535527884960175
vt 0.3086581826210022 0.9619390666484833
vt 0.32322263717651367 0.9267757534980774
vt 0.17336195707321167 0.826639711856842
vt 0.3086581826210022 0.9619390666484833
vt 0.5000001192092896 1.0
vt 0.5000001192092896 0.9619389772415161
vt 0.32322263717651367 0.9267757534980774
vt 0.5000001192092896 1.0
vt 0.6913445591926575 0.9619389772415161
vt 0.676780104637146 0.9267756640911102
vt 0.5000001192092896 0.9619389772415161
vt 0.6913445591926575 0.9619389772415161
vt 0.853552520275116 0.8535526096820831
vt 0.8266432881355286 0.8266395330429077
vt 0.676780104637146 0.9267756640911102
vt 0.853552520275116 0.8535526096820831
vt 0.9619419574737549 0.6913405656814575
vt 0.9267775416374207 0.676775723695755
vt 0.8266432881355286 0.8266395330429077
vt 0.9619393944740295 0.4999998211860657
vt 0.8535524606704712 0.4999998211860657
vt 0.8266432285308838 0.6352978944778442
vt 0.9619419574737549 0.6913405656814575
vt 1.0 0.4999998211860657
vt 0.9619393944740295 0.4999998211860657
vt 0.9267775416374207 0.676775723695755
vt 0.03806060552597046 0.5000000596046448
vt 0.07322508096694946 0.6767759323120117
vt 0.17336195707321167 0.6352980732917786
vt 0.14644503593444824 0.5
vt 0.07322508096694946 0.6767759323120117
vt 0.17336195707321167 0.826639711856842
vt 0.2500026226043701 0.749998927116394
vt 0.17336195707321167 0.6352980732917786
vt 0.17336195707321167 0.826639711856842
vt 0.32322263717651367 0.9267757534980774
vt 0.3647013306617737 0.8266395926475525
vt 0.2500026226043701 0.749998927116394
vt 0.32322263717651367 0.9267757534980774
vt 0.5000001192092896 0.9619389772415161
vt 0.5000000596046448 0.8535524308681488
vt 0.3647013306617737 0.8266395926475525
vt 0.5000001192092896 0.9619389772415161
vt 0.676780104637146 0.9267756640911102
vt 0.6352988481521606 0.8266395032405853
vt 0.5000000596046448 0.8535524308681488
vt 0.676780104637146 0.9267756640911102
vt 0.8266432881355286 0.8266395330429077
vt 0.7500026226043701 0.7499988079071045
vt 0.6352988481521606 0.8266395032405853
vt 0.8266432881355286 0.8266395330429077
vt 0.9267775416374207 0.676775723695755
vt 0.8266432285308838 0.6352978944778442
vt 0.7500026226043701 0.7499988079071045
vt 0.14644503593444824 0.5
vt 0.17336195707321167 0.6352980732917786
vt 0.32322508096694946 0.5732224583625793
vt 0.3086581230163574 0.4999999403953552
vt 0.17336195707321167 0.6352980732917786
vt 0.2500026226043701 0.749998927116394
vt 0.3647013306617737 0.635297954082489
vt 0.32322508096694946 0.5732224583625793
vt 0.2500026226043701 0.749998927116394
vt 0.3647013306617737 0.8266395926475525
vt 0.4267800450325012 0.6767757534980774
vt 0.3647013306617737 0.635297954082489
vt 0.3647013306617737 0.8266395926475525
vt 0.5000000596046448 0.8535524308681488
vt 0.5000000596046448 0.6913409233093262
vt 0.4267800450325012 0.6767757534980774
vt 0.5000000596046448 0.8535524308681488
vt 0.6352988481521606 0.8266395032405853
vt 0.5732225775718689 0.6767757534980774
vt 0.5000000596046448 0.6913409233093262
vt 0.6352988481521606 0.8266395032405853
vt 0.7500026226043701 0.7499988079071045
vt 0.6352987885475159 0.6352978944778442
vt 0.5732225775718689 0.6767757534980774
vt 0.7500026226043701 0.7499988079071045
vt 0.8266432285308838 0.6352978944778442
vt 0.6767774820327759 0.5732223689556122
vt 0.6352987885475159 0.6352978944778442
vt 0.8266432285308838 0.6352978944778442
vt 0.8535524606704712 0.4999998211860657
vt 0.6913444995880127 0.4999998211860657
vt 0.6767774820327759 0.5732223689556122

g copper
s 1
usemtl copper
f 3/3/3 2/2/2 1/1/1 
f 5/5/5 4/4/4 1/1/1 
f 8/8/8 7/7/7 6/6/6 
f 10/10/10 9/9/9 6/6/6 
f 13/13/13 12/12/12 11/11/11 
f 15/15/15 14/14/14 11/11/11 
f 18/18/18 17/17/17 16/16/16 
f 20/20/20 19/19/19 16/16/16 
f 23/23/23 22/22/22 21/21/21 
f 25/25/25 24/24/24 21/21/21 
f 28/28/28 27/27/27 26/26/26 
f 30/30/30 29/29/29 26/26/26 
f 33/33/33 32/32/32 31/31/31 
f 35/35/35 34/34/34 31/31/31 
f 38/38/38 37/37/37 36/36/36 
f 40/40/40 39/39/39 36/36/36 
f 43/43/43 42/42/42 41/41/41 
f 44/44/44 43/43/43 41/41/41 
f 47/47/47 46/46/46 45/45/45 
f 48/48/48 47/47/47 45/45/45 
f 51/51/51 50/50/50 49/49/49 
f 52/52/52 51/51/51 49/49/49 
f 55/55/55 54/54/54 53/53/53 
f 56/56/56 55/55/55 53/53/53 
f 59/59/59 58/58/58 57/57/57 
f 60/60/60 59/59/59 57/57/57 
f 63/63/63 62/62/62 61/61/61 
f 64/64/64 63/63/63 61/61/61 
f 67/67/67 66/66/66 65/65/65 
f 68/68/68 67/67/67 65/65/65 
f 71/71/71 70/70/70 69/69/69 
f 72/72/72 71/71/71 69/69/69 
f 75/75/75 74/74/74 73/73/73 
f 76/76/76 75/75/75 73/73/73 
f 79/79/79 78/78/78 77/77/77 
f 80/80/80 79/79/79 77/77/77 
f 83/83/83 82/82/82 81/81/81 
f 84/84/84 83/83/83 81/81/81 
f 87/87/87 86/86/86 85/85/85 
f 88/88/88 87/87/87 85/85/85 
f 91/91/91 90/90/90 89/89/89 
f 92/92/92 91/91/91 89/89/89 
f 95/95/95 94/94/94 93/93/93 
f 96/96/96 95/95/95 93/93/93 
f 99/99/99 98/98/98 97/97/97 
f 100/100/100 99/99/99 97/97/97 
f 103/103/103 102/102/102 101/101/101 
f 104/104/104 103/103/103 101/101/101 
f 107/107/107 106/106/106 105/105/105 
f 108/108/108 107/107/107 105/105/105 
f 111/111/111 110/110/110 109/109/109 
f 112/112/112 111/111/111 109/109/109 
f 115/115/115 114/114/114 113/113/113 
f 116/116/116 115/115/115 113/113/113 
f 119/119/119 118/118/118 117/117/117 
f 120/120/120 119/119/119 117/117/117 
f 123/123/123 122/122/122 121/121/121 
f 124/124/124 123/123/123 121/121/121 
f 127/127/127 126/126/126 125/125/125 
f 128/128/128 127/127/127 125/125/125 
f 131/131/131 130/130/130 129/129/129 
f 132/132/132 131/131/131 129/129/129 
f 135/135/135 134/134/134 133/133/133 
f 136/136/136 135/135/135 133/133/133 
f 139/139/139 138/138/138 137/137/137 
f 140/140/140 139/139/139 137/137/137 
f 143/143/143 142/142/142 141/141/141 
f 144/144/144 143/143/143 141/141/141 
f 147/147/147 146/146/146 145/145/145 
f 148/148/148 147/147/147 145/145/145 
f 151/151/151 150/150/150 149/149/149 
f 152/152/152 151/151/151 149/149/149 
f 155/155/155 154/154/154 153/153/153 
f 156/156/156 155/155/155 153/153/153 
f 159/159/159 158/158/158 157/157/157 
f 160/160/160 159/159/159 157/157/157 
f 163/163/163 162/162/162 161/161/161 
f 164/164/164 163/163/163 161/161/161 
f 166/166/166 165/165/165 163/163/163 
f 167/167/167 166/166/166 163/163/163 
f 170/170/170 169/169/169 168/168/168 
f 171/171/171 170/170/170 168/168/168 
f 174/174/174 173/173/173 172/172/172 
f 175/175/175 174/174/174 172/172/172 
f 178/178/178 177/177/177 176/176/176 
f 179/179/179 178/178/178 176/176/176 
f 182/182/182 181/181/181 180/180/180 
f 183/183/183 182/182/182 180/180/180 
f 186/186/186 185/185/185 184/184/184 
f 187/187/187 186/186/186 184/184/184 
f 190/190/190 189/189/189 188/188/188 
f 191/191/191 190/190/190 188/188/188 
f 194/194/194 193/193/193 192/192/192 
f 195/195/195 194/194/194 192/192/192 
f 198/198/198 197/197/197 196/196/196 
f 199/199/199 198/198/198 196/196/196 
f 202/202/202 201/201/201 200/200/200 
f 203/203/203 202/202/202 200/200/200 
f 206/206/206 205/205/205 204/204/204 
f 207/207/207 206/206/206 204/204/204 
f 210/210/210 209/209/209 208/208/208 
f 211/211/211 210/210/210 208/208/208 
f 214/214/214 213/213/213 212/212/212 
f 215/215/215 214/214/214 212/212/212 
f 218/218/218 217/217/217 216/216/216 
f 219/219/219 218/218/218 216/216/216 
f 222/222/222 221/221/221 220/220/220 
f 223/223/223 222/222/222 220/220/220 
f 226/226/226 225/225/225 224/224/224 
f 227/227/227 226/226/226 224/224/224 
f 230/230/230 229/229/229 228/228/228 
f 231/231/231 230/230/230 228/228/228 
f 234/234/234 233/233/233 232/232/232 
f 236/236/236 235/235/235 232/232/232 
f 239/239/239 238/238/238 237/237/237 
f 241/241/241 240/240/240 237/237/237 
f 244/244/244 243/243/243 242/242/242 
f 246/246/246 245/245/245 242/242/242 
f 249/249/249 248/248/248 247/247/247 
f 251/251/251 250/250/250 247/247/247 
f 254/254/254 253/253/253 252/252/252 
f 256/256/256 255/255/255 252/252/252 
f 259/259/259 258/258/258 257/257/257 
f 261/261/261 260/260/260 257/257/257 
f 264/264/264 263/263/263 262/262/262 
f 266/266/266 265/265/265 262/262/262 
f 269/269/269 268/268/268 267/267/267 
f 271/271/271 270/270/270 267/267/267 
f 274/274/274 273/273/273 272/272/272 
f 275/275/275 274/274/274 272/272/272 
f 278/278/278 277/277/277 276/276/276 
f 279/279/279 278/278/278 276/276/276 
f 282/282/282 281/281/281 280/280/280 
f 283/283/283 282/282/282 280/280/280 
f 286/286/286 285/285/285 284/284/284 
f 287/287/287 286/286/286 284/284/284 
f 290/290/290 289/289/289 288/288/288 
f 291/291/291 290/290/290 288/288/288 
f 294/294/294 293/293/293 292/292/292 
f 295/295/295 294/294/294 292/292/292 
f 298/298/298 297/297/297 296/296/296 
f 299/299/299 298/298/298 296/296/296 
f 302/302/302 301/301/301 300/300/300 
f 303/303/303 302/302/302 300/300/300 
f 306/306/306 305/305/305 304/304/304 
f 307/307/307 306/306/306 304/304/304 
f 310/310/310 309/309/309 308/308/308 
f 311/311/311 310/310/310 308/308/308 
f 314/314/314 313/313/313 312/312/312 
f 315/315/315 314/314/314 312/312/312 
f 318/318/318 317/317/317 316/316/316 
f 319/319/319 318/318/318 316/316/316 
f 322/322/322 321/321/321 320/320/320 
f 323/323/323 322/322/322 320/320/320 
f 326/326/326 325/325/325 324/324/324 
f 327/327/327 326/326/326 324/324/324 
f 330/330/330 329/329/329 328/328/328 
f 331/331/331 330/330/330 328/328/328 
f 334/334/334 333/333/333 332/332/332 
f 335/335/335 334/334/334 332/332/332 
f 338/338/338 337/337/337 336/336/336 
f 339/339/339 338/338/338 336/336/336 
f 342/342/342 341/341/341 340/340/340 
f 343/343/343 342/342/342 340/340/340 
f 346/346/346 345/345/345 344/344/344 
f 347/347/347 346/346/346 344/344/344 
f 350/350/350 349/349/349 348/348/348 
f 351/351/351 350/350/350 348/348/348 
f 354/354/354 353/353/353 352/352/352 
f 355/355/355 354/354/354 352/352/352 
f 358/358/358 357/357/357 356/356/356 
f 359/359/359 358/358/358 356/356/356 
f 362/362/362 361/361/361 360/360/360 
f 363/363/363 362/362/362 360/360/360 
f 366/366/366 365/365/365 364/364/364 
f 367/367/367 366/366/366 364/364/364 
f 370/370/370 369/369/369 368/368/368 
f 371/371/371 370/370/370 368/368/368 
f 374/374/374 373/373/373 372/372/372 
f 375/375/375 374/374/374 372/372/372 
f 378/378/378 377/377/377 376/376/376 
f 379/379/379 378/378/378 376/376/376 
f 382/382/382 381/381/381 380/380/380 
f 383/383/383 382/382/382 380/380/380 
f 386/386/386 385/385/385 384/384/384 
f 387/387/387 386/386/386 384/384/384 
f 390/390/390 389/389/389 388/388/388 
f 391/391/391 390/390/390 388/388/388 
f 394/394/394 393/393/393 392/392/392 
f 395/395/395 394/394/394 392/392/392 
f 397/397/397 396/396/396 394/394/394 
f 398/398/398 397/397/397 394/394/394 
f 401/401/401 400/400/400 399/399/399 
f 402/402/402 401/401/401 399/399/399 
f 405/405/405 404/404/404 403/403/403 
f 406/406/406 405/405/405 403/403/403 
f 409/409/409 408/408/408 407/407/407 
f 410/410/410 409/409/409 407/407/407 
f 413/413/413 412/412/412 411/411/411 
f 414/414/414 413/413/413 411/411/411 
f 417/417/417 416/416/416 415/415/415 
f 418/418/418 417/417/417 415/415/415 
f 421/421/421 420/420/420 419/419/419 
f 422/422/422 421/421/421 419/419/419 
f 425/425/425 424/424/424 423/423/423 
f 426/426/426 425/425/425 423/423/423 
f 429/429/429 428/428/428 427/427/427 
f 430/430/430 429/429/429 427/427/427 
f 433/433/433 432/432/432 431/431/431 
f 434/434/434 433/433/433 431/431/431 
f 437/437/437 436/436/436 435/435/435 
f 438/438/438 437/437/437 435/435/435 
f 441/441/441 440/440/440 439/439/439 
f 442/442/442 441/441/441 439/439/439 
f 445/445/445 444/444/444 443/443/443 
f 446/446/446 445/445/445 443/443/443 
f 449/449/449 448/448/448 447/447/447 
f 450/450/450 449/449/449 447/447/447 
f 453/453/453 452/452/452 451/451/451 
f 454/454/454 453/453/453 451/451/451 
f 457/457/457 456/456/456 455/455/455 
f 458/458/458 457/457/457 455/455/455 
f 461/461/461 460/460/460 459/459/459 
f 462/462/462 461/461/461 459/459/459 

