v 0.00057220458984375 1.5043716430664062 0.00039012121851556003
v -0.5316963195800781 1.3897705078125 0.22086523473262787
v -0.5755500793457031 1.3897705078125 0.00039023481076583266
v 0.5328521728515625 1.3897743225097656 -0.22008490562438965
v 0.5767059326171875 1.3897743225097656 0.00039012773777358234
v 0.00057220458984375 1.5043716430664062 0.00039012121851556003
v -0.4068183898925781 1.3897705078125 0.40777650475502014
v -0.5316963195800781 1.3897705078125 0.22086523473262787
v 0.4079627990722656 1.3897743225097656 -0.4069961905479431
v 0.5328521728515625 1.3897743225097656 -0.22008490562438965
v 0.00057220458984375 1.5043716430664062 0.00039012121851556003
v -0.21990585327148438 1.3897705078125 0.5326669812202454
v -0.4068183898925781 1.3897705078125 0.40777650475502014
v 0.22105026245117188 1.3897705078125 -0.5318866968154907
v 0.4079627990722656 1.3897743225097656 -0.4069961905479431
v 0.00057220458984375 1.5043716430664062 0.00039012121851556003
v 0.00057220458984375 1.3897705078125 0.5765224695205688
v -0.21990585327148438 1.3897705078125 0.5326669812202454
v 0.00057220458984375 1.3897705078125 -0.5757421255111694
v 0.22105026245117188 1.3897705078125 -0.5318866968154907
v 0.00057220458984375 1.5043716430664062 0.00039012121851556003
v 0.22105026245117188 1.3897705078125 0.5326669216156006
v 0.00057220458984375 1.3897705078125 0.5765224695205688
v -0.21990585327148438 1.3897705078125 -0.531886637210846
v 0.00057220458984375 1.3897705078125 -0.5757421255111694
v 0.00057220458984375 1.5043716430664062 0.00039012121851556003
v 0.4079627990722656 1.3897743225097656 0.407776415348053
v 0.22105026245117188 1.3897705078125 0.5326669216156006
v -0.4068183898925781 1.3897705078125 -0.40699610114097595
v -0.21990585327148438 1.3897705078125 -0.531886637210846
v 0.00057220458984375 1.5043716430664062 0.00039012121851556003
v 0.5328521728515625 1.3897743225097656 0.2208651304244995
v 0.4079627990722656 1.3897743225097656 0.407776415348053
v -0.5316963195800781 1.3897705078125 -0.2200848013162613
v -0.4068183898925781 1.3897705078125 -0.40699610114097595
v 0.00057220458984375 1.5043716430664062 0.00039012121851556003
v 0.5767059326171875 1.3897743225097656 0.00039012773777358234
v 0.5328521728515625 1.3897743225097656 0.2208651304244995
v -0.5755500793457031 1.3897705078125 0.00039023481076583266
v -0.5316963195800781 1.3897705078125 -0.2200848013162613
v -0.5755500793457031 1.3897705078125 0.00039023481076583266
v -0.5316963195800781 1.3897705078125 0.22086523473262787
v -0.982940673828125 1.0634174346923828 0.407776415348053
v -1.0639839172363281 1.0634174346923828 0.00039024732541292906
v -0.5316963195800781 1.3897705078125 0.22086523473262787
v -0.4068183898925781 1.3897705078125 0.40777650475502014
v -0.7521743774414062 1.0634174346923828 0.7531436085700989
v -0.982940673828125 1.0634174346923828 0.407776415348053
v -0.4068183898925781 1.3897705078125 0.40777650475502014
v -0.21990585327148438 1.3897705078125 0.5326669812202454
v -0.4068183898925781 1.0634174346923828 0.9839096665382385
v -0.7521743774414062 1.0634174346923828 0.7531436085700989
v -0.21990585327148438 1.3897705078125 0.5326669812202454
v 0.00057220458984375 1.3897705078125 0.5765224695205688
v 0.00057220458984375 1.0634193420410156 1.0649447441101074
v -0.4068183898925781 1.0634174346923828 0.9839096665382385
v 0.00057220458984375 1.3897705078125 0.5765224695205688
v 0.22105026245117188 1.3897705078125 0.5326669216156006
v 0.4079627990722656 1.0634174346923828 0.9839096069335938
v 0.00057220458984375 1.0634193420410156 1.0649447441101074
v 0.22105026245117188 1.3897705078125 0.5326669216156006
v 0.4079627990722656 1.3897743225097656 0.407776415348053
v 0.753326416015625 1.0634193420410156 0.7531434893608093
v 0.4079627990722656 1.0634174346923828 0.9839096069335938
v 0.4079627990722656 1.3897743225097656 0.407776415348053
v 0.5328521728515625 1.3897743225097656 0.2208651304244995
v 0.9840965270996094 1.0634193420410156 0.40777623653411865
v 0.753326416015625 1.0634193420410156 0.7531434893608093
v 0.5328521728515625 1.3897743225097656 0.2208651304244995
v 0.5767059326171875 1.3897743225097656 0.00039012773777358234
v 1.0651283264160156 1.0634193420410156 0.00039004950667731464
v 0.9840965270996094 1.0634193420410156 0.40777623653411865
v -1.0639839172363281 1.0634174346923828 0.00039024732541292906
v -0.982940673828125 1.0634174346923828 0.407776415348053
v -1.2844619750976562 0.5749950408935547 0.5326663255691528
v -1.3903312683105469 0.5749950408935547 0.0003903013712260872
v -0.982940673828125 1.0634174346923828 0.407776415348053
v -0.7521743774414062 1.0634174346923828 0.7531436085700989
v -0.982940673828125 0.5749950408935547 0.9839090704917908
v -1.2844619750976562 0.5749950408935547 0.5326663255691528
v -0.7521743774414062 1.0634174346923828 0.7531436085700989
v -0.4068183898925781 1.0634174346923828 0.9839096665382385
v -0.5316963195800781 0.5749950408935547 1.2854207754135132
v -0.982940673828125 0.5749950408935547 0.9839090704917908
v -0.4068183898925781 1.0634174346923828 0.9839096665382385
v 0.00057220458984375 1.0634193420410156 1.0649447441101074
v 0.00057220458984375 0.5749950408935547 1.3912980556488037
v -0.5316963195800781 0.5749950408935547 1.2854207754135132
v 0.00057220458984375 1.0634193420410156 1.0649447441101074
v 0.4079627990722656 1.0634174346923828 0.9839096069335938
v 0.5328521728515625 0.5749950408935547 1.2854206562042236
v 0.00057220458984375 0.5749950408935547 1.3912980556488037
v 0.4079627990722656 1.0634174346923828 0.9839096069335938
v 0.753326416015625 1.0634193420410156 0.7531434893608093
v 0.9840965270996094 0.5749969482421875 0.9839088916778564
v 0.5328521728515625 0.5749950408935547 1.2854206562042236
v 0.753326416015625 1.0634193420410156 0.7531434893608093
v 0.9840965270996094 1.0634193420410156 0.40777623653411865
v 1.2856063842773438 0.5749969482421875 0.5326660871505737
v 0.9840965270996094 0.5749969482421875 0.9839088916778564
v 0.9840965270996094 1.0634193420410156 0.40777623653411865
v 1.0651283264160156 1.0634193420410156 0.00039004950667731464
v 1.3914794921875 0.5749969482421875 0.00039004290010780096
v 1.2856063842773438 0.5749969482421875 0.5326660871505737
v -1.3903312683105469 0.5749950408935547 0.0003903013712260872
v -1.2844619750976562 0.5749950408935547 0.5326663255691528
v -1.3903312683105469 -0.00113677978515625 0.5765217542648315
v -1.5049400329589844 -0.00113677978515625 0.0003902539028786123
v -1.2844619750976562 0.5749950408935547 0.5326663255691528
v -0.982940673828125 0.5749950408935547 0.9839090704917908
v -1.0639839172363281 -0.00113677978515625 1.0649445056915283
v -1.3903312683105469 -0.00113677978515625 0.5765217542648315
v -0.982940673828125 0.5749950408935547 0.9839090704917908
v -0.5316963195800781 0.5749950408935547 1.2854207754135132
v -0.5755500793457031 -0.00113677978515625 1.3912981748580933
v -1.0639839172363281 -0.00113677978515625 1.0649445056915283
v -0.5316963195800781 0.5749950408935547 1.2854207754135132
v 0.00057220458984375 0.5749950408935547 1.3912980556488037
v 0.00057220458984375 -0.00113677978515625 1.505898118019104
v -0.5755500793457031 -0.00113677978515625 1.3912981748580933
v 0.00057220458984375 0.5749950408935547 1.3912980556488037
v 0.5328521728515625 0.5749950408935547 1.2854206562042236
v 0.5767059326171875 -0.00113677978515625 1.3912980556488037
v 0.00057220458984375 -0.00113677978515625 1.505898118019104
v 0.5328521728515625 0.5749950408935547 1.2854206562042236
v 0.9840965270996094 0.5749969482421875 0.9839088916778564
v 1.0651283264160156 -0.00113677978515625 1.0649442672729492
v 0.5767059326171875 -0.00113677978515625 1.3912980556488037
v 0.9840965270996094 0.5749969482421875 0.9839088916778564
v 1.2856063842773438 0.5749969482421875 0.5326660871505737
v 1.3914794921875 -0.00113677978515625 0.5765215158462524
v 1.0651283264160156 -0.00113677978515625 1.0649442672729492
v 1.2856063842773438 0.5749969482421875 0.5326660871505737
v 1.3914794921875 0.5749969482421875 0.00039004290010780096
v 1.5060844421386719 -0.00113677978515625 0.0003899741277564317
v 1.3914794921875 -0.00113677978515625 0.5765215158462524
v -1.5049400329589844 -0.00113677978515625 0.0003902539028786123
v -1.3903312683105469 -0.00113677978515625 0.5765217542648315
v -1.2844619750976562 -0.5772705078125 0.5326660871505737
v -1.3903312683105469 -0.5772705078125 0.00039025783189572394
v -1.3903312683105469 -0.00113677978515625 0.5765217542648315
v -1.0639839172363281 -0.00113677978515625 1.0649445056915283
v -0.982940673828125 -0.5772705078125 0.9839088320732117
v -1.2844619750976562 -0.5772705078125 0.5326660871505737
v -1.0639839172363281 -0.00113677978515625 1.0649445056915283
v -0.5755500793457031 -0.00113677978515625 1.3912981748580933
v -0.5316963195800781 -0.5772705078125 1.2854206562042236
v -0.982940673828125 -0.5772705078125 0.9839088320732117
v -0.5755500793457031 -0.00113677978515625 1.3912981748580933
v 0.00057220458984375 -0.00113677978515625 1.505898118019104
v 0.00057220458984375 -0.5772705078125 1.3912980556488037
v -0.5316963195800781 -0.5772705078125 1.2854206562042236
v 0.00057220458984375 -0.00113677978515625 1.505898118019104
v 0.5767059326171875 -0.00113677978515625 1.3912980556488037
v 0.5328521728515625 -0.5772705078125 1.285420536994934
v 0.00057220458984375 -0.5772705078125 1.3912980556488037
v 0.5767059326171875 -0.00113677978515625 1.3912980556488037
v 1.0651283264160156 -0.00113677978515625 1.0649442672729492
v 0.9840965270996094 -0.5772705078125 0.9839086532592773
v 0.5328521728515625 -0.5772705078125 1.285420536994934
v 1.0651283264160156 -0.00113677978515625 1.0649442672729492
v 1.3914794921875 -0.00113677978515625 0.5765215158462524
v 1.2856063842773438 -0.5772705078125 0.5326658487319946
v 0.9840965270996094 -0.5772705078125 0.9839086532592773
v 1.3914794921875 -0.5772705078125 0.0003899993607774377
v 1.0651283264160156 -1.0656909942626953 0.0003900533774867654
v 0.9840965270996094 -1.0656909942626953 0.40777522325515747
v 1.3914794921875 -0.00113677978515625 0.5765215158462524
v 1.5060844421386719 -0.00113677978515625 0.0003899741277564317
v 1.3914794921875 -0.5772705078125 0.0003899993607774377
v 1.2856063842773438 -0.5772705078125 0.5326658487319946
v -1.3903312683105469 -0.5772705078125 0.00039025783189572394
v -1.2844619750976562 -0.5772705078125 0.5326660871505737
v -0.982940673828125 -1.0656909942626953 0.4077754020690918
v -1.0639839172363281 -1.0656909942626953 0.00039025122532621026
v -1.2844619750976562 -0.5772705078125 0.5326660871505737
v -0.982940673828125 -0.5772705078125 0.9839088320732117
v -0.7521743774414062 -1.0656909942626953 0.7531426548957825
v -0.982940673828125 -1.0656909942626953 0.4077754020690918
v -0.982940673828125 -0.5772705078125 0.9839088320732117
v -0.5316963195800781 -0.5772705078125 1.2854206562042236
v -0.4068183898925781 -1.0656929016113281 0.9839086532592773
v -0.7521743774414062 -1.0656909942626953 0.7531426548957825
v -0.5316963195800781 -0.5772705078125 1.2854206562042236
v 0.00057220458984375 -0.5772705078125 1.3912980556488037
v 0.00057220458984375 -1.0656929016113281 1.064943790435791
v -0.4068183898925781 -1.0656929016113281 0.9839086532592773
v 0.00057220458984375 -0.5772705078125 1.3912980556488037
v 0.5328521728515625 -0.5772705078125 1.285420536994934
v 0.4079627990722656 -1.0656929016113281 0.9839085936546326
v 0.00057220458984375 -1.0656929016113281 1.064943790435791
v 0.5328521728515625 -0.5772705078125 1.285420536994934
v 0.9840965270996094 -0.5772705078125 0.9839086532592773
v 0.753326416015625 -1.0656909942626953 0.7531425356864929
v 0.4079627990722656 -1.0656929016113281 0.9839085936546326
v 0.9840965270996094 -0.5772705078125 0.9839086532592773
v 1.2856063842773438 -0.5772705078125 0.5326658487319946
v 0.9840965270996094 -1.0656909942626953 0.40777522325515747
v 0.753326416015625 -1.0656909942626953 0.7531425356864929
v -1.0639839172363281 -1.0656909942626953 0.00039025122532621026
v -0.982940673828125 -1.0656909942626953 0.4077754020690918
v -0.5316963195800781 -1.3920459747314453 0.22086471319198608
v -0.5755500793457031 -1.3920459747314453 0.0003901729651261121
v -0.982940673828125 -1.0656909942626953 0.4077754020690918
v -0.7521743774414062 -1.0656909942626953 0.7531426548957825
v -0.4068183898925781 -1.3920459747314453 0.4077753722667694
v -0.5316963195800781 -1.3920459747314453 0.22086471319198608
v -0.7521743774414062 -1.0656909942626953 0.7531426548957825
v -0.4068183898925781 -1.0656929016113281 0.9839086532592773
v -0.21990585327148438 -1.3920459747314453 0.5326657891273499
v -0.4068183898925781 -1.3920459747314453 0.4077753722667694
v -0.4068183898925781 -1.0656929016113281 0.9839086532592773
v 0.00057220458984375 -1.0656929016113281 1.064943790435791
v 0.00057220458984375 -1.3920459747314453 0.5765224099159241
v -0.21990585327148438 -1.3920459747314453 0.5326657891273499
v 0.00057220458984375 -1.0656929016113281 1.064943790435791
v 0.4079627990722656 -1.0656929016113281 0.9839085936546326
v 0.22105026245117188 -1.3920459747314453 0.5326657295227051
v 0.00057220458984375 -1.3920459747314453 0.5765224099159241
v 0.4079627990722656 -1.0656929016113281 0.9839085936546326
v 0.753326416015625 -1.0656909942626953 0.7531425356864929
v 0.4079627990722656 -1.3920459747314453 0.40777528285980225
v 0.22105026245117188 -1.3920459747314453 0.5326657295227051
v 0.753326416015625 -1.0656909942626953 0.7531425356864929
v 0.9840965270996094 -1.0656909942626953 0.40777522325515747
v 0.5328521728515625 -1.3920459747314453 0.22086460888385773
v 0.4079627990722656 -1.3920459747314453 0.40777528285980225
v 0.9840965270996094 -1.0656909942626953 0.40777522325515747
v 1.0651283264160156 -1.0656909942626953 0.0003900533774867654
v 0.5767059326171875 -1.3920440673828125 0.0003900658921338618
v 0.5328521728515625 -1.3920459747314453 0.22086460888385773
v 0.00057220458984375 -1.5066452026367188 0.0003901090531144291
v -0.5755500793457031 -1.3920459747314453 0.0003901729651261121
v -0.5316963195800781 -1.3920459747314453 0.22086471319198608
v 0.5767059326171875 -1.3920440673828125 0.0003900658921338618
v 0.5328521728515625 -1.3920459747314453 -0.2200845181941986
v 0.00057220458984375 -1.5066452026367188 0.0003901090531144291
v -0.5316963195800781 -1.3920459747314453 0.22086471319198608
v -0.4068183898925781 -1.3920459747314453 0.4077753722667694
v 0.5328521728515625 -1.3920459747314453 -0.2200845181941986
v 0.4079627990722656 -1.3920459747314453 -0.40699508786201477
v 0.00057220458984375 -1.5066452026367188 0.0003901090531144291
v -0.4068183898925781 -1.3920459747314453 0.4077753722667694
v -0.21990585327148438 -1.3920459747314453 0.5326657891273499
v 0.4079627990722656 -1.3920459747314453 -0.40699508786201477
v 0.22105026245117188 -1.3920459747314453 -0.5318856239318848
v 0.00057220458984375 -1.5066452026367188 0.0003901090531144291
v -0.21990585327148438 -1.3920459747314453 0.5326657891273499
v 0.00057220458984375 -1.3920459747314453 0.5765224099159241
v 0.22105026245117188 -1.3920459747314453 -0.5318856239318848
v 0.00057220458984375 -1.3920459747314453 -0.5757421851158142
v 0.00057220458984375 -1.5066452026367188 0.0003901090531144291
v 0.00057220458984375 -1.3920459747314453 0.5765224099159241
v 0.22105026245117188 -1.3920459747314453 0.5326657295227051
v 0.00057220458984375 -1.3920459747314453 -0.5757421851158142
v -0.21990585327148438 -1.3920459747314453 -0.53188556432724
v 0.00057220458984375 -1.5066452026367188 0.0003901090531144291
v 0.22105026245117188 -1.3920459747314453 0.5326657295227051
v 0.4079627990722656 -1.3920459747314453 0.40777528285980225
v -0.21990585327148438 -1.3920459747314453 -0.53188556432724
v -0.4068183898925781 -1.3920459747314453 -0.4069949984550476
v 0.00057220458984375 -1.5066452026367188 0.0003901090531144291
v 0.4079627990722656 -1.3920459747314453 0.40777528285980225
v 0.5328521728515625 -1.3920459747314453 0.22086460888385773
v -0.4068183898925781 -1.3920459747314453 -0.4069949984550476
v -0.5316963195800781 -1.3920459747314453 -0.22008441388607025
v 0.00057220458984375 -1.5066452026367188 0.0003901090531144291
v 0.5328521728515625 -1.3920459747314453 0.22086460888385773
v 0.5767059326171875 -1.3920440673828125 0.0003900658921338618
v -0.5316963195800781 -1.3920459747314453 -0.22008441388607025
v -0.5755500793457031 -1.3920459747314453 0.0003901729651261121
v -0.5755500793457031 1.3897705078125 0.00039023481076583266
v -1.0639839172363281 1.0634174346923828 0.00039024732541292906
v -0.982940673828125 1.0634174346923828 -0.406995952129364
v -0.5316963195800781 1.3897705078125 -0.2200848013162613
v -0.5316963195800781 1.3897705078125 -0.2200848013162613
v -0.982940673828125 1.0634174346923828 -0.406995952129364
v -0.7521743774414062 1.0634174346923828 -0.7523633241653442
v -0.4068183898925781 1.3897705078125 -0.40699610114097595
v -0.4068183898925781 1.3897705078125 -0.40699610114097595
v -0.7521743774414062 1.0634174346923828 -0.7523633241653442
v -0.4068183898925781 1.0634174346923828 -0.9831295013427734
v -0.21990585327148438 1.3897705078125 -0.531886637210846
v -0.21990585327148438 1.3897705078125 -0.531886637210846
v -0.4068183898925781 1.0634174346923828 -0.9831295013427734
v 0.00057220458984375 1.0634193420410156 -1.064164400100708
v 0.00057220458984375 1.3897705078125 -0.5757421255111694
v 0.00057220458984375 1.3897705078125 -0.5757421255111694
v 0.00057220458984375 1.0634193420410156 -1.064164400100708
v 0.4079627990722656 1.0634174346923828 -0.9831295609474182
v 0.22105026245117188 1.3897705078125 -0.5318866968154907
v 0.22105026245117188 1.3897705078125 -0.5318866968154907
v 0.4079627990722656 1.0634174346923828 -0.9831295609474182
v 0.753326416015625 1.0634193420410156 -0.7523634433746338
v 0.4079627990722656 1.3897743225097656 -0.4069961905479431
v 0.4079627990722656 1.3897743225097656 -0.4069961905479431
v 0.753326416015625 1.0634193420410156 -0.7523634433746338
v 0.9840965270996094 1.0634193420410156 -0.40699613094329834
v 0.5328521728515625 1.3897743225097656 -0.22008490562438965
v 0.5328521728515625 1.3897743225097656 -0.22008490562438965
v 0.9840965270996094 1.0634193420410156 -0.40699613094329834
v 1.0651283264160156 1.0634193420410156 0.00039004950667731464
v 0.5767059326171875 1.3897743225097656 0.00039012773777358234
v -1.0639839172363281 1.0634174346923828 0.00039024732541292906
v -1.3903312683105469 0.5749950408935547 0.0003903013712260872
v -1.2844619750976562 0.5749950408935547 -0.5318856835365295
v -0.982940673828125 1.0634174346923828 -0.406995952129364
v -0.982940673828125 1.0634174346923828 -0.406995952129364
v -1.2844619750976562 0.5749950408935547 -0.5318856835365295
v -0.982940673828125 0.5749950408935547 -0.983128547668457
v -0.7521743774414062 1.0634174346923828 -0.7523633241653442
v -0.7521743774414062 1.0634174346923828 -0.7523633241653442
v -0.982940673828125 0.5749950408935547 -0.983128547668457
v -0.5316963195800781 0.5749950408935547 -1.2846403121948242
v -0.4068183898925781 1.0634174346923828 -0.9831295013427734
v -0.4068183898925781 1.0634174346923828 -0.9831295013427734
v -0.5316963195800781 0.5749950408935547 -1.2846403121948242
v 0.00057220458984375 0.5749950408935547 -1.3905175924301147
v 0.00057220458984375 1.0634193420410156 -1.064164400100708
v 0.00057220458984375 1.0634193420410156 -1.064164400100708
v 0.00057220458984375 0.5749950408935547 -1.3905175924301147
v 0.5328521728515625 0.5749950408935547 -1.2846404314041138
v 0.4079627990722656 1.0634174346923828 -0.9831295609474182
v 0.4079627990722656 1.0634174346923828 -0.9831295609474182
v 0.5328521728515625 0.5749950408935547 -1.2846404314041138
v 0.9840965270996094 0.5749969482421875 -0.9831287264823914
v 0.753326416015625 1.0634193420410156 -0.7523634433746338
v 0.753326416015625 1.0634193420410156 -0.7523634433746338
v 0.9840965270996094 0.5749969482421875 -0.9831287264823914
v 1.2856063842773438 0.5749969482421875 -0.5318859219551086
v 0.9840965270996094 1.0634193420410156 -0.40699613094329834
v 0.9840965270996094 1.0634193420410156 -0.40699613094329834
v 1.2856063842773438 0.5749969482421875 -0.5318859219551086
v 1.3914794921875 0.5749969482421875 0.00039004290010780096
v 1.0651283264160156 1.0634193420410156 0.00039004950667731464
v -1.3903312683105469 0.5749950408935547 0.0003903013712260872
v -1.5049400329589844 -0.00113677978515625 0.0003902539028786123
v -1.3903312683105469 -0.00113677978515625 -0.5757411122322083
v -1.2844619750976562 0.5749950408935547 -0.5318856835365295
v -1.2844619750976562 0.5749950408935547 -0.5318856835365295
v -1.3903312683105469 -0.00113677978515625 -0.5757411122322083
v -1.0639839172363281 -0.00113677978515625 -1.064164161682129
v -0.982940673828125 0.5749950408935547 -0.983128547668457
v -0.982940673828125 0.5749950408935547 -0.983128547668457
v -1.0639839172363281 -0.00113677978515625 -1.064164161682129
v -0.5755500793457031 -0.00113677978515625 -1.3905174732208252
v -0.5316963195800781 0.5749950408935547 -1.2846403121948242
v -0.5316963195800781 0.5749950408935547 -1.2846403121948242
v -0.5755500793457031 -0.00113677978515625 -1.3905174732208252
v 0.00057220458984375 -0.00113677978515625 -1.505117416381836
v 0.00057220458984375 0.5749950408935547 -1.3905175924301147
v 0.00057220458984375 0.5749950408935547 -1.3905175924301147
v 0.00057220458984375 -0.00113677978515625 -1.505117416381836
v 0.5767059326171875 -0.00113677978515625 -1.3905175924301147
v 0.5328521728515625 0.5749950408935547 -1.2846404314041138
v 0.5328521728515625 0.5749950408935547 -1.2846404314041138
v 0.5767059326171875 -0.00113677978515625 -1.3905175924301147
v 1.0651283264160156 -0.00113677978515625 -1.064164400100708
v 0.9840965270996094 0.5749969482421875 -0.9831287264823914
v 0.9840965270996094 0.5749969482421875 -0.9831287264823914
v 1.0651283264160156 -0.00113677978515625 -1.064164400100708
v 1.3914794921875 -0.00113677978515625 -0.5757413506507874
v 1.2856063842773438 0.5749969482421875 -0.5318859219551086
v 1.2856063842773438 0.5749969482421875 -0.5318859219551086
v 1.3914794921875 -0.00113677978515625 -0.5757413506507874
v 1.5060844421386719 -0.00113677978515625 0.0003899741277564317
v 1.3914794921875 0.5749969482421875 0.00039004290010780096
v -1.5049400329589844 -0.00113677978515625 0.0003902539028786123
v -1.3903312683105469 -0.5772705078125 0.00039025783189572394
v -1.2844619750976562 -0.5772705078125 -0.5318854451179504
v -1.3903312683105469 -0.00113677978515625 -0.5757411122322083
v -1.3903312683105469 -0.00113677978515625 -0.5757411122322083
v -1.2844619750976562 -0.5772705078125 -0.5318854451179504
v -0.982940673828125 -0.5772705078125 -0.9831283092498779
v -1.0639839172363281 -0.00113677978515625 -1.064164161682129
v -1.0639839172363281 -0.00113677978515625 -1.064164161682129
v -0.982940673828125 -0.5772705078125 -0.9831283092498779
v -0.5316963195800781 -0.5772705078125 -1.2846399545669556
v -0.5755500793457031 -0.00113677978515625 -1.3905174732208252
v -0.5755500793457031 -0.00113677978515625 -1.3905174732208252
v -0.5316963195800781 -0.5772705078125 -1.2846399545669556
v 0.00057220458984375 -0.5772705078125 -1.390517234802246
v 0.00057220458984375 -0.00113677978515625 -1.505117416381836
v 0.00057220458984375 -0.00113677978515625 -1.505117416381836
v 0.00057220458984375 -0.5772705078125 -1.390517234802246
v 0.5328521728515625 -0.5772705078125 -1.2846400737762451
v 0.5767059326171875 -0.00113677978515625 -1.3905175924301147
v 0.5767059326171875 -0.00113677978515625 -1.3905175924301147
v 0.5328521728515625 -0.5772705078125 -1.2846400737762451
v 0.9840965270996094 -0.5772705078125 -0.9831284880638123
v 1.0651283264160156 -0.00113677978515625 -1.064164400100708
v 1.0651283264160156 -0.00113677978515625 -1.064164400100708
v 0.9840965270996094 -0.5772705078125 -0.9831284880638123
v 1.2856063842773438 -0.5772705078125 -0.5318856835365295
v 1.3914794921875 -0.00113677978515625 -0.5757413506507874
v 0.9840965270996094 -1.0656909942626953 -0.40699517726898193
v 1.0651283264160156 -1.0656909942626953 0.0003900533774867654
v 1.3914794921875 -0.5772705078125 0.0003899993607774377
v 1.3914794921875 -0.00113677978515625 -0.5757413506507874
v 1.2856063842773438 -0.5772705078125 -0.5318856835365295
v 1.3914794921875 -0.5772705078125 0.0003899993607774377
v 1.5060844421386719 -0.00113677978515625 0.0003899741277564317
v -1.3903312683105469 -0.5772705078125 0.00039025783189572394
v -1.0639839172363281 -1.0656909942626953 0.00039025122532621026
v -0.982940673828125 -1.0656909942626953 -0.4069949984550476
v -1.2844619750976562 -0.5772705078125 -0.5318854451179504
v -1.2844619750976562 -0.5772705078125 -0.5318854451179504
v -0.982940673828125 -1.0656909942626953 -0.4069949984550476
v -0.7521743774414062 -1.0656909942626953 -0.7523622512817383
v -0.982940673828125 -0.5772705078125 -0.9831283092498779
v -0.982940673828125 -0.5772705078125 -0.9831283092498779
v -0.7521743774414062 -1.0656909942626953 -0.7523622512817383
v -0.4068183898925781 -1.0656929016113281 -0.9831283688545227
v -0.5316963195800781 -0.5772705078125 -1.2846399545669556
v -0.5316963195800781 -0.5772705078125 -1.2846399545669556
v -0.4068183898925781 -1.0656929016113281 -0.9831283688545227
v 0.00057220458984375 -1.0656929016113281 -1.064163327217102
v 0.00057220458984375 -0.5772705078125 -1.390517234802246
v 0.00057220458984375 -0.5772705078125 -1.390517234802246
v 0.00057220458984375 -1.0656929016113281 -1.064163327217102
v 0.4079627990722656 -1.0656929016113281 -0.9831284284591675
v 0.5328521728515625 -0.5772705078125 -1.2846400737762451
v 0.5328521728515625 -0.5772705078125 -1.2846400737762451
v 0.4079627990722656 -1.0656929016113281 -0.9831284284591675
v 0.753326416015625 -1.0656909942626953 -0.7523623704910278
v 0.9840965270996094 -0.5772705078125 -0.9831284880638123
v 0.9840965270996094 -0.5772705078125 -0.9831284880638123
v 0.753326416015625 -1.0656909942626953 -0.7523623704910278
v 0.9840965270996094 -1.0656909942626953 -0.40699517726898193
v 1.2856063842773438 -0.5772705078125 -0.5318856835365295
v -1.0639839172363281 -1.0656909942626953 0.00039025122532621026
v -0.5755500793457031 -1.3920459747314453 0.0003901729651261121
v -0.5316963195800781 -1.3920459747314453 -0.22008441388607025
v -0.982940673828125 -1.0656909942626953 -0.4069949984550476
v -0.982940673828125 -1.0656909942626953 -0.4069949984550476
v -0.5316963195800781 -1.3920459747314453 -0.22008441388607025
v -0.4068183898925781 -1.3920459747314453 -0.4069949984550476
v -0.7521743774414062 -1.0656909942626953 -0.7523622512817383
v -0.7521743774414062 -1.0656909942626953 -0.7523622512817383
v -0.4068183898925781 -1.3920459747314453 -0.4069949984550476
v -0.21990585327148438 -1.3920459747314453 -0.53188556432724
v -0.4068183898925781 -1.0656929016113281 -0.9831283688545227
v -0.4068183898925781 -1.0656929016113281 -0.9831283688545227
v -0.21990585327148438 -1.3920459747314453 -0.53188556432724
v 0.00057220458984375 -1.3920459747314453 -0.5757421851158142
v 0.00057220458984375 -1.0656929016113281 -1.064163327217102
v 0.00057220458984375 -1.0656929016113281 -1.064163327217102
v 0.00057220458984375 -1.3920459747314453 -0.5757421851158142
v 0.22105026245117188 -1.3920459747314453 -0.5318856239318848
v 0.4079627990722656 -1.0656929016113281 -0.9831284284591675
v 0.4079627990722656 -1.0656929016113281 -0.9831284284591675
v 0.22105026245117188 -1.3920459747314453 -0.5318856239318848
v 0.4079627990722656 -1.3920459747314453 -0.40699508786201477
v 0.753326416015625 -1.0656909942626953 -0.7523623704910278
v 0.753326416015625 -1.0656909942626953 -0.7523623704910278
v 0.4079627990722656 -1.3920459747314453 -0.40699508786201477
v 0.5328521728515625 -1.3920459747314453 -0.2200845181941986
v 0.9840965270996094 -1.0656909942626953 -0.40699517726898193
v 0.9840965270996094 -1.0656909942626953 -0.40699517726898193
v 0.5328521728515625 -1.3920459747314453 -0.2200845181941986
v 0.5767059326171875 -1.3920440673828125 0.0003900658921338618
v 1.0651283264160156 -1.0656909942626953 0.0003900533774867654
vn -0.0 1.0 0.0
vn -0.3724101185798645 0.915159285068512 0.1542540043592453
vn -0.40309035778045654 0.9151601791381836 0.0
vn 0.3724086284637451 0.9151595830917358 -0.1542557179927826
vn 0.4030912518501282 0.9151597619056702 0.0
vn -0.0 1.0 0.0
vn -0.2850373387336731 0.9151572585105896 0.28502771258354187
vn -0.3724101185798645 0.915159285068512 0.1542540043592453
vn 0.2850247025489807 0.9151597023010254 -0.285032719373703
vn 0.3724086284637451 0.9151595830917358 -0.1542557179927826
vn -0.0 1.0 0.0
vn -0.1542588323354721 0.915158748626709 0.3724091053009033
vn -0.2850373387336731 0.9151572585105896 0.28502771258354187
vn 0.15425275266170502 0.9151585698127747 -0.3724123537540436
vn 0.2850247025489807 0.9151597023010254 -0.285032719373703
vn -0.0 1.0 0.0
vn -0.0 0.915159285068512 0.4030923843383789
vn -0.1542588323354721 0.915158748626709 0.3724091053009033
vn -0.0 0.915159285068512 -0.4030923843383789
vn 0.15425275266170502 0.9151585698127747 -0.3724123537540436
vn -0.0 1.0 0.0
vn 0.15425285696983337 0.9151584506034851 0.3724123239517212
vn -0.0 0.915159285068512 0.4030923843383789
vn -0.1542588174343109 0.915158748626709 -0.37240904569625854
vn -0.0 0.915159285068512 -0.4030923843383789
vn -0.0 1.0 0.0
vn 0.2850247323513031 0.9151597023010254 0.2850327789783478
vn 0.15425285696983337 0.9151584506034851 0.3724123239517212
vn -0.2850373685359955 0.9151572585105896 -0.2850276529788971
vn -0.1542588174343109 0.915158748626709 -0.37240904569625854
vn -0.0 1.0 0.0
vn 0.3724086284637451 0.9151595830917358 0.1542557328939438
vn 0.2850247323513031 0.9151597023010254 0.2850327789783478
vn -0.3724101483821869 0.915159285068512 -0.15425394475460052
vn -0.2850373685359955 0.9151572585105896 -0.2850276529788971
vn -0.0 1.0 0.0
vn 0.4030912518501282 0.9151597619056702 0.0
vn 0.3724086284637451 0.9151595830917358 0.1542557328939438
vn -0.40309035778045654 0.9151601791381836 0.0
vn -0.3724101483821869 0.915159285068512 -0.15425394475460052
vn -0.40309035778045654 0.9151601791381836 0.0
vn -0.3724101185798645 0.915159285068512 0.1542540043592453
vn -0.664135217666626 0.6951591372489929 0.27509647607803345
vn -0.7188560962677002 0.6951588988304138 0.0
vn -0.3724101185798645 0.915159285068512 0.1542540043592453
vn -0.2850373387336731 0.9151572585105896 0.28502771258354187
vn -0.5083112716674805 0.6951558589935303 0.5083089470863342
vn -0.664135217666626 0.6951591372489929 0.27509647607803345
vn -0.2850373387336731 0.9151572585105896 0.28502771258354187
vn -0.1542588323354721 0.915158748626709 0.3724091053009033
vn -0.27510058879852295 0.6951544880867004 0.6641384959220886
vn -0.5083112716674805 0.6951558589935303 0.5083089470863342
vn -0.1542588323354721 0.915158748626709 0.3724091053009033
vn -0.0 0.915159285068512 0.4030923843383789
vn -0.0 0.6951569318771362 0.718858003616333
vn -0.27510058879852295 0.6951544880867004 0.6641384959220886
vn -0.0 0.915159285068512 0.4030923843383789
vn 0.15425285696983337 0.9151584506034851 0.3724123239517212
vn 0.2750948369503021 0.6951558589935303 0.664139449596405
vn -0.0 0.6951569318771362 0.718858003616333
vn 0.15425285696983337 0.9151584506034851 0.3724123239517212
vn 0.2850247323513031 0.9151597023010254 0.2850327789783478
vn 0.5083074569702148 0.6951566338539124 0.5083116888999939
vn 0.2750948369503021 0.6951558589935303 0.664139449596405
vn 0.2850247323513031 0.9151597023010254 0.2850327789783478
vn 0.3724086284637451 0.9151595830917358 0.1542557328939438
vn 0.664139986038208 0.6951555013656616 0.2750943899154663
vn 0.5083074569702148 0.6951566338539124 0.5083116888999939
vn 0.3724086284637451 0.9151595830917358 0.1542557328939438
vn 0.4030912518501282 0.9151597619056702 0.0
vn 0.7188597917556763 0.6951550841331482 0.0
vn 0.664139986038208 0.6951555013656616 0.2750943899154663
vn -0.7188560962677002 0.6951588988304138 0.0
vn -0.664135217666626 0.6951591372489929 0.27509647607803345
vn -0.8566937446594238 0.3743690848350525 0.35485708713531494
vn -0.9272794723510742 0.3743695914745331 0.0
vn -0.664135217666626 0.6951591372489929 0.27509647607803345
vn -0.5083112716674805 0.6951558589935303 0.5083089470863342
vn -0.6556834578514099 0.37436866760253906 0.655688464641571
vn -0.8566937446594238 0.3743690848350525 0.35485708713531494
vn -0.5083112716674805 0.6951558589935303 0.5083089470863342
vn -0.27510058879852295 0.6951544880867004 0.6641384959220886
vn -0.35485565662384033 0.37436655163764954 0.8566954731941223
vn -0.6556834578514099 0.37436866760253906 0.655688464641571
vn -0.27510058879852295 0.6951544880867004 0.6641384959220886
vn -0.0 0.6951569318771362 0.718858003616333
vn -0.0 0.3743665814399719 0.927280843257904
vn -0.35485565662384033 0.37436655163764954 0.8566954731941223
vn -0.0 0.6951569318771362 0.718858003616333
vn 0.2750948369503021 0.6951558589935303 0.664139449596405
vn 0.3548552393913269 0.3743666112422943 0.8566956520080566
vn -0.0 0.3743665814399719 0.927280843257904
vn 0.2750948369503021 0.6951558589935303 0.664139449596405
vn 0.5083074569702148 0.6951566338539124 0.5083116888999939
vn 0.6556870937347412 0.3743661940097809 0.6556861996650696
vn 0.3548552393913269 0.3743666112422943 0.8566956520080566
vn 0.5083074569702148 0.6951566338539124 0.5083116888999939
vn 0.664139986038208 0.6951555013656616 0.2750943899154663
vn 0.8566964268684387 0.3743657171726227 0.35485410690307617
vn 0.6556870937347412 0.3743661940097809 0.6556861996650696
vn 0.664139986038208 0.6951555013656616 0.2750943899154663
vn 0.7188597917556763 0.6951550841331482 0.0
vn 0.927280843257904 0.37436643242836 0.0
vn 0.8566964268684387 0.3743657171726227 0.35485410690307617
vn -0.9272794723510742 0.3743695914745331 0.0
vn -0.8566937446594238 0.3743690848350525 0.35485708713531494
vn -0.9238783717155457 0.0 0.38268616795539856
vn -1.0 0.0 0.0
vn -0.8566937446594238 0.3743690848350525 0.35485708713531494
vn -0.6556834578514099 0.37436866760253906 0.655688464641571
vn -0.7071046233177185 0.0 0.7071089148521423
vn -0.9238783717155457 0.0 0.38268616795539856
vn -0.6556834578514099 0.37436866760253906 0.655688464641571
vn -0.35485565662384033 0.37436655163764954 0.8566954731941223
vn -0.3826824128627777 0.0 0.9238800406455994
vn -0.7071046233177185 0.0 0.7071089148521423
vn -0.35485565662384033 0.37436655163764954 0.8566954731941223
vn -0.0 0.3743665814399719 0.927280843257904
vn -0.0 0.0 1.0
vn -0.3826824128627777 0.0 0.9238800406455994
vn -0.0 0.3743665814399719 0.927280843257904
vn 0.3548552393913269 0.3743666112422943 0.8566956520080566
vn 0.3826832175254822 0.0 0.9238796234130859
vn -0.0 0.0 1.0
vn 0.3548552393913269 0.3743666112422943 0.8566956520080566
vn 0.6556870937347412 0.3743661940097809 0.6556861996650696
vn 0.7071073055267334 0.0 0.7071062326431274
vn 0.3826832175254822 0.0 0.9238796234130859
vn 0.6556870937347412 0.3743661940097809 0.6556861996650696
vn 0.8566964268684387 0.3743657171726227 0.35485410690307617
vn 0.9238795042037964 0.0 0.3826833665370941
vn 0.7071073055267334 0.0 0.7071062326431274
vn 0.8566964268684387 0.3743657171726227 0.35485410690307617
vn 0.927280843257904 0.37436643242836 0.0
vn 1.0 0.0 0.0
vn 0.9238795042037964 0.0 0.3826833665370941
vn -1.0 0.0 0.0
vn -0.9238783717155457 0.0 0.38268616795539856
vn -0.8566935658454895 -0.3743698000907898 0.35485705733299255
vn -0.9272792935371399 -0.37437018752098083 0.0
vn -0.9238783717155457 0.0 0.38268616795539856
vn -0.7071046233177185 0.0 0.7071089148521423
vn -0.6556834578514099 -0.37436938285827637 0.6556880474090576
vn -0.8566935658454895 -0.3743698000907898 0.35485705733299255
vn -0.7071046233177185 0.0 0.7071089148521423
vn -0.3826824128627777 0.0 0.9238800406455994
vn -0.35485559701919556 -0.37436720728874207 0.8566951155662537
vn -0.6556834578514099 -0.37436938285827637 0.6556880474090576
vn -0.3826824128627777 0.0 0.9238800406455994
vn -0.0 0.0 1.0
vn -0.0 -0.37436723709106445 0.9272805452346802
vn -0.35485559701919556 -0.37436720728874207 0.8566951155662537
vn -0.0 0.0 1.0
vn 0.3826832175254822 0.0 0.9238796234130859
vn 0.3548556864261627 -0.3743675947189331 0.8566949367523193
vn -0.0 -0.37436723709106445 0.9272805452346802
vn 0.3826832175254822 0.0 0.9238796234130859
vn 0.7071073055267334 0.0 0.7071062326431274
vn 0.6556875109672546 -0.3743669092655182 0.6556854248046875
vn 0.3548556864261627 -0.3743675947189331 0.8566949367523193
vn 0.7071073055267334 0.0 0.7071062326431274
vn 0.9238795042037964 0.0 0.3826833665370941
vn 0.8566960096359253 -0.37436679005622864 0.35485410690307617
vn 0.6556875109672546 -0.3743669092655182 0.6556854248046875
vn 0.9272805452346802 -0.3743673264980316 0.0
vn 0.7188588380813599 -0.6951560974121094 0.0
vn 0.6641392707824707 -0.6951565146446228 0.27509355545043945
vn 0.9238795042037964 0.0 0.3826833665370941
vn 1.0 0.0 0.0
vn 0.9272805452346802 -0.3743673264980316 0.0
vn 0.8566960096359253 -0.37436679005622864 0.35485410690307617
vn -0.9272792935371399 -0.37437018752098083 0.0
vn -0.8566935658454895 -0.3743698000907898 0.35485705733299255
vn -0.6641353964805603 -0.6951591372489929 0.275096595287323
vn -0.7188562750816345 -0.6951586604118347 0.0
vn -0.8566935658454895 -0.3743698000907898 0.35485705733299255
vn -0.6556834578514099 -0.37436938285827637 0.6556880474090576
vn -0.5083118677139282 -0.6951557397842407 0.5083084106445312
vn -0.6641353964805603 -0.6951591372489929 0.275096595287323
vn -0.6556834578514099 -0.37436938285827637 0.6556880474090576
vn -0.35485559701919556 -0.37436720728874207 0.8566951155662537
vn -0.27510055899620056 -0.6951552033424377 0.6641377210617065
vn -0.5083118677139282 -0.6951557397842407 0.5083084106445312
vn -0.35485559701919556 -0.37436720728874207 0.8566951155662537
vn -0.0 -0.37436723709106445 0.9272805452346802
vn -0.0 -0.6951568126678467 0.7188580632209778
vn -0.27510055899620056 -0.6951552033424377 0.6641377210617065
vn -0.0 -0.37436723709106445 0.9272805452346802
vn 0.3548556864261627 -0.3743675947189331 0.8566949367523193
vn 0.2750966548919678 -0.6951571702957153 0.6641373038291931
vn -0.0 -0.6951568126678467 0.7188580632209778
vn 0.3548556864261627 -0.3743675947189331 0.8566949367523193
vn 0.6556875109672546 -0.3743669092655182 0.6556854248046875
vn 0.5083094239234924 -0.6951568722724915 0.5083094239234924
vn 0.2750966548919678 -0.6951571702957153 0.6641373038291931
vn 0.6556875109672546 -0.3743669092655182 0.6556854248046875
vn 0.8566960096359253 -0.37436679005622864 0.35485410690307617
vn 0.6641392707824707 -0.6951565146446228 0.27509355545043945
vn 0.5083094239234924 -0.6951568722724915 0.5083094239234924
vn -0.7188562750816345 -0.6951586604118347 0.0
vn -0.6641353964805603 -0.6951591372489929 0.275096595287323
vn -0.3724101483821869 -0.9151591658592224 0.15425430238246918
vn -0.4030905067920685 -0.915160059928894 0.0
vn -0.6641353964805603 -0.6951591372489929 0.275096595287323
vn -0.5083118677139282 -0.6951557397842407 0.5083084106445312
vn -0.28503769636154175 -0.9151573777198792 0.28502723574638367
vn -0.3724101483821869 -0.9151591658592224 0.15425430238246918
vn -0.5083118677139282 -0.6951557397842407 0.5083084106445312
vn -0.27510055899620056 -0.6951552033424377 0.6641377210617065
vn -0.15425899624824524 -0.9151591658592224 0.37240809202194214
vn -0.28503769636154175 -0.9151573777198792 0.28502723574638367
vn -0.27510055899620056 -0.6951552033424377 0.6641377210617065
vn -0.0 -0.6951568126678467 0.7188580632209778
vn -0.0 -0.9151591658592224 0.4030926525592804
vn -0.15425899624824524 -0.9151591658592224 0.37240809202194214
vn -0.0 -0.6951568126678467 0.7188580632209778
vn 0.2750966548919678 -0.6951571702957153 0.6641373038291931
vn 0.1542578786611557 -0.915159285068512 0.3724081814289093
vn -0.0 -0.9151591658592224 0.4030926525592804
vn 0.2750966548919678 -0.6951571702957153 0.6641373038291931
vn 0.5083094239234924 -0.6951568722724915 0.5083094239234924
vn 0.28503066301345825 -0.915158748626709 0.285029798746109
vn 0.1542578786611557 -0.915159285068512 0.3724081814289093
vn 0.5083094239234924 -0.6951568722724915 0.5083094239234924
vn 0.6641392707824707 -0.6951565146446228 0.27509355545043945
vn 0.3724101781845093 -0.915159285068512 0.1542540043592453
vn 0.28503066301345825 -0.915158748626709 0.285029798746109
vn 0.6641392707824707 -0.6951565146446228 0.27509355545043945
vn 0.7188588380813599 -0.6951560974121094 0.0
vn 0.40309378504753113 -0.9151586890220642 0.0
vn 0.3724101781845093 -0.915159285068512 0.1542540043592453
vn -0.0 -1.0 0.0
vn -0.4030905067920685 -0.915160059928894 0.0
vn -0.3724101483821869 -0.9151591658592224 0.15425430238246918
vn 0.40309378504753113 -0.9151586890220642 0.0
vn 0.3724101781845093 -0.915159285068512 -0.1542540341615677
vn -0.0 -1.0 0.0
vn -0.3724101483821869 -0.9151591658592224 0.15425430238246918
vn -0.28503769636154175 -0.9151573777198792 0.28502723574638367
vn 0.3724101781845093 -0.915159285068512 -0.1542540341615677
vn 0.2850306034088135 -0.915158748626709 -0.2850297689437866
vn -0.0 -1.0 0.0
vn -0.28503769636154175 -0.9151573777198792 0.28502723574638367
vn -0.15425899624824524 -0.9151591658592224 0.37240809202194214
vn 0.2850306034088135 -0.915158748626709 -0.2850297689437866
vn 0.15425781905651093 -0.915159285068512 -0.37240833044052124
vn -0.0 -1.0 0.0
vn -0.15425899624824524 -0.9151591658592224 0.37240809202194214
vn -0.0 -0.9151591658592224 0.4030926525592804
vn 0.15425781905651093 -0.915159285068512 -0.37240833044052124
vn -0.0 -0.9151591658592224 -0.4030926823616028
vn -0.0 -1.0 0.0
vn -0.0 -0.9151591658592224 0.4030926525592804
vn 0.1542578786611557 -0.915159285068512 0.3724081814289093
vn -0.0 -0.9151591658592224 -0.4030926823616028
vn -0.15425904095172882 -0.9151591658592224 -0.3724081516265869
vn -0.0 -1.0 0.0
vn 0.1542578786611557 -0.915159285068512 0.3724081814289093
vn 0.28503066301345825 -0.915158748626709 0.285029798746109
vn -0.15425904095172882 -0.9151591658592224 -0.3724081516265869
vn -0.2850377559661865 -0.9151573777198792 -0.2850271761417389
vn -0.0 -1.0 0.0
vn 0.28503066301345825 -0.915158748626709 0.285029798746109
vn 0.3724101781845093 -0.915159285068512 0.1542540043592453
vn -0.2850377559661865 -0.9151573777198792 -0.2850271761417389
vn -0.3724101781845093 -0.9151591658592224 -0.15425434708595276
vn -0.0 -1.0 0.0
vn 0.3724101781845093 -0.915159285068512 0.1542540043592453
vn 0.40309378504753113 -0.9151586890220642 0.0
vn -0.3724101781845093 -0.9151591658592224 -0.15425434708595276
vn -0.4030905067920685 -0.915160059928894 0.0
vn -0.40309035778045654 0.9151601791381836 0.0
vn -0.7188560962677002 0.6951588988304138 0.0
vn -0.6641352772712708 0.6951591372489929 -0.27509641647338867
vn -0.3724101483821869 0.915159285068512 -0.15425394475460052
vn -0.3724101483821869 0.915159285068512 -0.15425394475460052
vn -0.6641352772712708 0.6951591372489929 -0.27509641647338867
vn -0.5083113312721252 0.6951557993888855 -0.5083088278770447
vn -0.2850373685359955 0.9151572585105896 -0.2850276529788971
vn -0.2850373685359955 0.9151572585105896 -0.2850276529788971
vn -0.5083113312721252 0.6951557993888855 -0.5083088278770447
vn -0.27510058879852295 0.6951543092727661 -0.6641385555267334
vn -0.1542588174343109 0.915158748626709 -0.37240904569625854
vn -0.1542588174343109 0.915158748626709 -0.37240904569625854
vn -0.27510058879852295 0.6951543092727661 -0.6641385555267334
vn -0.0 0.6951568126678467 -0.7188580632209778
vn -0.0 0.915159285068512 -0.4030923843383789
vn -0.0 0.915159285068512 -0.4030923843383789
vn -0.0 0.6951568126678467 -0.7188580632209778
vn 0.2750946283340454 0.6951557993888855 -0.6641395688056946
vn 0.15425275266170502 0.9151585698127747 -0.3724123537540436
vn 0.15425275266170502 0.9151585698127747 -0.3724123537540436
vn 0.2750946283340454 0.6951557993888855 -0.6641395688056946
vn 0.5083073973655701 0.6951566338539124 -0.5083117485046387
vn 0.2850247025489807 0.9151597023010254 -0.285032719373703
vn 0.2850247025489807 0.9151597023010254 -0.285032719373703
vn 0.5083073973655701 0.6951566338539124 -0.5083117485046387
vn 0.6641400456428528 0.6951555013656616 -0.2750943899154663
vn 0.3724086284637451 0.9151595830917358 -0.1542557179927826
vn 0.3724086284637451 0.9151595830917358 -0.1542557179927826
vn 0.6641400456428528 0.6951555013656616 -0.2750943899154663
vn 0.7188597917556763 0.6951550841331482 0.0
vn 0.4030912518501282 0.9151597619056702 0.0
vn -0.7188560962677002 0.6951588988304138 0.0
vn -0.9272794723510742 0.3743695914745331 0.0
vn -0.8566938042640686 0.3743690848350525 -0.35485702753067017
vn -0.6641352772712708 0.6951591372489929 -0.27509641647338867
vn -0.6641352772712708 0.6951591372489929 -0.27509641647338867
vn -0.8566938042640686 0.3743690848350525 -0.35485702753067017
vn -0.6556835174560547 0.3743685483932495 -0.655688464641571
vn -0.5083113312721252 0.6951557993888855 -0.5083088278770447
vn -0.5083113312721252 0.6951557993888855 -0.5083088278770447
vn -0.6556835174560547 0.3743685483932495 -0.655688464641571
vn -0.35485565662384033 0.37436631321907043 -0.8566956520080566
vn -0.27510058879852295 0.6951543092727661 -0.6641385555267334
vn -0.27510058879852295 0.6951543092727661 -0.6641385555267334
vn -0.35485565662384033 0.37436631321907043 -0.8566956520080566
vn -0.0 0.37436628341674805 -0.9272809028625488
vn -0.0 0.6951568126678467 -0.7188580632209778
vn -0.0 0.6951568126678467 -0.7188580632209778
vn -0.0 0.37436628341674805 -0.9272809028625488
vn 0.354854941368103 0.3743663728237152 -0.856695830821991
vn 0.2750946283340454 0.6951557993888855 -0.6641395688056946
vn 0.2750946283340454 0.6951557993888855 -0.6641395688056946
vn 0.354854941368103 0.3743663728237152 -0.856695830821991
vn 0.6556870341300964 0.3743661642074585 -0.6556862592697144
vn 0.5083073973655701 0.6951566338539124 -0.5083117485046387
vn 0.5083073973655701 0.6951566338539124 -0.5083117485046387
vn 0.6556870341300964 0.3743661642074585 -0.6556862592697144
vn 0.8566964268684387 0.37436580657958984 -0.35485410690307617
vn 0.6641400456428528 0.6951555013656616 -0.2750943899154663
vn 0.6641400456428528 0.6951555013656616 -0.2750943899154663
vn 0.8566964268684387 0.37436580657958984 -0.35485410690307617
vn 0.927280843257904 0.37436643242836 0.0
vn 0.7188597917556763 0.6951550841331482 0.0
vn -0.9272794723510742 0.3743695914745331 0.0
vn -1.0 0.0 0.0
vn -0.9238783717155457 0.0 -0.3826860785484314
vn -0.8566938042640686 0.3743690848350525 -0.35485702753067017
vn -0.8566938042640686 0.3743690848350525 -0.35485702753067017
vn -0.9238783717155457 0.0 -0.3826860785484314
vn -0.7071045637130737 0.0 -0.7071089148521423
vn -0.6556835174560547 0.3743685483932495 -0.655688464641571
vn -0.6556835174560547 0.3743685483932495 -0.655688464641571
vn -0.7071045637130737 0.0 -0.7071089148521423
vn -0.382682204246521 0.0 -0.9238800406455994
vn -0.35485565662384033 0.37436631321907043 -0.8566956520080566
vn -0.35485565662384033 0.37436631321907043 -0.8566956520080566
vn -0.382682204246521 0.0 -0.9238800406455994
vn -0.0 0.0 -1.0
vn -0.0 0.37436628341674805 -0.9272809028625488
vn -0.0 0.37436628341674805 -0.9272809028625488
vn -0.0 0.0 -1.0
vn 0.38268277049064636 0.0 -0.9238798022270203
vn 0.354854941368103 0.3743663728237152 -0.856695830821991
vn 0.354854941368103 0.3743663728237152 -0.856695830821991
vn 0.38268277049064636 0.0 -0.9238798022270203
vn 0.7071071267127991 0.0 -0.7071064114570618
vn 0.6556870341300964 0.3743661642074585 -0.6556862592697144
vn 0.6556870341300964 0.3743661642074585 -0.6556862592697144
vn 0.7071071267127991 0.0 -0.7071064114570618
vn 0.9238795042037964 0.0 -0.3826833665370941
vn 0.8566964268684387 0.37436580657958984 -0.35485410690307617
vn 0.8566964268684387 0.37436580657958984 -0.35485410690307617
vn 0.9238795042037964 0.0 -0.3826833665370941
vn 1.0 0.0 0.0
vn 0.927280843257904 0.37436643242836 0.0
vn -1.0 0.0 0.0
vn -0.9272792935371399 -0.37437018752098083 0.0
vn -0.8566935658454895 -0.37436971068382263 -0.3548569977283478
vn -0.9238783717155457 0.0 -0.3826860785484314
vn -0.9238783717155457 0.0 -0.3826860785484314
vn -0.8566935658454895 -0.37436971068382263 -0.3548569977283478
vn -0.6556834578514099 -0.3743692934513092 -0.6556881070137024
vn -0.7071045637130737 0.0 -0.7071089148521423
vn -0.7071045637130737 0.0 -0.7071089148521423
vn -0.6556834578514099 -0.3743692934513092 -0.6556881070137024
vn -0.35485541820526123 -0.3743670582771301 -0.856695294380188
vn -0.382682204246521 0.0 -0.9238800406455994
vn -0.382682204246521 0.0 -0.9238800406455994
vn -0.35485541820526123 -0.3743670582771301 -0.856695294380188
vn -0.0 -0.3743670880794525 -0.927280604839325
vn -0.0 0.0 -1.0
vn -0.0 0.0 -1.0
vn -0.0 -0.3743670880794525 -0.927280604839325
vn 0.3548552989959717 -0.3743675649166107 -0.8566952347755432
vn 0.38268277049064636 0.0 -0.9238798022270203
vn 0.38268277049064636 0.0 -0.9238798022270203
vn 0.3548552989959717 -0.3743675649166107 -0.8566952347755432
vn 0.6556872725486755 -0.3743668496608734 -0.655685544013977
vn 0.7071071267127991 0.0 -0.7071064114570618
vn 0.7071071267127991 0.0 -0.7071064114570618
vn 0.6556872725486755 -0.3743668496608734 -0.655685544013977
vn 0.8566960096359253 -0.3743668496608734 -0.35485410690307617
vn 0.9238795042037964 0.0 -0.3826833665370941
vn 0.6641392707824707 -0.6951565146446228 -0.27509361505508423
vn 0.7188588380813599 -0.6951560974121094 0.0
vn 0.9272805452346802 -0.3743673264980316 0.0
vn 0.9238795042037964 0.0 -0.3826833665370941
vn 0.8566960096359253 -0.3743668496608734 -0.35485410690307617
vn 0.9272805452346802 -0.3743673264980316 0.0
vn 1.0 0.0 0.0
vn -0.9272792935371399 -0.37437018752098083 0.0
vn -0.7188562750816345 -0.6951586604118347 0.0
vn -0.6641353964805603 -0.6951590776443481 -0.2750966548919678
vn -0.8566935658454895 -0.37436971068382263 -0.3548569977283478
vn -0.8566935658454895 -0.37436971068382263 -0.3548569977283478
vn -0.6641353964805603 -0.6951590776443481 -0.2750966548919678
vn -0.508311927318573 -0.695155680179596 -0.5083084106445312
vn -0.6556834578514099 -0.3743692934513092 -0.6556881070137024
vn -0.6556834578514099 -0.3743692934513092 -0.6556881070137024
vn -0.508311927318573 -0.695155680179596 -0.5083084106445312
vn -0.27510058879852295 -0.6951550245285034 -0.6641378998756409
vn -0.35485541820526123 -0.3743670582771301 -0.856695294380188
vn -0.35485541820526123 -0.3743670582771301 -0.856695294380188
vn -0.27510058879852295 -0.6951550245285034 -0.6641378998756409
vn -0.0 -0.6951565742492676 -0.7188583612442017
vn -0.0 -0.3743670880794525 -0.927280604839325
vn -0.0 -0.3743670880794525 -0.927280604839325
vn -0.0 -0.6951565742492676 -0.7188583612442017
vn 0.27509641647338867 -0.695156991481781 -0.6641375422477722
vn 0.3548552989959717 -0.3743675649166107 -0.8566952347755432
vn 0.3548552989959717 -0.3743675649166107 -0.8566952347755432
vn 0.27509641647338867 -0.695156991481781 -0.6641375422477722
vn 0.5083094239234924 -0.6951568126678467 -0.508309543132782
vn 0.6556872725486755 -0.3743668496608734 -0.655685544013977
vn 0.6556872725486755 -0.3743668496608734 -0.655685544013977
vn 0.5083094239234924 -0.6951568126678467 -0.508309543132782
vn 0.6641392707824707 -0.6951565146446228 -0.27509361505508423
vn 0.8566960096359253 -0.3743668496608734 -0.35485410690307617
vn -0.7188562750816345 -0.6951586604118347 0.0
vn -0.4030905067920685 -0.915160059928894 0.0
vn -0.3724101781845093 -0.9151591658592224 -0.15425434708595276
vn -0.6641353964805603 -0.6951590776443481 -0.2750966548919678
vn -0.6641353964805603 -0.6951590776443481 -0.2750966548919678
vn -0.3724101781845093 -0.9151591658592224 -0.15425434708595276
vn -0.2850377559661865 -0.9151573777198792 -0.2850271761417389
vn -0.508311927318573 -0.695155680179596 -0.5083084106445312
vn -0.508311927318573 -0.695155680179596 -0.5083084106445312
vn -0.2850377559661865 -0.9151573777198792 -0.2850271761417389
vn -0.15425904095172882 -0.9151591658592224 -0.3724081516265869
vn -0.27510058879852295 -0.6951550245285034 -0.6641378998756409
vn -0.27510058879852295 -0.6951550245285034 -0.6641378998756409
vn -0.15425904095172882 -0.9151591658592224 -0.3724081516265869
vn -0.0 -0.9151591658592224 -0.4030926823616028
vn -0.0 -0.6951565742492676 -0.7188583612442017
vn -0.0 -0.6951565742492676 -0.7188583612442017
vn -0.0 -0.9151591658592224 -0.4030926823616028
vn 0.15425781905651093 -0.915159285068512 -0.37240833044052124
vn 0.27509641647338867 -0.695156991481781 -0.6641375422477722
vn 0.27509641647338867 -0.695156991481781 -0.6641375422477722
vn 0.15425781905651093 -0.915159285068512 -0.37240833044052124
vn 0.2850306034088135 -0.915158748626709 -0.2850297689437866
vn 0.5083094239234924 -0.6951568126678467 -0.508309543132782
vn 0.5083094239234924 -0.6951568126678467 -0.508309543132782
vn 0.2850306034088135 -0.915158748626709 -0.2850297689437866
vn 0.3724101781845093 -0.915159285068512 -0.1542540341615677
vn 0.6641392707824707 -0.6951565146446228 -0.27509361505508423
vn 0.6641392707824707 -0.6951565146446228 -0.27509361505508423
vn 0.3724101781845093 -0.915159285068512 -0.1542540341615677
vn 0.40309378504753113 -0.9151586890220642 0.0
vn 0.7188588380813599 -0.6951560974121094 0.0
vt 0.5 0.5000000298023224
vt 0.3086581230163574 0.5000000894069672
vt 0.3232225179672241 0.42677736282348633
vt 0.6913444995880127 0.5
vt 0.6767774820327759 0.5732226967811584
vt 0.5 0.5000000298023224
vt 0.3232225179672241 0.42677736282348633
vt 0.36469870805740356 0.36470186710357666
vt 0.6767774820327759 0.5732226967811584
vt 0.6352987885475159 0.6352982521057129
vt 0.5 0.5000000298023224
vt 0.36469870805740356 0.36470186710357666
vt 0.42677998542785645 0.3232240080833435
vt 0.6352987885475159 0.6352982521057129
vt 0.5732225775718689 0.6767760515213013
vt 0.5 0.5000000298023224
vt 0.42677998542785645 0.3232240080833435
vt 0.4999999701976776 0.30865901708602905
vt 0.5732225775718689 0.6767760515213013
vt 0.5000000596046448 0.6913410723209381
vt 0.5 0.5000000298023224
vt 0.4999999701976776 0.30865901708602905
vt 0.5732225179672241 0.3232240080833435
vt 0.5000000596046448 0.6913410723209381
vt 0.4267800450325012 0.676776111125946
vt 0.5 0.5000000298023224
vt 0.5732225179672241 0.3232240080833435
vt 0.6352987289428711 0.3647017478942871
vt 0.4267800450325012 0.676776111125946
vt 0.36469876766204834 0.6352983117103577
vt 0.5 0.5000000298023224
vt 0.6352987289428711 0.3647017478942871
vt 0.6767774820327759 0.4267772436141968
vt 0.36469876766204834 0.6352983117103577
vt 0.3232225775718689 0.573222815990448
vt 0.5 0.5000000298023224
vt 0.6767774820327759 0.4267772436141968
vt 0.6913444995880127 0.5
vt 0.3232225775718689 0.573222815990448
vt 0.3086581230163574 0.5000000894069672
vt 0.3086581230163574 0.5000000894069672
vt 0.14644759893417358 0.5000001192092896
vt 0.1733618974685669 0.36470192670822144
vt 0.3232225179672241 0.42677736282348633
vt 0.3232225179672241 0.42677736282348633
vt 0.1733618974685669 0.36470192670822144
vt 0.25000250339508057 0.25000059604644775
vt 0.36469870805740356 0.36470186710357666
vt 0.36469870805740356 0.36470186710357666
vt 0.25000250339508057 0.25000059604644775
vt 0.36470121145248413 0.17336022853851318
vt 0.42677998542785645 0.3232240080833435
vt 0.42677998542785645 0.3232240080833435
vt 0.36470121145248413 0.17336022853851318
vt 0.4999999403953552 0.14644724130630493
vt 0.4999999701976776 0.30865901708602905
vt 0.4999999701976776 0.30865901708602905
vt 0.4999999403953552 0.14644724130630493
vt 0.6352987289428711 0.1733601689338684
vt 0.5732225179672241 0.3232240080833435
vt 0.5732225179672241 0.3232240080833435
vt 0.6352987289428711 0.1733601689338684
vt 0.7500025033950806 0.2500004768371582
vt 0.6352987289428711 0.3647017478942871
vt 0.6352987289428711 0.3647017478942871
vt 0.7500025033950806 0.2500004768371582
vt 0.8266406655311584 0.3647017478942871
vt 0.6767774820327759 0.4267772436141968
vt 0.6767774820327759 0.4267772436141968
vt 0.8266406655311584 0.3647017478942871
vt 0.8535524606704712 0.4999999403953552
vt 0.6913444995880127 0.5
vt 0.14644759893417358 0.5000001192092896
vt 0.03806060552597046 0.5000001192092896
vt 0.07322502136230469 0.32322412729263306
vt 0.1733618974685669 0.36470192670822144
vt 0.1733618974685669 0.36470192670822144
vt 0.07322502136230469 0.32322412729263306
vt 0.17336183786392212 0.17336034774780273
vt 0.25000250339508057 0.25000059604644775
vt 0.25000250339508057 0.25000059604644775
vt 0.17336183786392212 0.17336034774780273
vt 0.32322245836257935 0.07322418689727783
vt 0.36470121145248413 0.17336022853851318
vt 0.36470121145248413 0.17336022853851318
vt 0.32322245836257935 0.07322418689727783
vt 0.4999999403953552 0.038060903549194336
vt 0.4999999403953552 0.14644724130630493
vt 0.4999999403953552 0.14644724130630493
vt 0.4999999403953552 0.038060903549194336
vt 0.6767799854278564 0.07322406768798828
vt 0.6352987289428711 0.1733601689338684
vt 0.6352987289428711 0.1733601689338684
vt 0.6767799854278564 0.07322406768798828
vt 0.826643168926239 0.17336022853851318
vt 0.7500025033950806 0.2500004768371582
vt 0.7500025033950806 0.2500004768371582
vt 0.826643168926239 0.17336022853851318
vt 0.9267774820327759 0.32322394847869873
vt 0.8266406655311584 0.3647017478942871
vt 0.8266406655311584 0.3647017478942871
vt 0.9267774820327759 0.32322394847869873
vt 0.9619393944740295 0.49999988079071045
vt 0.8535524606704712 0.4999999403953552
vt 0.03806060552597046 0.5000001192092896
vt 0.0 0.5000000894069672
vt 0.03806060552597046 0.30865931510925293
vt 0.07322502136230469 0.32322412729263306
vt 0.07322502136230469 0.32322412729263306
vt 0.03806060552597046 0.30865931510925293
vt 0.1464475393295288 0.1464473009109497
vt 0.17336183786392212 0.17336034774780273
vt 0.17336183786392212 0.17336034774780273
vt 0.1464475393295288 0.1464473009109497
vt 0.30865800380706787 0.03806096315383911
vt 0.32322245836257935 0.07322418689727783
vt 0.32322245836257935 0.07322418689727783
vt 0.30865800380706787 0.03806096315383911
vt 0.4999999403953552 0.0
vt 0.4999999403953552 0.038060903549194336
vt 0.4999999403953552 0.038060903549194336
vt 0.4999999403953552 0.0
vt 0.6913443803787231 0.03806084394454956
vt 0.6767799854278564 0.07322406768798828
vt 0.6767799854278564 0.07322406768798828
vt 0.6913443803787231 0.03806084394454956
vt 0.8535524010658264 0.14644718170166016
vt 0.826643168926239 0.17336022853851318
vt 0.826643168926239 0.17336022853851318
vt 0.8535524010658264 0.14644718170166016
vt 0.9619418978691101 0.30865907669067383
vt 0.9267774820327759 0.32322394847869873
vt 0.9267774820327759 0.32322394847869873
vt 0.9619418978691101 0.30865907669067383
vt 1.0 0.4999998211860657
vt 0.9619393944740295 0.49999988079071045
vt 0.0 0.5000000894069672
vt 0.03806060552597046 0.5000000596046448
vt 0.07322502136230469 0.32322418689727783
vt 0.03806060552597046 0.30865931510925293
vt 0.03806060552597046 0.30865931510925293
vt 0.07322502136230469 0.32322418689727783
vt 0.17336183786392212 0.1733604073524475
vt 0.1464475393295288 0.1464473009109497
vt 0.1464475393295288 0.1464473009109497
vt 0.17336183786392212 0.1733604073524475
vt 0.32322245836257935 0.07322424650192261
vt 0.30865800380706787 0.03806096315383911
vt 0.30865800380706787 0.03806096315383911
vt 0.32322245836257935 0.07322424650192261
vt 0.4999999403953552 0.03806096315383911
vt 0.4999999403953552 0.0
vt 0.4999999403953552 0.0
vt 0.4999999403953552 0.03806096315383911
vt 0.6767799854278564 0.07322418689727783
vt 0.6913443803787231 0.03806084394454956
vt 0.6913443803787231 0.03806084394454956
vt 0.6767799854278564 0.07322418689727783
vt 0.826643168926239 0.17336022853851318
vt 0.8535524010658264 0.14644718170166016
vt 0.8535524010658264 0.14644718170166016
vt 0.826643168926239 0.17336022853851318
vt 0.9267774820327759 0.32322394847869873
vt 0.9619418978691101 0.30865907669067383
vt 0.826643168926239 0.3647017478942871
vt 0.8535524606704712 0.4999998211860657
vt 0.9619393944740295 0.4999998211860657
vt 0.9619418978691101 0.30865907669067383
vt 0.9267774820327759 0.32322394847869873
vt 0.9619393944740295 0.4999998211860657
vt 1.0 0.4999998211860657
vt 0.03806060552597046 0.5000000596046448
vt 0.14644503593444824 0.5
vt 0.1733618974685669 0.36470192670822144
vt 0.07322502136230469 0.32322418689727783
vt 0.07322502136230469 0.32322418689727783
vt 0.1733618974685669 0.36470192670822144
vt 0.25000250339508057 0.2500010132789612
vt 0.17336183786392212 0.1733604073524475
vt 0.17336183786392212 0.1733604073524475
vt 0.25000250339508057 0.2500010132789612
vt 0.36470121145248413 0.17336034774780273
vt 0.32322245836257935 0.07322424650192261
vt 0.32322245836257935 0.07322424650192261
vt 0.36470121145248413 0.17336034774780273
vt 0.4999999403953552 0.1464475393295288
vt 0.4999999403953552 0.03806096315383911
vt 0.4999999403953552 0.03806096315383911
vt 0.4999999403953552 0.1464475393295288
vt 0.6352987289428711 0.17336022853851318
vt 0.6767799854278564 0.07322418689727783
vt 0.6767799854278564 0.07322418689727783
vt 0.6352987289428711 0.17336022853851318
vt 0.7500025033950806 0.2500009536743164
vt 0.826643168926239 0.17336022853851318
vt 0.826643168926239 0.17336022853851318
vt 0.7500025033950806 0.2500009536743164
vt 0.826643168926239 0.3647017478942871
vt 0.9267774820327759 0.32322394847869873
vt 0.14644503593444824 0.5
vt 0.3086581230163574 0.4999999403953552
vt 0.32322508096694946 0.42677736282348633
vt 0.1733618974685669 0.36470192670822144
vt 0.1733618974685669 0.36470192670822144
vt 0.32322508096694946 0.42677736282348633
vt 0.3647012710571289 0.36470186710357666
vt 0.25000250339508057 0.2500010132789612
vt 0.25000250339508057 0.2500010132789612
vt 0.3647012710571289 0.36470186710357666
vt 0.42677998542785645 0.3232240080833435
vt 0.36470121145248413 0.17336034774780273
vt 0.36470121145248413 0.17336034774780273
vt 0.42677998542785645 0.3232240080833435
vt 0.4999999701976776 0.3086588382720947
vt 0.4999999403953552 0.1464475393295288
vt 0.4999999403953552 0.1464475393295288
vt 0.4999999701976776 0.3086588382720947
vt 0.5732225179672241 0.3232240080833435
vt 0.6352987289428711 0.17336022853851318
vt 0.6352987289428711 0.17336022853851318
vt 0.5732225179672241 0.3232240080833435
vt 0.6352987289428711 0.3647017478942871
vt 0.7500025033950806 0.2500009536743164
vt 0.7500025033950806 0.2500009536743164
vt 0.6352987289428711 0.3647017478942871
vt 0.6767774820327759 0.42677730321884155
vt 0.826643168926239 0.3647017478942871
vt 0.826643168926239 0.3647017478942871
vt 0.6767774820327759 0.42677730321884155
vt 0.6913444995880127 0.4999998211860657
vt 0.8535524606704712 0.4999998211860657
vt 0.5 0.49999988079071045
vt 0.32322508096694946 0.42677736282348633
vt 0.3086581230163574 0.4999999403953552
vt 0.6767774820327759 0.5732223689556122
vt 0.6913444995880127 0.4999998211860657
vt 0.5 0.49999988079071045
vt 0.3647012710571289 0.36470186710357666
vt 0.32322508096694946 0.42677736282348633
vt 0.6352987885475159 0.6352978944778442
vt 0.6767774820327759 0.5732223689556122
vt 0.5 0.49999988079071045
vt 0.42677998542785645 0.3232240080833435
vt 0.3647012710571289 0.36470186710357666
vt 0.5732225775718689 0.6767757534980774
vt 0.6352987885475159 0.6352978944778442
vt 0.5 0.49999988079071045
vt 0.4999999701976776 0.3086588382720947
vt 0.42677998542785645 0.3232240080833435
vt 0.5000000596046448 0.6913409233093262
vt 0.5732225775718689 0.6767757534980774
vt 0.5 0.49999988079071045
vt 0.5732225179672241 0.3232240080833435
vt 0.4999999701976776 0.3086588382720947
vt 0.4267800450325012 0.6767757534980774
vt 0.5000000596046448 0.6913409233093262
vt 0.5 0.49999988079071045
vt 0.6352987289428711 0.3647017478942871
vt 0.5732225179672241 0.3232240080833435
vt 0.3647013306617737 0.635297954082489
vt 0.4267800450325012 0.6767757534980774
vt 0.5 0.49999988079071045
vt 0.6767774820327759 0.42677730321884155
vt 0.6352987289428711 0.3647017478942871
vt 0.32322508096694946 0.5732224583625793
vt 0.3647013306617737 0.635297954082489
vt 0.5 0.49999988079071045
vt 0.6913444995880127 0.4999998211860657
vt 0.6767774820327759 0.42677730321884155
vt 0.3086581230163574 0.4999999403953552
vt 0.32322508096694946 0.5732224583625793
vt 0.3086581230163574 0.5000000894069672
vt 0.3232225775718689 0.573222815990448
vt 0.17336195707321167 0.6352983117103577
vt 0.14644759893417358 0.5000001192092896
vt 0.3232225775718689 0.573222815990448
vt 0.36469876766204834 0.6352983117103577
vt 0.2500026226043701 0.7499995231628418
vt 0.17336195707321167 0.6352983117103577
vt 0.36469876766204834 0.6352983117103577
vt 0.4267800450325012 0.676776111125946
vt 0.3647013306617737 0.8266398310661316
vt 0.2500026226043701 0.7499995231628418
vt 0.4267800450325012 0.676776111125946
vt 0.5000000596046448 0.6913410723209381
vt 0.5000000596046448 0.8535528182983398
vt 0.3647013306617737 0.8266398310661316
vt 0.5000000596046448 0.6913410723209381
vt 0.5732225775718689 0.6767760515213013
vt 0.6352988481521606 0.8266397416591644
vt 0.5000000596046448 0.8535528182983398
vt 0.5732225775718689 0.6767760515213013
vt 0.6352987885475159 0.6352982521057129
vt 0.7500026226043701 0.7499994039535522
vt 0.6352988481521606 0.8266397416591644
vt 0.6352987885475159 0.6352982521057129
vt 0.6767774820327759 0.5732226967811584
vt 0.8266407251358032 0.6352981328964233
vt 0.7500026226043701 0.7499994039535522
vt 0.6767774820327759 0.5732226967811584
vt 0.6913444995880127 0.5
vt 0.8535524606704712 0.4999999403953552
vt 0.8266407251358032 0.6352981328964233
vt 0.14644759893417358 0.5000001192092896
vt 0.17336195707321167 0.6352983117103577
vt 0.07322508096694946 0.676776111125946
vt 0.03806060552597046 0.5000001192092896
vt 0.17336195707321167 0.6352983117103577
vt 0.2500026226043701 0.7499995231628418
vt 0.17336195707321167 0.826639860868454
vt 0.07322508096694946 0.676776111125946
vt 0.2500026226043701 0.7499995231628418
vt 0.3647013306617737 0.8266398310661316
vt 0.32322263717651367 0.9267758131027222
vt 0.17336195707321167 0.826639860868454
vt 0.3647013306617737 0.8266398310661316
vt 0.5000000596046448 0.8535528182983398
vt 0.5000001192092896 0.9619390368461609
vt 0.32322263717651367 0.9267758131027222
vt 0.5000000596046448 0.8535528182983398
vt 0.6352988481521606 0.8266397416591644
vt 0.676780104637146 0.926775723695755
vt 0.5000001192092896 0.9619390368461609
vt 0.6352988481521606 0.8266397416591644
vt 0.7500026226043701 0.7499994039535522
vt 0.8266432881355286 0.8266396820545197
vt 0.676780104637146 0.926775723695755
vt 0.7500026226043701 0.7499994039535522
vt 0.8266407251358032 0.6352981328964233
vt 0.9267775416374207 0.6767758727073669
vt 0.8266432881355286 0.8266396820545197
vt 0.8266407251358032 0.6352981328964233
vt 0.8535524606704712 0.4999999403953552
vt 0.9619393944740295 0.49999988079071045
vt 0.9267775416374207 0.6767758727073669
vt 0.03806060552597046 0.5000001192092896
vt 0.07322508096694946 0.676776111125946
vt 0.038060665130615234 0.6913408041000366
vt 0.0 0.5000000894069672
vt 0.07322508096694946 0.676776111125946
vt 0.17336195707321167 0.826639860868454
vt 0.14644765853881836 0.8535527884960175
vt 0.038060665130615234 0.6913408041000366
vt 0.17336195707321167 0.826639860868454
vt 0.32322263717651367 0.9267758131027222
vt 0.3086581826210022 0.9619390666484833
vt 0.14644765853881836 0.8535527884960175
vt 0.32322263717651367 0.9267758131027222
vt 0.5000001192092896 0.9619390368461609
vt 0.5000001192092896 1.0
vt 0.3086581826210022 0.9619390666484833
vt 0.5000001192092896 0.9619390368461609
vt 0.676780104637146 0.926775723695755
vt 0.6913445591926575 0.9619389772415161
vt 0.5000001192092896 1.0
vt 0.676780104637146 0.926775723695755
vt 0.8266432881355286 0.8266396820545197
vt 0.853552520275116 0.8535526096820831
vt 0.6913445591926575 0.9619389772415161
vt 0.8266432881355286 0.8266396820545197
vt 0.9267775416374207 0.6767758727073669
vt 0.9619419574737549 0.6913405656814575
vt 0.853552520275116 0.8535526096820831
vt 0.9267775416374207 0.6767758727073669
vt 0.9619393944740295 0.49999988079071045
vt 1.0 0.4999998211860657
vt 0.9619419574737549 0.6913405656814575
vt 0.0 0.5000000894069672
vt 0.038060665130615234 0.6913408041000366
vt 0.07322508096694946 0.6767759323120117
vt 0.03806060552597046 0.5000000596046448
vt 0.038060665130615234 0.6913408041000366
vt 0.14644765853881836 0.8535527884960175
vt 0.17336195707321167 0.826639711856842
vt 0.07322508096694946 0.6767759323120117
vt 0.14644765853881836 0.8535527884960175
vt 0.3086581826210022 0.9619390666484833
vt 0.32322263717651367 0.9267757534980774
vt 0.17336195707321167 0.826639711856842
vt 0.3086581826210022 0.9619390666484833
vt 0.5000001192092896 1.0
vt 0.5000001192092896 0.9619389772415161
vt 0.32322263717651367 0.9267757534980774
vt 0.5000001192092896 1.0
vt 0.6913445591926575 0.9619389772415161
vt 0.676780104637146 0.9267756640911102
vt 0.5000001192092896 0.9619389772415161
vt 0.6913445591926575 0.9619389772415161
vt 0.853552520275116 0.8535526096820831
vt 0.8266432881355286 0.8266395330429077
vt 0.676780104637146 0.9267756640911102
vt 0.853552520275116 0.8535526096820831
vt 0.9619419574737549 0.6913405656814575
vt 0.9267775416374207 0.676775723695755
vt 0.8266432881355286 0.8266395330429077
vt 0.9619393944740295 0.4999998211860657
vt 0.8535524606704712 0.4999998211860657
vt 0.8266432285308838 0.6352978944778442
vt 0.9619419574737549 0.6913405656814575
vt 1.0 0.4999998211860657
vt 0.9619393944740295 0.4999998211860657
vt 0.9267775416374207 0.676775723695755
vt 0.03806060552597046 0.5000000596046448
vt 0.07322508096694946 0.6767759323120117
vt 0.17336195707321167 0.6352980732917786
vt 0.14644503593444824 0.5
vt 0.07322508096694946 0.6767759323120117
vt 0.17336195707321167 0.826639711856842
vt 0.2500026226043701 0.749998927116394
vt 0.17336195707321167 0.6352980732917786
vt 0.17336195707321167 0.826639711856842
vt 0.32322263717651367 0.9267757534980774
vt 0.3647013306617737 0.8266395926475525
vt 0.2500026226043701 0.749998927116394
vt 0.32322263717651367 0.9267757534980774
vt 0.5000001192092896 0.9619389772415161
vt 0.5000000596046448 0.8535524308681488
vt 0.3647013306617737 0.8266395926475525
vt 0.5000001192092896 0.9619389772415161
vt 0.676780104637146 0.9267756640911102
vt 0.6352988481521606 0.8266395032405853
vt 0.5000000596046448 0.8535524308681488
vt 0.676780104637146 0.9267756640911102
vt 0.8266432881355286 0.8266395330429077
vt 0.7500026226043701 0.7499988079071045
vt 0.6352988481521606 0.8266395032405853
vt 0.8266432881355286 0.8266395330429077
vt 0.9267775416374207 0.676775723695755
vt 0.8266432285308838 0.6352978944778442
vt 0.7500026226043701 0.7499988079071045
vt 0.14644503593444824 0.5
vt 0.17336195707321167 0.6352980732917786
vt 0.32322508096694946 0.5732224583625793
vt 0.3086581230163574 0.4999999403953552
vt 0.17336195707321167 0.6352980732917786
vt 0.2500026226043701 0.749998927116394
vt 0.3647013306617737 0.635297954082489
vt 0.32322508096694946 0.5732224583625793
vt 0.2500026226043701 0.749998927116394
vt 0.3647013306617737 0.8266395926475525
vt 0.4267800450325012 0.6767757534980774
vt 0.3647013306617737 0.635297954082489
vt 0.3647013306617737 0.8266395926475525
vt 0.5000000596046448 0.8535524308681488
vt 0.5000000596046448 0.6913409233093262
vt 0.4267800450325012 0.6767757534980774
vt 0.5000000596046448 0.8535524308681488
vt 0.6352988481521606 0.8266395032405853
vt 0.5732225775718689 0.6767757534980774
vt 0.5000000596046448 0.6913409233093262
vt 0.6352988481521606 0.8266395032405853
vt 0.7500026226043701 0.7499988079071045
vt 0.6352987885475159 0.6352978944778442
vt 0.5732225775718689 0.6767757534980774
vt 0.7500026226043701 0.7499988079071045
vt 0.8266432285308838 0.6352978944778442
vt 0.6767774820327759 0.5732223689556122
vt 0.6352987885475159 0.6352978944778442
vt 0.8266432285308838 0.6352978944778442
vt 0.8535524606704712 0.4999998211860657
vt 0.6913444995880127 0.4999998211860657
vt 0.6767774820327759 0.5732223689556122

g gold
s 1
usemtl gold
f 3/3/3 2/2/2 1/1/1 
f 5/5/5 4/4/4 1/1/1 
f 8/8/8 7/7/7 6/6/6 
f 10/10/10 9/9/9 6/6/6 
f 13/13/13 12/12/12 11/11/11 
f 15/15/15 14/14/14 11/11/11 
f 18/18/18 17/17/17 16/16/16 
f 20/20/20 19/19/19 16/16/16 
f 23/23/23 22/22/22 21/21/21 
f 25/25/25 24/24/24 21/21/21 
f 28/28/28 27/27/27 26/26/26 
f 30/30/30 29/29/29 26/26/26 
f 33/33/33 32/32/32 31/31/31 
f 35/35/35 34/34/34 31/31/31 
f 38/38/38 37/37/37 36/36/36 
f 40/40/40 39/39/39 36/36/36 
f 43/43/43 42/42/42 41/41/41 
f 44/44/44 43/43/43 41/41/41 
f 47/47/47 46/46/46 45/45/45 
f 48/48/48 47/47/47 45/45/45 
f 51/51/51 50/50/50 49/49/49 
f 52/52/52 51/51/51 49/49/49 
f 55/55/55 54/54/54 53/53/53 
f 56/56/56 55/55/55 53/53/53 
f 59/59/59 58/58/58 57/57/57 
f 60/60/60 59/59/59 57/57/57 
f 63/63/63 62/62/62 61/61/61 
f 64/64/64 63/63/63 61/61/61 
f 67/67/67 66/66/66 65/65/65 
f 68/68/68 67/67/67 65/65/65 
f 71/71/71 70/70/70 69/69/69 
f 72/72/72 71/71/71 69/69/69 
f 75/75/75 74/74/74 73/73/73 
f 76/76/76 75/75/75 73/73/73 
f 79/79/79 78/78/78 77/77/77 
f 80/80/80 79/79/79 77/77/77 
f 83/83/83 82/82/82 81/81/81 
f 84/84/84 83/83/83 81/81/81 
f 87/87/87 86/86/86 85/85/85 
f 88/88/88 87/87/87 85/85/85 
f 91/91/91 90/90/90 89/89/89 
f 92/92/92 91/91/91 89/89/89 
f 95/95/95 94/94/94 93/93/93 
f 96/96/96 95/95/95 93/93/93 
f 99/99/99 98/98/98 97/97/97 
f 100/100/100 99/99/99 97/97/97 
f 103/103/103 102/102/102 101/101/101 
f 104/104/104 103/103/103 101/101/101 
f 107/107/107 106/106/106 105/105/105 
f 108/108/108 107/107/107 105/105/105 
f 111/111/111 110/110/110 109/109/109 
f 112/112/112 111/111/111 109/109/109 
f 115/115/115 114/114/114 113/113/113 
f 116/116/116 115/115/115 113/113/113 
f 119/119/119 118/118/118 117/117/117 
f 120/120/120 119/119/119 117/117/117 
f 123/123/123 122/122/122 121/121/121 
f 124/124/124 123/123/123 121/121/121 
f 127/127/127 126/126/126 125/125/125 
f 128/128/128 127/127/127 125/125/125 
f 131/131/131 130/130/130 129/129/129 
f 132/132/132 131/131/131 129/129/129 
f 135/135/135 134/134/134 133/133/133 
f 136/136/136 135/135/135 133/133/133 
f 139/139/139 138/138/138 137/137/137 
f 140/140/140 139/139/139 137/137/137 
f 143/143/143 142/142/142 141/141/141 
f 144/144/144 143/143/143 141/141/141 
f 147/147/147 146/146/146 145/145/145 
f 148/148/148 147/147/147 145/145/145 
f 151/151/151 150/150/150 149/149/149 
f 152/152/152 151/151/151 149/149/149 
f 155/155/155 154/154/154 153/153/153 
f 156/156/156 155/155/155 153/153/153 
f 159/159/159 158/158/158 157/157/157 
f 160/160/160 159/159/159 157/157/157 
f 163/163/163 162/162/162 161/161/161 
f 164/164/164 163/163/163 161/161/161 
f 166/166/166 165/165/165 163/163/163 
f 167/167/167 166/166/166 163/163/163 
f 170/170/170 169/169/169 168/168/168 
f 171/171/171 170/170/170 168/168/168 
f 174/174/174 173/173/173 172/172/172 
f 175/175/175 174/174/174 172/172/172 
f 178/178/178 177/177/177 176/176/176 
f 179/179/179 178/178/178 176/176/176 
f 182/182/182 181/181/181 180/180/180 
f 183/183/183 182/182/182 180/180/180 
f 186/186/186 185/185/185 184/184/184 
f 187/187/187 186/186/186 184/184/184 
f 190/190/190 189/189/189 188/188/188 
f 191/191/191 190/190/190 188/188/188 
f 194/194/194 193/193/193 192/192/192 
f 195/195/195 194/194/194 192/192/192 
f 198/198/198 197/197/197 196/196/196 
f 199/199/199 198/198/198 196/196/196 
f 202/202/202 201/201/201 200/200/200 
f 203/203/203 202/202/202 200/200/200 
f 206/206/206 205/205/205 204/204/204 
f 207/207/207 206/206/206 204/204/204 
f 210/210/210 209/209/209 208/208/208 
f 211/211/211 210/210/210 208/208/208 
f 214/214/214 213/213/213 212/212/212 
f 215/215/215 214/214/214 212/212/212 
f 218/218/218 217/217/217 216/216/216 
f 219/219/219 218/218/218 216/216/216 
f 222/222/222 221/221/221 220/220/220 
f 223/223/223 222/222/222 220/220/220 
f 226/226/226 225/225/225 224/224/224 
f 227/227/227 226/226/226 224/224/224 
f 230/230/230 229/229/229 228/228/228 
f 231/231/231 230/230/230 228/228/228 
f 234/234/234 233/233/233 232/232/232 
f 236/236/236 235/235/235 232/232/232 
f 239/239/239 238/238/238 237/237/237 
f 241/241/241 240/240/240 237/237/237 
f 244/244/244 243/243/243 242/242/242 
f 246/246/246 245/245/245 242/242/242 
f 249/249/249 248/248/248 247/247/247 
f 251/251/251 250/250/250 247/247/247 
f 254/254/254 253/253/253 252/252/252 
f 256/256/256 255/255/255 252/252/252 
f 259/259/259 258/258/258 257/257/257 
f 261/261/261 260/260/260 257/257/257 
f 264/264/264 263/263/263 262/262/262 
f 266/266/266 265/265/265 262/262/262 
f 269/269/269 268/268/268 267/267/267 
f 271/271/271 270/270/270 267/267/267 
f 274/274/274 273/273/273 272/272/272 
f 275/275/275 274/274/274 272/272/272 
f 278/278/278 277/277/277 276/276/276 
f 279/279/279 278/278/278 276/276/276 
f 282/282/282 281/281/281 280/280/280 
f 283/283/283 282/282/282 280/280/280 
f 286/286/286 285/285/285 284/284/284 
f 287/287/287 286/286/286 284/284/284 
f 290/290/290 289/289/289 288/288/288 
f 291/291/291 290/290/290 288/288/288 
f 294/294/294 293/293/293 292/292/292 
f 295/295/295 294/294/294 292/292/292 
f 298/298/298 297/297/297 296/296/296 
f 299/299/299 298/298/298 296/296/296 
f 302/302/302 301/301/301 300/300/300 
f 303/303/303 302/302/302 300/300/300 
f 306/306/306 305/305/305 304/304/304 
f 307/307/307 306/306/306 304/304/304 
f 310/310/310 309/309/309 308/308/308 
f 311/311/311 310/310/310 308/308/308 
f 314/314/314 313/313/313 312/312/312 
f 315/315/315 314/314/314 312/312/312 
f 318/318/318 317/317/317 316/316/316 
f 319/319/319 318/318/318 316/316/316 
f 322/322/322 321/321/321 320/320/320 
f 323/323/323 322/322/322 320/320/320 
f 326/326/326 325/325/325 324/324/324 
f 327/327/327 326/326/326 324/324/324 
f 330/330/330 329/329/329 328/328/328 
f 331/331/331 330/330/330 328/328/328 
f 334/334/334 333/333/333 332/332/332 
f 335/335/335 334/334/334 332/332/332 
f 338/338/338 337/337/337 336/336/336 
f 339/339/339 338/338/338 336/336/336 
f 342/342/342 341/341/341 340/340/340 
f 343/343/343 342/342/342 340/340/340 
f 346/346/346 345/345/345 344/344/344 
f 347/347/347 346/346/346 344/344/344 
f 350/350/350 349/349/349 348/348/348 
f 351/351/351 350/350/350 348/348/348 
f 354/354/354 353/353/353 352/352/352 
f 355/355/355 354/354/354 352/352/352 
f 358/358/358 357/357/357 356/356/356 
f 359/359/359 358/358/358 356/356/356 
f 362/362/362 361/361/361 360/360/360 
f 363/363/363 362/362/362 360/360/360 
f 366/366/366 365/365/365 364/364/364 
f 367/367/367 366/366/366 364/364/364 
f 370/370/370 369/369/369 368/368/368 
f 371/371/371 370/370/370 368/368/368 
f 374/374/374 373/373/373 372/372/372 
f 375/375/375 374/374/374 372/372/372 
f 378/378/378 377/377/377 376/376/376 
f 379/379/379 378/378/378 376/376/376 
f 382/382/382 381/381/381 380/380/380 
f 383/383/383 382/382/382 380/380/380 
f 386/386/386 385/385/385 384/384/384 
f 387/387/387 386/386/386 384/384/384 
f 390/390/390 389/389/389 388/388/388 
f 391/391/391 390/390/390 388/388/388 
f 394/394/394 393/393/393 392/392/392 
f 395/395/395 394/394/394 392/392/392 
f 397/397/397 396/396/396 394/394/394 
f 398/398/398 397/397/397 394/394/394 
f 401/401/401 400/400/400 399/399/399 
f 402/402/402 401/401/401 399/399/399 
f 405/405/405 404/404/404 403/403/403 
f 406/406/406 405/405/405 403/403/403 
f 409/409/409 408/408/408 407/407/407 
f 410/410/410 409/409/409 407/407/407 
f 413/413/413 412/412/412 411/411/411 
f 414/414/414 413/413/413 411/411/411 
f 417/417/417 416/416/416 415/415/415 
f 418/418/418 417/417/417 415/415/415 
f 421/421/421 420/420/420 419/419/419 
f 422/422/422 421/421/421 419/419/419 
f 425/425/425 424/424/424 423/423/423 
f 426/426/426 425/425/425 423/423/423 
f 429/429/429 428/428/428 427/427/427 
f 430/430/430 429/429/429 427/427/427 
f 433/433/433 432/432/432 431/431/431 
f 434/434/434 433/433/433 431/431/431 
f 437/437/437 436/436/436 435/435/435 
f 438/438/438 437/437/437 435/435/435 
f 441/441/441 440/440/440 439/439/439 
f 442/442/442 441/441/441 439/439/439 
f 445/445/445 444/444/444 443/443/443 
f 446/446/446 445/445/445 443/443/443 
f 449/449/449 448/448/448 447/447/447 
f 450/450/450 449/449/449 447/447/447 
f 453/453/453 452/452/452 451/451/451 
f 454/454/454 453/453/453 451/451/451 
f 457/457/457 456/456/456 455/455/455 
f 458/458/458 457/457/457 455/455/455 
f 461/461/461 460/460/460 459/459/459 
f 462/462/462 461/461/461 459/459/459 

