[
	{
		"ID": 0,
		"SelectLeaderCondition": "BehaviorCondition_Never",
		"SLCParam": "",
		"LeaderBehavior": 0,
		"MemberBehavior": 0
	},
	{
		"ID": 1,
		"SelectLeaderCondition": "BehaviorCondition_EnemyEnterMoveAndAttackRangeOfMoveTarget",
		"SLCParam": "",
		"LeaderBehavior": 0,
		"MemberBehavior": 12
	},
	{
		"ID": 2,
		"SelectLeaderCondition": "BehaviorCondition_DoingBehaviorN",
		"SLCParam": "1",
		"LeaderBehavior": 1,
		"MemberBehavior": 1
	},
	{
		"ID": 3,
		"SelectLeaderCondition": "BehaviorCondition_EveryTurn",
		"SLCParam": "",
		"LeaderBehavior": 0,
		"MemberBehavior": 20
	},
	{
		"ID": 4,
		"SelectLeaderCondition": "BehaviorCondition_GroupMemberDead",
		"SLCParam": "1",
		"LeaderBehavior": 1,
		"MemberBehavior": 1
	},
	{
		"ID": 5,
		"SelectLeaderCondition": "BehaviorCondition_DoingBehaviorN",
		"SLCParam": "3127",
		"LeaderBehavior": 3127,
		"MemberBehavior": 3127
	},
	{
		"ID": 6,
		"SelectLeaderCondition": "BehaviorCondition_DoingBehaviorN",
		"SLCParam": "4016",
		"LeaderBehavior": 4016,
		"MemberBehavior": 4016
	},
	{
		"ID": 7,
		"SelectLeaderCondition": "BehaviorCondition_DoingBehaviorN",
		"SLCParam": "4102",
		"LeaderBehavior": 0,
		"MemberBehavior": 4102
	},
	{
		"ID": 8,
		"SelectLeaderCondition": "BehaviorCondition_DoingBehaviorN",
		"SLCParam": "4111",
		"LeaderBehavior": 4111,
		"MemberBehavior": 4111
	},
	{
		"ID": 9,
		"SelectLeaderCondition": "BehaviorCondition_DoingBehaviorN",
		"SLCParam": "5025",
		"LeaderBehavior": 5025,
		"MemberBehavior": 5025
	},
	{
		"ID": 10,
		"SelectLeaderCondition": "BehaviorCondition_GroupMemberDead",
		"SLCParam": "209",
		"LeaderBehavior": 209,
		"MemberBehavior": 209
	},
	{
		"ID": 11,
		"SelectLeaderCondition": "BehaviorCondition_GroupMemberDead",
		"SLCParam": "26462",
		"LeaderBehavior": 26462,
		"MemberBehavior": 26462
	},
	{
		"ID": 12,
		"SelectLeaderCondition": "BehaviorCondition_DoingBehaviorN",
		"SLCParam": "27502",
		"LeaderBehavior": 27502,
		"MemberBehavior": 27502
	},
	{
		"ID": 13,
		"SelectLeaderCondition": "BehaviorCondition_DoingBehaviorN",
		"SLCParam": "4275",
		"LeaderBehavior": 4275,
		"MemberBehavior": 4275
	},
	{
		"ID": 14,
		"SelectLeaderCondition": "BehaviorCondition_DoingBehaviorN",
		"SLCParam": "5122",
		"LeaderBehavior": 5122,
		"MemberBehavior": 5122
	},
	{
		"ID": 15,
		"SelectLeaderCondition": "BehaviorCondition_DoingBehaviorN",
		"SLCParam": "27519",
		"LeaderBehavior": 27519,
		"MemberBehavior": 27519
	},
	{
		"ID": 16,
		"SelectLeaderCondition": "BehaviorCondition_DoingBehaviorN",
		"SLCParam": "6003",
		"LeaderBehavior": 6003,
		"MemberBehavior": 6003
	},
	{
		"ID": 17,
		"SelectLeaderCondition": "BehaviorCondition_AttackedByEnemy",
		"SLCParam": "",
		"LeaderBehavior": 3093,
		"MemberBehavior": 3094
	}
]