[
	{
		"ID": 999,
		"Name": "临时对话",
		"NextDialogID": 0,
		"FrameType": 0,
		"CharName": "程序大人",
		"CharImageID": 1,
		"Position": 0,
		"EnterType": 1,
		"PreAnimation": "",
		"PreFacialAnimation": "",
		"IdleAnimation": "idle_Dialog_Worry",
		"IdleFacialAnimation": "idle_Dialog_Worry",
		"Voice": "",
		"Words": "这是999新手教程临时对话，请策划大人速速更正。",
		"WordsKey": ""
	},
	{
		"ID": 1,
		"Name": "地图移动教学",
		"NextDialogID": 2,
		"FrameType": 0,
		"CharName": "马修",
		"CharImageID": 1,
		"Position": 0,
		"EnterType": 1,
		"PreAnimation": "",
		"PreFacialAnimation": "",
		"IdleAnimation": "idle_Dialog_Worry",
		"IdleFacialAnimation": "idle_Dialog_Worry",
		"Voice": "",
		"Words": "头……好痛，这是哪里？",
		"WordsKey": ""
	},
	{
		"ID": 2,
		"Name": "地图移动教学",
		"NextDialogID": 3,
		"FrameType": 0,
		"CharName": "格尼尔",
		"CharImageID": 3,
		"Position": 1,
		"EnterType": 1,
		"PreAnimation": "",
		"PreFacialAnimation": "",
		"IdleAnimation": "idle_Dialog_Angry",
		"IdleFacialAnimation": "idle_Dialog_Angry",
		"Voice": "",
		"Words": "先不管在哪里！你压在我身上了！给我起来！",
		"WordsKey": ""
	},
	{
		"ID": 3,
		"Name": "地图移动教学",
		"NextDialogID": 4,
		"FrameType": 0,
		"CharName": "马修",
		"CharImageID": 1,
		"Position": 0,
		"EnterType": 1,
		"PreAnimation": "",
		"PreFacialAnimation": "",
		"IdleAnimation": "idle_Dialog_Worry",
		"IdleFacialAnimation": "idle_Dialog_Worry",
		"Voice": "",
		"Words": "……艾梅……艾梅达！？你在哪里？",
		"WordsKey": ""
	},
	{
		"ID": 4,
		"Name": "地图移动教学",
		"NextDialogID": 5,
		"FrameType": 0,
		"CharName": "艾梅达",
		"CharImageID": 4,
		"Position": 1,
		"EnterType": 1,
		"PreAnimation": "",
		"PreFacialAnimation": "",
		"IdleAnimation": "idle_Dialog_Worry",
		"IdleFacialAnimation": "idle_Dialog_Worry",
		"Voice": "",
		"Words": "……唔？……我好像做了一个被人追捕的奇怪的梦，然后我变成光飞走了……",
		"WordsKey": ""
	},
	{
		"ID": 5,
		"Name": "地图移动教学",
		"NextDialogID": 0,
		"FrameType": 0,
		"CharName": "格尼尔",
		"CharImageID": 3,
		"Position": 1,
		"EnterType": 1,
		"PreAnimation": "",
		"PreFacialAnimation": "",
		"IdleAnimation": "idle_Dialog_Firm",
		"IdleFacialAnimation": "idle_Dialog_Firm",
		"Voice": "",
		"Words": "没时间磨蹭了，敌人马上就要追来了，先离开这里再说。",
		"WordsKey": ""
	},
	{
		"ID": 6,
		"Name": "召唤",
		"NextDialogID": 7,
		"FrameType": 0,
		"CharName": "安杰利卡",
		"CharImageID": 213,
		"Position": 0,
		"EnterType": 1,
		"PreAnimation": "",
		"PreFacialAnimation": "",
		"IdleAnimation": "idle_Dialog_Normal",
		"IdleFacialAnimation": "idle_Dialog_Normal",
		"Voice": "StoryS80_045_01",
		"Words": "嘛？？？小姐姐你的身上似乎有「圣魔晶」的魔力残留啊。",
		"WordsKey": ""
	},
	{
		"ID": 7,
		"Name": "召唤",
		"NextDialogID": 8,
		"FrameType": 0,
		"CharName": "艾梅达",
		"CharImageID": 4,
		"Position": 1,
		"EnterType": 1,
		"PreAnimation": "",
		"PreFacialAnimation": "",
		"IdleAnimation": "idle_Dialog_Surprise",
		"IdleFacialAnimation": "idle_Dialog_Surprise",
		"Voice": "StoryS80_038_05",
		"Words": "诶？那是什么东西，我可完全不知道。",
		"WordsKey": ""
	},
	{
		"ID": 8,
		"Name": "召唤",
		"NextDialogID": 9,
		"FrameType": 0,
		"CharName": "格尼尔",
		"CharImageID": 3,
		"Position": 1,
		"EnterType": 1,
		"PreAnimation": "",
		"PreFacialAnimation": "",
		"IdleAnimation": "idle_Dialog_Worry",
		"IdleFacialAnimation": "idle_Dialog_Worry",
		"Voice": "StoryS80_039_10",
		"Words": "难道是艾梅达你被「光之女神」附身的时候残留下的？",
		"WordsKey": ""
	},
	{
		"ID": 9,
		"Name": "召唤",
		"NextDialogID": 0,
		"FrameType": 0,
		"CharName": "安杰利卡",
		"CharImageID": 213,
		"Position": 0,
		"EnterType": 1,
		"PreAnimation": "",
		"PreFacialAnimation": "",
		"IdleAnimation": "idle_Dialog_Normal",
		"IdleFacialAnimation": "idle_Dialog_Smile",
		"Voice": "StoryS80_045_02",
		"Words": "嘛……我听老师说过，使用「圣魔晶」可以将英灵召唤到现世，趁着这个机会我们来试试吧。",
		"WordsKey": ""
	},
	{
		"ID": 10,
		"Name": "召唤后",
		"NextDialogID": 11,
		"FrameType": 0,
		"CharName": "安杰利卡",
		"CharImageID": 213,
		"Position": 0,
		"EnterType": 1,
		"PreAnimation": "",
		"PreFacialAnimation": "",
		"IdleAnimation": "idle_Dialog_Normal",
		"IdleFacialAnimation": "idle_Dialog_Smile",
		"Voice": "StoryS80_045_03",
		"Words": "嘛……没想到真的成功了。英灵什么的，我可要好好研究研究。",
		"WordsKey": ""
	},
	{
		"ID": 11,
		"Name": "召唤后",
		"NextDialogID": 0,
		"FrameType": 0,
		"CharName": "安杰利卡",
		"CharImageID": 213,
		"Position": 0,
		"EnterType": 1,
		"PreAnimation": "",
		"PreFacialAnimation": "",
		"IdleAnimation": "idle_Dialog_Normal",
		"IdleFacialAnimation": "idle_Dialog_Smile",
		"Voice": "StoryS80_045_04",
		"Words": "为了感谢你们救了我，我再附赠一次友情召唤吧，老师之前给了我一张符文，刚好可以用上！",
		"WordsKey": ""
	},
	{
		"ID": 12,
		"Name": "回到世界",
		"NextDialogID": 13,
		"FrameType": 0,
		"CharName": "兰斯",
		"CharImageID": 16,
		"Position": 1,
		"EnterType": 1,
		"PreAnimation": "",
		"PreFacialAnimation": "",
		"IdleAnimation": "idle_Dialog_Normal",
		"IdleFacialAnimation": "idle_Dialog_Normal",
		"Voice": "StoryS80_023_01",
		"Words": "在下兰斯，愿在您麾下效劳。",
		"WordsKey": ""
	},
	{
		"ID": 13,
		"Name": "回到世界",
		"NextDialogID": 1300,
		"FrameType": 0,
		"CharName": "斯科特",
		"CharImageID": 24,
		"Position": 1,
		"EnterType": 1,
		"PreAnimation": "",
		"PreFacialAnimation": "",
		"IdleAnimation": "idle_Dialog_Normal",
		"IdleFacialAnimation": "idle_Dialog_Normal",
		"Voice": "StoryS80_032_01",
		"Words": "那个……我是萨尔拉斯的斯科特，很高兴能成为你的力量。",
		"WordsKey": ""
	},
	{
		"ID": 1300,
		"Name": "回到世界",
		"NextDialogID": 1301,
		"FrameType": 0,
		"CharName": "安杰利卡",
		"CharImageID": 213,
		"Position": 0,
		"EnterType": 1,
		"PreAnimation": "",
		"PreFacialAnimation": "",
		"IdleAnimation": "idle_Dialog_Normal",
		"IdleFacialAnimation": "idle_Dialog_Smile",
		"Voice": "StoryS80_045_05",
		"Words": "嘛，这还真是两位活生生的英灵小哥啊！",
		"WordsKey": ""
	},
	{
		"ID": 1301,
		"Name": "回到世界",
		"NextDialogID": 1302,
		"FrameType": 0,
		"CharName": "艾梅达",
		"CharImageID": 4,
		"Position": 1,
		"EnterType": 1,
		"PreAnimation": "",
		"PreFacialAnimation": "",
		"IdleAnimation": "idle_Dialog_Worry",
		"IdleFacialAnimation": "idle_Dialog_Worry",
		"Voice": "StoryS80_038_06",
		"Words": "我对身边发生的事真是越来越弄不懂了……",
		"WordsKey": ""
	},
	{
		"ID": 1302,
		"Name": "回到世界",
		"NextDialogID": 0,
		"FrameType": 0,
		"CharName": "马修",
		"CharImageID": 1,
		"Position": 0,
		"EnterType": 1,
		"PreAnimation": "",
		"PreFacialAnimation": "",
		"IdleAnimation": "idle_Dialog_Normal",
		"IdleFacialAnimation": "idle_Dialog_Normal",
		"Voice": "StoryS80_037_06",
		"Words": "等见到了杰西卡大师就什么都能明白了吧。",
		"WordsKey": ""
	},
	{
		"ID": 14,
		"Name": "时空裂缝",
		"NextDialogID": 15,
		"FrameType": 0,
		"CharName": "杰西卡",
		"CharImageID": 22,
		"Position": 0,
		"EnterType": 1,
		"PreAnimation": "",
		"PreFacialAnimation": "",
		"IdleAnimation": "idle_Dialog_Normal",
		"IdleFacialAnimation": "idle_Dialog_Firm",
		"Voice": "StoryS80_030_01",
		"Words": "这儿的每一场战斗都是曾经圣剑战争的记忆，亲自去体验它吧。",
		"WordsKey": ""
	},
	{
		"ID": 15,
		"Name": "时空裂缝",
		"NextDialogID": 0,
		"FrameType": 0,
		"CharName": "杰西卡",
		"CharImageID": 22,
		"Position": 0,
		"EnterType": 1,
		"PreAnimation": "",
		"PreFacialAnimation": "",
		"IdleAnimation": "idle_Dialog_Normal",
		"IdleFacialAnimation": "idle_Dialog_Firm",
		"Voice": "StoryS80_030_02",
		"Words": "你一定会对以往的历史和现在的使命有更深刻的了解。",
		"WordsKey": ""
	},
	{
		"ID": 16,
		"Name": "分支路线",
		"NextDialogID": 17,
		"FrameType": 0,
		"CharName": "艾梅达",
		"CharImageID": 4,
		"Position": 0,
		"EnterType": 1,
		"PreAnimation": "",
		"PreFacialAnimation": "",
		"IdleAnimation": "idle_Dialog_Normal",
		"IdleFacialAnimation": "idle_Dialog_Normal",
		"Voice": "StoryS80_038_10",
		"Words": "呐呐，这儿好像有条岔路啊！",
		"WordsKey": ""
	},
	{
		"ID": 17,
		"Name": "分支路线",
		"NextDialogID": 18,
		"FrameType": 0,
		"CharName": "马修",
		"CharImageID": 1,
		"Position": 1,
		"EnterType": 1,
		"PreAnimation": "",
		"PreFacialAnimation": "",
		"IdleAnimation": "idle_Dialog_Worry",
		"IdleFacialAnimation": "idle_Dialog_Worry",
		"Voice": "StoryS80_037_10",
		"Words": "那个方向……我能感受到魔物的气息。",
		"WordsKey": ""
	},
	{
		"ID": 18,
		"Name": "分支路线",
		"NextDialogID": 19,
		"FrameType": 0,
		"CharName": "马修",
		"CharImageID": 1,
		"Position": 1,
		"EnterType": 1,
		"PreAnimation": "",
		"PreFacialAnimation": "",
		"IdleAnimation": "idle_Dialog_Worry",
		"IdleFacialAnimation": "idle_Dialog_Worry",
		"Voice": "StoryS80_037_11",
		"Words": "难道袭击商队的魔物和那个山谷有什么联系么？",
		"WordsKey": ""
	},
	{
		"ID": 19,
		"Name": "分支路线",
		"NextDialogID": 20,
		"FrameType": 0,
		"CharName": "格尼尔",
		"CharImageID": 3,
		"Position": 0,
		"EnterType": 1,
		"PreAnimation": "",
		"PreFacialAnimation": "",
		"IdleAnimation": "idle_Dialog_Normal",
		"IdleFacialAnimation": "idle_Dialog_Normal",
		"Voice": "StoryS80_039_13",
		"Words": "喂，马修。现在可不是相信你这种不可靠的灵感的时候啊。",
		"WordsKey": ""
	},
	{
		"ID": 20,
		"Name": "分支路线",
		"NextDialogID": 21,
		"FrameType": 0,
		"CharName": "艾梅达",
		"CharImageID": 4,
		"Position": 1,
		"EnterType": 1,
		"PreAnimation": "",
		"PreFacialAnimation": "",
		"IdleAnimation": "idle_Dialog_Normal",
		"IdleFacialAnimation": "idle_Dialog_Normal",
		"Voice": "StoryS80_038_11",
		"Words": "可是，如果真的有魔物在山谷里放着不管的话，像刚才那种袭击事件可不会只有一起哦？",
		"WordsKey": ""
	},
	{
		"ID": 21,
		"Name": "分支路线",
		"NextDialogID": 0,
		"FrameType": 0,
		"CharName": "格尼尔",
		"CharImageID": 3,
		"Position": 0,
		"EnterType": 1,
		"PreAnimation": "",
		"PreFacialAnimation": "",
		"IdleAnimation": "idle_Dialog_Normal",
		"IdleFacialAnimation": "idle_Dialog_Normal",
		"Voice": "StoryS80_039_14",
		"Words": "是要继续往前走呢，还是先去山谷里看看。这就交给马修来判断吧！",
		"WordsKey": ""
	},
	{
		"ID": 22,
		"Name": "分支Boss",
		"NextDialogID": 23,
		"FrameType": 0,
		"CharName": "马修",
		"CharImageID": 1,
		"Position": 0,
		"EnterType": 1,
		"PreAnimation": "",
		"PreFacialAnimation": "",
		"IdleAnimation": "idle_Dialog_Firm",
		"IdleFacialAnimation": "idle_Dialog_Firm",
		"Voice": "StoryS80_037_12",
		"Words": "前方是被帝国军封锁的港口，要去看看么？听说由于帝国军的封锁，附近的渔民都无法出海维生了。",
		"WordsKey": ""
	},
	{
		"ID": 23,
		"Name": "分支Boss",
		"NextDialogID": 24,
		"FrameType": 0,
		"CharName": "艾梅达",
		"CharImageID": 4,
		"Position": 1,
		"EnterType": 1,
		"PreAnimation": "",
		"PreFacialAnimation": "",
		"IdleAnimation": "idle_Dialog_Angry",
		"IdleFacialAnimation": "idle_Dialog_Angry",
		"Voice": "StoryS80_038_12",
		"Words": "这些帝国军人不就是个个蛮不讲理的人么。我们快去解放那个港口吧。",
		"WordsKey": ""
	},
	{
		"ID": 24,
		"Name": "分支Boss",
		"NextDialogID": 25,
		"FrameType": 0,
		"CharName": "格尼尔",
		"CharImageID": 3,
		"Position": 1,
		"EnterType": 1,
		"PreAnimation": "",
		"PreFacialAnimation": "",
		"IdleAnimation": "idle_Dialog_Normal",
		"IdleFacialAnimation": "idle_Dialog_Normal",
		"Voice": "StoryS80_039_15",
		"Words": "以我们现在的实力似乎很难做到。或许等我们实力再强一些了再来会更好。",
		"WordsKey": ""
	},
	{
		"ID": 25,
		"Name": "分支Boss",
		"NextDialogID": 0,
		"FrameType": 0,
		"CharName": "格尼尔",
		"CharImageID": 3,
		"Position": 1,
		"EnterType": 1,
		"PreAnimation": "",
		"PreFacialAnimation": "",
		"IdleAnimation": "idle_Dialog_Normal",
		"IdleFacialAnimation": "idle_Dialog_Normal",
		"Voice": "StoryS80_039_16",
		"Words": "具体要怎么做，就听马修你的了。",
		"WordsKey": ""
	},
	{
		"ID": 26,
		"Name": "使用经验药",
		"NextDialogID": 27,
		"FrameType": 0,
		"CharName": "安杰利卡",
		"CharImageID": 213,
		"Position": 0,
		"EnterType": 1,
		"PreAnimation": "",
		"PreFacialAnimation": "",
		"IdleAnimation": "idle_Dialog_Normal",
		"IdleFacialAnimation": "idle_Dialog_Normal",
		"Voice": "StoryS80_045_06",
		"Words": "嘛……作为成为同伴的谢礼。我把我珍藏的经验药剂送给你们吧。",
		"WordsKey": ""
	},
	{
		"ID": 27,
		"Name": "使用经验药",
		"NextDialogID": 0,
		"FrameType": 0,
		"CharName": "安杰利卡",
		"CharImageID": 213,
		"Position": 0,
		"EnterType": 1,
		"PreAnimation": "",
		"PreFacialAnimation": "",
		"IdleAnimation": "idle_Dialog_Normal",
		"IdleFacialAnimation": "idle_Dialog_Normal",
		"Voice": "StoryS80_045_07",
		"Words": "使用这些药剂，可以提升大家的实力哦，现在就试试看吧！",
		"WordsKey": ""
	},
	{
		"ID": 28,
		"Name": "使用经验药",
		"NextDialogID": 29,
		"FrameType": 0,
		"CharName": "安杰利卡",
		"CharImageID": 213,
		"Position": 0,
		"EnterType": 1,
		"PreAnimation": "",
		"PreFacialAnimation": "",
		"IdleAnimation": "idle_Dialog_Normal",
		"IdleFacialAnimation": "idle_Dialog_Smile",
		"Voice": "StoryS80_045_08",
		"Words": "嘛……看来这些药剂真的有效啊，我还以为只是说说的呢。",
		"WordsKey": ""
	},
	{
		"ID": 29,
		"Name": "使用经验药",
		"NextDialogID": 0,
		"FrameType": 0,
		"CharName": "安杰利卡",
		"CharImageID": 213,
		"Position": 0,
		"EnterType": 1,
		"PreAnimation": "",
		"PreFacialAnimation": "",
		"IdleAnimation": "idle_Dialog_Normal",
		"IdleFacialAnimation": "idle_Dialog_Smile",
		"Voice": "StoryS80_045_09",
		"Words": "所以，我还听说按住经验药剂可以持续使用哦，应该也有效吧……",
		"WordsKey": ""
	},
	{
		"ID": 30,
		"Name": "英雄升星",
		"NextDialogID": 31,
		"FrameType": 0,
		"CharName": "杰西卡",
		"CharImageID": 22,
		"Position": 0,
		"EnterType": 1,
		"PreAnimation": "",
		"PreFacialAnimation": "",
		"IdleAnimation": "idle_Dialog_Normal",
		"IdleFacialAnimation": "idle_Dialog_Normal",
		"Voice": "StoryS80_030_03",
		"Words": "随着你们自身的成长，你们的记忆、思考与精神力也将以「记忆碎片」的形式展现。",
		"WordsKey": ""
	},
	{
		"ID": 31,
		"Name": "英雄升星",
		"NextDialogID": 32,
		"FrameType": 0,
		"CharName": "马修",
		"CharImageID": 1,
		"Position": 1,
		"EnterType": 1,
		"PreAnimation": "",
		"PreFacialAnimation": "",
		"IdleAnimation": "idle_Dialog_Worry",
		"IdleFacialAnimation": "idle_Dialog_Worry",
		"Voice": "StoryS80_037_13",
		"Words": "我们的记忆……也会么？",
		"WordsKey": ""
	},
	{
		"ID": 32,
		"Name": "英雄升星",
		"NextDialogID": 33,
		"FrameType": 0,
		"CharName": "杰西卡",
		"CharImageID": 22,
		"Position": 0,
		"EnterType": 1,
		"PreAnimation": "",
		"PreFacialAnimation": "",
		"IdleAnimation": "idle_Dialog_Normal",
		"IdleFacialAnimation": "idle_Dialog_Normal",
		"Voice": "StoryS80_030_04",
		"Words": "是的。借由这些「记忆碎片」，将过往的经历、体会和成长铭刻在内心，各位将会获得更大的突破。",
		"WordsKey": ""
	},
	{
		"ID": 33,
		"Name": "英雄升星",
		"NextDialogID": 0,
		"FrameType": 0,
		"CharName": "杰西卡",
		"CharImageID": 22,
		"Position": 0,
		"EnterType": 1,
		"PreAnimation": "",
		"PreFacialAnimation": "",
		"IdleAnimation": "idle_Dialog_Normal",
		"IdleFacialAnimation": "idle_Dialog_Normal",
		"Voice": "StoryS80_030_05",
		"Words": "马修，来迎接你自己的第一次成长吧。",
		"WordsKey": ""
	},
	{
		"ID": 34,
		"Name": "更换头像",
		"NextDialogID": 35,
		"FrameType": 0,
		"CharName": "安杰利卡",
		"CharImageID": 213,
		"Position": 0,
		"EnterType": 1,
		"PreAnimation": "",
		"PreFacialAnimation": "",
		"IdleAnimation": "idle_Dialog_Normal",
		"IdleFacialAnimation": "idle_Dialog_Smile",
		"Voice": "StoryS80_045_10",
		"Words": "嘛…前方就是杰西卡老师的住所了。",
		"WordsKey": ""
	},
	{
		"ID": 35,
		"Name": "更换头像",
		"NextDialogID": 36,
		"FrameType": 0,
		"CharName": "马修",
		"CharImageID": 1,
		"Position": 1,
		"EnterType": 1,
		"PreAnimation": "",
		"PreFacialAnimation": "",
		"IdleAnimation": "idle_Dialog_Firm",
		"IdleFacialAnimation": "idle_Dialog_Firm",
		"Voice": "StoryS80_037_14",
		"Words": "艾梅，接下来由你来带路吧，作为「光之女神」的附身者，来正式和杰西卡大师见面。",
		"WordsKey": ""
	},
	{
		"ID": 36,
		"Name": "更换头像",
		"NextDialogID": 0,
		"FrameType": 0,
		"CharName": "艾梅达",
		"CharImageID": 4,
		"Position": 0,
		"EnterType": 1,
		"PreAnimation": "",
		"PreFacialAnimation": "",
		"IdleAnimation": "idle_Dialog_Worry",
		"IdleFacialAnimation": "idle_Dialog_Worry",
		"Voice": "StoryS80_038_13",
		"Words": "「光之女神」的附身者么？到现在我都还有些不知所措呢。",
		"WordsKey": ""
	},
	{
		"ID": 37,
		"Name": "碎片召唤",
		"NextDialogID": 38,
		"FrameType": 0,
		"CharName": "杰西卡",
		"CharImageID": 22,
		"Position": 0,
		"EnterType": 1,
		"PreAnimation": "",
		"PreFacialAnimation": "",
		"IdleAnimation": "idle_Dialog_Normal",
		"IdleFacialAnimation": "idle_Dialog_Normal",
		"Voice": "StoryS80_030_06",
		"Words": "继续前进下去，你们面临的挑战将会越来越大。",
		"WordsKey": ""
	},
	{
		"ID": 38,
		"Name": "碎片召唤",
		"NextDialogID": 39,
		"FrameType": 0,
		"CharName": "杰西卡",
		"CharImageID": 22,
		"Position": 0,
		"EnterType": 1,
		"PreAnimation": "",
		"PreFacialAnimation": "",
		"IdleAnimation": "idle_Dialog_Normal",
		"IdleFacialAnimation": "idle_Dialog_Normal",
		"Voice": "StoryS80_030_07",
		"Words": "现在的我并不在力量的巅峰时期，能够提供的也只有知识和记忆上的帮助。",
		"WordsKey": ""
	},
	{
		"ID": 39,
		"Name": "碎片召唤",
		"NextDialogID": 40,
		"FrameType": 0,
		"CharName": "杰西卡",
		"CharImageID": 22,
		"Position": 0,
		"EnterType": 1,
		"PreAnimation": "",
		"PreFacialAnimation": "",
		"IdleAnimation": "idle_Dialog_Normal",
		"IdleFacialAnimation": "idle_Dialog_Normal",
		"Voice": "StoryS80_030_08",
		"Words": "唯一能为你们做的，就是把我的「记忆碎片」给予你们，召唤出过去的我来帮助你们作战吧。",
		"WordsKey": ""
	},
	{
		"ID": 40,
		"Name": "碎片召唤",
		"NextDialogID": 41,
		"FrameType": 0,
		"CharName": "艾梅达",
		"CharImageID": 4,
		"Position": 1,
		"EnterType": 1,
		"PreAnimation": "",
		"PreFacialAnimation": "",
		"IdleAnimation": "idle_Dialog_Surprise",
		"IdleFacialAnimation": "idle_Dialog_Surprise",
		"Voice": "StoryS80_038_14",
		"Words": "过去的……老师的英灵么？",
		"WordsKey": ""
	},
	{
		"ID": 41,
		"Name": "碎片召唤",
		"NextDialogID": 42,
		"FrameType": 0,
		"CharName": "杰西卡",
		"CharImageID": 22,
		"Position": 0,
		"EnterType": 1,
		"PreAnimation": "",
		"PreFacialAnimation": "",
		"IdleAnimation": "idle_Dialog_Normal",
		"IdleFacialAnimation": "idle_Dialog_Firm",
		"Voice": "StoryS80_030_09",
		"Words": "没错，虽然作为英灵，她的力量还需要成长，但目前一定能成为你们宝贵的战力。",
		"WordsKey": ""
	},
	{
		"ID": 42,
		"Name": "碎片召唤",
		"NextDialogID": 0,
		"FrameType": 0,
		"CharName": "杰西卡",
		"CharImageID": 22,
		"Position": 0,
		"EnterType": 1,
		"PreAnimation": "",
		"PreFacialAnimation": "",
		"IdleAnimation": "idle_Dialog_Normal",
		"IdleFacialAnimation": "idle_Dialog_Firm",
		"Voice": "StoryS80_030_10",
		"Words": "随着时空裂缝的进行，你们将会获得各位英灵的记忆碎片。现在就开始召唤吧。",
		"WordsKey": ""
	},
	{
		"ID": 43,
		"Name": "竞技场",
		"NextDialogID": 44,
		"FrameType": 0,
		"CharName": "格尼尔",
		"CharImageID": 3,
		"Position": 0,
		"EnterType": 1,
		"PreAnimation": "",
		"PreFacialAnimation": "",
		"IdleAnimation": "idle_Dialog_Normal",
		"IdleFacialAnimation": "idle_Dialog_Normal",
		"Voice": "StoryS80_039_17",
		"Words": "喂喂，马修，城里似乎有个竞技场啊。陪我去参加吧。",
		"WordsKey": ""
	},
	{
		"ID": 44,
		"Name": "竞技场",
		"NextDialogID": 45,
		"FrameType": 0,
		"CharName": "马修",
		"CharImageID": 1,
		"Position": 1,
		"EnterType": 1,
		"PreAnimation": "",
		"PreFacialAnimation": "",
		"IdleAnimation": "idle_Dialog_Worry",
		"IdleFacialAnimation": "idle_Dialog_Worry",
		"Voice": "StoryS80_037_15",
		"Words": "帝国兵也就罢了，艾梅肯定不会喜欢我们没理由的打打杀杀的。",
		"WordsKey": ""
	},
	{
		"ID": 45,
		"Name": "竞技场",
		"NextDialogID": 46,
		"FrameType": 0,
		"CharName": "格尼尔",
		"CharImageID": 3,
		"Position": 0,
		"EnterType": 1,
		"PreAnimation": "",
		"PreFacialAnimation": "",
		"IdleAnimation": "idle_Dialog_Smile",
		"IdleFacialAnimation": "idle_Dialog_Smile",
		"Voice": "StoryS80_039_18",
		"Words": "那是你的\"艾梅\"，她才不会管我做什么呢。你就不想赚点零花钱么？说不定还能引起一些女孩的注意哦。",
		"WordsKey": ""
	},
	{
		"ID": 46,
		"Name": "竞技场",
		"NextDialogID": 47,
		"FrameType": 0,
		"CharName": "格尼尔",
		"CharImageID": 3,
		"Position": 0,
		"EnterType": 1,
		"PreAnimation": "",
		"PreFacialAnimation": "",
		"IdleAnimation": "idle_Dialog_Smile",
		"IdleFacialAnimation": "idle_Dialog_Smile",
		"Voice": "StoryS80_039_19",
		"Words": "怎么样？这可是作为兄长的我难得一次对你的请求哦。",
		"WordsKey": ""
	},
	{
		"ID": 47,
		"Name": "竞技场",
		"NextDialogID": 0,
		"FrameType": 0,
		"CharName": "马修",
		"CharImageID": 1,
		"Position": 1,
		"EnterType": 1,
		"PreAnimation": "",
		"PreFacialAnimation": "",
		"IdleAnimation": "idle_Dialog_Shy",
		"IdleFacialAnimation": "idle_Dialog_Shy",
		"Voice": "StoryS80_037_16",
		"Words": "……别乱说话。这次就陪你去看看吧，就一次哦。",
		"WordsKey": ""
	},
	{
		"ID": 48,
		"Name": "职业进阶",
		"NextDialogID": 49,
		"FrameType": 0,
		"CharName": "杰西卡",
		"CharImageID": 22,
		"Position": 0,
		"EnterType": 1,
		"PreAnimation": "",
		"PreFacialAnimation": "",
		"IdleAnimation": "idle_Dialog_Normal",
		"IdleFacialAnimation": "idle_Dialog_Normal",
		"Voice": "StoryS80_030_11",
		"Words": "通过在时空裂缝中获得的「职业材料」，可以进行职业的进阶。",
		"WordsKey": ""
	},
	{
		"ID": 49,
		"Name": "职业进阶",
		"NextDialogID": 0,
		"FrameType": 0,
		"CharName": "杰西卡",
		"CharImageID": 22,
		"Position": 0,
		"EnterType": 1,
		"PreAnimation": "",
		"PreFacialAnimation": "",
		"IdleAnimation": "idle_Dialog_Normal",
		"IdleFacialAnimation": "idle_Dialog_Normal",
		"Voice": "StoryS80_030_12",
		"Words": "马修，现在就来进行你的「职业进阶」仪式吧。",
		"WordsKey": ""
	},
	{
		"ID": 50,
		"Name": "转职",
		"NextDialogID": 51,
		"FrameType": 0,
		"CharName": "马修",
		"CharImageID": 1,
		"Position": 1,
		"EnterType": 1,
		"PreAnimation": "",
		"PreFacialAnimation": "",
		"IdleAnimation": "idle_Dialog_Normal",
		"IdleFacialAnimation": "idle_Dialog_Firm",
		"Voice": "StoryS80_037_17",
		"Words": "我的力量好像提升了不少。",
		"WordsKey": ""
	},
	{
		"ID": 51,
		"Name": "转职",
		"NextDialogID": 0,
		"FrameType": 0,
		"CharName": "杰西卡",
		"CharImageID": 22,
		"Position": 0,
		"EnterType": 1,
		"PreAnimation": "",
		"PreFacialAnimation": "",
		"IdleAnimation": "idle_Dialog_Normal",
		"IdleFacialAnimation": "idle_Dialog_Normal",
		"Voice": "StoryS80_030_13",
		"Words": "没错，而且由于你精通了之前的职业，你已经可以「转职」成更高级的职业了。",
		"WordsKey": ""
	},
	{
		"ID": 52,
		"Name": "转职",
		"NextDialogID": 53,
		"FrameType": 0,
		"CharName": "杰西卡",
		"CharImageID": 22,
		"Position": 0,
		"EnterType": 1,
		"PreAnimation": "",
		"PreFacialAnimation": "",
		"IdleAnimation": "idle_Dialog_Normal",
		"IdleFacialAnimation": "idle_Dialog_Normal",
		"Voice": "StoryS80_030_14",
		"Words": "马修，恭喜你成为正式的战士了，一定要继续磨练自己的能力，让自己早日成为英雄。",
		"WordsKey": ""
	},
	{
		"ID": 53,
		"Name": "转职",
		"NextDialogID": 54,
		"FrameType": 0,
		"CharName": "马修",
		"CharImageID": 1,
		"Position": 1,
		"EnterType": 1,
		"PreAnimation": "",
		"PreFacialAnimation": "",
		"IdleAnimation": "idle_Dialog_Normal",
		"IdleFacialAnimation": "idle_Dialog_Firm",
		"Voice": "StoryS80_037_18",
		"Words": "是，老师。",
		"WordsKey": ""
	},
	{
		"ID": 54,
		"Name": "转职",
		"NextDialogID": 55,
		"FrameType": 0,
		"CharName": "格尼尔",
		"CharImageID": 3,
		"Position": 0,
		"EnterType": 1,
		"PreAnimation": "",
		"PreFacialAnimation": "",
		"IdleAnimation": "idle_Dialog_Normal",
		"IdleFacialAnimation": "idle_Dialog_Normal",
		"Voice": "StoryS80_039_20",
		"Words": "喂喂，我可不想被马修你给甩下啊，也帮我和艾梅达去凑齐职业材料吧",
		"WordsKey": ""
	},
	{
		"ID": 55,
		"Name": "转职",
		"NextDialogID": 0,
		"FrameType": 0,
		"CharName": "马修",
		"CharImageID": 1,
		"Position": 1,
		"EnterType": 1,
		"PreAnimation": "",
		"PreFacialAnimation": "",
		"IdleAnimation": "idle_Dialog_Normal",
		"IdleFacialAnimation": "idle_Dialog_Firm",
		"Voice": "StoryS80_037_19",
		"Words": "好！我们继续在时空裂缝里探索吧。",
		"WordsKey": ""
	},
	{
		"ID": 56,
		"Name": "随机事件",
		"NextDialogID": 57,
		"FrameType": 0,
		"CharName": "马修",
		"CharImageID": 1,
		"Position": 0,
		"EnterType": 1,
		"PreAnimation": "",
		"PreFacialAnimation": "",
		"IdleAnimation": "idle_Dialog_Normal",
		"IdleFacialAnimation": "idle_Dialog_Firm",
		"Voice": "StoryS80_037_20",
		"Words": "帝国军似乎出动了好多支部队在各个地点打压我们啊。难道村子也是？",
		"WordsKey": ""
	},
	{
		"ID": 57,
		"Name": "随机事件",
		"NextDialogID": 58,
		"FrameType": 0,
		"CharName": "格尼尔",
		"CharImageID": 3,
		"Position": 1,
		"EnterType": 1,
		"PreAnimation": "",
		"PreFacialAnimation": "",
		"IdleAnimation": "idle_Dialog_Normal",
		"IdleFacialAnimation": "idle_Dialog_Firm",
		"Voice": "StoryS80_039_21",
		"Words": "可恶！现在没工夫管这些部队了，先去看看村子怎样了。",
		"WordsKey": ""
	},
	{
		"ID": 58,
		"Name": "随机事件",
		"NextDialogID": 0,
		"FrameType": 0,
		"CharName": "艾梅达",
		"CharImageID": 4,
		"Position": 0,
		"EnterType": 1,
		"PreAnimation": "",
		"PreFacialAnimation": "",
		"IdleAnimation": "idle_Dialog_Normal",
		"IdleFacialAnimation": "idle_Dialog_Firm",
		"Voice": "StoryS80_038_15",
		"Words": "嗯！先去村子。这些帝国军一定没那么快撤退的。",
		"WordsKey": ""
	},
	{
		"ID": 59,
		"Name": "装备",
		"NextDialogID": 60,
		"FrameType": 0,
		"CharName": "安杰利卡",
		"CharImageID": 213,
		"Position": 0,
		"EnterType": 1,
		"PreAnimation": "",
		"PreFacialAnimation": "",
		"IdleAnimation": "idle_Dialog_Normal",
		"IdleFacialAnimation": "idle_Dialog_Normal",
		"Voice": "StoryS80_045_11",
		"Words": "嘛……好像从刚才的战斗中获得了「装备」哦？",
		"WordsKey": ""
	},
	{
		"ID": 60,
		"Name": "装备",
		"NextDialogID": 61,
		"FrameType": 0,
		"CharName": "格尼尔",
		"CharImageID": 3,
		"Position": 1,
		"EnterType": 1,
		"PreAnimation": "",
		"PreFacialAnimation": "",
		"IdleAnimation": "idle_Dialog_Smile",
		"IdleFacialAnimation": "idle_Dialog_Smile",
		"Voice": "StoryS80_039_22",
		"Words": "终于来啦！作为英雄所必不可少的，就是各种有着神奇能力的「装备」了吧！",
		"WordsKey": ""
	},
	{
		"ID": 61,
		"Name": "装备",
		"NextDialogID": 62,
		"FrameType": 0,
		"CharName": "安杰利卡",
		"CharImageID": 213,
		"Position": 0,
		"EnterType": 1,
		"PreAnimation": "",
		"PreFacialAnimation": "",
		"IdleAnimation": "idle_Dialog_Normal",
		"IdleFacialAnimation": "idle_Dialog_Normal",
		"Voice": "StoryS80_045_12",
		"Words": "嘛……话说如此，但刚才获得的好像并不是什么稀有的货色哦……",
		"WordsKey": ""
	},
	{
		"ID": 62,
		"Name": "装备",
		"NextDialogID": 63,
		"FrameType": 0,
		"CharName": "格尼尔",
		"CharImageID": 3,
		"Position": 1,
		"EnterType": 1,
		"PreAnimation": "",
		"PreFacialAnimation": "",
		"IdleAnimation": "idle_Dialog_Smile",
		"IdleFacialAnimation": "idle_Dialog_Smile",
		"Voice": "StoryS80_039_23",
		"Words": "没关系，没关系。总比目前空手作战要强的多了。",
		"WordsKey": ""
	},
	{
		"ID": 63,
		"Name": "装备",
		"NextDialogID": 0,
		"FrameType": 0,
		"CharName": "安杰利卡",
		"CharImageID": 213,
		"Position": 0,
		"EnterType": 1,
		"PreAnimation": "",
		"PreFacialAnimation": "",
		"IdleAnimation": "idle_Dialog_Normal",
		"IdleFacialAnimation": "idle_Dialog_Smile",
		"Voice": "StoryS80_045_13",
		"Words": "嘛……那就把获得的这些「装备」快点穿上吧！",
		"WordsKey": ""
	},
	{
		"ID": 64,
		"Name": "装备",
		"NextDialogID": 65,
		"FrameType": 0,
		"CharName": "安杰利卡",
		"CharImageID": 213,
		"Position": 0,
		"EnterType": 1,
		"PreAnimation": "",
		"PreFacialAnimation": "",
		"IdleAnimation": "idle_Dialog_Normal",
		"IdleFacialAnimation": "idle_Dialog_Smile",
		"Voice": "StoryS80_045_14",
		"Words": "嘛……小哥你这样看着像样多了啊！记得把所有可用的「装备」都穿上。",
		"WordsKey": ""
	},
	{
		"ID": 65,
		"Name": "装备",
		"NextDialogID": 0,
		"FrameType": 0,
		"CharName": "安杰利卡",
		"CharImageID": 213,
		"Position": 0,
		"EnterType": 1,
		"PreAnimation": "",
		"PreFacialAnimation": "",
		"IdleAnimation": "idle_Dialog_Normal",
		"IdleFacialAnimation": "idle_Dialog_Smile",
		"Voice": "StoryS80_045_15",
		"Words": "以后你们肯定还会获得更多更好的「装备」，记得随时替换哦。",
		"WordsKey": ""
	},
	{
		"ID": 6500,
		"Name": "装备",
		"NextDialogID": 6501,
		"FrameType": 0,
		"CharName": "安杰利卡",
		"CharImageID": 213,
		"Position": 0,
		"EnterType": 1,
		"PreAnimation": "",
		"PreFacialAnimation": "",
		"IdleAnimation": "idle_Dialog_Normal",
		"IdleFacialAnimation": "idle_Dialog_Smile",
		"Voice": "",
		"Words": "嘛……记得强化中意的装备，它们也会越变越强哦！",
		"WordsKey": ""
	},
	{
		"ID": 6501,
		"Name": "装备",
		"NextDialogID": 6502,
		"FrameType": 0,
		"CharName": "安杰利卡",
		"CharImageID": 213,
		"Position": 0,
		"EnterType": 1,
		"PreAnimation": "",
		"PreFacialAnimation": "",
		"IdleAnimation": "idle_Dialog_Normal",
		"IdleFacialAnimation": "idle_Dialog_Smile",
		"Voice": "",
		"Words": "通过强化，装备上拥有的神奇「技能」也能得到提升哦！",
		"WordsKey": ""
	},
	{
		"ID": 6502,
		"Name": "装备",
		"NextDialogID": 0,
		"FrameType": 0,
		"CharName": "格尼尔",
		"CharImageID": 3,
		"Position": 1,
		"EnterType": 1,
		"PreAnimation": "",
		"PreFacialAnimation": "",
		"IdleAnimation": "idle_Dialog_Normal",
		"IdleFacialAnimation": "idle_Dialog_Worry",
		"Voice": "",
		"Words": "看样子拥有「技能」的装备，更具有强化的价值呢……",
		"WordsKey": ""
	},
	{
		"ID": 66,
		"Name": "时空裂缝精英",
		"NextDialogID": 67,
		"FrameType": 0,
		"CharName": "马修",
		"CharImageID": 1,
		"Position": 0,
		"EnterType": 1,
		"PreAnimation": "",
		"PreFacialAnimation": "",
		"IdleAnimation": "idle_Dialog_Normal",
		"IdleFacialAnimation": "idle_Dialog_Firm",
		"Voice": "StoryS80_037_07",
		"Words": "格尼尔，你看艾梅的情况，好像女神又要附身了。",
		"WordsKey": ""
	},
	{
		"ID": 67,
		"Name": "时空裂缝精英",
		"NextDialogID": 68,
		"FrameType": 0,
		"CharName": "艾梅达",
		"CharImageID": 2001,
		"Position": 1,
		"EnterType": 1,
		"PreAnimation": "",
		"PreFacialAnimation": "",
		"IdleAnimation": "idle_Dialog_Normal",
		"IdleFacialAnimation": "idle_Dialog_Normal",
		"Voice": "",
		"Words": "「当你们在时空裂缝中回溯了足够的圣剑记忆之后，将会开启更为混沌的记忆之影。」",
		"WordsKey": ""
	},
	{
		"ID": 68,
		"Name": "时空裂缝精英",
		"NextDialogID": 69,
		"FrameType": 0,
		"CharName": "艾梅达",
		"CharImageID": 2001,
		"Position": 1,
		"EnterType": 1,
		"PreAnimation": "",
		"PreFacialAnimation": "",
		"IdleAnimation": "idle_Dialog_Normal",
		"IdleFacialAnimation": "idle_Dialog_Normal",
		"Voice": "",
		"Words": "「在那里你们将会面对更为困难的试炼，也会获得更大的成长。」",
		"WordsKey": ""
	},
	{
		"ID": 69,
		"Name": "时空裂缝精英",
		"NextDialogID": 0,
		"FrameType": 0,
		"CharName": "格尼尔",
		"CharImageID": 3,
		"Position": 1,
		"EnterType": 1,
		"PreAnimation": "",
		"PreFacialAnimation": "",
		"IdleAnimation": "idle_Dialog_Normal",
		"IdleFacialAnimation": "idle_Dialog_Firm",
		"Voice": "StoryS80_039_11",
		"Words": "困难模式的时空裂缝么？我们这就去看看吧！",
		"WordsKey": ""
	},
	{
		"ID": 70,
		"Name": "时空裂缝精英",
		"NextDialogID": 71,
		"FrameType": 0,
		"CharName": "艾梅达",
		"CharImageID": 4,
		"Position": 0,
		"EnterType": 1,
		"PreAnimation": "",
		"PreFacialAnimation": "",
		"IdleAnimation": "idle_Dialog_Normal",
		"IdleFacialAnimation": "idle_Dialog_Firm",
		"Voice": "StoryS80_038_09",
		"Words": "马修，格尼尔，这是哪里？我感受到了和之前的时空裂缝所不同的强大气息。",
		"WordsKey": ""
	},
	{
		"ID": 71,
		"Name": "时空裂缝精英",
		"NextDialogID": 72,
		"FrameType": 0,
		"CharName": "马修",
		"CharImageID": 1,
		"Position": 1,
		"EnterType": 1,
		"PreAnimation": "",
		"PreFacialAnimation": "",
		"IdleAnimation": "idle_Dialog_Normal",
		"IdleFacialAnimation": "idle_Dialog_Firm",
		"Voice": "StoryS80_037_08",
		"Words": "艾梅，女神借助你引导我们到了这里。",
		"WordsKey": ""
	},
	{
		"ID": 72,
		"Name": "时空裂缝精英",
		"NextDialogID": 73,
		"FrameType": 0,
		"CharName": "格尼尔",
		"CharImageID": 3,
		"Position": 0,
		"EnterType": 1,
		"PreAnimation": "",
		"PreFacialAnimation": "",
		"IdleAnimation": "idle_Dialog_Normal",
		"IdleFacialAnimation": "idle_Dialog_Firm",
		"Voice": "StoryS80_039_12",
		"Words": "困难模式的时空裂缝哦，我都有点跃跃欲试了。",
		"WordsKey": ""
	},
	{
		"ID": 73,
		"Name": "时空裂缝精英",
		"NextDialogID": 0,
		"FrameType": 0,
		"CharName": "马修",
		"CharImageID": 1,
		"Position": 1,
		"EnterType": 1,
		"PreAnimation": "",
		"PreFacialAnimation": "",
		"IdleAnimation": "idle_Dialog_Normal",
		"IdleFacialAnimation": "idle_Dialog_Firm",
		"Voice": "StoryS80_037_09",
		"Words": "确认一下我们自身的实力吧，如果有自信的话，我们就继续前进。",
		"WordsKey": ""
	},
	{
		"ID": 74,
		"Name": "英雄训练：对话1",
		"NextDialogID": 0,
		"FrameType": 0,
		"CharName": "安杰利卡",
		"CharImageID": 213,
		"Position": 0,
		"EnterType": 1,
		"PreAnimation": "",
		"PreFacialAnimation": "",
		"IdleAnimation": "idle_Dialog_Normal",
		"IdleFacialAnimation": "idle_Dialog_Smile",
		"Voice": "",
		"Words": "嘛……哈哈，你们终于拿到魔导矿石了！快到我的「特训屋」来看看我给你们准备的新玩具吧！",
		"WordsKey": ""
	},
	{
		"ID": 75,
		"Name": "英雄训练：对话2",
		"NextDialogID": 76,
		"FrameType": 0,
		"CharName": "格尼尔",
		"CharImageID": 3,
		"Position": 0,
		"EnterType": 1,
		"PreAnimation": "",
		"PreFacialAnimation": "",
		"IdleAnimation": "idle_Dialog_Normal",
		"IdleFacialAnimation": "idle_Dialog_Smile",
		"Voice": "",
		"Words": "什么？这些机器人傀儡都是由魔导矿石驱动的？这也太高级吧！",
		"WordsKey": ""
	},
	{
		"ID": 76,
		"Name": "英雄训练：对话2",
		"NextDialogID": 77,
		"FrameType": 0,
		"CharName": "杰西卡",
		"CharImageID": 22,
		"Position": 1,
		"EnterType": 1,
		"PreAnimation": "",
		"PreFacialAnimation": "",
		"IdleAnimation": "idle_Dialog_Normal",
		"IdleFacialAnimation": "idle_Dialog_Smile",
		"Voice": "",
		"Words": "虽然傀儡战斗能力不强，没办法参加实战，但是给你们用来积累战斗「经验」应该绰绰有余了。",
		"WordsKey": ""
	},
	{
		"ID": 77,
		"Name": "英雄训练：对话2",
		"NextDialogID": 0,
		"FrameType": 0,
		"CharName": "艾梅达",
		"CharImageID": 4,
		"Position": 0,
		"EnterType": 1,
		"PreAnimation": "",
		"PreFacialAnimation": "",
		"IdleAnimation": "idle_Dialog_Normal",
		"IdleFacialAnimation": "idle_Dialog_Worry",
		"Voice": "",
		"Words": "还有这种黑科技！？这真刀真枪的，拿来当训练道具真的没问题么！？",
		"WordsKey": ""
	},
	{
		"ID": 78,
		"Name": "藏宝：对话1",
		"NextDialogID": 0,
		"FrameType": 0,
		"CharName": "格尼尔",
		"CharImageID": 3,
		"Position": 0,
		"EnterType": 1,
		"PreAnimation": "",
		"PreFacialAnimation": "",
		"IdleAnimation": "idle_Dialog_Normal",
		"IdleFacialAnimation": "idle_Dialog_Smile",
		"Voice": "",
		"Words": "嘿，瞧瞧我发现了什么！是「金币宝窟」，我们要发财了！",
		"WordsKey": ""
	},
	{
		"ID": 79,
		"Name": "藏宝：对话2",
		"NextDialogID": 80,
		"FrameType": 0,
		"CharName": "马修",
		"CharImageID": 1,
		"Position": 1,
		"EnterType": 1,
		"PreAnimation": "",
		"PreFacialAnimation": "",
		"IdleAnimation": "idle_Dialog_Normal",
		"IdleFacialAnimation": "idle_Dialog_Worry",
		"Voice": "",
		"Words": "格尼尔，你说的财宝在哪呢……？那些飞跑的魔物是什么……？",
		"WordsKey": ""
	},
	{
		"ID": 80,
		"Name": "藏宝：对话2",
		"NextDialogID": 0,
		"FrameType": 0,
		"CharName": "格尼尔",
		"CharImageID": 3,
		"Position": 0,
		"EnterType": 1,
		"PreAnimation": "",
		"PreFacialAnimation": "",
		"IdleAnimation": "idle_Dialog_Normal",
		"IdleFacialAnimation": "idle_Dialog_Angry",
		"Voice": "",
		"Words": "不好，是盗宝哥布林！这些哥布林要把宝藏都搬跑了！干掉他们，把财宝抢回来！",
		"WordsKey": ""
	},
	{
		"ID": 81,
		"Name": "羁绊赠送礼物：对话1",
		"NextDialogID": 82,
		"FrameType": 0,
		"CharName": "杰西卡",
		"CharImageID": 22,
		"Position": 0,
		"EnterType": 1,
		"PreAnimation": "",
		"PreFacialAnimation": "",
		"IdleAnimation": "idle_Dialog_Normal",
		"IdleFacialAnimation": "idle_Dialog_Normal",
		"Voice": "",
		"Words": "你们的队伍又一次完成了挑战，伙伴之间的「羁绊」也逐步加深……",
		"WordsKey": ""
	},
	{
		"ID": 82,
		"Name": "羁绊赠送礼物：对话1",
		"NextDialogID": 0,
		"FrameType": 0,
		"CharName": "杰西卡",
		"CharImageID": 22,
		"Position": 0,
		"EnterType": 1,
		"PreAnimation": "",
		"PreFacialAnimation": "",
		"IdleAnimation": "idle_Dialog_Normal",
		"IdleFacialAnimation": "idle_Dialog_Normal",
		"Voice": "",
		"Words": "是时候教授给你们「羁绊的力量」了！",
		"WordsKey": ""
	},
	{
		"ID": 83,
		"Name": "羁绊赠送礼物：对话2",
		"NextDialogID": 84,
		"FrameType": 0,
		"CharName": "杰西卡",
		"CharImageID": 22,
		"Position": 0,
		"EnterType": 1,
		"PreAnimation": "",
		"PreFacialAnimation": "",
		"IdleAnimation": "idle_Dialog_Normal",
		"IdleFacialAnimation": "idle_Dialog_Normal",
		"Voice": "",
		"Words": "兰古利萨的历史告诉我们，真正的胜利都是靠着团结在一起、互相「羁绊」的伙伴达成的。",
		"WordsKey": ""
	},
	{
		"ID": 84,
		"Name": "羁绊赠送礼物：对话2",
		"NextDialogID": 85,
		"FrameType": 0,
		"CharName": "艾梅达",
		"CharImageID": 4,
		"Position": 1,
		"EnterType": 1,
		"PreAnimation": "",
		"PreFacialAnimation": "",
		"IdleAnimation": "idle_Dialog_Normal",
		"IdleFacialAnimation": "idle_Dialog_Worry",
		"Voice": "",
		"Words": "互相「羁绊」的伙伴……",
		"WordsKey": ""
	},
	{
		"ID": 85,
		"Name": "羁绊赠送礼物：对话2",
		"NextDialogID": 86,
		"FrameType": 0,
		"CharName": "杰西卡",
		"CharImageID": 22,
		"Position": 0,
		"EnterType": 1,
		"PreAnimation": "",
		"PreFacialAnimation": "",
		"IdleAnimation": "idle_Dialog_Normal",
		"IdleFacialAnimation": "idle_Dialog_Normal",
		"Voice": "",
		"Words": "没错，艾梅达小姐，能请你做个小示范么？",
		"WordsKey": ""
	},
	{
		"ID": 86,
		"Name": "羁绊赠送礼物：对话2",
		"NextDialogID": 0,
		"FrameType": 0,
		"CharName": "艾梅达",
		"CharImageID": 4,
		"Position": 1,
		"EnterType": 1,
		"PreAnimation": "",
		"PreFacialAnimation": "",
		"IdleAnimation": "idle_Dialog_Normal",
		"IdleFacialAnimation": "idle_Dialog_Surprise",
		"Voice": "",
		"Words": "啊？呃……好的！没问题！",
		"WordsKey": ""
	},
	{
		"ID": 87,
		"Name": "羁绊赠送礼物：对话3",
		"NextDialogID": 88,
		"FrameType": 0,
		"CharName": "杰西卡",
		"CharImageID": 22,
		"Position": 0,
		"EnterType": 1,
		"PreAnimation": "",
		"PreFacialAnimation": "",
		"IdleAnimation": "idle_Dialog_Normal",
		"IdleFacialAnimation": "idle_Dialog_Normal",
		"Voice": "",
		"Words": "艾梅达小姐，你觉得什么东西可以作为伙伴之间羁绊的证明呢？",
		"WordsKey": ""
	},
	{
		"ID": 88,
		"Name": "羁绊赠送礼物：对话3",
		"NextDialogID": 0,
		"FrameType": 0,
		"CharName": "艾梅达",
		"CharImageID": 4,
		"Position": 1,
		"EnterType": 1,
		"PreAnimation": "",
		"PreFacialAnimation": "",
		"IdleAnimation": "idle_Dialog_Normal",
		"IdleFacialAnimation": "idle_Dialog_Normal",
		"Voice": "",
		"Words": "羁绊的证明？对我这样的女孩子来讲……「互相赠送礼物」？",
		"WordsKey": ""
	},
	{
		"ID": 89,
		"Name": "羁绊赠送礼物：对话4",
		"NextDialogID": 90,
		"FrameType": 0,
		"CharName": "艾梅达",
		"CharImageID": 4,
		"Position": 1,
		"EnterType": 1,
		"PreAnimation": "",
		"PreFacialAnimation": "",
		"IdleAnimation": "idle_Dialog_Normal",
		"IdleFacialAnimation": "idle_Dialog_Smile",
		"Voice": "",
		"Words": "谢谢你的礼物，我就不客气了！",
		"WordsKey": ""
	},
	{
		"ID": 90,
		"Name": "羁绊赠送礼物：对话4",
		"NextDialogID": 91,
		"FrameType": 0,
		"CharName": "杰西卡",
		"CharImageID": 22,
		"Position": 0,
		"EnterType": 1,
		"PreAnimation": "",
		"PreFacialAnimation": "",
		"IdleAnimation": "idle_Dialog_Normal",
		"IdleFacialAnimation": "idle_Dialog_Smile",
		"Voice": "",
		"Words": "呵呵，年轻真好…要好好加深与同伴之间的「羁绊」哦！",
		"WordsKey": ""
	},
	{
		"ID": 91,
		"Name": "羁绊赠送礼物：对话4",
		"NextDialogID": 0,
		"FrameType": 0,
		"CharName": "杰西卡",
		"CharImageID": 22,
		"Position": 0,
		"EnterType": 1,
		"PreAnimation": "",
		"PreFacialAnimation": "",
		"IdleAnimation": "idle_Dialog_Normal",
		"IdleFacialAnimation": "idle_Dialog_Normal",
		"Voice": "",
		"Words": "请再随我来，让我为你们展示——「羁绊的试炼之地」！",
		"WordsKey": ""
	},
	{
		"ID": 92,
		"Name": "羁绊：对话",
		"NextDialogID": 93,
		"FrameType": 0,
		"CharName": "杰西卡",
		"CharImageID": 22,
		"Position": 0,
		"EnterType": 1,
		"PreAnimation": "",
		"PreFacialAnimation": "",
		"IdleAnimation": "idle_Dialog_Normal",
		"IdleFacialAnimation": "idle_Dialog_Normal",
		"Voice": "",
		"Words": "圣魔剑战争的历史中有无数感人至深的羁绊物语这些英雄们的情谊回响在这片「羁绊之地」上！",
		"WordsKey": ""
	},
	{
		"ID": 93,
		"Name": "羁绊：对话",
		"NextDialogID": 0,
		"FrameType": 0,
		"CharName": "杰西卡",
		"CharImageID": 22,
		"Position": 0,
		"EnterType": 1,
		"PreAnimation": "",
		"PreFacialAnimation": "",
		"IdleAnimation": "idle_Dialog_Normal",
		"IdleFacialAnimation": "idle_Dialog_Normal",
		"Voice": "",
		"Words": "去挑战他们吧，亲身去领悟「羁绊之力」的强大力量吧！",
		"WordsKey": ""
	},
	{
		"ID": 94,
		"Name": "协力战：对话1",
		"NextDialogID": 95,
		"FrameType": 0,
		"CharName": "马修",
		"CharImageID": 1,
		"Position": 1,
		"EnterType": 1,
		"PreAnimation": "",
		"PreFacialAnimation": "",
		"IdleAnimation": "idle_Dialog_Normal",
		"IdleFacialAnimation": "idle_Dialog_Worry",
		"Voice": "",
		"Words": "啊呼……现在想想看来，当时在雪地上的遭遇战……要是没有泽瑞达帮忙可就惨了……",
		"WordsKey": ""
	},
	{
		"ID": 95,
		"Name": "协力战：对话1",
		"NextDialogID": 96,
		"FrameType": 0,
		"CharName": "杰西卡",
		"CharImageID": 22,
		"Position": 0,
		"EnterType": 1,
		"PreAnimation": "",
		"PreFacialAnimation": "",
		"IdleAnimation": "idle_Dialog_Normal",
		"IdleFacialAnimation": "idle_Dialog_Normal",
		"Voice": "",
		"Words": "这个世界上有很多强大的敌人，仅靠一己之力是很难战胜的……",
		"WordsKey": ""
	},
	{
		"ID": 96,
		"Name": "协力战：对话1",
		"NextDialogID": 0,
		"FrameType": 0,
		"CharName": "杰西卡",
		"CharImageID": 22,
		"Position": 0,
		"EnterType": 1,
		"PreAnimation": "",
		"PreFacialAnimation": "",
		"IdleAnimation": "idle_Dialog_Normal",
		"IdleFacialAnimation": "idle_Dialog_Normal",
		"Voice": "",
		"Words": "面对强敌，与其他指挥官「协力」说不定是更好的选择！",
		"WordsKey": ""
	},
	{
		"ID": 97,
		"Name": "协力战：对话2",
		"NextDialogID": 0,
		"FrameType": 0,
		"CharName": "杰西卡",
		"CharImageID": 22,
		"Position": 0,
		"EnterType": 1,
		"PreAnimation": "",
		"PreFacialAnimation": "",
		"IdleAnimation": "idle_Dialog_Normal",
		"IdleFacialAnimation": "idle_Dialog_Normal",
		"Voice": "",
		"Words": "「协力战」会在每天晚上21:00开启，试着邀请其他指挥官「组队作战」吧！",
		"WordsKey": ""
	},
	{
		"ID": 98,
		"Name": "练兵场：对话1",
		"NextDialogID": 99,
		"FrameType": 0,
		"CharName": "安东",
		"CharImageID": 202,
		"Position": 0,
		"EnterType": 1,
		"PreAnimation": "",
		"PreFacialAnimation": "",
		"IdleAnimation": "idle_Dialog_Normal",
		"IdleFacialAnimation": "idle_Dialog_Normal",
		"Voice": "",
		"Words": "喝！小♂兄♂弟！锻♂炼可不能就这么结束了！",
		"WordsKey": ""
	},
	{
		"ID": 99,
		"Name": "练兵场：对话1",
		"NextDialogID": 100,
		"FrameType": 0,
		"CharName": "格尼尔",
		"CharImageID": 3,
		"Position": 1,
		"EnterType": 1,
		"PreAnimation": "",
		"PreFacialAnimation": "",
		"IdleAnimation": "idle_Dialog_Normal",
		"IdleFacialAnimation": "idle_Dialog_Fear",
		"Voice": "",
		"Words": "什么！？我们不是已经打败他了么！？",
		"WordsKey": ""
	},
	{
		"ID": 100,
		"Name": "练兵场：对话1",
		"NextDialogID": 0,
		"FrameType": 0,
		"CharName": "安东",
		"CharImageID": 202,
		"Position": 0,
		"EnterType": 1,
		"PreAnimation": "",
		"PreFacialAnimation": "",
		"IdleAnimation": "idle_Dialog_Normal",
		"IdleFacialAnimation": "idle_Dialog_Normal",
		"Voice": "",
		"Words": "我很中♂意你们唷！！！让我来「锻♂炼」你们的「士♂兵」吧！",
		"WordsKey": ""
	},
	{
		"ID": 101,
		"Name": "练兵场：对话2",
		"NextDialogID": 0,
		"FrameType": 0,
		"CharName": "安东",
		"CharImageID": 202,
		"Position": 0,
		"EnterType": 1,
		"PreAnimation": "",
		"PreFacialAnimation": "",
		"IdleAnimation": "idle_Dialog_Normal",
		"IdleFacialAnimation": "idle_Dialog_Normal",
		"Voice": "",
		"Words": "唷嚯嚯！就从「步♂兵♂训♂练」开始吧！",
		"WordsKey": ""
	},
	{
		"ID": 102,
		"Name": "练兵场：对话3",
		"NextDialogID": 0,
		"FrameType": 0,
		"CharName": "安东",
		"CharImageID": 202,
		"Position": 0,
		"EnterType": 1,
		"PreAnimation": "",
		"PreFacialAnimation": "",
		"IdleAnimation": "idle_Dialog_Normal",
		"IdleFacialAnimation": "idle_Dialog_Normal",
		"Voice": "",
		"Words": "没错！就是这样，更强健的肌♂肉，更勇猛的士♂兵！",
		"WordsKey": ""
	},
	{
		"ID": 103,
		"Name": "兄贵健身房：对话",
		"NextDialogID": 104,
		"FrameType": 0,
		"CharName": "安东",
		"CharImageID": 202,
		"Position": 0,
		"EnterType": 1,
		"PreAnimation": "",
		"PreFacialAnimation": "",
		"IdleAnimation": "idle_Dialog_Normal",
		"IdleFacialAnimation": "idle_Dialog_Normal",
		"Voice": "",
		"Words": "嚯哈哈！这就是我们兄贵的秘境——「健身房」！没想到吧，像我这么厉害的兄♂贵还有5个！",
		"WordsKey": ""
	},
	{
		"ID": 104,
		"Name": "兄贵健身房：对话",
		"NextDialogID": 105,
		"FrameType": 0,
		"CharName": "格尼尔",
		"CharImageID": 3,
		"Position": 1,
		"EnterType": 1,
		"PreAnimation": "",
		"PreFacialAnimation": "",
		"IdleAnimation": "idle_Dialog_Normal",
		"IdleFacialAnimation": "idle_Dialog_Smile",
		"Voice": "",
		"Words": "仔细想想…如果能让我们的「士兵」变强的话，这份好意我接受了！让我也开始锻炼吧！",
		"WordsKey": ""
	},
	{
		"ID": 105,
		"Name": "兄贵健身房：对话",
		"NextDialogID": 0,
		"FrameType": 0,
		"CharName": "艾梅达",
		"CharImageID": 4,
		"Position": 0,
		"EnterType": 1,
		"PreAnimation": "",
		"PreFacialAnimation": "",
		"IdleAnimation": "idle_Dialog_Normal",
		"IdleFacialAnimation": "idle_Dialog_Fear",
		"Voice": "",
		"Words": "什么！？格尼尔已经完全被兄贵同化了么！？",
		"WordsKey": ""
	},
	{
		"ID": 106,
		"Name": "炼金：对话1",
		"NextDialogID": 0,
		"FrameType": 0,
		"CharName": "安杰利卡",
		"CharImageID": 213,
		"Position": 0,
		"EnterType": 1,
		"PreAnimation": "",
		"PreFacialAnimation": "",
		"IdleAnimation": "idle_Dialog_Normal",
		"IdleFacialAnimation": "idle_Dialog_Smile",
		"Voice": "",
		"Words": "嘛……仓库里堆的东西太多了呀，有没有兴趣来试试……「炼金」？",
		"WordsKey": ""
	},
	{
		"ID": 107,
		"Name": "炼金：对话2",
		"NextDialogID": 1081,
		"FrameType": 0,
		"CharName": "安杰利卡",
		"CharImageID": 213,
		"Position": 0,
		"EnterType": 1,
		"PreAnimation": "",
		"PreFacialAnimation": "",
		"IdleAnimation": "idle_Dialog_Normal",
		"IdleFacialAnimation": "idle_Dialog_Smile",
		"Voice": "",
		"Words": "嘛……「炼金」就是这样！把用不到的东西转化成「秘银石」与「光辉秘银石」！",
		"WordsKey": ""
	},
	{
		"ID": 1081,
		"Name": "炼金：对话3",
		"NextDialogID": 108,
		"FrameType": 0,
		"CharName": "安杰利卡",
		"CharImageID": 213,
		"Position": 0,
		"EnterType": 1,
		"PreAnimation": "",
		"PreFacialAnimation": "",
		"IdleAnimation": "idle_Dialog_Normal",
		"IdleFacialAnimation": "idle_Dialog_Smile",
		"Voice": "",
		"Words": "「秘银石」与「光辉秘银石」可以用来在商店中换得全新的装备与「附魔卷轴」！",
		"WordsKey": ""
	},
	{
		"ID": 108,
		"Name": "附魔：对话0",
		"NextDialogID": 0,
		"FrameType": 0,
		"CharName": "安杰利卡",
		"CharImageID": 213,
		"Position": 0,
		"EnterType": 1,
		"PreAnimation": "",
		"PreFacialAnimation": "",
		"IdleAnimation": "idle_Dialog_Normal",
		"IdleFacialAnimation": "idle_Dialog_Smile",
		"Voice": "",
		"Words": "现在，就让我们用得到的「符文卷轴」进行装备的「附魔」吧！",
		"WordsKey": ""
	},
	{
		"ID": 109,
		"Name": "附魔：对话",
		"NextDialogID": 110,
		"FrameType": 0,
		"CharName": "安杰利卡",
		"CharImageID": 213,
		"Position": 0,
		"EnterType": 1,
		"PreAnimation": "",
		"PreFacialAnimation": "",
		"IdleAnimation": "idle_Dialog_Normal",
		"IdleFacialAnimation": "idle_Dialog_Smile",
		"Voice": "",
		"Words": "嘛……经过「附魔」之后的装备能得到随机属性提升，甚至还能获得「共鸣」技能！",
		"WordsKey": ""
	},
	{
		"ID": 110,
		"Name": "附魔：对话",
		"NextDialogID": 0,
		"FrameType": 0,
		"CharName": "安杰利卡",
		"CharImageID": 213,
		"Position": 0,
		"EnterType": 1,
		"PreAnimation": "",
		"PreFacialAnimation": "",
		"IdleAnimation": "idle_Dialog_Normal",
		"IdleFacialAnimation": "idle_Dialog_Smile",
		"Voice": "",
		"Words": "凑齐拥有「相同共鸣」的附魔装备，尝试去激活「共鸣」的2件套、4件套效果吧！",
		"WordsKey": ""
	},
	{
		"ID": 111,
		"Name": "实时竞技场:对话",
		"NextDialogID": 112,
		"FrameType": 0,
		"CharName": "艾梅达",
		"CharImageID": 4,
		"Position": 0,
		"EnterType": 1,
		"PreAnimation": "",
		"PreFacialAnimation": "",
		"IdleAnimation": "idle_Dialog_Normal",
		"IdleFacialAnimation": "idle_Dialog_Normal",
		"Voice": "",
		"Words": "啊呀，这次好像只能由我来做引导啦！",
		"WordsKey": ""
	},
	{
		"ID": 112,
		"Name": "实时竞技场:对话",
		"NextDialogID": 113,
		"FrameType": 0,
		"CharName": "艾梅达",
		"CharImageID": 4,
		"Position": 0,
		"EnterType": 1,
		"PreAnimation": "",
		"PreFacialAnimation": "",
		"IdleAnimation": "idle_Dialog_Smile",
		"IdleFacialAnimation": "idle_Dialog_Smile",
		"Voice": "",
		"Words": "如果要问为什么的话，我如果说<color=#DC143C>实时竞技场</color>你就明白了吧！",
		"WordsKey": ""
	},
	{
		"ID": 113,
		"Name": "实时竞技场:对话",
		"NextDialogID": 114,
		"FrameType": 0,
		"CharName": "艾梅达",
		"CharImageID": 4,
		"Position": 0,
		"EnterType": 1,
		"PreAnimation": "",
		"PreFacialAnimation": "",
		"IdleAnimation": "idle_Dialog_Worry",
		"IdleFacialAnimation": "idle_Dialog_Worry",
		"Voice": "",
		"Words": "虽然说这个东西是不应该出现在这个维度的世界中的。",
		"WordsKey": ""
	},
	{
		"ID": 114,
		"Name": "实时竞技场:对话",
		"NextDialogID": 115,
		"FrameType": 0,
		"CharName": "艾梅达",
		"CharImageID": 4,
		"Position": 0,
		"EnterType": 1,
		"PreAnimation": "",
		"PreFacialAnimation": "",
		"IdleAnimation": "idle_Dialog_Smile",
		"IdleFacialAnimation": "idle_Dialog_Smile",
		"Voice": "",
		"Words": "但是能够和来自各地的玩家进行实时对战，应该也是很好玩的事情吧！",
		"WordsKey": ""
	},
	{
		"ID": 115,
		"Name": "实时竞技场:对话",
		"NextDialogID": 0,
		"FrameType": 0,
		"CharName": "艾梅达",
		"CharImageID": 4,
		"Position": 0,
		"EnterType": 1,
		"PreAnimation": "",
		"PreFacialAnimation": "",
		"IdleAnimation": "idle_Dialog_Smile",
		"IdleFacialAnimation": "idle_Dialog_Smile",
		"Voice": "",
		"Words": "希望各位玩得愉快，但也请适度，记住艾梅达可不喜欢你们老是打打杀杀的哦！^_^",
		"WordsKey": ""
	},
	{
		"ID": 116,
		"Name": "原谅的时钟",
		"NextDialogID": 0,
		"FrameType": 0,
		"CharName": "艾梅达",
		"CharImageID": 4,
		"Position": 0,
		"EnterType": 1,
		"PreAnimation": "",
		"PreFacialAnimation": "",
		"IdleAnimation": "idle_Dialog_Normal",
		"IdleFacialAnimation": "idle_Dialog_Firm",
		"Voice": "",
		"Words": "马修，马修，我告诉你一个秘密哦。",
		"WordsKey": ""
	},
	{
		"ID": 117,
		"Name": "原谅的时钟",
		"NextDialogID": 116,
		"FrameType": 0,
		"CharName": "马修",
		"CharImageID": 1,
		"Position": 1,
		"EnterType": 1,
		"PreAnimation": "",
		"PreFacialAnimation": "",
		"IdleAnimation": "idle_Dialog_Normal",
		"IdleFacialAnimation": "idle_Dialog_Worry",
		"Voice": "",
		"Words": "嗯？怎么了，艾梅？",
		"WordsKey": ""
	},
	{
		"ID": 118,
		"Name": "原谅的时钟",
		"NextDialogID": 117,
		"FrameType": 0,
		"CharName": "艾梅达",
		"CharImageID": 4,
		"Position": 0,
		"EnterType": 1,
		"PreAnimation": "",
		"PreFacialAnimation": "",
		"IdleAnimation": "idle_Dialog_Normal",
		"IdleFacialAnimation": "idle_Dialog_Firm",
		"Voice": "",
		"Words": "我发现我的时狭之钟偶尔发出了不同以往的光芒。",
		"WordsKey": ""
	},
	{
		"ID": 119,
		"Name": "原谅的时钟",
		"NextDialogID": 118,
		"FrameType": 0,
		"CharName": "艾梅达",
		"CharImageID": 4,
		"Position": 0,
		"EnterType": 1,
		"PreAnimation": "",
		"PreFacialAnimation": "",
		"IdleAnimation": "idle_Dialog_Normal",
		"IdleFacialAnimation": "idle_Dialog_Surprise",
		"Voice": "",
		"Words": "然后，然后，我竟然使用它回到了几天前，真是吓了我一大跳。",
		"WordsKey": ""
	},
	{
		"ID": 120,
		"Name": "原谅的时钟",
		"NextDialogID": 119,
		"FrameType": 0,
		"CharName": "马修",
		"CharImageID": 1,
		"Position": 1,
		"EnterType": 1,
		"PreAnimation": "",
		"PreFacialAnimation": "",
		"IdleAnimation": "idle_Dialog_Normal",
		"IdleFacialAnimation": "idle_Dialog_Worry",
		"Voice": "",
		"Words": "时狭之钟本来就是很神奇的存在，并没有什么值得惊讶的啊。",
		"WordsKey": ""
	},
	{
		"ID": 121,
		"Name": "原谅的时钟",
		"NextDialogID": 120,
		"FrameType": 0,
		"CharName": "艾梅达",
		"CharImageID": 4,
		"Position": 0,
		"EnterType": 1,
		"PreAnimation": "",
		"PreFacialAnimation": "",
		"IdleAnimation": "idle_Dialog_Normal",
		"IdleFacialAnimation": "idle_Dialog_Angry",
		"Voice": "",
		"Words": "你真是笨啊，以后在战斗中，我们不是也可以使用这个能力来避免一些危险了么。",
		"WordsKey": ""
	},
	{
		"ID": 122,
		"Name": "原谅的时钟",
		"NextDialogID": 121,
		"FrameType": 0,
		"CharName": "艾梅达",
		"CharImageID": 4,
		"Position": 0,
		"EnterType": 1,
		"PreAnimation": "",
		"PreFacialAnimation": "",
		"IdleAnimation": "idle_Dialog_Normal",
		"IdleFacialAnimation": "idle_Dialog_Angry",
		"Voice": "",
		"Words": "罢了，反正和你说也没用。下次战斗里就看我的吧，一定让你了解到时狭之钟的厉害！",
		"WordsKey": ""
	},
	{
		"ID": 123,
		"Name": "超时空试炼",
		"NextDialogID": 124,
		"FrameType": 0,
		"CharName": "格尼尔",
		"CharImageID": 3,
		"Position": 0,
		"EnterType": 1,
		"PreAnimation": "",
		"PreFacialAnimation": "",
		"IdleAnimation": "idle_Dialog_Normal",
		"IdleFacialAnimation": "idle_Dialog_Surprise",
		"Voice": "",
		"Words": "呜啊！天空为什么裂了一块！那个漩涡是什么地方？！",
		"WordsKey": ""
	},
	{
		"ID": 124,
		"Name": "超时空试炼",
		"NextDialogID": 0,
		"FrameType": 0,
		"CharName": "海恩",
		"CharImageID": 13,
		"Position": 1,
		"EnterType": 1,
		"PreAnimation": "",
		"PreFacialAnimation": "",
		"IdleAnimation": "idle_Dialog_Normal",
		"IdleFacialAnimation": "idle_Dialog_Normal",
		"Voice": "",
		"Words": "别慌，这是杰西卡老师的安排，跟我来！",
		"WordsKey": ""
	},
	{
		"ID": 125,
		"Name": "超时空试炼",
		"NextDialogID": 126,
		"FrameType": 0,
		"CharName": "格尼尔",
		"CharImageID": 3,
		"Position": 0,
		"EnterType": 1,
		"PreAnimation": "",
		"PreFacialAnimation": "",
		"IdleAnimation": "idle_Dialog_Normal",
		"IdleFacialAnimation": "idle_Dialog_Surprise",
		"Voice": "",
		"Words": "……嗯？这里是哪啊？！",
		"WordsKey": ""
	},
	{
		"ID": 126,
		"Name": "超时空试炼",
		"NextDialogID": 127,
		"FrameType": 0,
		"CharName": "海恩",
		"CharImageID": 13,
		"Position": 1,
		"EnterType": 1,
		"PreAnimation": "",
		"PreFacialAnimation": "",
		"IdleAnimation": "idle_Dialog_Normal",
		"IdleFacialAnimation": "idle_Dialog_Normal",
		"Voice": "",
		"Words": "时空裂缝的尽头——时空漩涡，杰西卡老师为你们挑选的试炼地点。",
		"WordsKey": ""
	},
	{
		"ID": 127,
		"Name": "超时空试炼",
		"NextDialogID": 128,
		"FrameType": 0,
		"CharName": "马修",
		"CharImageID": 1,
		"Position": 0,
		"EnterType": 1,
		"PreAnimation": "",
		"PreFacialAnimation": "",
		"IdleAnimation": "idle_Dialog_Normal",
		"IdleFacialAnimation": "idle_Dialog_Surprise",
		"Voice": "",
		"Words": "试、试炼？！",
		"WordsKey": ""
	},
	{
		"ID": 128,
		"Name": "超时空试炼",
		"NextDialogID": 129,
		"FrameType": 0,
		"CharName": "海恩",
		"CharImageID": 13,
		"Position": 1,
		"EnterType": 1,
		"PreAnimation": "",
		"PreFacialAnimation": "",
		"IdleAnimation": "idle_Dialog_Normal",
		"IdleFacialAnimation": "idle_Dialog_Normal",
		"Voice": "",
		"Words": "前方的时空乱流在源源不断地送来魔物和幻影，深入漩涡的中心，在被干掉之前看看能走多远吧。",
		"WordsKey": ""
	},
	{
		"ID": 129,
		"Name": "超时空试炼",
		"NextDialogID": 130,
		"FrameType": 0,
		"CharName": "格尼尔",
		"CharImageID": 3,
		"Position": 0,
		"EnterType": 1,
		"PreAnimation": "",
		"PreFacialAnimation": "",
		"IdleAnimation": "idle_Dialog_Normal",
		"IdleFacialAnimation": "idle_Dialog_Worry",
		"Voice": "",
		"Words": "突然间这么说也太……而且自从被拉进这里我就一直很不舒服……",
		"WordsKey": ""
	},
	{
		"ID": 130,
		"Name": "超时空试炼",
		"NextDialogID": 131,
		"FrameType": 0,
		"CharName": "海恩",
		"CharImageID": 13,
		"Position": 1,
		"EnterType": 1,
		"PreAnimation": "",
		"PreFacialAnimation": "",
		"IdleAnimation": "idle_Dialog_Normal",
		"IdleFacialAnimation": "idle_Dialog_Normal",
		"Voice": "",
		"Words": "毕竟这里连<color=#DC143C>「时空法则」</color>都是不同的嘛，你们没感觉出来么。",
		"WordsKey": ""
	},
	{
		"ID": 131,
		"Name": "超时空试炼",
		"NextDialogID": 132,
		"FrameType": 0,
		"CharName": "格尼尔",
		"CharImageID": 3,
		"Position": 0,
		"EnterType": 1,
		"PreAnimation": "",
		"PreFacialAnimation": "",
		"IdleAnimation": "idle_Dialog_Normal",
		"IdleFacialAnimation": "idle_Dialog_Surprise",
		"Voice": "",
		"Words": "欸欸欸欸欸？怪不得刚才开始就一直觉得身体那么沉重，原来不是晕车啊……",
		"WordsKey": ""
	},
	{
		"ID": 132,
		"Name": "超时空试炼",
		"NextDialogID": 133,
		"FrameType": 0,
		"CharName": "马修",
		"CharImageID": 1,
		"Position": 0,
		"EnterType": 1,
		"PreAnimation": "",
		"PreFacialAnimation": "",
		"IdleAnimation": "idle_Dialog_Normal",
		"IdleFacialAnimation": "idle_Dialog_Normal",
		"Voice": "",
		"Words": "嗯？但我明明觉得身轻如燕、浑身有劲……对每个人产生的效应不同吗，这里的时空法则。",
		"WordsKey": ""
	},
	{
		"ID": 133,
		"Name": "超时空试炼",
		"NextDialogID": 134,
		"FrameType": 0,
		"CharName": "海恩",
		"CharImageID": 13,
		"Position": 1,
		"EnterType": 1,
		"PreAnimation": "",
		"PreFacialAnimation": "",
		"IdleAnimation": "idle_Dialog_Normal",
		"IdleFacialAnimation": "idle_Dialog_Normal",
		"Voice": "",
		"Words": "这也是有可能的，所以要尽量让可以适应时空法则的队友们参战。",
		"WordsKey": ""
	},
	{
		"ID": 134,
		"Name": "超时空试炼",
		"NextDialogID": 0,
		"FrameType": 0,
		"CharName": "海恩",
		"CharImageID": 13,
		"Position": 1,
		"EnterType": 1,
		"PreAnimation": "",
		"PreFacialAnimation": "",
		"IdleAnimation": "idle_Dialog_Normal",
		"IdleFacialAnimation": "idle_Dialog_Smile",
		"Voice": "",
		"Words": "好了，祝你们在这里好运吧！争取活下来啊！",
		"WordsKey": ""
	},
	{
		"ID": 135,
		"Name": "永恒的神殿",
		"NextDialogID": 136,
		"FrameType": 0,
		"CharName": "露希莉斯",
		"CharImageID": 2000,
		"Position": 0,
		"EnterType": 1,
		"PreAnimation": "",
		"PreFacialAnimation": "",
		"IdleAnimation": "idle_Dialog_Normal",
		"IdleFacialAnimation": "idle_Dialog_Normal",
		"Voice": "",
		"Words": "勇者，我是破碎的光之女神露希莉斯…随着你们前进的脚步，强大的记忆精灵从沉眠中苏醒了。",
		"WordsKey": ""
	},
	{
		"ID": 136,
		"Name": "永恒的神殿",
		"NextDialogID": 137,
		"FrameType": 0,
		"CharName": "露希莉斯",
		"CharImageID": 2000,
		"Position": 0,
		"EnterType": 1,
		"PreAnimation": "",
		"PreFacialAnimation": "",
		"IdleAnimation": "idle_Dialog_Normal",
		"IdleFacialAnimation": "idle_Dialog_Normal",
		"Voice": "",
		"Words": "被唤醒的精灵并非只有一位，他们在被遗忘的神殿中守护着「心灵的力量」……",
		"WordsKey": ""
	},
	{
		"ID": 137,
		"Name": "永恒的神殿",
		"NextDialogID": 0,
		"FrameType": 0,
		"CharName": "露希莉斯",
		"CharImageID": 2000,
		"Position": 0,
		"EnterType": 1,
		"PreAnimation": "",
		"PreFacialAnimation": "",
		"IdleAnimation": "idle_Dialog_Normal",
		"IdleFacialAnimation": "idle_Dialog_Normal",
		"Voice": "",
		"Words": "精心打造你最强力的军队吧，那些巨大的精灵……会在<color=#DC143C>「永恒的神殿」</color>中静候你的挑战！",
		"WordsKey": ""
	},
	{
		"ID": 138,
		"Name": "巅峰竞技场界面引导",
		"NextDialogID": 139,
		"FrameType": 0,
		"CharName": "银狼",
		"CharImageID": 36,
		"Position": 0,
		"EnterType": 1,
		"PreAnimation": "",
		"PreFacialAnimation": "",
		"IdleAnimation": "idle_Dialog_Normal",
		"IdleFacialAnimation": "idle_Dialog_Normal",
		"Voice": "",
		"Words": "嚯，你们终于来到巅峰竞技场了！这里可是顶级玩家之间互相博弈、争夺巅峰荣耀的无上宝地。",
		"WordsKey": ""
	},
	{
		"ID": 139,
		"Name": "巅峰竞技场界面引导",
		"NextDialogID": 0,
		"FrameType": 0,
		"CharName": "银狼",
		"CharImageID": 36,
		"Position": 0,
		"EnterType": 1,
		"PreAnimation": "",
		"PreFacialAnimation": "",
		"IdleAnimation": "idle_Dialog_Normal",
		"IdleFacialAnimation": "idle_Dialog_Normal",
		"Voice": "",
		"Words": "要想在此地夺取威名的话……就将你的15人巅峰战队速速编成就绪吧！宝藏和荣耀在等待着你！",
		"WordsKey": ""
	},
	{
		"ID": 140,
		"Name": "远古的呼唤引导对话",
		"NextDialogID": 141,
		"FrameType": 0,
		"CharName": "古巨拉",
		"CharImageID": 37,
		"Position": 0,
		"EnterType": 1,
		"PreAnimation": "",
		"PreFacialAnimation": "",
		"IdleAnimation": "idle_Dialog_Normal",
		"IdleFacialAnimation": "idle_Dialog_Fear",
		"Voice": "",
		"Words": "嘘——！年轻人，小心——！沉睡在恐惧深渊中的远古凶兽已经苏醒，我们不能再贸然前进了！",
		"WordsKey": ""
	},
	{
		"ID": 141,
		"Name": "远古的呼唤引导对话",
		"NextDialogID": 142,
		"FrameType": 0,
		"CharName": "古巨拉",
		"CharImageID": 37,
		"Position": 0,
		"EnterType": 1,
		"PreAnimation": "",
		"PreFacialAnimation": "",
		"IdleAnimation": "idle_Dialog_Normal",
		"IdleFacialAnimation": "idle_Dialog_Firm",
		"Voice": "",
		"Words": "虽然我们无法彻底击败这些传说中的怪物……但竭尽全力地战斗，依然会让你获得力量与荣耀！",
		"WordsKey": ""
	},
	{
		"ID": 142,
		"Name": "远古的呼唤引导对话",
		"NextDialogID": 0,
		"FrameType": 0,
		"CharName": "古巨拉",
		"CharImageID": 37,
		"Position": 0,
		"EnterType": 1,
		"PreAnimation": "",
		"PreFacialAnimation": "",
		"IdleAnimation": "idle_Dialog_Normal",
		"IdleFacialAnimation": "idle_Dialog_Smile",
		"Voice": "",
		"Words": "精心组建你的讨伐小分队吧，因为渴望在「排行榜」上留下威名的指挥官，可不只有你一个呦……",
		"WordsKey": ""
	},
	{
		"ID": 150,
		"Name": "英雄觉醒引导对话",
		"NextDialogID": 151,
		"FrameType": 0,
		"CharName": "露希莉斯",
		"CharImageID": 2000,
		"Position": 0,
		"EnterType": 1,
		"PreAnimation": "",
		"PreFacialAnimation": "",
		"IdleAnimation": "idle_Dialog_Normal",
		"IdleFacialAnimation": "idle_Dialog_Smile",
		"Voice": "",
		"Words": "恭喜你，冒险者。你终于踏足了这一领域。",
		"WordsKey": ""
	},
	{
		"ID": 151,
		"Name": "英雄觉醒引导对话",
		"NextDialogID": 152,
		"FrameType": 0,
		"CharName": "露希莉斯",
		"CharImageID": 2000,
		"Position": 0,
		"EnterType": 1,
		"PreAnimation": "",
		"PreFacialAnimation": "",
		"IdleAnimation": "idle_Dialog_Normal",
		"IdleFacialAnimation": "idle_Dialog_Normal",
		"Voice": "",
		"Words": "克利姆索和佩利亚的回归，为这个世界带来了危机……",
		"WordsKey": ""
	},
	{
		"ID": 152,
		"Name": "英雄觉醒引导对话",
		"NextDialogID": 153,
		"FrameType": 0,
		"CharName": "露希莉斯",
		"CharImageID": 2000,
		"Position": 0,
		"EnterType": 1,
		"PreAnimation": "",
		"PreFacialAnimation": "",
		"IdleAnimation": "idle_Dialog_Normal",
		"IdleFacialAnimation": "idle_Dialog_Normal",
		"Voice": "",
		"Words": "但它们永耀的月华在璀璨星尘的催发下也带来了前所未有的力量！",
		"WordsKey": ""
	},
	{
		"ID": 153,
		"Name": "英雄觉醒引导对话",
		"NextDialogID": 154,
		"FrameType": 0,
		"CharName": "露希莉斯",
		"CharImageID": 2000,
		"Position": 0,
		"EnterType": 1,
		"PreAnimation": "",
		"PreFacialAnimation": "",
		"IdleAnimation": "idle_Dialog_Normal",
		"IdleFacialAnimation": "idle_Dialog_Normal",
		"Voice": "",
		"Words": "这种力量，只有最强大的勇者才能在天虹的「水晶」和万物的「纯心」里感受到它的存在。",
		"WordsKey": ""
	},
	{
		"ID": 154,
		"Name": "英雄觉醒引导对话",
		"NextDialogID": 0,
		"FrameType": 0,
		"CharName": "露希莉斯",
		"CharImageID": 2000,
		"Position": 0,
		"EnterType": 1,
		"PreAnimation": "",
		"PreFacialAnimation": "",
		"IdleAnimation": "idle_Dialog_Normal",
		"IdleFacialAnimation": "idle_Dialog_Normal",
		"Voice": "",
		"Words": "去吧，冒险者，去掌控它，为这个世界带去永恒的光明！",
		"WordsKey": ""
	},
	{
		"ID": 160,
		"Name": "封印战域引导对话",
		"NextDialogID": 161,
		"FrameType": 0,
		"CharName": "谜之骑士",
		"CharImageID": 93,
		"Position": 0,
		"EnterType": 1,
		"PreAnimation": "",
		"PreFacialAnimation": "",
		"IdleAnimation": "idle_Dialog_Normal",
		"IdleFacialAnimation": "idle_Dialog_Normal",
		"Voice": "",
		"Words": "阁下，是第一次踏足这里吧？克利姆索和佩利亚重新回归产生的时之潮汐波动，让「封印战域」重现世间……",
		"WordsKey": ""
	},
	{
		"ID": 161,
		"Name": "封印战域引导对话",
		"NextDialogID": 162,
		"FrameType": 0,
		"CharName": "谜之骑士",
		"CharImageID": 93,
		"Position": 0,
		"EnterType": 1,
		"PreAnimation": "",
		"PreFacialAnimation": "",
		"IdleAnimation": "idle_Dialog_Normal",
		"IdleFacialAnimation": "idle_Dialog_Normal",
		"Voice": "",
		"Words": "在潮汐的影响下，所有进入「封印战域」之中的生物都将得到远古战场的强化之力……",
		"WordsKey": ""
	},
	{
		"ID": 162,
		"Name": "封印战域引导对话",
		"NextDialogID": 163,
		"FrameType": 0,
		"CharName": "谜之骑士",
		"CharImageID": 93,
		"Position": 0,
		"EnterType": 1,
		"PreAnimation": "",
		"PreFacialAnimation": "",
		"IdleAnimation": "idle_Dialog_Normal",
		"IdleFacialAnimation": "idle_Dialog_Normal",
		"Voice": "",
		"Words": "但其中封印着无尽的古代生物，在那相似的外形之下，埋藏着的却是完全不同的力量。",
		"WordsKey": ""
	},
	{
		"ID": 163,
		"Name": "封印战域引导对话",
		"NextDialogID": 164,
		"FrameType": 0,
		"CharName": "谜之骑士",
		"CharImageID": 93,
		"Position": 0,
		"EnterType": 1,
		"PreAnimation": "",
		"PreFacialAnimation": "",
		"IdleAnimation": "idle_Dialog_Normal",
		"IdleFacialAnimation": "idle_Dialog_Normal",
		"Voice": "",
		"Words": "最重要的是，这里的空间遵循着最古老的战斗规则，兵种之间有着更强的克制关系……",
		"WordsKey": ""
	},
	{
		"ID": 164,
		"Name": "封印战域引导对话",
		"NextDialogID": 0,
		"FrameType": 0,
		"CharName": "谜之骑士",
		"CharImageID": 93,
		"Position": 0,
		"EnterType": 1,
		"PreAnimation": "",
		"PreFacialAnimation": "",
		"IdleAnimation": "idle_Dialog_Normal",
		"IdleFacialAnimation": "idle_Dialog_Normal",
		"Voice": "",
		"Words": "阁下，准备如何应对呢？",
		"WordsKey": ""
	}
]