[
	{
		"ID": 1,
		"Content": "时空裂缝"
	},
	{
		"ID": 2,
		"Content": "兄贵健身房"
	},
	{
		"ID": 3,
		"Content": "女神的试炼"
	},
	{
		"ID": 4,
		"Content": "黑市商店"
	},
	{
		"ID": 5,
		"Content": "圣魔晶商店"
	},
	{
		"ID": 6,
		"Content": "荣誉商店"
	},
	{
		"ID": 7,
		"Content": "友情召唤"
	},
	{
		"ID": 8,
		"Content": "英雄召唤"
	},
	{
		"ID": 9,
		"Content": "羁绊之地"
	},
	{
		"ID": 10,
		"Content": "英雄特训屋"
	},
	{
		"ID": 11,
		"Content": "友情商店"
	},
	{
		"ID": 12,
		"Content": "装备召唤"
	},
	{
		"ID": 13,
		"Content": "英雄列表"
	},
	{
		"ID": 14,
		"Content": "练兵场"
	},
	{
		"ID": 15,
		"Content": "练兵场助教"
	},
	{
		"ID": 16,
		"Content": "羁绊之地"
	},
	{
		"ID": 17,
		"Content": "世界"
	},
	{
		"ID": 18,
		"Content": "竞技场"
	},
	{
		"ID": 19,
		"Content": "秘境"
	},
	{
		"ID": 20,
		"Content": "秘境限时活动"
	},
	{
		"ID": 21,
		"Content": "好友"
	},
	{
		"ID": 22,
		"Content": "逃跑的宝藏"
	},
	{
		"ID": 23,
		"Content": "任务"
	},
	{
		"ID": 24,
		"Content": "命运之扉"
	},
	{
		"ID": 25,
		"Content": "充值商店"
	},
	{
		"ID": 26,
		"Content": "礼包商店"
	},
	{
		"ID": 27,
		"Content": "活动"
	},
	{
		"ID": 28,
		"Content": "装备商店"
	},
	{
		"ID": 29,
		"Content": "记忆商店"
	},
	{
		"ID": 30,
		"Content": "旅团商店"
	},
	{
		"ID": 31,
		"Content": "永恒的神殿"
	},
	{
		"ID": 32,
		"Content": "旅团"
	},
	{
		"ID": 33,
		"Content": "旅团活动"
	},
	{
		"ID": 34,
		"Content": "组队"
	},
	{
		"ID": 35,
		"Content": "添加好友"
	},
	{
		"ID": 36,
		"Content": "体力购买"
	},
	{
		"ID": 37,
		"Content": "协力战"
	},
	{
		"ID": 38,
		"Content": "超时空试炼"
	},
	{
		"ID": 39,
		"Content": "道具背包"
	},
	{
		"ID": 40,
		"Content": "碎片背包"
	},
	{
		"ID": 41,
		"Content": "材料背包"
	},
	{
		"ID": 42,
		"Content": "装备背包"
	},
	{
		"ID": 43,
		"Content": "限时活动"
	},
	{
		"ID": 44,
		"Content": "秘境挑战"
	},
	{
		"ID": 45,
		"Content": "英雄赞歌"
	},
	{
		"ID": 46,
		"Content": "秘境商店"
	},
	{
		"ID": 47,
		"Content": "秘境商店"
	},
	{
		"ID": 48,
		"Content": "基本信息"
	},
	{
		"ID": 49,
		"Content": "巅峰竞技场"
	},
	{
		"ID": 50,
		"Content": "远古的呼唤"
	},
	{
		"ID": 51,
		"Content": "时狭之钟"
	},
	{
		"ID": 52,
		"Content": "背包内礼包"
	},
	{
		"ID": 101,
		"Content": "命运之扉-1"
	},
	{
		"ID": 102,
		"Content": "命运之扉-2"
	},
	{
		"ID": 103,
		"Content": "命运之扉-3"
	},
	{
		"ID": 104,
		"Content": "命运之扉-4"
	},
	{
		"ID": 105,
		"Content": "命运之扉-5"
	},
	{
		"ID": 106,
		"Content": "命运之扉-6"
	},
	{
		"ID": 107,
		"Content": "命运之扉-7"
	},
	{
		"ID": 109,
		"Content": "羁绊之地Lv.70(每日奖励)"
	},
	{
		"ID": 110,
		"Content": "旅团商店-35级"
	},
	{
		"ID": 111,
		"Content": "旅团商店-40级"
	},
	{
		"ID": 112,
		"Content": "旅团商店-45级"
	},
	{
		"ID": 113,
		"Content": "旅团商店-50级"
	},
	{
		"ID": 114,
		"Content": "旅团商店-55级"
	},
	{
		"ID": 201,
		"Content": "时空裂缝1-1"
	},
	{
		"ID": 202,
		"Content": "时空裂缝1-2"
	},
	{
		"ID": 203,
		"Content": "时空裂缝1-3"
	},
	{
		"ID": 204,
		"Content": "时空裂缝1-4"
	},
	{
		"ID": 205,
		"Content": "时空裂缝1-5"
	},
	{
		"ID": 206,
		"Content": "时空裂缝1-6"
	},
	{
		"ID": 207,
		"Content": "时空裂缝1-7"
	},
	{
		"ID": 208,
		"Content": "时空裂缝2-1"
	},
	{
		"ID": 209,
		"Content": "时空裂缝2-2"
	},
	{
		"ID": 210,
		"Content": "时空裂缝2-3"
	},
	{
		"ID": 211,
		"Content": "时空裂缝2-4"
	},
	{
		"ID": 212,
		"Content": "时空裂缝2-5"
	},
	{
		"ID": 213,
		"Content": "时空裂缝2-6"
	},
	{
		"ID": 214,
		"Content": "时空裂缝2-7"
	},
	{
		"ID": 215,
		"Content": "时空裂缝3-1"
	},
	{
		"ID": 216,
		"Content": "时空裂缝3-2"
	},
	{
		"ID": 217,
		"Content": "时空裂缝3-3"
	},
	{
		"ID": 218,
		"Content": "时空裂缝3-4"
	},
	{
		"ID": 219,
		"Content": "时空裂缝3-5"
	},
	{
		"ID": 220,
		"Content": "时空裂缝3-6"
	},
	{
		"ID": 221,
		"Content": "时空裂缝3-7"
	},
	{
		"ID": 222,
		"Content": "时空裂缝4-1"
	},
	{
		"ID": 223,
		"Content": "时空裂缝4-2"
	},
	{
		"ID": 224,
		"Content": "时空裂缝4-3"
	},
	{
		"ID": 225,
		"Content": "时空裂缝4-4"
	},
	{
		"ID": 226,
		"Content": "时空裂缝4-5"
	},
	{
		"ID": 227,
		"Content": "时空裂缝4-6"
	},
	{
		"ID": 228,
		"Content": "时空裂缝4-7"
	},
	{
		"ID": 229,
		"Content": "时空裂缝5-1"
	},
	{
		"ID": 230,
		"Content": "时空裂缝5-2"
	},
	{
		"ID": 231,
		"Content": "时空裂缝5-3"
	},
	{
		"ID": 232,
		"Content": "时空裂缝5-4"
	},
	{
		"ID": 233,
		"Content": "时空裂缝5-5"
	},
	{
		"ID": 234,
		"Content": "时空裂缝5-6"
	},
	{
		"ID": 235,
		"Content": "时空裂缝5-7"
	},
	{
		"ID": 236,
		"Content": "时空裂缝6-1"
	},
	{
		"ID": 237,
		"Content": "时空裂缝6-2"
	},
	{
		"ID": 238,
		"Content": "时空裂缝6-3"
	},
	{
		"ID": 239,
		"Content": "时空裂缝6-4"
	},
	{
		"ID": 240,
		"Content": "时空裂缝6-5"
	},
	{
		"ID": 241,
		"Content": "时空裂缝6-6"
	},
	{
		"ID": 242,
		"Content": "时空裂缝7-1"
	},
	{
		"ID": 243,
		"Content": "时空裂缝7-2"
	},
	{
		"ID": 244,
		"Content": "时空裂缝7-3"
	},
	{
		"ID": 245,
		"Content": "时空裂缝7-4"
	},
	{
		"ID": 246,
		"Content": "时空裂缝7-5"
	},
	{
		"ID": 247,
		"Content": "时空裂缝7-6"
	},
	{
		"ID": 248,
		"Content": "时空裂缝7-7"
	},
	{
		"ID": 249,
		"Content": "时空裂缝8-1"
	},
	{
		"ID": 250,
		"Content": "时空裂缝8-2"
	},
	{
		"ID": 251,
		"Content": "时空裂缝8-3"
	},
	{
		"ID": 252,
		"Content": "时空裂缝8-4"
	},
	{
		"ID": 253,
		"Content": "时空裂缝8-5"
	},
	{
		"ID": 254,
		"Content": "时空裂缝8-6"
	},
	{
		"ID": 255,
		"Content": "时空裂缝8-7"
	},
	{
		"ID": 256,
		"Content": "时空裂缝9-1"
	},
	{
		"ID": 257,
		"Content": "时空裂缝9-2"
	},
	{
		"ID": 258,
		"Content": "时空裂缝9-3"
	},
	{
		"ID": 259,
		"Content": "时空裂缝9-4"
	},
	{
		"ID": 260,
		"Content": "时空裂缝9-5"
	},
	{
		"ID": 261,
		"Content": "时空裂缝9-6"
	},
	{
		"ID": 262,
		"Content": "时空裂缝9-7"
	},
	{
		"ID": 263,
		"Content": "时空裂缝9-8"
	},
	{
		"ID": 264,
		"Content": "时空裂缝9-9"
	},
	{
		"ID": 501,
		"Content": "时空裂缝1-1(精英)"
	},
	{
		"ID": 502,
		"Content": "时空裂缝1-2(精英)"
	},
	{
		"ID": 503,
		"Content": "时空裂缝1-3(精英)"
	},
	{
		"ID": 504,
		"Content": "时空裂缝1-4(精英)"
	},
	{
		"ID": 505,
		"Content": "时空裂缝1-5(精英)"
	},
	{
		"ID": 506,
		"Content": "时空裂缝1-6(精英)"
	},
	{
		"ID": 507,
		"Content": "时空裂缝1-7(精英)"
	},
	{
		"ID": 508,
		"Content": "时空裂缝2-1(精英)"
	},
	{
		"ID": 509,
		"Content": "时空裂缝2-2(精英)"
	},
	{
		"ID": 510,
		"Content": "时空裂缝2-3(精英)"
	},
	{
		"ID": 511,
		"Content": "时空裂缝2-4(精英)"
	},
	{
		"ID": 512,
		"Content": "时空裂缝2-5(精英)"
	},
	{
		"ID": 513,
		"Content": "时空裂缝2-6(精英)"
	},
	{
		"ID": 514,
		"Content": "时空裂缝2-7(精英)"
	},
	{
		"ID": 515,
		"Content": "时空裂缝3-1(精英)"
	},
	{
		"ID": 516,
		"Content": "时空裂缝3-2(精英)"
	},
	{
		"ID": 517,
		"Content": "时空裂缝3-3(精英)"
	},
	{
		"ID": 518,
		"Content": "时空裂缝3-4(精英)"
	},
	{
		"ID": 519,
		"Content": "时空裂缝3-5(精英)"
	},
	{
		"ID": 520,
		"Content": "时空裂缝3-6(精英)"
	},
	{
		"ID": 521,
		"Content": "时空裂缝3-7(精英)"
	},
	{
		"ID": 522,
		"Content": "时空裂缝4-1(精英)"
	},
	{
		"ID": 523,
		"Content": "时空裂缝4-2(精英)"
	},
	{
		"ID": 524,
		"Content": "时空裂缝4-3(精英)"
	},
	{
		"ID": 525,
		"Content": "时空裂缝4-4(精英)"
	},
	{
		"ID": 526,
		"Content": "时空裂缝4-5(精英)"
	},
	{
		"ID": 527,
		"Content": "时空裂缝4-6(精英)"
	},
	{
		"ID": 528,
		"Content": "时空裂缝4-7(精英)"
	},
	{
		"ID": 529,
		"Content": "时空裂缝5-1(精英)"
	},
	{
		"ID": 530,
		"Content": "时空裂缝5-2(精英)"
	},
	{
		"ID": 531,
		"Content": "时空裂缝5-3(精英)"
	},
	{
		"ID": 532,
		"Content": "时空裂缝5-4(精英)"
	},
	{
		"ID": 533,
		"Content": "时空裂缝5-5(精英)"
	},
	{
		"ID": 534,
		"Content": "时空裂缝5-6(精英)"
	},
	{
		"ID": 535,
		"Content": "时空裂缝5-7(精英)"
	},
	{
		"ID": 536,
		"Content": "时空裂缝6-1(精英)"
	},
	{
		"ID": 537,
		"Content": "时空裂缝6-2(精英)"
	},
	{
		"ID": 538,
		"Content": "时空裂缝6-3(精英)"
	},
	{
		"ID": 539,
		"Content": "时空裂缝6-4(精英)"
	},
	{
		"ID": 540,
		"Content": "时空裂缝6-5(精英)"
	},
	{
		"ID": 541,
		"Content": "时空裂缝6-6(精英)"
	},
	{
		"ID": 542,
		"Content": "时空裂缝7-1(精英)"
	},
	{
		"ID": 543,
		"Content": "时空裂缝7-2(精英)"
	},
	{
		"ID": 544,
		"Content": "时空裂缝7-3(精英)"
	},
	{
		"ID": 545,
		"Content": "时空裂缝7-4(精英)"
	},
	{
		"ID": 546,
		"Content": "时空裂缝7-5(精英)"
	},
	{
		"ID": 547,
		"Content": "时空裂缝7-6(精英)"
	},
	{
		"ID": 548,
		"Content": "时空裂缝7-7(精英)"
	},
	{
		"ID": 549,
		"Content": "时空裂缝8-1(精英)"
	},
	{
		"ID": 550,
		"Content": "时空裂缝8-2(精英)"
	},
	{
		"ID": 551,
		"Content": "时空裂缝8-3(精英)"
	},
	{
		"ID": 552,
		"Content": "时空裂缝8-4(精英)"
	},
	{
		"ID": 553,
		"Content": "时空裂缝8-5(精英)"
	},
	{
		"ID": 554,
		"Content": "时空裂缝8-6(精英)"
	},
	{
		"ID": 555,
		"Content": "时空裂缝8-7(精英)"
	},
	{
		"ID": 556,
		"Content": "时空裂缝9-1(精英)"
	},
	{
		"ID": 557,
		"Content": "时空裂缝9-2(精英)"
	},
	{
		"ID": 558,
		"Content": "时空裂缝9-3(精英)"
	},
	{
		"ID": 559,
		"Content": "时空裂缝9-4(精英)"
	},
	{
		"ID": 560,
		"Content": "时空裂缝9-5(精英)"
	},
	{
		"ID": 561,
		"Content": "时空裂缝9-6(精英)"
	},
	{
		"ID": 562,
		"Content": "时空裂缝9-7(精英)"
	},
	{
		"ID": 563,
		"Content": "时空裂缝9-8(精英)"
	},
	{
		"ID": 564,
		"Content": "时空裂缝9-9(精英)"
	},
	{
		"ID": 565,
		"Content": "时空裂缝10-1(精英)"
	},
	{
		"ID": 566,
		"Content": "时空裂缝10-2(精英)"
	},
	{
		"ID": 567,
		"Content": "时空裂缝10-3(精英)"
	},
	{
		"ID": 568,
		"Content": "时空裂缝10-4(精英)"
	},
	{
		"ID": 569,
		"Content": "时空裂缝10-5(精英)"
	},
	{
		"ID": 570,
		"Content": "时空裂缝10-6(精英)"
	},
	{
		"ID": 571,
		"Content": "时空裂缝10-7(精英)"
	},
	{
		"ID": 572,
		"Content": "时空裂缝10-8(精英)"
	},
	{
		"ID": 573,
		"Content": "时空裂缝10-9(精英)"
	},
	{
		"ID": 574,
		"Content": "时空裂缝11-1(精英)"
	},
	{
		"ID": 575,
		"Content": "时空裂缝11-2(精英)"
	},
	{
		"ID": 576,
		"Content": "时空裂缝11-3(精英)"
	},
	{
		"ID": 577,
		"Content": "时空裂缝11-4(精英)"
	},
	{
		"ID": 578,
		"Content": "时空裂缝11-5(精英)"
	},
	{
		"ID": 579,
		"Content": "时空裂缝11-6(精英)"
	},
	{
		"ID": 580,
		"Content": "时空裂缝11-7(精英)"
	},
	{
		"ID": 581,
		"Content": "时空裂缝11-8(精英)"
	},
	{
		"ID": 582,
		"Content": "时空裂缝11-9(精英)"
	},
	{
		"ID": 583,
		"Content": "时空裂缝12-1(精英)"
	},
	{
		"ID": 584,
		"Content": "时空裂缝12-2(精英)"
	},
	{
		"ID": 585,
		"Content": "时空裂缝12-3(精英)"
	},
	{
		"ID": 586,
		"Content": "时空裂缝12-4(精英)"
	},
	{
		"ID": 587,
		"Content": "时空裂缝12-5(精英)"
	},
	{
		"ID": 588,
		"Content": "时空裂缝12-6(精英)"
	},
	{
		"ID": 589,
		"Content": "时空裂缝12-7(精英)"
	},
	{
		"ID": 590,
		"Content": "时空裂缝12-8(精英)"
	},
	{
		"ID": 591,
		"Content": "时空裂缝12-9(精英)"
	},
	{
		"ID": 592,
		"Content": "时空裂缝13-1(精英)"
	},
	{
		"ID": 593,
		"Content": "时空裂缝13-2(精英)"
	},
	{
		"ID": 594,
		"Content": "时空裂缝13-3(精英)"
	},
	{
		"ID": 595,
		"Content": "时空裂缝13-4(精英)"
	},
	{
		"ID": 596,
		"Content": "时空裂缝13-5(精英)"
	},
	{
		"ID": 597,
		"Content": "时空裂缝13-6(精英)"
	},
	{
		"ID": 598,
		"Content": "时空裂缝13-7(精英)"
	},
	{
		"ID": 599,
		"Content": "时空裂缝14-1(精英)"
	},
	{
		"ID": 600,
		"Content": "时空裂缝14-2(精英)"
	},
	{
		"ID": 601,
		"Content": "时空裂缝14-3(精英)"
	},
	{
		"ID": 602,
		"Content": "时空裂缝14-4(精英)"
	},
	{
		"ID": 603,
		"Content": "时空裂缝14-5(精英)"
	},
	{
		"ID": 604,
		"Content": "时空裂缝14-6(精英)"
	},
	{
		"ID": 605,
		"Content": "时空裂缝14-7(精英)"
	},
	{
		"ID": 2000,
		"Content": "「毒液弹」优先攻击远程部队"
	},
	{
		"ID": 2001,
		"Content": "「剧毒吐息」会向部队最多方向释放\n并对感染「瘟疫」的单位造成额外伤害"
	},
	{
		"ID": 2002,
		"Content": "范围内部队数≥2或范围内部队为全场仅余的1支时，「毒液溅射」发动\n否则只进行普通攻击。对感染「瘟疫」的单位会造成额外伤害"
	},
	{
		"ID": 2003,
		"Content": "「毒液弹」优先攻击远程部队并造成范围固定伤害"
	},
	{
		"ID": 2004,
		"Content": "「剧毒吐息」会向部队最多方向释放\n并对感染「瘟疫」的单位造成额外伤害"
	},
	{
		"ID": 2005,
		"Content": "范围内部队数≥2或范围内部队为全场仅余的1支时，「毒液溅射」发动\n否则只进行普通攻击。对感染「瘟疫」的单位会造成额外伤害"
	},
	{
		"ID": 2006,
		"Content": "「重碾」优先攻击生命百分比低的部队\n并对生命＜90%的部队造成巨额伤害"
	},
	{
		"ID": 2007,
		"Content": "「踩踏」会就近攻击，伤害会随移动距离而提升\n被攻击部队会被禁足"
	},
	{
		"ID": 2008,
		"Content": "范围内部队数≥2或范围内部队为全场仅余的1支时，「重力场」发动\n否则只进行普通攻击。"
	},
	{
		"ID": 2009,
		"Content": "优先对直线上的部队发动「过隙」\n否则对携带「追猎」的部队使用暗影奔袭。"
	},
	{
		"ID": 2010,
		"Content": "施加大量「恐惧」效果，需尽快触发「众神之力」"
	},
	{
		"ID": 2011,
		"Content": "「吞噬天地」发动，「恐惧」≥3的部队将受到巨额伤害"
	},
	{
		"ID": 2012,
		"Content": "芬里尔将吞噬狼灵强化自身，清理狼灵可以避免此情况发生"
	},
	{
		"ID": 2013,
		"Content": "耶梦加得进行普通攻击，优先攻击距离最近的部队"
	},
	{
		"ID": 2014,
		"Content": "「毒血喷溅」会向范围内部队更多的方向发动\n确保团队中存活能力高的人承受伤害"
	},
	{
		"ID": 2015,
		"Content": "「横扫」会向范围内部队更多的方向发动\n确保团队中存活能力高的人承受伤害"
	},
	{
		"ID": 2016,
		"Content": "耶梦加得会进行普通攻击，优先攻击距离最近的部队"
	},
	{
		"ID": 2017,
		"Content": "耶梦加得会进行普通攻击，优先攻击距离最近的部队"
	},
	{
		"ID": 2018,
		"Content": "[翻江倒海]将对范围内的一名敌人造成致命伤害。"
	},
	{
		"ID": 2019,
		"Content": "范围技能「甩尾」发动，造成伤害的同时将范围内所有敌人击退"
	},
	{
		"ID": 2020,
		"Content": "「飞扑」发动，优先攻击近战部队，被击中将禁足一回合\n需要生存能力较高的单位来承受伤害"
	},
	{
		"ID": 2021,
		"Content": "「厉声尖啸」发动，注意攻击的顺序以及驱散队友的负面状态"
	},
	{
		"ID": 2022,
		"Content": "福金&雾尼将进行普通攻击"
	},
	{
		"ID": 2030,
		"Content": "强大的输出和魔防削弱能力搭配出色的治疗天赋。"
	},
	{
		"ID": 2031,
		"Content": "独特的减少冷却天赋使她在面对毒龙之血时，具有持续的群体输出能力。"
	},
	{
		"ID": 2032,
		"Content": "拥有魔法伤害降低光环，兼具机动性和单体输出能力。"
	},
	{
		"ID": 2033,
		"Content": "拥有强大的群体输出和削弱敌人的能力。"
	},
	{
		"ID": 2034,
		"Content": "固伤群体能力可以无视敌方随回合数提高的防御，并可护卫魔法攻击。"
	},
	{
		"ID": 2035,
		"Content": "强力的治疗能力，独特的「再行动」给予了队伍更多的可能性。"
	},
	{
		"ID": 2036,
		"Content": "护卫远程攻击的同时，稳定造成伤害。"
	},
	{
		"ID": 2037,
		"Content": "兼具单体和群体输出能力，可以灵活应对各个阶段的压力。"
	},
	{
		"ID": 2040,
		"Content": "拥有施加大量负面状态的手段，获取「众神之力」的必要条件。"
	},
	{
		"ID": 2041,
		"Content": "可有效利用「提尔之手」的力量造成巨额伤害，天赋可有效削弱敌人。"
	},
	{
		"ID": 2042,
		"Content": "可有效利用「宙斯之眼」和「维达之足」的力量造成巨额伤害。"
	},
	{
		"ID": 2043,
		"Content": "可有效利用「索尔之力」和「宙斯之眼」的力量造成巨额伤害。"
	},
	{
		"ID": 2044,
		"Content": "可有效利用「宙斯之眼」和「提尔之手」的力量造成巨额伤害。"
	},
	{
		"ID": 2045,
		"Content": "拥有施加大量负面状态的手段，同时拥有不俗的治疗能力。"
	},
	{
		"ID": 2046,
		"Content": "可有效利用「宙斯之眼」和「提尔之手」的力量造成巨额伤害。"
	},
	{
		"ID": 2047,
		"Content": "可有效利用「宙斯之眼」和「维达之足」的力量造成巨额伤害。"
	},
	{
		"ID": 2050,
		"Content": "拥有的强大的输出能力和灵活的移动手段。"
	},
	{
		"ID": 2051,
		"Content": "拥有独特的无视距离治疗天赋和不俗的输出、移动能力。"
	},
	{
		"ID": 2052,
		"Content": "拥有强大的远程输出能力和灵活的位移能力。"
	},
	{
		"ID": 2053,
		"Content": "值得信赖的坦克，强力的护卫能够有效提升团队容错率。"
	},
	{
		"ID": 2054,
		"Content": "拥有强大的远程输出能力和灵活的位移能力。"
	},
	{
		"ID": 2055,
		"Content": "拥有长距离治疗能力，群体传送可有效防止Boss的追猎。"
	},
	{
		"ID": 2056,
		"Content": "通过撞击与护卫提供强大的辅助，同时也兼顾了攻击与灵活的位移。"
	},
	{
		"ID": 2057,
		"Content": "提供有效的治疗，并提升全队的输出。"
	},
	{
		"ID": 2060,
		"Content": "独特的「再移动」能力可对耶梦加得的攻击进行有效躲避。"
	},
	{
		"ID": 2061,
		"Content": "远、近攻击的切换在面对异化的耶梦加得时拥有更好的表现。"
	},
	{
		"ID": 2062,
		"Content": "剑士形态的他能在远、近攻击中切换，从而形成更有利的输出。"
	},
	{
		"ID": 2063,
		"Content": "「迂回」的灵活和远近兼具的攻击手段是对抗耶梦加得的利器。"
	},
	{
		"ID": 2064,
		"Content": "面对耶梦加得的多段范围伤害，它能更好的确保团队的生存。"
	},
	{
		"ID": 2065,
		"Content": "独特的天赋可使团队在「毒液」状态下拥有更好的生存能力。"
	},
	{
		"ID": 2066,
		"Content": "可提供远近兼具的攻击手段以及额外的治疗能力。"
	},
	{
		"ID": 2067,
		"Content": "灵活的位移与换位技能可以有效吸引耶梦加得的范围攻击。"
	},
	{
		"ID": 2070,
		"Content": "兵种克制，搭配「迂回」被动可有效避免「私语」传播。"
	},
	{
		"ID": 2071,
		"Content": "弓形态拥有攻击范围广、兵种克制的强大优势。"
	},
	{
		"ID": 2072,
		"Content": "在进行输出的同时可为队友进行负面状态的驱散。"
	},
	{
		"ID": 2073,
		"Content": "驱散负面状态的同时「群体强化」可有效免疫防御下降，同时具备多种攻击方式。"
	},
	{
		"ID": 2074,
		"Content": "搭配天赋效果可为队友承受大量的伤害。"
	},
	{
		"ID": 2075,
		"Content": "强大的负面状态驱散能力，同时「群体护盾」可有效免疫防御下降。"
	},
	{
		"ID": 2076,
		"Content": "兵种克制，搭配「迂回」被动可有效避免「私语」传播。"
	},
	{
		"ID": 2077,
		"Content": "在承受伤害的同时，可以对敌人造成大量伤害。"
	}
]