[
	{
		"ID": 1,
		"Name": "皇 后",
		"Descript": "有一天我的生命将抵达终点\n而你，将加冕为王",
		"Icon": "UI/Activity_ABS/TarotCard/Tarot_Empress.png"
	},
	{
		"ID": 2,
		"Name": "世 界",
		"Descript": "地球、不就是一块石头么\n看我用肱二头肌把它推回去",
		"Icon": "UI/Activity_ABS/TarotCard/Tarot_Word.png"
	},
	{
		"ID": 3,
		"Name": "命运之轮",
		"Descript": "命运的转轮不停地旋转\n但兄贵会一直守候着你",
		"Icon": "UI/Activity_ABS/TarotCard/Tarot_WheelOfFortune.png"
	},
	{
		"ID": 4,
		"Name": "力 量",
		"Descript": "你渴望力量吗？",
		"Icon": "UI/Activity_ABS/TarotCard/Tarot_Lovers.png"
	},
	{
		"ID": 5,
		"Name": "太 阳",
		"Descript": "赞美太阳",
		"Icon": "UI/Activity_ABS/TarotCard/Tarot_Sun.png"
	},
	{
		"ID": 6,
		"Name": "星 星",
		"Descript": "兄贵之星脸上纹\n掌声送给社会人",
		"Icon": "UI/Activity_ABS/TarotCard/Tarot_Stars.png"
	},
	{
		"ID": 7,
		"Name": "宝 剑",
		"Descript": "曾经我也是个冒险者\n后来我被好好学习之剑斩断了〇〇",
		"Icon": "UI/Activity_ABS/TarotCard/Tarot_Sword.png"
	},
	{
		"ID": 8,
		"Name": "星 币",
		"Descript": "凡人皆有一死\n凡人皆需锻炼",
		"Icon": "UI/Activity_ABS/TarotCard/Tarot_Garren.png"
	},
	{
		"ID": 9,
		"Name": "圣 杯",
		"Descript": "吾心吾行澄如明镜\n所作所为皆为正义",
		"Icon": "UI/Activity_ABS/TarotCard/Tarot_Chalice.png"
	},
	{
		"ID": 10,
		"Name": "权 杖",
		"Descript": "如果我有仙女棒\n变大变小变漂亮",
		"Icon": "UI/Activity_ABS/TarotCard/Tarot_Leangle.png"
	},
	{
		"ID": 11,
		"Name": "皇帝",
		"Descript": "王来承担，王来允许\n王来背负这整个世界",
		"Icon": "UI/Activity_ABS/TarotCard/Tarot_King.png"
	}
]