[
	{
		"ID": 1,
		"Desc": "星期日",
		"SettleStartTime": 79200,
		"SettleEndTime": 86400
	},
	{
		"ID": 2,
		"Desc": "星期一",
		"SettleStartTime": 79200,
		"SettleEndTime": 79800
	},
	{
		"ID": 3,
		"Desc": "星期二",
		"SettleStartTime": 79200,
		"SettleEndTime": 79800
	},
	{
		"ID": 4,
		"Desc": "星期三",
		"SettleStartTime": 79200,
		"SettleEndTime": 79800
	},
	{
		"ID": 5,
		"Desc": "星期四",
		"SettleStartTime": 79200,
		"SettleEndTime": 79800
	},
	{
		"ID": 6,
		"Desc": "星期五",
		"SettleStartTime": 79200,
		"SettleEndTime": 79800
	},
	{
		"ID": 7,
		"Desc": "星期六",
		"SettleStartTime": 79200,
		"SettleEndTime": 79800
	}
]