[
	{
		"ID": 1,
		"Value": "<color=#008B00>◆兄贵健身房玩法说明◆</color>\n★<color=#DC143C>汗流浃背的兄♂贵之特训开始了，让士兵们都操练起来！</color>\n★每周不同时段，开启不同兄贵健身房副本\n★成功完成低难度副本，才会开启下一级难度\n★不同兄贵副本掉落对应的<color=#DC143C>【练兵材料】</color>，用于强化士兵\n\n<color=#008B00>◆副本开启与掉落◆</color>\n周一、周四、周日：掉落<color=#DC143C>步兵</color>训练素材\n周一、周四、周日：掉落<color=#DC143C>弓兵</color>和<color=#DC143C>刺客</color>训练素材\n周二、周五、周日：掉落<color=#DC143C>枪兵</color>训练素材\n周二、周五、周日：掉落<color=#DC143C>飞兵</color>和<color=#DC143C>水兵</color>训练素材\n周三、周六、周日：掉落<color=#DC143C>骑兵</color>训练素材\n周三、周六、周日：掉落<color=#DC143C>僧侣</color>和<color=#DC143C>魔物</color>训练素材"
	},
	{
		"ID": 2,
		"Value": "<color=#008B00>◆女神的试炼玩法说明◆</color>\n★迎击<color=#DC143C>巨型魔龙首领</color>，魔龙身形巨大技能强劲，合理搭配阵容和策略是取胜的关键\n★使用<color=#DC143C>【优势兵种】</color>在对抗魔龙时非常有利！\n★女神的试炼副本掉落<color=#DC143C>【英雄装备】</color>和<color=#DC143C>【附魔卷轴】</color>，不同类型的魔龙掉落不同部位和类型的装备\n\n<color=#008B00>◆副本开启◆</color>\n周一、周四：火龙·法夫尼尔 - <color=#DC143C>武器、防具、头盔</color>随机掉落\n周二、周五：冰龙·艾辛迪斯 - <color=#DC143C>防具</color>专属掉落\n周三、周六：雷龙·卡尔克萨 - <color=#DC143C>头盔</color>专属掉落\n周日：           暗龙·提娅玛特 - <color=#DC143C>武器</color>专属掉落"
	},
	{
		"ID": 3,
		"Value": "<color=#008B00>◆竞技场玩法说明◆</color>\n★每次从<color=#DC143C>3</color>名对手选择1名进行挑战。（无法主动刷新对手，每隔一段时间自动刷新）\n★每次挑战需要消耗1张<color=#DC143C>【竞技场挑战券】</color>，挑战券会在每日24:00发放<color=#DC143C>5</color>张。\n★战斗获胜后可以获得<color=#DC143C>积分</color>，用于发放结算奖励。\n★使用<color=#DC143C>自动战斗</color>模式胜利后，可以获得<color=#DC143C>双倍</color>积分。\n★竞技场会在每周日22:00进行清算，同时会降低一定的积分以保证公平竞争。\n\n<color=#008B00>◆奖励◆</color>\n★<color=#DC143C>宝箱</color>：挑战胜利一定次数之后，可以获得额外宝箱奖励。\n★<color=#DC143C>每日奖励</color>：每天晚22:00会根据指挥官大人的积分，通过邮件发送奖励。\n\n<color=#008B00>◆防守阵容◆</color>\n★可以设置作为防守方时的阵容，在被其他指挥官挑战时会以该阵容应战。\n★<color=#DC143C>更换地图</color>：可以在<color=#DC143C>3</color>张中选择1张作为防守时的地图，可选地图每周会更新。\n★<color=#DC143C>胜利条件</color>：根据队伍的特点，设置不同的胜利条件。\n★<color=#DC143C>行动顺序</color>：可以自由的调整部队成员行动的顺序。"
	},
	{
		"ID": 4,
		"Value": "<color=#008B00>◆逃跑的宝藏玩法说明◆</color>\n★可恶的哥布林偷完宝藏逃跑了，<color=#DC143C>截杀他们夺取巨额金币</color>！\n★副本中的<color=#DC143C>【哥布林】</color>敌人<color=#DC143C>不会攻击</color>，他们到达地图边缘就会脱逃，在副本中<color=#DC143C>尽可能多地击败哥布林</color>获得金币奖励！\n★副本关卡随着队伍等级依次开启\n★挑战消耗一定的<color=#DC143C>【体力值】</color>和一个<color=#DC143C>【宝藏钥匙】</color>\n\n<color=#008B00>◆副本掉落◆</color>\n★击败哥布林掉落<color=#DC143C>【大量金币】</color>，击败数量越多奖励越高\n★越高级的哥布林掉落的金币越多"
	},
	{
		"ID": 5,
		"Value": "<color=#008B00>◆羁绊之地玩法说明◆</color>\n★<color=#DC143C>挑战拥有羁绊之力的英雄组合</color>，获取英雄羁绊道具！\n★副本关卡随着队伍等级依次开启\n★副本中每一关的敌人都会有<color=#DC143C>1个【主将】</color>，<color=#DC143C>2个【副将】</color>，敌人主将身上带有副将给予的<color=#DC143C>【羁绊之力】</color>。\n★击败敌人的副将，则<color=#DC143C>移除主将的羁绊之力</color>使其更容易击杀\n\n<color=#008B00>◆副本掉落◆</color>\n★羁绊之地副本掉落<color=#DC143C>【英雄羁绊礼物】</color>和<color=#DC143C>【羁绊之力素材】</color>，分别用于提升英雄好感和强化英雄的羁绊之力\n★一周七天七个不同主题，掉落不同英雄的偏爱礼物"
	},
	{
		"ID": 6,
		"Value": "<color=#008B00>◆组队玩法说明◆</color>\n★秘境大部分玩法支持组队作战，<color=#DC143C>【协力战】</color>必须组队挑战\n★战斗中每一个我方回合，每个成员轮流获得行动机会\n★队伍拥有<color=#DC143C>单独的聊天频道</color>，友好地与其他成员交流吧\n\n<color=#008B00>◆组队规则◆</color>\n★只有<color=#DC143C>已经解锁的关卡</color>才能够进行组队挑战\n★最多支持<color=#DC143C>3个成员</color>组队，队伍的创建者会成为<color=#DC143C>【队长】</color>\n★组队可以自由加入，也可以邀请好友加入队伍\n★组队体力消耗与单人挑战不同，上阵英雄数量也有区别\n\n<color=#008B00>◆组队收益◆</color>\n★除了常规的掉落外，组队将获得额外的奖励。与1人组队会额外收获1份奖励，与2人组队，会额外获得2份奖励。\n★与<color=#DC143C>【好友】</color>一起组队战斗，则会再获得1份好友奖励，且双方都会额外获得<color=#DC143C>5点【友情点】</color>，每日最多<color=#DC143C>20次</color>"
	},
	{
		"ID": 7,
		"Value": "<color=#008B00>◆好友功能说明◆</color>\n★每次赠送，好友可以获得<color=#DC143C>5点</color>【友情点】\n★邀请好友进行<color=#DC143C>【组队】</color>挑战，可以获取<color=#DC143C>5点</color>【友情点】，组队每日可获得【友情点】次数每日刷新\n★【友情点】可以在<color=#DC143C>【友情商店】</color>兑换道具\n\n<color=#008B00>◆名片功能说明◆</color>\n★<color=#DC143C>【名片】</color>展示指挥官的统计数据、个人签名和英雄角色\n★可以自定义<color=#DC143C>【看板小队】</color>的阵容、装备和舞台动作\n★可以给其他指挥官<color=#DC143C>【点赞】</color>，给好友都赞一个吧！\n★自己的<color=#DC143C>【名片】</color>可以在主界面左上角<color=#DC143C>【玩家信息】</color>界面进行修改\n★点击别人的头像即可查看他的<color=#DC143C>【名片】</color>"
	},
	{
		"ID": 8,
		"Value": "<color=#008B00>◆英雄特训屋玩法说明◆</color>\n★<color=#DC143C>在安杰利卡的特训房间挑战大量机械傀儡！</color>\n★每日刷新不同特训副本，适合派遣相应的英雄和兵种挑战，例如：骑兵训练的敌人是大量骑兵傀儡，派遣枪兵参与挑战较为有利\n★副本关卡按指挥官等级开放\n\n<color=#008B00>◆副本开启◆</color>\n周一、周四：步兵训练\n周二、周五：枪兵训练\n周三、周六：骑兵训练\n周日限定：    魔物训练\n\n<color=#008B00>◆副本掉落◆</color>\n★无论哪一种特殊训练内容均会掉落<color=#DC143C>英雄经验药水</color>"
	},
	{
		"ID": 9,
		"Value": "<color=#008B00>◆协力战玩法说明◆</color>\n★<color=#DC143C>与其他指挥官跨时空组队</color>，挑战实力不俗的英雄大军！\n★协力战必须<color=#DC143C>【组队】</color>参加，请邀请其他指挥官一起挑战！\n★协力战副本<color=#DC143C>奖励极其丰厚</color>，<color=#DC143C>副本奖励每日轮换</color>值得期待！\n★<color=#DC143C>挑战玩法不定期更换</color>，需要各位指挥官协力完成！\n\n<color=#008B00>◆副本开启◆</color>\n★每天晚上<color=#DC143C>21:00~22:00</color>开启挑战\n\n<color=#008B00>◆副本掉落◆</color>\n★附魔卷轴、高级装备、练兵材料、羁绊材料与特殊礼物"
	},
	{
		"ID": 10,
		"Value": "<color=#008B00>◆英雄幻影玩法说明◆</color>\n★每期挑战一个主题英雄，由<color=#DC143C>指定的英雄</color>作为敌军首领，不定期开启副本！\n\n<color=#008B00>◆副本掉落◆</color>\n★<color=#DC143C>英雄碎片</color>：大量掉落主题英雄的<color=#DC143C>【记忆碎片】</color>！"
	},
	{
		"ID": 11,
		"Value": "<color=#008B00>◆时空裂缝玩法说明◆</color>\n★欢迎您来到时空裂缝！在此您可以体验到自<color=#DC143C>1991年</color>以来，原汁原味的<color=#DC143C>《梦幻模拟战》系列经典传说篇章</color>！\n\n<color=#008B00>◆时空裂缝开启◆</color>\n★随<color=#DC143C>主线剧情关卡进度</color>依次开启\n\n<color=#008B00>◆精英模式◆</color>\n★全新敌人、深度策略、丰厚奖励、极具挑战！\n★右上角转盘切换<color=#DC143C>【普通模式】</color>与<color=#DC143C>【精英模式】</color>\n\n<color=#008B00>◆时空裂缝掉落◆</color>\n★<color=#DC143C>基础奖励</color>：各类装备或强化材料\n★<color=#DC143C>首通奖励</color>：首次通关，获得额外奖励\n★<color=#DC143C>成就奖励</color>：完成关卡指定条件，获取成就奖励\n★<color=#DC143C>章节奖励</color>：收集关卡奖励星，获取章节奖励"
	},
	{
		"ID": 12,
		"Value": "<color=#008B00>◆好感度说明◆</color>\n★<color=#DC143C>好感度等级</color>：英雄对指挥官的信赖程度，可通过赠送礼物提升，用于解锁羁绊之力、命运之扉、英雄生平的相关内容\n★<color=#DC143C>赠送礼物</color>：向英雄赠送礼物是提高好感度快速途径，不同英雄各有偏爱之物\n\n<color=#008B00>◆解锁内容说明◆</color>\n★<color=#DC143C>羁绊之力</color>：随着好感度等级解锁，能够提升英雄与其携带士兵的基础属性，每一种羁绊也可以消耗羁绊材料升级\n★<color=#DC143C>命运之扉</color>：随着好感度等级解锁，英雄的专属剧情战役，对应英雄限定必须上阵\n★<color=#DC143C>英雄生平</color>：随着好感度等级解锁，可以查看已解锁的英雄故事和语音对话表演\n\n<color=#008B00>◆特殊说明◆</color>\n★马修的好感度等级等于<color=#DC143C>所有英雄的好感度等级之和</color>"
	},
	{
		"ID": 13,
		"Value": "<color=#008B00>◆好感度说明◆</color>\n★<color=#DC143C>好感度等级</color>：英雄对指挥官的信赖程度，可通过赠送礼物提升，用于解锁羁绊之力、命运之扉、英雄生平的相关内容\n★<color=#DC143C>赠送礼物</color>：向英雄赠送礼物是提高好感度快速途径，不同英雄各有偏爱之物\n\n<color=#008B00>◆解锁内容说明◆</color>\n★<color=#DC143C>羁绊之力</color>：随着好感度等级解锁，能够提升英雄与其携带士兵的基础属性，每一种羁绊也可以消耗羁绊材料升级\n★<color=#DC143C>命运之扉</color>：随着好感度等级解锁，英雄的专属剧情战役，对应英雄限定必须上阵\n★<color=#DC143C>英雄生平</color>：随着好感度等级解锁，可以查看已解锁的英雄故事和语音对话表演\n\n<color=#008B00>◆特殊说明◆</color>\n★马修的好感度等级等于<color=#DC143C>所有英雄的好感度等级之和</color>"
	},
	{
		"ID": 14,
		"Value": "<color=#008B00>◆羁绊之力说明◆</color>\n★<color=#DC143C>羁绊技能</color>：每个英雄都拥有自己的羁绊技能，能够强化英雄和其携带小兵的属性。\n★<color=#DC143C>心之羁绊</color>：在羁绊技能到达一定等级后解锁，能够大幅强化英雄的属性，并赋予其独特的能力。\n★<color=#DC143C>解锁</color>：羁绊技能在达到指定亲密度等级，并完成特定羁绊任务后解锁。\n★<color=#DC143C>强化</color>：消耗特定的<color=#DC143C>【羁绊材料】</color>可以提升羁绊技能的等级。\n★<color=#DC143C>告白</color>：当与英雄的羁绊加深到一定程度之后……就会？"
	},
	{
		"ID": 15,
		"Value": "<color=#008B00>◆命运之扉说明◆</color>\n★<color=#DC143C>命运之扉</color>：您可以与英雄一起亲历他们的专属冒险！\n★<color=#DC143C>解锁</color>：随着英雄亲密度等级解锁\n★<color=#DC143C>挑战次数</color>：命运之扉每日挑战次数为<color=#DC143C>9</color>次，<color=#DC143C>所有英雄共享该次数</color>，战斗失败不消耗次数。挑战次数会在第二日自动恢复。\n\n<color=#008B00>◆副本掉落◆</color>\n★<color=#DC143C>基础掉落</color>：英雄记忆碎片、羁绊礼物\n★<color=#DC143C>章节奖励</color>：收集章节之星，获取额外奖励！"
	},
	{
		"ID": 16,
		"Value": "<color=#008B00>◆士兵训练说明◆</color>\n★提供士兵<color=#DC143C>属性提升</color>、<color=#DC143C>获得被动技能</color>以及<color=#DC143C>解锁新兵种</color>。\n★士兵科技的升级需要按照<color=#DC143C>科技树路线</color>逐一解锁\n★升级士兵科技，需要消耗<color=#DC143C>【练兵材料】</color>和<color=#DC143C>【金币】</color>\n★每升级一项士兵科技都能够获得<color=#DC143C>训练场经验</color>，高级士兵课程需要通过士兵<color=#DC143C>训练场等级</color>解锁\n\n<color=#008B00>◆英雄助教说明◆</color>\n★助教任务随指挥官等级解锁，每天产出不同的练兵材料\n★每一个助教任务最多派遣<color=#DC143C>3个</color>英雄参加\n★不同的英雄能给任务提供不同的<color=#DC143C>【完成度】</color>，任务总完成度越高获得的奖励越多\n★助教任务可以设置<color=#DC143C>【派遣时间】</color>（2、4、8）小时，派遣时间越长获得的奖励越多，派遣时间越短性价比越高！\n\n<color=#008B00>◆兵种图鉴说明◆</color>\n★兵种图鉴的入口在界面右下角，可以查看所有种类士兵的<color=#DC143C>基础模板属性</color>和<color=#DC143C>特殊技能</color>。"
	},
	{
		"ID": 17,
		"Value": "<color=#008B00>◆装备强化说明◆</color>\n★消耗<color=#DC143C>【装备素材】</color>可以提升装备的强化等级\n★装备强化等级提供基础属性提升，达到指定等级后还会提升<color=#DC143C>【技能等级】</color>\n★将<color=#DC143C>已经强化过的装备</color>进行炼金时，会返还100%的金币\n\n<color=#008B00>◆装备突破说明◆</color>\n★消耗<color=#DC143C>【同名装备】</color>、<color=#DC143C>【突破道具】</color>提升满级装备的星级\n★装备的星级提升时，强化等级上限也会随之提升\n★装备最多突破<color=#DC143C>6星</color>，6星装备无法突破\n\n<color=#008B00>◆装备附魔说明◆</color>\n★消耗<color=#DC143C>【附魔卷轴】</color>可以让装备获得随机属性，每件装备最多可以拥有<color=#DC143C>3条</color>附魔属性\n★装备共鸣：根据附魔卷轴的不同，装备能获得<color=#DC143C>【共鸣】</color>效果，当<color=#DC143C>多件装备的共鸣属性相同</color>时，可以产生新的技能效果"
	},
	{
		"ID": 18,
		"Value": "<color=#008B00>◆炼金功能说明◆</color>\n★炼金可以把<color=#DC143C>闲置的物品</color>转换为其他可用的资源和道具素材\n★将闲置物品放入熔炼池后，您可以在<color=#DC143C>炼金预览</color>中查看预定的产物列表\n★将<color=#DC143C>已经强化过的装备</color>进行炼金时，会返还强化过程中消耗的所有<color=#DC143C>【工匠之锤】</color>和金币\n★SR级装备分解后额外获得<color=#DC143C>【秘银石】</color>，SSR级装备分解后额外获得<color=#DC143C>【光辉秘银石】</color>，两者都可以在<color=#DC143C>装备商店</color>中兑换其他道具\n★精通石可以通过炼金分解获得<color=#DC143C>【命运之尘】</color>（竞技精通石不可分解）\n获得道具的比例如下：\n一个特级精通石 = 40命运之尘\n一个高级精通石 = 5命运之尘\n一个中级精通石 = 1命运之尘\n600个命运之尘可合成1个<color=#DC143C>特级精通任选礼包</color>（内含指定属性的特级精通石*3）"
	},
	{
		"ID": 19,
		"Value": "<color=#008B00>◆英雄属性说明◆</color>\n<color=#DC143C>生命：</color>可承受的最大伤害\n<color=#DC143C>攻击：</color>物理伤害的能力\n<color=#DC143C>智力：</color>魔法伤害的能力\n<color=#DC143C>防御：</color>抵御物理伤害的能力\n<color=#DC143C>魔防：</color>抵御魔法伤害的能力\n<color=#DC143C>技巧：</color>影响战斗时暴击的几率"
	},
	{
		"ID": 20,
		"Value": "练兵场助教说明"
	},
	{
		"ID": 21,
		"Value": "<color=#008B00>◆战斗小贴士◆</color>\n★<color=#DC143C>克制</color>：牢记兵种相克表是制胜的关键！\n★<color=#DC143C>护卫</color>：能够使用护卫技能的英雄，能够保护身边的队友！\n★<color=#DC143C>地形</color>：占据有利地形，会给部队提供不俗的防御加成！\n★<color=#DC143C>近战与远程</color>：远程部队进行近战时，攻击力会下降，尽量保持距离！近战部队则可以好好利用这一优势！\n★<color=#DC143C>士兵与英雄</color>：一般来说士兵优先受到伤害，但某些技能可以直击英雄，英雄阵亡的话整个部队也会溃散！\n★<color=#DC143C>范围攻击</color>：所有范围攻击技能都会同时攻击士兵与英雄！"
	},
	{
		"ID": 22,
		"Value": "<color=#008B00>◆世界竞技场玩法说明◆</color>\n★天梯或休闲模式，会匹配一名实时在线的对手进行挑战。\n★天梯模式下获胜可以获得<color=#DC143C>积分</color>，用于排名结算发放奖励。\n★达到一定积分会触发<color=#DC143C>晋级赛</color>，达成指定胜场数即可晋级。\n★竞技场会在<color=#DC143C>每周日22:00</color>进行清算，届时将会根据选手所在排名发放奖励，同时会降低一定的积分以保证公平竞争。\n\n<color=#008B00>◆战斗相关规则◆</color>\n★<color=#DC143C>青铜及休闲模式</color>：双方同时选择5名英雄进行对战。\n★<color=#DC143C>白银模式</color>：由先手方先上阵1名英雄，后手方再上阵2名英雄，直至双方上阵满5名英雄。\n★<color=#DC143C>黄金及以上模式</color>：由先手方先上阵1名英雄，后手方再上阵2名英雄，直至双方上阵满6名英雄。随后，双方各选择一名<color=#DC143C>上阵保护英雄</color>并选择对方1名<color=#DC143C>非被保护英雄</color>强制退场。\n★战斗到达<color=#DC143C>3回合</color>时，双方部队会获得<color=#DC143C>狂暴属性</color>，并出现会向战场中央延伸的<color=#DC143C>火焰伤害地形</color>。\n\n<color=#008B00>◆奖励◆</color>\n★<color=#DC143C>宝箱</color>：胜利一定次数之后，可以获得。（每周刷新）\n★<color=#DC143C>段位奖励</color>：每天22:00会根据段位，通过邮件发送。\n★<color=#DC143C>排名奖励</color>：每周日会根据排名，通过邮件发送。"
	},
	{
		"ID": 23,
		"Value": "<color=#008B00>◆召唤说明◆</color>\n★<color=#DC143C>英雄召唤</color>可以获得英雄，召唤重复的英雄会转化为碎片，用于突破星级。\n★<color=#DC143C>装备召唤</color>可以获得装备，召唤重复的装备可以用于突破。\n★<color=#DC143C>友情召唤</color>可以获得经验药剂、强化材料、以及稀有度比较低的装备和英雄。\n\n<color=#008B00>◆「召唤10次」特殊说明◆</color>\n★<color=#DC143C>英雄召唤</color>中「召唤10次」，至少获得<color=#DC143C>1</color>位SR英雄。\n★<color=#DC143C>装备召唤</color>中「召唤10次」，至少获得<color=#DC143C>2</color>个SR装备。"
	},
	{
		"ID": 24,
		"Value": "<color=#008B00>◆活动说明◆</color>\n★酷爱健身的兄贵给所有指挥官带来了转动的福利！\n★活动开启后，每个指挥官都会获得一次<color=#DC143C>免费转动的机会</color>！\n★<color=#DC143C>每抽必中，绝不重复！</color>抽取10次，即可获得全部奖品！\n★每次转动所消耗的圣魔晶数量分别为：免费、50圣魔晶、100圣魔晶、200圣魔晶、300圣魔晶、400圣魔晶、500圣魔晶、600圣魔晶、800圣魔晶、1000圣魔晶。\n★获得的奖品将会直接加入您的背包，请注意查收。"
	},
	{
		"ID": 25,
		"Value": "<color=#008B00>◆光的继承者-限时召唤◆</color>\n★<color=#DC143C>活动召唤</color>中获得SSR时，其中指定英雄的获得概率大幅度UP！\n★SSR总获取概率与普通英雄召唤相同。\n\n<color=#008B00>◆限定英雄◆</color>\n★本次活动中概率UP的英雄是：\n<color=#DC143C>SSR 艾尔文</color>、<color=#DC143C>SSR 雪莉</color>、<color=#DC143C>SSR 雷丁</color>、<color=#DC143C>SSR 莉亚娜</color>。\n\n<color=#008B00>◆「召唤10次」特殊说明◆</color>\n★<color=#DC143C>限时召唤</color>中「召唤10次」，至少获得<color=#DC143C>1</color>位SR英雄。"
	},
	{
		"ID": 26,
		"Value": "<color=#008B00>◆力的支配者-限时召唤◆</color>\n★<color=#DC143C>活动召唤</color>中获得SSR时，其中指定英雄的获得概率大幅度UP！\n★SSR总获取概率与普通英雄召唤相同。\n\n<color=#008B00>◆限定英雄◆</color>\n★本次活动中概率UP的英雄是：\n<color=#DC143C>SSR 利昂</color>、<color=#DC143C>SSR 巴恩哈特</color>、<color=#DC143C>SSR 拉娜</color>、<color=#DC143C>SSR 波赞鲁</color>。\n\n\n<color=#008B00>◆「召唤10次」特殊说明◆</color>\n★<color=#DC143C>限时召唤</color>中「召唤10次」，至少获得<color=#DC143C>1</color>个SR及以上英雄。"
	},
	{
		"ID": 27,
		"Value": "<color=#008B00>◆召唤概率说明◆</color>\n★<color=#DC143C>英雄召唤</color>获得R，SR，SSR稀有度英雄概率：R英雄85%，SR英雄13%，SSR英雄2%。\n★<color=#DC143C>装备召唤</color>获得R，SR，SSR稀有度装备概率：R装备70%，SR装备25%，SSR装备5%。"
	},
	{
		"ID": 28,
		"Value": "<color=#008B00>◆记忆商店◆</color>\n★将多余的英雄记忆碎片进行萃取，可获得<color=#DC143C>「记忆精华」</color>\n★萃取获得的<color=#DC143C>「记忆精华」</color>可在记忆商店中兑换商品\n\n<color=#008B00>◆记忆萃取说明◆</color>\n★仅在英雄达到<color=#DC143C>6星</color>后，才能萃取多余的记忆碎片\n★不同的记忆碎片萃取得到的<color=#DC143C>「记忆精华」</color>数量不同\n　SSR英雄记忆碎片：<color=#DC143C>30</color>记忆精华\n　SR英雄记忆碎片：<color=#DC143C>10</color>记忆精华\n　R英雄记忆碎片：<color=#DC143C>1</color>记忆精华"
	},
	{
		"ID": 29,
		"Value": "<color=#008B00>◆秘境积分玩法说明◆</color>\n★在时空乱流中，追寻过去传说的身影，挑战限时的关卡来搜集<color=#DC143C>积分</color>，并以此来召唤传说的英雄！\n★时空乱流反而会让某些英雄大显身手，使用<color=#DC143C>「推荐英雄」</color>来获得更多的<color=#DC143C>积分</color>！\n★在活动的不同时段，会开启不同的关卡；某些关卡需要在前置关卡通关后才能挑战。\n★<color=#DC143C>挑战关卡</color>与<color=#DC143C>积分关卡</color>都可以被多次挑战。重复挑战<color=#DC143C>挑战关卡</color>不消耗体力，但无法获得任何奖励。\n★玩家可以组队挑战积分关卡，但挑战关卡只能进行单人战斗。"
	},
	{
		"ID": 30,
		"Value": "<color=#008B00>◆超时空试炼玩法说明◆</color>\n★<color=#DC143C>跟随超时空流浪法师的步伐，踏上变幻莫测的试炼旅途</color>，立即获取丰厚的试炼奖励！\n★超时空试炼共有<color=#DC143C>60</color>个试炼任务，难度依次递增，序号为5的倍数的试炼为<color=#DC143C>精英首领试炼</color>。\n★<color=#DC143C>时空法则</color>：由于时空乱流的干扰，在试炼任务中会出现影响指定阵营的增减益效果，请好好抉择扬长避短吧！\n★<color=#DC143C>推荐英雄</color>：时空乱流反而会让某些英雄大显身手，使用特定英雄能够获得除生命外的全属性战力提升。\n★超时空试炼<color=#DC143C>每周一重置</color>，时空漩涡会产生崭新的试炼供大家继续挑战。"
	},
	{
		"ID": 31,
		"Value": "<color=#008B00>◆时空旅团玩法说明◆</color>\n★利用圣剑的力量，穿越时空，联合其他时空的圣剑使用者们，展开传说的冒险！\n★玩家可以使用<color=#DC143C>旅团许可证</color>来建立新旅团，也可以通过个人申请来加入已成立的旅团。\n★旅团成员可分为：<color=#DC143C>团长</color>（1人）、<color=#DC143C>副团长</color>（最多3人）、精英、团员。\n★玩家可通过消耗体力来积累活跃值成为精英。副团长由团长直接委任。\n★团长与副团长拥有<color=#DC143C>逐出团员的权力</color>；若团长长期未上线，则副团长与精英成员也可以发起<color=#DC143C>解除团长</color>。\n★旅团名字在初次决定后可通过消耗<color=#DC143C>圣魔晶</color>的方式修改。"
	},
	{
		"ID": 32,
		"Value": "<color=#008B00>◆碧空的双子-限时召唤◆</color>\n★<color=#DC143C>活动召唤</color>中获得SSR时，其中指定英雄的获得概率大幅度UP！\n★SSR总获取概率与普通英雄召唤相同。\n\n\n<color=#008B00>◆限定英雄◆</color>\n★本次活动中概率UP的英雄是：\n<color=#DC143C>SSR 安洁莉娜</color>、<color=#DC143C>SSR 雪露法妮尔</color>。\n\n<color=#008B00>◆「召唤10次」特殊说明◆</color>\n★<color=#DC143C>限时召唤</color>中「召唤10次」，至少获得<color=#DC143C>1</color>位SR英雄。"
	},
	{
		"ID": 33,
		"Value": "<color=#008B00>◆传奇的汇聚-限时召唤◆</color>\n★<color=#DC143C>活动召唤</color>中获得SSR时，其中指定英雄的获得概率大幅度UP！\n★SSR总获取概率与普通英雄召唤相同。\n★<color=#DC143C>精选福利</color>：你从本次活动中首次抽取到的SSR英雄，必定是活动精选列表中你尚未拥有的SSR英雄（若你已经集齐该活动精选列表中所有英雄，则可能获得其他SSR英雄或者重复的精选SSR英雄）。\n\n<color=#008B00>◆限定英雄◆</color>\n★本次活动中概率UP的英雄是：\n<color=#DC143C>SSR 雷丁</color>、<color=#DC143C>SSR 利昂</color>、<color=#DC143C>SSR 艾尔文</color>。\n\n<color=#008B00>◆「召唤10次」特殊说明◆</color>\n★<color=#DC143C>限时召唤</color>中「召唤10次」，至少获得<color=#DC143C>1</color>位SR英雄。"
	},
	{
		"ID": 34,
		"Value": "<color=#008B00>◆夏日姬精选-限时召唤◆</color>\n★<color=#DC143C>活动召唤</color>中获得SSR时，其中指定英雄的获得概率大幅度UP！\n★SSR总获取概率与普通英雄召唤相同。\n★<color=#DC143C>精选福利</color>：你从本次活动中首次抽取到的SSR英雄，必定是活动精选列表中你尚未拥有的SSR英雄（若你已经集齐该活动精选列表中所有英雄，则可能获得其他SSR英雄或者重复的精选SSR英雄）。\n\n<color=#008B00>◆限定英雄◆</color>\n★本次活动中概率UP的英雄是：\n<color=#DC143C>SSR 露娜</color>、<color=#DC143C>SSR 拉娜</color>、<color=#DC143C>SSR 蒂亚丽丝</color>。\n\n<color=#008B00>◆「召唤10次」特殊说明◆</color>\n★<color=#DC143C>限时召唤</color>中「召唤10次」，至少获得<color=#DC143C>1</color>位SR英雄。"
	},
	{
		"ID": 35,
		"Value": "<color=#008B00>◆旅团活动说明◆</color>\n★欢迎来到时空旅团的冒险大厅，在这里你可以<color=#DC143C>与志同道合的指挥官们群策群力，在时空的波涛中建立新的伟业。</color>\n★旅团的常规活动需要由旅团<color=#DC143C>团长、副团长</color>开启，如想参加活动就请积极向团长大人请愿吧！"
	},
	{
		"ID": 36,
		"Value": "<color=#008B00>◆旅团合战难度列表说明◆</color>\n★<color=#DC143C>开启条件：</color>旅团合战仅<color=#DC143C>团长、副团长</color>有权限开启；旅团合战分为不同的难度，随着旅团中成员的等级提升而依次解锁。\n★<color=#DC143C>开启次数：</color>旅团合战每周可开启<color=#DC143C>2</color>次，开启次数周一刷新。\n★<color=#DC143C>旅团同时只能进行一个合战。</color>当合战完成或者团长、副团长放弃合战后，可开启新的合战。"
	},
	{
		"ID": 37,
		"Value": "<color=#008B00>◆旅团合战说明◆</color>\n★<color=#DC143C>合战据点：</color>旅团合战分为若干个关卡据点，每个据点有不同的<color=#DC143C>阵营加成</color>，使用对应阵营英雄可以获得<color=#DC143C>40%</color>的战力加成。\n★<color=#DC143C>上阵限制：</color>在合战据点挑战中，<color=#DC143C>每日每个英雄只能上阵使用一次。</color>在战斗中撤退，英雄使用次数也会被记录。\n★<color=#DC143C>组队规则：</color>合战关卡可以单人完成，也可以组队完成，但只能与同旅团的指挥官进行组队。\n<color=#008B00>◆战斗规则◆</color>\n★合战关卡会持续出现新的敌人，每击败一个敌人都会获得<color=#DC143C>合战积分</color>。消灭所有敌人则获得<color=#DC143C>全灭积分</color>。\n★在关卡倒计时结束之前<color=#DC143C>击败尽可能多的敌人</color>，最终以击败敌人数量来获取合战积分，并计算旅团整体的<color=#DC143C>据点压制度</color>。\n★在合战里<color=#DC143C>中途退出不会获得合战积分</color>，而只要击败过敌人，即便最终全员阵亡也能获得对应积分；因此，战斗到最后！\n<color=#008B00>◆奖励◆</color>\n★<color=#DC143C>个人合战积分奖励：</color>积分达到以后直接获得。\n★<color=#DC143C>完全压制奖励：</color>完成某个据点的完全压制后，在合战结束时所有参战成员均可以获得该据点的完全压制奖励。\n★<color=#DC143C>合战进度奖励：</color>在合战结束时，按照本次合战完成度来向所有参战成员发放进度奖励。完成度越高，获得的奖励越高。"
	},
	{
		"ID": 38,
		"Value": "<color=#008B00>◆永恒的神殿玩法说明◆</color>\n★心之深处，永恒的神殿在静静地等待着挑战者……战胜心中的强力魔影，获得<color=#DC143C>心之羁绊材料</color>，加深与英雄们的羁绊！\n★心灵魔影非常巨大，能力强劲，战胜它需要合理搭配阵容与策略。\n★永恒的神殿每日只能挑战<color=#DC143C>一次</color>。\n★使用<color=#DC143C>「优势阵营」</color>的英雄来获得战斗力的巨幅增强！不同的魔影对应不同的<color=#DC143C>「优势阵营」</color>。\n<color=#008B00>◆副本开启◆</color>\n周一、周四：瓦尔基里 - 优势阵营：<color=#DC143C>光之起源、帝国之辉</color>\n周二、周五：利维艾尔 - 优势阵营：<color=#DC143C>黑暗轮回、公主联盟</color>\n周三、周六：斯库拉   - 优势阵营：<color=#DC143C>流星直击、光辉军团</color>\n周日：      菲尼克斯 - 优势阵营：<color=#DC143C>战略大师、主角光环、传说彼端</color>"
	},
	{
		"ID": 39,
		"Value": "<color=#008B00>◆集换活动玩法说明◆</color>\n★艾露萨利亚大陆埋藏了无数的秘宝，在多彩的故事中，挑战各路关卡，来取得各种<color=#DC143C>活动道具</color>，并且消耗道具以兑换丰厚奖励。\n★不同的英雄在收集不同道具方面有各自的长处，上阵相应的<color=#DC143C>「推荐英雄」</color>会获得对应道具的<color=#DC143C>掉落加成</color>。\n★在活动的不同时段，会开启不同的关卡；某些关卡需要在前置关卡通关后才能挑战。\n★活动关卡分为<color=#DC143C>剧情关卡，挑战关卡</color>和<color=#DC143C>重复关卡</color>，剧情关卡、挑战关卡和重复关卡都可以被多次挑战。重复挑战剧情、挑战关卡不消耗体力，但无法获得任何奖励。\n★玩家可以组队挑战重复关卡，但剧情关卡和挑战关卡只能进行单人战斗。"
	},
	{
		"ID": 40,
		"Value": "<color=#008B00>◆活动说明◆</color>\n★苦研哲学的兄贵给所有指挥官带来了揭示的秘宝！\n★活动开启后，每个指挥官都会获得一次<color=#DC143C>免费抽卡的机会</color>！\n★<color=#DC143C>每抽必中，绝不重复！</color>抽取10次，即可获得全部奖品！\n★每次抽卡所消耗的圣魔晶数量分别为：免费、50圣魔晶、100圣魔晶、200圣魔晶、300圣魔晶、400圣魔晶、500圣魔晶、600圣魔晶、800圣魔晶、1000圣魔晶。\n★获得的奖品将会直接加入您的背包，请注意查收。"
	},
	{
		"ID": 41,
		"Value": "<color=#008B00>◆归来者之诗玩法说明◆</color>\n★好久不见了，指挥官！别来无恙啊！这里有一些小任务，能帮助您重拾战斗的记忆，使您更好地回到战场。\n★活动持续<color=#DC143C>十天</color>，玩家可以通过完成<color=#DC143C>活动任务</color>来获得奖励。\n★完成活动任务可获得<color=#DC143C>活动积分</color>，当积分达到一定程度还可获得丰厚大奖！"
	},
	{
		"ID": 42,
		"Value": "<color=#008B00>◆交错的命运玩法说明◆</color>\n★圣剑的力量渐渐苏醒，时空的奇点若隐若现，命运的可能性，现在开始交错！<color=#DC143C>平行世界中的英雄，会做出怎样的抉择？</color>\n★首次成功通关即可获得<color=#DC143C>挑战点</color>，可用于秘境商店兑换英雄专属装备。\n★不同的关卡对应不同的<color=#DC143C>「推荐英雄」</color>。他们在关卡内会获得额外的<color=#DC143C>战力加成</color>。\n★每个关卡都有对应的成就，完成成就可获得额外的挑战点。"
	},
	{
		"ID": 43,
		"Value": "<color=#008B00>◆积分活动玩法说明◆</color>\n★艾露萨利亚大陆埋藏了无数的秘宝，在多彩的故事中，挑战各路关卡，来取得<color=#DC143C>活动积分</color>以兑换丰厚奖励。\n★不同的英雄在获取积分方面有各自的长处，上阵相应的<color=#DC143C>「推荐英雄」</color>会获得积分<color=#DC143C>获取加成</color>。\n★在活动的不同时段，会开启不同的关卡；某些关卡需要在前置关卡通关后才能挑战。\n★活动关卡分为<color=#DC143C>剧情关卡，挑战关卡</color>和<color=#DC143C>重复关卡</color>，剧情关卡、挑战关卡和重复关卡都可以被多次挑战。重复挑战剧情、挑战关卡不消耗体力，但无法获得任何奖励。\n★玩家可以组队挑战重复关卡，但剧情关卡和挑战关卡只能进行单人战斗。"
	},
	{
		"ID": 44,
		"Value": "<color=#008B00>◆巅峰竞技场队伍编成说明◆</color>\n<color=#DC143C>★主要编队</color>：所有指挥官必须组成一个<color=#DC143C>满15名英雄</color>的队伍才能参与巅峰竞技场战斗。这些英雄可以由指挥官自己所培养的英雄或者每周更换的佣兵英雄组成。\n<color=#DC143C>★备用编队</color>：备用编队只能在BO3切磋和淘汰赛中使用。\n在BO3对战中，第一局对战只能使用主要编队进行战斗。之后在第二局和第三局比赛前，指挥官可以将备用编队中的英雄与主要编队中的英雄进行替换，最终决定该场比赛的15人队伍。\n\n<color=#008B00>★佣兵：</color>\n佣兵英雄<color=#DC143C>每周一</color>会进行更换，系统会在整个赛区中依据一定规则<color=#DC143C>随机抽取满足条件的10个英雄</color>作为佣兵供所有指挥官使用。\n这些英雄的数据为抽取时的数据（包括该英雄的职业、皮肤、装备和附魔），并通过邮件发放给这些被选中的英雄所属的指挥官一份幸运奖励。\n所有指挥官可以自由调整这些佣兵的技能和士兵。佣兵的士兵数据为指挥官自己的练兵场数据。\n系统更换佣兵后，如果此前有在使用佣兵的指挥官，系统将会自动将这些佣兵从队伍中剔除，这些指挥官需要重新编辑队伍才可继续进行巅峰竞技场的战斗。\n\n<color=#008B00>★特殊规则：</color>\n同名英雄只能使用<color=#DC143C>一个</color>。\n淘汰赛期间，参赛选手无法使用佣兵。"
	},
	{
		"ID": 45,
		"Value": "<color=#008B00>■巅峰竞技场玩法说明■</color>\n★所有指挥官将会在巅峰竞技场中匹配到<color=#DC143C>所在大区的所有满足条件的真实对手</color>。用最高强度的真人对战挑战策略对弈的极限！\n\n<color=#008B00>★队伍编成：</color>\n所有指挥官必须组成一个满15名英雄的队伍才能参与巅峰竞技场战斗。这些英雄可以由指挥官自己所培养的英雄或者每周更换的佣兵英雄组成。具体规则可在队伍编成界面进行了解。\n\n<color=#008B00>★赛季分段规则：</color>\n参与巅峰竞技场的选手，每个赛季都要经历定级赛、积分赛以及淘汰赛阶段。\n<color=#DC143C>◆定级赛：</color>\n每个选手都会先经过5场定级赛，来最终决定该赛季的起始段位。该段位依据前一赛季的最终段位（如果前一赛季没有成绩，则默认为青铜III）以及定级赛成绩决定。\n\n<color=#DC143C>◆积分赛：</color>\n定级赛结束之后，就会自动开启积分赛，在积分赛中战胜对手就会获取赛季积分，战胜的对手越强大、连胜次数越多则获得积分越多。如果战斗失败，则会扣除积分。\n<color=#DC143C>段位保护机制：</color>白银段位不会掉至青铜段位；黄金段位不会掉至白银段位。在中间段位时，只有连败两场才会掉段。\n<color=#DC143C>晋级时的积分重置：</color>当段位晋级时，积分将从段位最低积分+1处进行重新计算。\n<color=#DC143C>恶意比赛的惩罚：</color>如果被系统检测到有恶意比赛的行为，当天将不再能参与天梯比赛的角逐。\n\n<color=#DC143C>◆淘汰赛：</color>\n积分赛结束之后，<color=#DC143C>积分排名256强</color>的指挥官将会自动进入淘汰赛环节。淘汰赛分组状况在淘汰赛开启以后可以在赛况界面进行查看。<color=#DC143C>淘汰赛期间，参赛选手无法使用佣兵</color>。\n淘汰赛为<color=#DC143C>BO3赛制</color>，并且<color=#DC143C>可以使用备用编队功能</color>。\n未参赛的指挥官可以对自己看好的参赛选手进行应援，具体规则可在淘汰赛开启后进行查看。\n\n<color=#008B00>★最终结算阶段：</color>\n最后依淘汰赛结果发放对应奖励，之后所有人本赛季积分清零，并依据本赛季的最终成绩，获得下赛季定级赛的初始积分。\n\n<color=#008B00>★战斗规则：</color>\n<color=#008B00>◆战前BAN-PICK阶段：</color>\n常规匹配模式中，双方玩家将会以场外BAN（禁用）和PICK（上阵）的方式来决定最终出场的英雄。\n<color=#DC143C>选人阶段规则为：</color>\n1.后手禁用1名先手英雄。\n2.先手禁用1名后手英雄，并上阵1名英雄。\n3.后手禁用2名先手英雄，并上阵1名英雄。\n4.先手禁用2名后手英雄，并上阵1名英雄。\n重复3-4步，直至双方最后上阵5名英雄。\n<color=#008B00>◆战前准备阶段：</color>\n战前准备时，只能知悉对手所使用的英雄。而自己可以对所使用的英雄进行站位、技能和士兵的调整。\n<color=#008B00>◆战斗阶段：</color>\n战斗到达<color=#DC143C>2回合</color>时，战场上出现会向战场中央延伸的<color=#DC143C>剧毒伤害地形</color>。\n\n<color=#008B00>★奖励：</color>\n<color=#DC143C>宝箱：</color>每周天梯首胜之后，可以获得。（休赛期、淘汰赛期间无法获得）\n<color=#DC143C>段位周奖励：</color>每周日晚上22:00会根据段位，通过邮件发送。\n<color=#DC143C>赛季段位奖励：</color>积分赛期间，完成10场以上比赛，并达到指定段位，可以在满足条件时，直接通过邮件获得。\n<color=#DC143C>淘汰赛奖励：</color>专属于参赛选手的奖励，依据排名不同，奖励不同，会在淘汰赛结束进行发放。巅峰总冠军还能获得<color=#DC143C>官方神秘大奖</color>。"
	},
	{
		"ID": 46,
		"Value": "<color=#008B00>△淘汰赛参赛选手注意事项：</color>\n1.淘汰赛期间，参赛选手<color=#DC143C>无法使用佣兵</color>。\n2.参赛选手需要在系统规定的开赛时间内进行战斗准备（点击巅峰界面上的【挑战】按钮），<color=#DC143C>超时未进行准备的选手将被系统自动判定为弃权</color>。\n3.参赛选手在系统规定的开赛时间后不能对战队进行编辑，请确保在开赛时间到达前已经编辑好自己的战队（注意：战队未满15人将无法参赛）。战斗结束后，才能再次对战队进行编辑。\n4.淘汰赛为<color=#DC143C>BO3赛制</color>。BO3赛制为连战，直到决出最终胜者战斗才会结束，请参赛选手尽量在网络稳定的环境下进行比赛。在BO3赛制进行时，战斗中撤退视为正在进行的战斗失败，若后续还有比赛场次（比如撤退后大比分变为1:0），会进入到下一轮比赛的准备阶段。\n5.BO3第一场比赛的先后手顺序由系统随机，<color=#DC143C>败者可以自由决定下一场比赛的先后手顺序</color>。\n6.请所有参赛选手保护好自己的账号隐私，若在比赛期间出现异常登录的行为（如：比赛期间账号在另一台设备登录）将会被<color=#DC143C>视为淘汰</color>。\n\n<color=#008B00>△备用编队功能：</color>\n1.备用编队<color=#DC143C>只能在BO3比赛中使用</color>，可以为空。\n2.第一局对战只能使用主要编队进行，之后在第二局和第三局比赛前，选手可以将备用编队中的英雄与主要编队中的英雄进行替换，最终决定该场比赛的15人队伍。\n\n<color=#008B00>△淘汰赛外围功能：</color>\n1.<color=#DC143C>比赛直播</color>：未参赛的指挥官可以在淘汰赛期间，直接进入对战房间观看选手的比赛。直播过程中，可以发送实时弹幕。为了比赛的公平公正，系统将会对比赛直播进行一定的延时处理。\n2.<color=#DC143C>比赛应援</color>：当淘汰赛进入16强（决赛圈）后，比赛当天所有满足等级条件的指挥官可以收到系统发放的<color=#DC143C>应援券</color>。比赛正式开始前，非参赛选手可以在赛况界面对自己看好的参赛选手进行应援，若应援的选手获胜，将会按照本场比赛的应援情况，获得对应的应援奖励（战斗结束后通过系统邮件发放）。每天可以对多场比赛进行应援，但是仅能应援比赛选手其中一方，并且每日有应援总数上限。"
	},
	{
		"ID": 47,
		"Value": "<color=#008B00>◆远古的呼唤玩法说明◆</color>\n玩家们在远古的呼唤内挑战若干<color=#DC143C>远古凶兽</color>，远古凶兽<color=#DC143C>不可被击败</color>，玩家需要在部队被全部消灭前尽可能的打出<color=#DC143C>最高的输出</color>以获得相应的<color=#DC143C>评价</color>。\n\n<color=#008B00>◆玩法周期◆</color>\n每期活动持续<color=#DC143C>30天</color>。\n每期活动共<color=#DC143C>5个</color>远古凶兽。\n每个远古凶兽开放<color=#DC143C>6天</color>，依次<color=#DC143C>循环开放</color>。\n\n<color=#008B00>◆战斗相关规则◆</color>\n每个远古凶兽都<color=#DC143C>不可被击败</color>。\n每个远古凶兽都拥有<color=#DC143C>多个阶段</color>，当一个阶段血量耗尽时就会进入下一阶段，以此<color=#DC143C>循环转化</color>。\n玩家需在部队<color=#DC143C>被团灭前</color>尽可能打出<color=#DC143C>更高的输出数值</color>。\n\n\n<color=#008B00>◆优势阵营◆</color>\n在<color=#DC143C>指定远古凶兽</color>的战斗中上阵对应优势阵营的角色，会获得<color=#DC143C>全属性提升100%</color>的效果。该效果<color=#DC143C>无法与超绝强化重叠</color>。\n尼德霍格   - 优势阵营：<color=#DC143C>公主联盟、传说彼端</color>\n芬里尔     - 优势阵营：<color=#DC143C>黑暗轮回、超凡领域</color>\n斯雷普尼尔 - 优势阵营：<color=#DC143C>帝国之辉、战略大师</color>\n福金&雾尼  - 优势阵营：<color=#DC143C>主角光环、光辉军团</color>\n耶梦加得   - 优势阵营：<color=#DC143C>光之起源、流星直击</color>\n\n\n<color=#008B00>◆奖励说明◆</color>\n不同于其他的玩法，远古的呼唤<color=#DC143C>单次战斗没有奖励</color>，同时也<color=#DC143C>没有体力消耗</color>。远古的呼唤挑战奖励将通过<color=#DC143C>周期结算</color>的方式进行发放。主要有以下几类：\n-<color=#008B00>成就奖励</color>-\n每个远古凶兽都有自己的<color=#DC143C>成就列表</color>，玩家在战斗中达成成就后可以在成就列表中领取<color=#DC143C>对应的奖励</color>。\n-<color=#008B00>6日奖励</color>-\n每个远古凶兽在<color=#DC143C>6天</color>的开启期间内，系统会记录玩家在<color=#DC143C>6天内的最高输出</color>，根据最高输出给予相应的<color=#DC143C>评价</color>，在结算后会通过邮件给玩家发送<color=#DC143C>与评价相对应的奖励</color>。该远古凶兽的最高输出及评价将会<color=#DC143C>永久保留</color>。\n-<color=#008B00>每期排名奖励</color>-\n每个远古凶兽都有对应的<color=#DC143C>排行榜</color>，<color=#DC143C>输出</color>越高的玩家，所得<color=#DC143C>名次</color>越高，获得的对应<color=#DC143C>积分</color>也就越多。排行榜每30天算作一期，当期所有远古凶兽的积分会在总排行榜中汇总为<color=#DC143C>总积分</color>，系统根据总积分进行玩家排名，从而给出<color=#DC143C>对应的排名奖励</color>。"
	},
	{
		"ID": 48,
		"Value": "<color=#008B00>◆远古的呼唤玩法说明◆</color>\n玩家们在远古的呼唤内挑战若干<color=#DC143C>远古凶兽</color>，远古凶兽<color=#DC143C>不可被击败</color>，玩家需要在部队被全部消灭前尽可能的打出<color=#DC143C>最高的输出</color>以获得相应的<color=#DC143C>评价</color>。\n\n<color=#008B00>◆玩法周期◆</color>\n每期活动持续<color=#DC143C>30天</color>。\n每期活动共<color=#DC143C>5个</color>远古凶兽。\n每个远古凶兽开放<color=#DC143C>6天</color>，依次<color=#DC143C>循环开放</color>。\n\n<color=#008B00>◆战斗相关规则◆</color>\n每个远古凶兽都<color=#DC143C>不可被击败</color>。\n每个远古凶兽都拥有<color=#DC143C>多个阶段</color>，当一个阶段血量耗尽时就会进入下一阶段，以此<color=#DC143C>循环转化</color>。\n玩家需在部队<color=#DC143C>被团灭前</color>尽可能打出<color=#DC143C>更高的输出数值</color>。\n\n<color=#008B00>◆优势阵营◆</color>\n在<color=#DC143C>指定远古凶兽</color>的战斗中上阵对应优势阵营的角色，会获得<color=#DC143C>全属性提升100%</color>的效果。该效果<color=#DC143C>无法与超绝强化重叠</color>。\n尼德霍格   - 优势阵营：<color=#DC143C>公主联盟、传说彼端</color>\n芬里尔     - 优势阵营：<color=#DC143C>黑暗轮回、超凡领域</color>\n斯雷普尼尔 - 优势阵营：<color=#DC143C>帝国之辉、战略大师</color>\n福金&雾尼  - 优势阵营：<color=#DC143C>主角光环、光辉军团</color>\n耶梦加得   - 优势阵营：<color=#DC143C>光之起源、流星直击</color>\n\n<color=#008B00>◆奖励说明◆</color>\n不同于其他的玩法，远古的呼唤<color=#DC143C>单次战斗没有奖励</color>，同时也<color=#DC143C>没有体力消耗</color>。远古的呼唤挑战奖励将通过<color=#DC143C>周期结算</color>的方式进行发放。主要有以下几类：\n-<color=#008B00>成就奖励</color>-\n每个远古凶兽都有自己的<color=#DC143C>成就列表</color>，玩家在战斗中达成成就后可以在成就列表中领取<color=#DC143C>对应的奖励</color>。\n-<color=#008B00>6日奖励</color>-\n每个远古凶兽在<color=#DC143C>6天</color>的开启期间内，系统会记录玩家在<color=#DC143C>6天内的最高输出</color>，根据最高输出给予相应的<color=#DC143C>评价</color>，在结算后会通过邮件给玩家发送<color=#DC143C>与评价相对应的奖励</color>。该远古凶兽的最高输出及评价将会<color=#DC143C>永久保留</color>。\n-<color=#008B00>每期排名奖励</color>-\n每个远古凶兽都有对应的<color=#DC143C>排行榜</color>，<color=#DC143C>输出</color>越高的玩家，所得<color=#DC143C>名次</color>越高，获得的对应<color=#DC143C>积分</color>也就越多。排行榜每30天算作一期，当期所有远古凶兽的积分会在总排行榜中汇总为<color=#DC143C>总积分</color>，系统根据总积分进行玩家排名，从而给出<color=#DC143C>对应的排名奖励</color>。"
	},
	{
		"ID": 49,
		"Value": "名片页面说明测试"
	},
	{
		"ID": 50,
		"Value": "<color=#008B00>◆封印战域玩法说明◆</color>\n★双月降临，静止的能量潮汐再次流动，<color=#DC143C>「封印战域」</color>自时间的长河中浮现而出。\n★<color=#DC143C>「封印战域」共四组</color>，开放周期时长为四周，每周将开放一组战域。\n★<color=#DC143C>「封印战域」不消耗体力且没有挑战次数限制</color>，在活动开放时间内，玩家可以任意进行封印战域的挑战。\n★<color=#DC143C>每个关卡仅首次通关可获得奖励。</color>\n★玩家需通过前置关卡，方可进行下一关卡的挑战。\n★受双月潮汐的影响，战域内敌我双方的力量都要强于普通状态。\n★部分战域关卡拥有战斗成就，玩家通关并完成成就可以获得相应的奖励。\n★战域会产出<color=#DC143C>「古代金币」</color>，玩家通关关卡后将可获得。古代金币可用于在封印商店内兑换奖励。"
	},
	{
		"ID": 51,
		"Value": "1. 每日任务可获得的<color=#DC143C>玩家经验</color>增加\n2. 兄贵健身房<color=#DC143C>每日挑战奖励</color>增加\n3. 女神的试炼<color=#DC143C>每日挑战奖励</color>增加\n4. 羁绊之地<color=#DC143C>每日挑战奖励</color>增加\n5. 安杰丽卡特训屋<color=#DC143C>每日挑战奖励</color>增加\n6. 时空裂缝<color=#DC143C>挑战奖励</color>增加（首次通关除外）\n7. 每日可获得的<color=#DC143C>宝藏钥匙</color>数量+1"
	},
	{
		"ID": 52,
		"Value": "推进战内容说明"
	},
	{
		"ID": 53,
		"Value": "推进战队伍编成说明"
	},
	{
		"ID": 54,
		"Value": "推进战战斗中说明"
	}
]