[
	{
		"ID": 1,
		"Name": "艾伦"
	},
	{
		"ID": 2,
		"Name": "亚伯"
	},
	{
		"ID": 3,
		"Name": "亚当"
	},
	{
		"ID": 4,
		"Name": "艾德勒"
	},
	{
		"ID": 5,
		"Name": "阿多尼斯"
	},
	{
		"ID": 6,
		"Name": "奥尔"
	},
	{
		"ID": 7,
		"Name": "奥尔登"
	},
	{
		"ID": 8,
		"Name": "艾尔德斯"
	},
	{
		"ID": 9,
		"Name": "阿方斯"
	},
	{
		"ID": 10,
		"Name": "阿朗索"
	},
	{
		"ID": 11,
		"Name": "埃莫斯"
	},
	{
		"ID": 12,
		"Name": "阿曼德"
	},
	{
		"ID": 13,
		"Name": "巴克雷"
	},
	{
		"ID": 14,
		"Name": "巴尼"
	},
	{
		"ID": 15,
		"Name": "巴特"
	},
	{
		"ID": 16,
		"Name": "贝阿德"
	},
	{
		"ID": 17,
		"Name": "贝克"
	},
	{
		"ID": 18,
		"Name": "贝拉米"
	},
	{
		"ID": 19,
		"Name": "伯纳德"
	},
	{
		"ID": 20,
		"Name": "伯顿"
	},
	{
		"ID": 21,
		"Name": "博恩"
	},
	{
		"ID": 22,
		"Name": "布伦南"
	},
	{
		"ID": 23,
		"Name": "布赖恩"
	},
	{
		"ID": 24,
		"Name": "拜伦"
	},
	{
		"ID": 25,
		"Name": "考尔德"
	},
	{
		"ID": 26,
		"Name": "加尔文"
	},
	{
		"ID": 27,
		"Name": "卡尔顿"
	},
	{
		"ID": 28,
		"Name": "查尔顿"
	},
	{
		"ID": 29,
		"Name": "克拉克"
	},
	{
		"ID": 30,
		"Name": "科恩"
	},
	{
		"ID": 31,
		"Name": "科莱曼"
	},
	{
		"ID": 32,
		"Name": "库伯"
	},
	{
		"ID": 33,
		"Name": "达利"
	},
	{
		"ID": 34,
		"Name": "达里恩"
	},
	{
		"ID": 35,
		"Name": "丹尼斯"
	},
	{
		"ID": 36,
		"Name": "登顿"
	},
	{
		"ID": 37,
		"Name": "多米尼克"
	},
	{
		"ID": 38,
		"Name": "德雷克"
	},
	{
		"ID": 39,
		"Name": "埃本"
	},
	{
		"ID": 40,
		"Name": "埃德加"
	},
	{
		"ID": 41,
		"Name": "埃尔金"
	},
	{
		"ID": 42,
		"Name": "艾诺斯"
	},
	{
		"ID": 43,
		"Name": "尤恩"
	},
	{
		"ID": 44,
		"Name": "法比奥"
	},
	{
		"ID": 45,
		"Name": "弗格斯"
	},
	{
		"ID": 46,
		"Name": "弗雷泽"
	},
	{
		"ID": 47,
		"Name": "弗里曼"
	},
	{
		"ID": 48,
		"Name": "盖奇"
	},
	{
		"ID": 49,
		"Name": "盖博"
	},
	{
		"ID": 50,
		"Name": "加文"
	},
	{
		"ID": 51,
		"Name": "格伦"
	},
	{
		"ID": 52,
		"Name": "戈登"
	},
	{
		"ID": 53,
		"Name": "格雷格"
	},
	{
		"ID": 54,
		"Name": "盖伊"
	},
	{
		"ID": 55,
		"Name": "哈姆林"
	},
	{
		"ID": 56,
		"Name": "哈维"
	},
	{
		"ID": 57,
		"Name": "赫克托"
	},
	{
		"ID": 58,
		"Name": "伊恩"
	},
	{
		"ID": 59,
		"Name": "尤金"
	},
	{
		"ID": 60,
		"Name": "艾萨克"
	},
	{
		"ID": 61,
		"Name": "雅各布"
	},
	{
		"ID": 62,
		"Name": "贾维斯"
	},
	{
		"ID": 63,
		"Name": "约尔"
	},
	{
		"ID": 64,
		"Name": "乔斯特"
	},
	{
		"ID": 65,
		"Name": "海曼"
	},
	{
		"ID": 66,
		"Name": "莱尔德"
	},
	{
		"ID": 67,
		"Name": "兰尼"
	},
	{
		"ID": 68,
		"Name": "劳伦斯"
	},
	{
		"ID": 69,
		"Name": "卢修斯"
	},
	{
		"ID": 70,
		"Name": "马可"
	},
	{
		"ID": 71,
		"Name": "米克"
	},
	{
		"ID": 72,
		"Name": "奥拉夫"
	},
	{
		"ID": 73,
		"Name": "培迪"
	},
	{
		"ID": 74,
		"Name": "昆顿"
	},
	{
		"ID": 75,
		"Name": "雷德"
	},
	{
		"ID": 76,
		"Name": "雷诺"
	},
	{
		"ID": 77,
		"Name": "塞尔温"
	},
	{
		"ID": 78,
		"Name": "尼尔"
	},
	{
		"ID": 79,
		"Name": "斯宾塞"
	},
	{
		"ID": 80,
		"Name": "塔斯"
	},
	{
		"ID": 81,
		"Name": "尤利尔"
	},
	{
		"ID": 82,
		"Name": "维克托"
	},
	{
		"ID": 83,
		"Name": "文斯"
	},
	{
		"ID": 84,
		"Name": "沃尔顿"
	},
	{
		"ID": 85,
		"Name": "沃森"
	},
	{
		"ID": 86,
		"Name": "维勒"
	},
	{
		"ID": 87,
		"Name": "温顿"
	},
	{
		"ID": 88,
		"Name": "乌尔夫"
	},
	{
		"ID": 89,
		"Name": "泽克"
	},
	{
		"ID": 90,
		"Name": "拉曼"
	},
	{
		"ID": 91,
		"Name": "兰森"
	},
	{
		"ID": 92,
		"Name": "杰伊"
	},
	{
		"ID": 93,
		"Name": "杰罗姆"
	},
	{
		"ID": 94,
		"Name": "诺亚"
	},
	{
		"ID": 95,
		"Name": "帕斯卡"
	},
	{
		"ID": 96,
		"Name": "菲尔"
	},
	{
		"ID": 97,
		"Name": "德拉古"
	},
	{
		"ID": 98,
		"Name": "桑德罗"
	},
	{
		"ID": 99,
		"Name": "赛拉斯"
	},
	{
		"ID": 100,
		"Name": "西温"
	}
]