[
	{
		"ID": 10,
		"Value": "礼包码参数错误",
		"ValueStrKey": ""
	},
	{
		"ID": 11,
		"Value": "礼包码异常",
		"ValueStrKey": ""
	},
	{
		"ID": 17,
		"Value": "礼包码签名错误",
		"ValueStrKey": ""
	},
	{
		"ID": 100,
		"Value": "（游戏做了兑换成功的提示）",
		"ValueStrKey": ""
	},
	{
		"ID": 101,
		"Value": "您输入的礼包码不存在[101]",
		"ValueStrKey": ""
	},
	{
		"ID": 102,
		"Value": "您输入的礼包码不存在[102]",
		"ValueStrKey": ""
	},
	{
		"ID": 103,
		"Value": "啊欧~礼包码已经失效[103]",
		"ValueStrKey": ""
	},
	{
		"ID": 104,
		"Value": "啊欧~该礼包码已经被使用过了！[104]",
		"ValueStrKey": ""
	},
	{
		"ID": 105,
		"Value": "啊欧~礼包码已经失效[105]",
		"ValueStrKey": ""
	},
	{
		"ID": 106,
		"Value": "啊欧~礼包码已经失效[106]",
		"ValueStrKey": ""
	},
	{
		"ID": 107,
		"Value": "礼包码使用时间未开始[107]",
		"ValueStrKey": ""
	},
	{
		"ID": 108,
		"Value": "啊欧~礼包码已过期~[108]",
		"ValueStrKey": ""
	},
	{
		"ID": 109,
		"Value": "啊欧~礼包码已经失效[109]",
		"ValueStrKey": ""
	},
	{
		"ID": 110,
		"Value": "啊欧~礼包码已经失效[110]",
		"ValueStrKey": ""
	},
	{
		"ID": 111,
		"Value": "已经兑换过同类礼包，不能再次兑换了哦！[111]",
		"ValueStrKey": ""
	},
	{
		"ID": 112,
		"Value": "已经兑换过同类礼包，不能再次兑换了哦！[112]",
		"ValueStrKey": ""
	},
	{
		"ID": 113,
		"Value": "抱歉，您的渠道不支持兑换该礼包！[113]",
		"ValueStrKey": ""
	},
	{
		"ID": 114,
		"Value": "啊欧~该礼包码已经被使用过了！[114]",
		"ValueStrKey": ""
	},
	{
		"ID": 115,
		"Value": "恭喜指挥官大人成功兑换！",
		"ValueStrKey": ""
	},
	{
		"ID": 116,
		"Value": "兑换失败，请稍后重试[116]",
		"ValueStrKey": ""
	},
	{
		"ID": 117,
		"Value": "（已携带{0}/{1}）",
		"ValueStrKey": ""
	},
	{
		"ID": 118,
		"Value": "{0}件",
		"ValueStrKey": ""
	},
	{
		"ID": 119,
		"Value": "拥有 <color=#BBE603FF>{0}</color> 件",
		"ValueStrKey": ""
	},
	{
		"ID": 120,
		"Value": "需求英雄等级：{0}",
		"ValueStrKey": ""
	},
	{
		"ID": 125,
		"Value": "近战",
		"ValueStrKey": ""
	},
	{
		"ID": 126,
		"Value": "远程",
		"ValueStrKey": ""
	},
	{
		"ID": 127,
		"Value": "属性",
		"ValueStrKey": ""
	},
	{
		"ID": 128,
		"Value": "关闭",
		"ValueStrKey": ""
	},
	{
		"ID": 132,
		"Value": "拥有 <color=#BBE603FF>{0}</color> 件",
		"ValueStrKey": ""
	},
	{
		"ID": 133,
		"Value": "大陆通用货币，没有它还真是寸步难行。",
		"ValueStrKey": ""
	},
	{
		"ID": 134,
		"Value": "拥有神秘力量的罕见矿石结晶，传说它同时蕴含光明与黑暗的力量。",
		"ValueStrKey": ""
	},
	{
		"ID": 135,
		"Value": "参与游戏中各种玩法都会消耗体力，会随着时间恢复。",
		"ValueStrKey": ""
	},
	{
		"ID": 136,
		"Value": "参与竞技场必备的通行证，持有者才有资格参加比赛。",
		"ValueStrKey": ""
	},
	{
		"ID": 137,
		"Value": "通过竞技场获得的荣誉点数，用于在荣誉商店中购买物品。",
		"ValueStrKey": ""
	},
	{
		"ID": 138,
		"Value": "用于提升队伍等级的点数。队伍等级提升之后英雄的等级上限也会随之增加。",
		"ValueStrKey": ""
	},
	{
		"ID": 139,
		"Value": "金币",
		"ValueStrKey": ""
	},
	{
		"ID": 140,
		"Value": "圣魔晶",
		"ValueStrKey": ""
	},
	{
		"ID": 141,
		"Value": "体力",
		"ValueStrKey": ""
	},
	{
		"ID": 142,
		"Value": "竞技场门票",
		"ValueStrKey": ""
	},
	{
		"ID": 143,
		"Value": "荣誉",
		"ValueStrKey": ""
	},
	{
		"ID": 144,
		"Value": "队伍经验",
		"ValueStrKey": ""
	},
	{
		"ID": 145,
		"Value": "天",
		"ValueStrKey": ""
	},
	{
		"ID": 146,
		"Value": "小时",
		"ValueStrKey": ""
	},
	{
		"ID": 147,
		"Value": "分",
		"ValueStrKey": ""
	},
	{
		"ID": 148,
		"Value": "秒",
		"ValueStrKey": ""
	},
	{
		"ID": 149,
		"Value": "点",
		"ValueStrKey": ""
	},
	{
		"ID": 150,
		"Value": "1小时内",
		"ValueStrKey": ""
	},
	{
		"ID": 151,
		"Value": "{0}小时前",
		"ValueStrKey": ""
	},
	{
		"ID": 152,
		"Value": "{0}天前",
		"ValueStrKey": ""
	},
	{
		"ID": 153,
		"Value": "专属",
		"ValueStrKey": ""
	},
	{
		"ID": 154,
		"Value": "一点一点的友谊永存心中",
		"ValueStrKey": ""
	},
	{
		"ID": 155,
		"Value": "友情点",
		"ValueStrKey": ""
	},
	{
		"ID": 156,
		"Value": "可以在商店中购买英雄或者士兵的皮肤。",
		"ValueStrKey": ""
	},
	{
		"ID": 157,
		"Value": "皮肤券",
		"ValueStrKey": ""
	},
	{
		"ID": 158,
		"Value": "满溢的英雄记忆，纯粹的光之精华，可在记忆商店中使用。",
		"ValueStrKey": ""
	},
	{
		"ID": 159,
		"Value": "记忆精华",
		"ValueStrKey": ""
	},
	{
		"ID": 160,
		"Value": "在线",
		"ValueStrKey": ""
	},
	{
		"ID": 161,
		"Value": "{0}分钟前",
		"ValueStrKey": ""
	},
	{
		"ID": 162,
		"Value": "武具商人之间流通的硬通货，由SR装备分解获得",
		"ValueStrKey": ""
	},
	{
		"ID": 163,
		"Value": "秘银石",
		"ValueStrKey": ""
	},
	{
		"ID": 164,
		"Value": "武具商人梦寐以求的传说级锻造材料，由SSR装备分解获得",
		"ValueStrKey": ""
	},
	{
		"ID": 165,
		"Value": "光辉秘银石",
		"ValueStrKey": ""
	},
	{
		"ID": 166,
		"Value": "第{0}天",
		"ValueStrKey": ""
	},
	{
		"ID": 167,
		"Value": "旅团勋章",
		"ValueStrKey": ""
	},
	{
		"ID": 168,
		"Value": "时空旅团的纪念勋章，可在旅团商店中使用。",
		"ValueStrKey": ""
	},
	{
		"ID": 169,
		"Value": "无",
		"ValueStrKey": ""
	},
	{
		"ID": 170,
		"Value": "挑战点",
		"ValueStrKey": ""
	},
	{
		"ID": 171,
		"Value": "可在秘境挑战活动及限时活动中获得，用于秘境商店中兑换装备道具",
		"ValueStrKey": ""
	},
	{
		"ID": 172,
		"Value": "时装点",
		"ValueStrKey": ""
	},
	{
		"ID": 173,
		"Value": "可在秘境挑战活动及限时活动中获得，用于秘境商店中兑换皮肤",
		"ValueStrKey": ""
	},
	{
		"ID": 200,
		"Value": "{0} 开启",
		"ValueStrKey": ""
	},
	{
		"ID": 201,
		"Value": "解锁条件:  等级到达<color=#FF0000FF>{0}</color>级\n<color=#800000FF>小贴士:  可在<color=#FF0000FF>【时空裂缝】</color>中提升队伍等级</color>",
		"ValueStrKey": ""
	},
	{
		"ID": 202,
		"Value": "解锁条件:  通关时空裂缝<color=#FF0000FF>{0}</color>",
		"ValueStrKey": ""
	},
	{
		"ID": 203,
		"Value": "主线剧情{0}",
		"ValueStrKey": ""
	},
	{
		"ID": 204,
		"Value": "此功能在主线剧情{0}完成后解锁",
		"ValueStrKey": ""
	},
	{
		"ID": 205,
		"Value": "解锁条件:  于主线剧情「{0}」达成<color=#FF0000FF>{1}</color>成就",
		"ValueStrKey": ""
	},
	{
		"ID": 206,
		"Value": "该主线剧情尚未开启",
		"ValueStrKey": ""
	},
	{
		"ID": 210,
		"Value": "等级到达{0}级",
		"ValueStrKey": ""
	},
	{
		"ID": 211,
		"Value": "通关<color=#DC143C>主线剧情{0}</color>",
		"ValueStrKey": ""
	},
	{
		"ID": 212,
		"Value": "解锁<color=#DC143C>{0}</color>关卡成就：<color=#DC143C>{1}</color>",
		"ValueStrKey": ""
	},
	{
		"ID": 213,
		"Value": "拥有{0}",
		"ValueStrKey": ""
	},
	{
		"ID": 214,
		"Value": "通关{0}",
		"ValueStrKey": ""
	},
	{
		"ID": 215,
		"Value": "亲密度等级达到{0}后开启",
		"ValueStrKey": ""
	},
	{
		"ID": 220,
		"Value": "首次通关获得",
		"ValueStrKey": ""
	},
	{
		"ID": 221,
		"Value": "可能掉落",
		"ValueStrKey": ""
	},
	{
		"ID": 230,
		"Value": "{0}回合内通关",
		"ValueStrKey": ""
	},
	{
		"ID": 231,
		"Value": "阵亡不超过{0}人",
		"ValueStrKey": ""
	},
	{
		"ID": 232,
		"Value": "阵亡不超过{0}人",
		"ValueStrKey": ""
	},
	{
		"ID": 233,
		"Value": "无3星条件",
		"ValueStrKey": ""
	},
	{
		"ID": 234,
		"Value": "无部队撤退",
		"ValueStrKey": ""
	},
	{
		"ID": 240,
		"Value": "门番",
		"ValueStrKey": ""
	},
	{
		"ID": 241,
		"Value": "进攻",
		"ValueStrKey": ""
	},
	{
		"ID": 242,
		"Value": "防守",
		"ValueStrKey": ""
	},
	{
		"ID": 243,
		"Value": "复仇",
		"ValueStrKey": ""
	},
	{
		"ID": 244,
		"Value": "胜利",
		"ValueStrKey": ""
	},
	{
		"ID": 245,
		"Value": "失败",
		"ValueStrKey": ""
	},
	{
		"ID": 246,
		"Value": "{0}<color=#FFFFFFFF>/{1}</color>",
		"ValueStrKey": ""
	},
	{
		"ID": 247,
		"Value": "{0}<color=#FFFFFFFF>/{1}</color>",
		"ValueStrKey": ""
	},
	{
		"ID": 248,
		"Value": "您的积分已经超过了{0}分，获得了晋级战的资格。在晋级赛中达成指定胜场数即可晋升段位。",
		"ValueStrKey": ""
	},
	{
		"ID": 249,
		"Value": "已复仇过对手",
		"ValueStrKey": ""
	},
	{
		"ID": 250,
		"Value": "{0}:{1:d2}:{2:d2}后刷新",
		"ValueStrKey": ""
	},
	{
		"ID": 251,
		"Value": "低于{0}",
		"ValueStrKey": ""
	},
	{
		"ID": 252,
		"Value": "<color=#C9C9C9FF>{0}%</color>",
		"ValueStrKey": ""
	},
	{
		"ID": 253,
		"Value": "<color=#00FF00FF>{0}%</color>",
		"ValueStrKey": ""
	},
	{
		"ID": 254,
		"Value": "<color=#FF5A00FF>{0}%</color>",
		"ValueStrKey": ""
	},
	{
		"ID": 255,
		"Value": "请上阵英雄，否则无法防守",
		"ValueStrKey": ""
	},
	{
		"ID": 256,
		"Value": "未知",
		"ValueStrKey": ""
	},
	{
		"ID": 257,
		"Value": "恭喜指挥官成功晋级至 {0}！",
		"ValueStrKey": ""
	},
	{
		"ID": 258,
		"Value": "未上榜",
		"ValueStrKey": ""
	},
	{
		"ID": 259,
		"Value": "战报已过期，无法播放",
		"ValueStrKey": ""
	},
	{
		"ID": 260,
		"Value": "每周一到周五\n12:00-13:00\n19:00-21:00",
		"ValueStrKey": ""
	},
	{
		"ID": 261,
		"Value": "段位奖励在每日22：00通过邮件发放",
		"ValueStrKey": ""
	},
	{
		"ID": 262,
		"Value": "由于版本更新，版本更新前的战报播放时可能会发生错误，确认要继续播放吗？",
		"ValueStrKey": ""
	},
	{
		"ID": 263,
		"Value": "前往{0}的道路尚未被打开",
		"ValueStrKey": ""
	},
	{
		"ID": 264,
		"Value": "暂未开启",
		"ValueStrKey": ""
	},
	{
		"ID": 300,
		"Value": "确定退出自动匹配队列吗？",
		"ValueStrKey": ""
	},
	{
		"ID": 301,
		"Value": "前方约有{0}人排队",
		"ValueStrKey": ""
	},
	{
		"ID": 302,
		"Value": "全部",
		"ValueStrKey": ""
	},
	{
		"ID": 303,
		"Value": "全部",
		"ValueStrKey": ""
	},
	{
		"ID": 304,
		"Value": "所有人",
		"ValueStrKey": ""
	},
	{
		"ID": 305,
		"Value": "仅好友和旅团",
		"ValueStrKey": ""
	},
	{
		"ID": 306,
		"Value": "不公开（进邀请）",
		"ValueStrKey": ""
	},
	{
		"ID": 307,
		"Value": "只有队长可以更改公开权限",
		"ValueStrKey": ""
	},
	{
		"ID": 308,
		"Value": "开始自动匹配",
		"ValueStrKey": ""
	},
	{
		"ID": 309,
		"Value": "在线好友",
		"ValueStrKey": ""
	},
	{
		"ID": 310,
		"Value": "在线最近组队",
		"ValueStrKey": ""
	},
	{
		"ID": 311,
		"Value": "{0}暂忙，没有接受你的邀请",
		"ValueStrKey": ""
	},
	{
		"ID": 312,
		"Value": "是否邀请队友再战一次？",
		"ValueStrKey": ""
	},
	{
		"ID": 313,
		"Value": "组队战斗时只能替换上阵英雄",
		"ValueStrKey": ""
	},
	{
		"ID": 314,
		"Value": "无法操作队友的上阵位置",
		"ValueStrKey": ""
	},
	{
		"ID": 315,
		"Value": "{0:D2}分{1:D2}秒",
		"ValueStrKey": ""
	},
	{
		"ID": 316,
		"Value": "是否邀请队友再战一次？",
		"ValueStrKey": ""
	},
	{
		"ID": 317,
		"Value": "当前玩法尚未开放",
		"ValueStrKey": ""
	},
	{
		"ID": 318,
		"Value": "当前关卡尚不满足开启条件",
		"ValueStrKey": ""
	},
	{
		"ID": 319,
		"Value": "队伍不存在",
		"ValueStrKey": ""
	},
	{
		"ID": 320,
		"Value": "关卡尚未解锁",
		"ValueStrKey": ""
	},
	{
		"ID": 321,
		"Value": "无法操作敌方的上阵位置",
		"ValueStrKey": ""
	},
	{
		"ID": 322,
		"Value": "该玩家的关卡尚未开启",
		"ValueStrKey": ""
	},
	{
		"ID": 323,
		"Value": "{0}已经离开了战斗",
		"ValueStrKey": ""
	},
	{
		"ID": 324,
		"Value": "该玩家的关卡尚未开启",
		"ValueStrKey": ""
	},
	{
		"ID": 325,
		"Value": "该玩家今日已无可用英雄",
		"ValueStrKey": ""
	},
	{
		"ID": 326,
		"Value": "队长超时",
		"ValueStrKey": ""
	},
	{
		"ID": 327,
		"Value": "被旅团移除",
		"ValueStrKey": ""
	},
	{
		"ID": 328,
		"Value": "旅团合战已经结束",
		"ValueStrKey": ""
	},
	{
		"ID": 400,
		"Value": "查找好友名称不能为空",
		"ValueStrKey": ""
	},
	{
		"ID": 401,
		"Value": "所选服务器错误",
		"ValueStrKey": ""
	},
	{
		"ID": 402,
		"Value": "已成功发送好友申请",
		"ValueStrKey": ""
	},
	{
		"ID": 403,
		"Value": "是否删除好友{0}?",
		"ValueStrKey": ""
	},
	{
		"ID": 404,
		"Value": "已成功删除好友",
		"ValueStrKey": ""
	},
	{
		"ID": 405,
		"Value": "是否将移除该玩家屏蔽？",
		"ValueStrKey": ""
	},
	{
		"ID": 406,
		"Value": "已成功解除屏蔽",
		"ValueStrKey": ""
	},
	{
		"ID": 407,
		"Value": "邀请切磋",
		"ValueStrKey": ""
	},
	{
		"ID": 408,
		"Value": "对方可能正忙，拒绝了你的切磋邀请",
		"ValueStrKey": ""
	},
	{
		"ID": 409,
		"Value": "邀请人数至少2人",
		"ValueStrKey": ""
	},
	{
		"ID": 410,
		"Value": "邀请人数为0",
		"ValueStrKey": ""
	},
	{
		"ID": 411,
		"Value": "今天赠送友情点已达到上限",
		"ValueStrKey": ""
	},
	{
		"ID": 412,
		"Value": "已向对方赠送过友情点",
		"ValueStrKey": ""
	},
	{
		"ID": 413,
		"Value": "已经达到最大邀请数量",
		"ValueStrKey": ""
	},
	{
		"ID": 414,
		"Value": "好友已经在群组中",
		"ValueStrKey": ""
	},
	{
		"ID": 415,
		"Value": "{0}人在线",
		"ValueStrKey": ""
	},
	{
		"ID": 416,
		"Value": "已将对方加入屏蔽列表",
		"ValueStrKey": ""
	},
	{
		"ID": 417,
		"Value": "是否退出群组{0}",
		"ValueStrKey": ""
	},
	{
		"ID": 418,
		"Value": "成功退出群组{0}",
		"ValueStrKey": ""
	},
	{
		"ID": 419,
		"Value": "是否将{0}移出群组",
		"ValueStrKey": ""
	},
	{
		"ID": 420,
		"Value": "成功将{0}移出群组",
		"ValueStrKey": ""
	},
	{
		"ID": 421,
		"Value": "成功赠送友情点",
		"ValueStrKey": ""
	},
	{
		"ID": 422,
		"Value": "已收到对方的{0}点友情点",
		"ValueStrKey": ""
	},
	{
		"ID": 423,
		"Value": "{0}已同意你的好友申请",
		"ValueStrKey": ""
	},
	{
		"ID": 424,
		"Value": "群组建立成功",
		"ValueStrKey": ""
	},
	{
		"ID": 425,
		"Value": "{0}参与人数小于2人,群已解散",
		"ValueStrKey": ""
	},
	{
		"ID": 426,
		"Value": "{0}好友已满",
		"ValueStrKey": ""
	},
	{
		"ID": 427,
		"Value": "{0}已经是你的好友了",
		"ValueStrKey": ""
	},
	{
		"ID": 428,
		"Value": "{0}已经被你屏蔽了",
		"ValueStrKey": ""
	},
	{
		"ID": 429,
		"Value": "{0}已经屏蔽了你,不能发起邀请",
		"ValueStrKey": ""
	},
	{
		"ID": 430,
		"Value": "已经被{0}邀请过",
		"ValueStrKey": ""
	},
	{
		"ID": 431,
		"Value": "{0}已经屏蔽了你，不能成为好友",
		"ValueStrKey": ""
	},
	{
		"ID": 432,
		"Value": "群组只能容纳{0}人",
		"ValueStrKey": ""
	},
	{
		"ID": 433,
		"Value": "{0}群组已经达到上限",
		"ValueStrKey": ""
	},
	{
		"ID": 434,
		"Value": "新建群组",
		"ValueStrKey": ""
	},
	{
		"ID": 500,
		"Value": "活动时间:{0}月{1}日{2:D2}:{3:D2}～{4}月{5}日{6:D2}:{7:D2}",
		"ValueStrKey": ""
	},
	{
		"ID": 501,
		"Value": "距离活动结束 剩余时间{0}天",
		"ValueStrKey": ""
	},
	{
		"ID": 502,
		"Value": "距离活动结束 剩余时间{0}小时",
		"ValueStrKey": ""
	},
	{
		"ID": 503,
		"Value": "距离活动结束 剩余时间{0}分钟",
		"ValueStrKey": ""
	},
	{
		"ID": 504,
		"Value": "当前未到活动开放时间，无法进入活动",
		"ValueStrKey": ""
	},
	{
		"ID": 505,
		"Value": "今日剩余：<color=#BBE603FF>{0}</color>次",
		"ValueStrKey": ""
	},
	{
		"ID": 600,
		"Value": "<color=#F94E30FF>{0}</color>",
		"ValueStrKey": ""
	},
	{
		"ID": 601,
		"Value": "{0}",
		"ValueStrKey": ""
	},
	{
		"ID": 602,
		"Value": "剩余次数不足",
		"ValueStrKey": ""
	},
	{
		"ID": 603,
		"Value": "第{0}回合",
		"ValueStrKey": ""
	},
	{
		"ID": 604,
		"Value": "我方行动",
		"ValueStrKey": ""
	},
	{
		"ID": 605,
		"Value": "友方行动",
		"ValueStrKey": ""
	},
	{
		"ID": 606,
		"Value": "敌方行动",
		"ValueStrKey": ""
	},
	{
		"ID": 607,
		"Value": "第{0}回合",
		"ValueStrKey": ""
	},
	{
		"ID": 700,
		"Value": "登入中",
		"ValueStrKey": ""
	},
	{
		"ID": 701,
		"Value": "登入失败",
		"ValueStrKey": ""
	},
	{
		"ID": 702,
		"Value": "服务器【{0}】正在维护，请稍后再试。",
		"ValueStrKey": ""
	},
	{
		"ID": 703,
		"Value": "{0}年{1}月{2}日 {3}:{4}",
		"ValueStrKey": ""
	},
	{
		"ID": 704,
		"Value": "服务器【{0}】将于 {1} 开启，请耐心等待！",
		"ValueStrKey": ""
	},
	{
		"ID": 705,
		"Value": "指挥官，该服务器暂时爆满，请稍后再试！",
		"ValueStrKey": ""
	},
	{
		"ID": 706,
		"Value": "当前服务器爆满，请指挥官选择新服务器登录！",
		"ValueStrKey": ""
	},
	{
		"ID": 707,
		"Value": "今天",
		"ValueStrKey": ""
	},
	{
		"ID": 708,
		"Value": "{0}天前",
		"ValueStrKey": ""
	},
	{
		"ID": 709,
		"Value": "1个月前",
		"ValueStrKey": ""
	},
	{
		"ID": 710,
		"Value": "扫码登录成功！",
		"ValueStrKey": ""
	},
	{
		"ID": 711,
		"Value": "扫码登录失败。",
		"ValueStrKey": ""
	},
	{
		"ID": 712,
		"Value": "扫码登录被取消。",
		"ValueStrKey": ""
	},
	{
		"ID": 800,
		"Value": "没有发现任何事件。",
		"ValueStrKey": ""
	},
	{
		"ID": 801,
		"Value": "当前问卷调查已过期，请期待下一轮，奖励丰厚哦",
		"ValueStrKey": ""
	},
	{
		"ID": 802,
		"Value": "您已经参与过问卷调查了，谢谢配合",
		"ValueStrKey": ""
	},
	{
		"ID": 803,
		"Value": "战队等级{0}级后才可参与哦",
		"ValueStrKey": ""
	},
	{
		"ID": 804,
		"Value": "请选择{0}个皮肤",
		"ValueStrKey": ""
	},
	{
		"ID": 1014,
		"Value": "技能点数不足",
		"ValueStrKey": ""
	},
	{
		"ID": 1016,
		"Value": "是否跳过剧情对话？",
		"ValueStrKey": ""
	},
	{
		"ID": 1017,
		"Value": "英雄等级已达上限请提升队伍等级",
		"ValueStrKey": ""
	},
	{
		"ID": 1018,
		"Value": "召唤英雄需要花费{0}金币，是否召唤？",
		"ValueStrKey": ""
	},
	{
		"ID": 1020,
		"Value": "今天没有开启啊！换个姿势流汗吧！Build~Up！！",
		"ValueStrKey": ""
	},
	{
		"ID": 1021,
		"Value": "喂！你的身体还无法承受这层重量！需要更多的锻炼！",
		"ValueStrKey": ""
	},
	{
		"ID": 1022,
		"Value": "此层难度未开启",
		"ValueStrKey": ""
	},
	{
		"ID": 1023,
		"Value": "技能装配数已达上限，无法装配技能。",
		"ValueStrKey": ""
	},
	{
		"ID": 1024,
		"Value": "当前职业无法装备这个技能",
		"ValueStrKey": ""
	},
	{
		"ID": 1025,
		"Value": "已突破至满星",
		"ValueStrKey": ""
	},
	{
		"ID": 1026,
		"Value": "下级突破预览",
		"ValueStrKey": ""
	},
	{
		"ID": 1027,
		"Value": "还未获得该士兵",
		"ValueStrKey": ""
	},
	{
		"ID": 1028,
		"Value": "拥有数量 {0} 件（必要{1}件）",
		"ValueStrKey": ""
	},
	{
		"ID": 1029,
		"Value": "已经是这个职业了哦",
		"ValueStrKey": ""
	},
	{
		"ID": 1030,
		"Value": "该关卡没有成就。",
		"ValueStrKey": ""
	},
	{
		"ID": 1035,
		"Value": "无法增加更多的素材了",
		"ValueStrKey": ""
	},
	{
		"ID": 1036,
		"Value": "该装备不可被锻造",
		"ValueStrKey": ""
	},
	{
		"ID": 1037,
		"Value": "该位置没有可替换的装备",
		"ValueStrKey": ""
	},
	{
		"ID": 1042,
		"Value": "装备更新成功",
		"ValueStrKey": ""
	},
	{
		"ID": 1044,
		"Value": "您是否想要退出游戏?",
		"ValueStrKey": ""
	},
	{
		"ID": 1050,
		"Value": "亲密度等级达到{0}级后解锁",
		"ValueStrKey": ""
	},
	{
		"ID": 1051,
		"Value": "英雄生平",
		"ValueStrKey": ""
	},
	{
		"ID": 1052,
		"Value": "语音",
		"ValueStrKey": ""
	},
	{
		"ID": 1053,
		"Value": "命运之扉",
		"ValueStrKey": ""
	},
	{
		"ID": 1054,
		"Value": "羁绊",
		"ValueStrKey": ""
	},
	{
		"ID": 1055,
		"Value": "单人通关前置关卡后开启",
		"ValueStrKey": ""
	},
	{
		"ID": 1056,
		"Value": "等级达到{0}后开启",
		"ValueStrKey": ""
	},
	{
		"ID": 1057,
		"Value": "发送的评价不能为空哟",
		"ValueStrKey": ""
	},
	{
		"ID": 1058,
		"Value": "亲密度{0}级开启",
		"ValueStrKey": ""
	},
	{
		"ID": 1059,
		"Value": "{0} {1}级",
		"ValueStrKey": ""
	},
	{
		"ID": 1060,
		"Value": "暂未开放",
		"ValueStrKey": ""
	},
	{
		"ID": 1061,
		"Value": "强化至Lv.{0}激活",
		"ValueStrKey": ""
	},
	{
		"ID": 1062,
		"Value": "点赞成功",
		"ValueStrKey": ""
	},
	{
		"ID": 1063,
		"Value": "练兵场未解锁",
		"ValueStrKey": ""
	},
	{
		"ID": 1064,
		"Value": "已经选择了3位英雄",
		"ValueStrKey": ""
	},
	{
		"ID": 1065,
		"Value": "助教中无法选择",
		"ValueStrKey": ""
	},
	{
		"ID": 1066,
		"Value": "玩家{0}级后开启",
		"ValueStrKey": ""
	},
	{
		"ID": 1067,
		"Value": "通关兄贵健身房\"{0}\"第一关后解锁",
		"ValueStrKey": ""
	},
	{
		"ID": 1068,
		"Value": "请放入附魔卷轴",
		"ValueStrKey": ""
	},
	{
		"ID": 1069,
		"Value": "附魔卷轴不足",
		"ValueStrKey": ""
	},
	{
		"ID": 1070,
		"Value": "英雄等级受限",
		"ValueStrKey": ""
	},
	{
		"ID": 1071,
		"Value": "<color=#a52a2aff>请提升您的队伍等级</color>。之后使用的经验药水将被浪费，确定要继续使用么？",
		"ValueStrKey": ""
	},
	{
		"ID": 1072,
		"Value": "任务还未开启",
		"ValueStrKey": ""
	},
	{
		"ID": 1073,
		"Value": "“光之巡礼”活动已经结束，感谢您的参与",
		"ValueStrKey": ""
	},
	{
		"ID": 1074,
		"Value": "委托停止",
		"ValueStrKey": ""
	},
	{
		"ID": 1075,
		"Value": "告白内容暂未开放，敬请期待",
		"ValueStrKey": ""
	},
	{
		"ID": 1077,
		"Value": "{0}的命运之扉尚未开放",
		"ValueStrKey": ""
	},
	{
		"ID": 1078,
		"Value": "{0}的亲密度到达{1}级",
		"ValueStrKey": ""
	},
	{
		"ID": 1079,
		"Value": "强化素材中含有<color=red>SR</color>以上装备，是否确认要强化？",
		"ValueStrKey": ""
	},
	{
		"ID": 1080,
		"Value": "强化经验溢出提示",
		"ValueStrKey": ""
	},
	{
		"ID": 1081,
		"Value": "继续使用会使装备经验值溢出，溢出的经验将会被浪费，是否继续使用？",
		"ValueStrKey": ""
	},
	{
		"ID": 1082,
		"Value": "圣魔券不足\n消耗<color=green>{0}圣魔晶</color>可以购买<color=green>{1}张圣魔券</color>，\n是否确认这样做？",
		"ValueStrKey": ""
	},
	{
		"ID": 1083,
		"Value": "圣魔券及圣魔晶数量不够，是否前往购买？",
		"ValueStrKey": ""
	},
	{
		"ID": 1084,
		"Value": "您的皮肤券数量不足，是否立刻前往商店购买？",
		"ValueStrKey": ""
	},
	{
		"ID": 1085,
		"Value": "所有职业均可使用",
		"ValueStrKey": ""
	},
	{
		"ID": 1086,
		"Value": "*已强化装备炼金后会返还所有强化金币和工匠之锤",
		"ValueStrKey": ""
	},
	{
		"ID": 1087,
		"Value": "是否同时更换战斗形象皮肤？",
		"ValueStrKey": ""
	},
	{
		"ID": 1088,
		"Value": "是否同时更换立绘形象皮肤？",
		"ValueStrKey": ""
	},
	{
		"ID": 1089,
		"Value": "回流活动已经结束，感谢您的参与",
		"ValueStrKey": ""
	},
	{
		"ID": 1090,
		"Value": "是否话费{0}张圣魔券召唤1次？",
		"ValueStrKey": ""
	},
	{
		"ID": 1100,
		"Value": "请选择范围内1个部队",
		"ValueStrKey": ""
	},
	{
		"ID": 1101,
		"Value": "请选择范围内1个格子",
		"ValueStrKey": ""
	},
	{
		"ID": 1102,
		"Value": "确认要在这里释放技能吗？",
		"ValueStrKey": ""
	},
	{
		"ID": 1103,
		"Value": "请选择传送位置",
		"ValueStrKey": ""
	},
	{
		"ID": 1104,
		"Value": "技能冷却中，无法使用",
		"ValueStrKey": ""
	},
	{
		"ID": 1105,
		"Value": "请上阵英雄，否则无法出战",
		"ValueStrKey": ""
	},
	{
		"ID": 1106,
		"Value": "指挥官大人，我们还能再上几个人呢。这样出战真的好吗？",
		"ValueStrKey": ""
	},
	{
		"ID": 1107,
		"Value": "本方还有未行动的部队。 是否确认结束回合？",
		"ValueStrKey": ""
	},
	{
		"ID": 1108,
		"Value": "确认退出本次战斗吗？",
		"ValueStrKey": ""
	},
	{
		"ID": 1109,
		"Value": "处于沉默状态，无法使用技能",
		"ValueStrKey": ""
	},
	{
		"ID": 1110,
		"Value": "该角色无法更换。",
		"ValueStrKey": ""
	},
	{
		"ID": 1111,
		"Value": "强制上阵角色无法更换。",
		"ValueStrKey": ""
	},
	{
		"ID": 1112,
		"Value": "这是一个被动技能。\n长按技能查看详细信息。",
		"ValueStrKey": ""
	},
	{
		"ID": 1113,
		"Value": "撤退将被视作战斗失败，并且也会扣除竞技门票。确定要退出本次战斗吗？",
		"ValueStrKey": ""
	},
	{
		"ID": 1114,
		"Value": "已经达到最大上阵人数。",
		"ValueStrKey": ""
	},
	{
		"ID": 1115,
		"Value": "自动战斗模式中无法指挥部队。",
		"ValueStrKey": ""
	},
	{
		"ID": 1116,
		"Value": "进攻方逃跑了！！！",
		"ValueStrKey": ""
	},
	{
		"ID": 1117,
		"Value": "失礼了！本场战斗还未收录攻略哦！\n\n想得到关于本场战斗的更多攻略秘籍，您可以到梦幻模拟战手游社区参与讨论！\n\n同时您也可以投稿关卡攻略，更有好礼相送！",
		"ValueStrKey": ""
	},
	{
		"ID": 1118,
		"Value": "退出战斗将损失<color=red>{0}</color>点体力，是否确认退出？",
		"ValueStrKey": ""
	},
	{
		"ID": 1119,
		"Value": "撤退将被视作战斗失败，并且也会扣除相应积分。确定要退出本次战斗吗？",
		"ValueStrKey": ""
	},
	{
		"ID": 1120,
		"Value": "无法上阵更多的英雄",
		"ValueStrKey": ""
	},
	{
		"ID": 1121,
		"Value": "{0}逃跑了！！！",
		"ValueStrKey": ""
	},
	{
		"ID": 1122,
		"Value": "无法下阵已经保护的英雄",
		"ValueStrKey": ""
	},
	{
		"ID": 1123,
		"Value": "战斗重新连接",
		"ValueStrKey": ""
	},
	{
		"ID": 1124,
		"Value": "退出战斗将损失<color=red>{0}</color>点体力，藏宝钥匙不会返还，是否确认退出？",
		"ValueStrKey": ""
	},
	{
		"ID": 1125,
		"Value": "已经离开了战斗",
		"ValueStrKey": ""
	},
	{
		"ID": 1126,
		"Value": "(英雄奖励{0}%)",
		"ValueStrKey": ""
	},
	{
		"ID": 1127,
		"Value": "(每日奖励{0}%)",
		"ValueStrKey": ""
	},
	{
		"ID": 1128,
		"Value": "(每日奖励{0}%,英雄奖励{1}%)",
		"ValueStrKey": ""
	},
	{
		"ID": 1129,
		"Value": "必须上阵至少一名英雄",
		"ValueStrKey": ""
	},
	{
		"ID": 1130,
		"Value": "撤退<color=red>不能获得</color>合战积分，同时本次上阵过的英雄今日也<color=red>无法再次出战</color>。\n请问你确定撤退吗？",
		"ValueStrKey": ""
	},
	{
		"ID": 1131,
		"Value": "+{0} + {1}(全灭积分)",
		"ValueStrKey": ""
	},
	{
		"ID": 1132,
		"Value": "<color=red>战斗失败</color>，是否使用原谅的时钟?",
		"ValueStrKey": ""
	},
	{
		"ID": 1133,
		"Value": "时空法则",
		"ValueStrKey": ""
	},
	{
		"ID": 1134,
		"Value": "战力加成",
		"ValueStrKey": ""
	},
	{
		"ID": 1135,
		"Value": "指定阵营英雄获得40%全属性加成",
		"ValueStrKey": ""
	},
	{
		"ID": 1136,
		"Value": "请选择技能方向",
		"ValueStrKey": ""
	},
	{
		"ID": 1137,
		"Value": "获得每日奖励",
		"ValueStrKey": ""
	},
	{
		"ID": 1138,
		"Value": "获得额外奖励",
		"ValueStrKey": ""
	},
	{
		"ID": 1139,
		"Value": "战斗无法重新连接",
		"ValueStrKey": ""
	},
	{
		"ID": 1140,
		"Value": "撤退将被视作战斗失败，并且也会扣除相应积分。确定要退出本次战斗吗？",
		"ValueStrKey": ""
	},
	{
		"ID": 1141,
		"Value": "撤退将被视作战斗失败，确定要退出本次战斗吗？",
		"ValueStrKey": ""
	},
	{
		"ID": 1142,
		"Value": "撤退将被视作战斗失败，确定要退出本次战斗吗？",
		"ValueStrKey": ""
	},
	{
		"ID": 1143,
		"Value": "撤退将导致当前战斗失败，是否确认撤退？",
		"ValueStrKey": ""
	},
	{
		"ID": 1144,
		"Value": "撤退将被视作战斗失败，并且也会扣除相应积分。确定要退出本次战斗吗？",
		"ValueStrKey": ""
	},
	{
		"ID": 1145,
		"Value": "撤退将被视作战斗失败，确定要退出本次战斗吗？",
		"ValueStrKey": ""
	},
	{
		"ID": 1146,
		"Value": "已经离开竞技场战斗",
		"ValueStrKey": ""
	},
	{
		"ID": 1147,
		"Value": "事件已经过期",
		"ValueStrKey": ""
	},
	{
		"ID": 1148,
		"Value": "Round {0}",
		"ValueStrKey": ""
	},
	{
		"ID": 1149,
		"Value": "这是一个合体技。\n长按技能查看详细信息。",
		"ValueStrKey": ""
	},
	{
		"ID": 1150,
		"Value": "事件已经过期",
		"ValueStrKey": ""
	},
	{
		"ID": 1151,
		"Value": "是否确认使用自动战斗?",
		"ValueStrKey": ""
	},
	{
		"ID": 1152,
		"Value": "{0}逃跑了！！！",
		"ValueStrKey": ""
	},
	{
		"ID": 1153,
		"Value": "{0}认输",
		"ValueStrKey": ""
	},
	{
		"ID": 1154,
		"Value": "确定要退出观战吗？",
		"ValueStrKey": ""
	},
	{
		"ID": 1155,
		"Value": "对方已退出战斗",
		"ValueStrKey": ""
	},
	{
		"ID": 1156,
		"Value": "只能替换上阵英雄",
		"ValueStrKey": ""
	},
	{
		"ID": 1157,
		"Value": "对方已认输",
		"ValueStrKey": ""
	},
	{
		"ID": 1158,
		"Value": "直播已经结束",
		"ValueStrKey": ""
	},
	{
		"ID": 1159,
		"Value": "选手已经弃权",
		"ValueStrKey": ""
	},
	{
		"ID": 1160,
		"Value": "PH{0}",
		"ValueStrKey": ""
	},
	{
		"ID": 1161,
		"Value": "断线重连数据出错，无法从中断点开始战斗",
		"ValueStrKey": ""
	},
	{
		"ID": 1200,
		"Value": "确认",
		"ValueStrKey": ""
	},
	{
		"ID": 1201,
		"Value": "取消",
		"ValueStrKey": ""
	},
	{
		"ID": 1300,
		"Value": "使用以上推荐英雄通关关卡时，获得活动积分额外增加\n<color=#B27A00FF>上阵推荐英雄数 x{0}%</color>",
		"ValueStrKey": ""
	},
	{
		"ID": 1301,
		"Value": "已完成",
		"ValueStrKey": ""
	},
	{
		"ID": 1302,
		"Value": "{0}天后开启",
		"ValueStrKey": ""
	},
	{
		"ID": 1303,
		"Value": "需挑战前置关卡",
		"ValueStrKey": ""
	},
	{
		"ID": 1304,
		"Value": "怪物等级:",
		"ValueStrKey": ""
	},
	{
		"ID": 1305,
		"Value": "已过期",
		"ValueStrKey": ""
	},
	{
		"ID": 1306,
		"Value": "已领取",
		"ValueStrKey": ""
	},
	{
		"ID": 1400,
		"Value": "{0}级试炼最终奖励",
		"ValueStrKey": ""
	},
	{
		"ID": 1401,
		"Value": "已经到达最高委托试炼任务等级！",
		"ValueStrKey": ""
	},
	{
		"ID": 1402,
		"Value": "任务已经重置刷新！",
		"ValueStrKey": ""
	},
	{
		"ID": 1403,
		"Value": "是否委托试炼至 {0}？",
		"ValueStrKey": ""
	},
	{
		"ID": 1500,
		"Value": "使用<color=red>优势阵营</color>英雄时，可获得<color=red>40%</color>的<color=red>属性加成</color>",
		"ValueStrKey": ""
	},
	{
		"ID": 1600,
		"Value": "剧情",
		"ValueStrKey": ""
	},
	{
		"ID": 1601,
		"Value": "挑战",
		"ValueStrKey": ""
	},
	{
		"ID": 1602,
		"Value": "重复",
		"ValueStrKey": ""
	},
	{
		"ID": 1603,
		"Value": "{0}天后开启",
		"ValueStrKey": ""
	},
	{
		"ID": 1604,
		"Value": "已完成",
		"ValueStrKey": ""
	},
	{
		"ID": 1605,
		"Value": "需挑战前置关卡",
		"ValueStrKey": ""
	},
	{
		"ID": 1606,
		"Value": "兑换结束日期：{0}月{1}日{2:D2}:{3:D2}",
		"ValueStrKey": ""
	},
	{
		"ID": 1607,
		"Value": "首次",
		"ValueStrKey": ""
	},
	{
		"ID": 1608,
		"Value": "需完成活动关卡{0}后解锁",
		"ValueStrKey": ""
	},
	{
		"ID": 1609,
		"Value": "{0}日后解锁",
		"ValueStrKey": ""
	},
	{
		"ID": 1610,
		"Value": "无法组队",
		"ValueStrKey": ""
	},
	{
		"ID": 1611,
		"Value": "使用以上推荐英雄通关关卡时，获得活动积分额外增加\n<color=#B27A00FF>上阵推荐英雄数 x{0}%</color>",
		"ValueStrKey": ""
	},
	{
		"ID": 1612,
		"Value": "兑换已经结束",
		"ValueStrKey": ""
	},
	{
		"ID": 1700,
		"Value": "请上阵{0}名英雄",
		"ValueStrKey": ""
	},
	{
		"ID": 1701,
		"Value": "禁用对方英雄",
		"ValueStrKey": ""
	},
	{
		"ID": 1702,
		"Value": "等待对方上阵",
		"ValueStrKey": ""
	},
	{
		"ID": 1703,
		"Value": "等待对方禁用我方英雄",
		"ValueStrKey": ""
	},
	{
		"ID": 1704,
		"Value": "调整英雄技能和士兵配置",
		"ValueStrKey": ""
	},
	{
		"ID": 1705,
		"Value": "上阵{0}名英雄",
		"ValueStrKey": ""
	},
	{
		"ID": 1706,
		"Value": "禁用{0}名英雄",
		"ValueStrKey": ""
	},
	{
		"ID": 1707,
		"Value": "双方调整英雄技能和士兵配置",
		"ValueStrKey": ""
	},
	{
		"ID": 1708,
		"Value": "选择先后手",
		"ValueStrKey": ""
	},
	{
		"ID": 1709,
		"Value": "等待对手选择先后手",
		"ValueStrKey": ""
	},
	{
		"ID": 1710,
		"Value": "等待上场比赛失败方选择先后手",
		"ValueStrKey": ""
	},
	{
		"ID": 1711,
		"Value": "确定使用“先手”进入战斗？",
		"ValueStrKey": ""
	},
	{
		"ID": 1712,
		"Value": "确定使用“后手”进入战斗？",
		"ValueStrKey": ""
	},
	{
		"ID": 1713,
		"Value": "选择需要被替换的英雄",
		"ValueStrKey": ""
	},
	{
		"ID": 1714,
		"Value": "选择替换上阵的备用英雄",
		"ValueStrKey": ""
	},
	{
		"ID": 1715,
		"Value": "等待双方调整战队",
		"ValueStrKey": ""
	},
	{
		"ID": 1716,
		"Value": "等待对手调整战队",
		"ValueStrKey": ""
	},
	{
		"ID": 1717,
		"Value": "确认使用当前战队进入战斗吗？",
		"ValueStrKey": ""
	},
	{
		"ID": 1718,
		"Value": "双方调整战队",
		"ValueStrKey": ""
	},
	{
		"ID": 1719,
		"Value": "佣兵阵容已更新",
		"ValueStrKey": ""
	},
	{
		"ID": 1800,
		"Value": "请选择上阵英雄",
		"ValueStrKey": ""
	},
	{
		"ID": 1801,
		"Value": "可释放指挥官技能",
		"ValueStrKey": ""
	},
	{
		"ID": 1802,
		"Value": "是否本回合不上阵新的英雄？",
		"ValueStrKey": ""
	},
	{
		"ID": 1803,
		"Value": "技能次数已用完",
		"ValueStrKey": ""
	},
	{
		"ID": 1804,
		"Value": "剩余{0}回合将进入秒杀模式\n摧毁更多塔的一方将获胜",
		"ValueStrKey": ""
	},
	{
		"ID": 1805,
		"Value": "剩余{0}回合战斗结束\n存活英雄更多的一方将获胜",
		"ValueStrKey": ""
	},
	{
		"ID": 2001,
		"Value": "<color=#B27A00FF>上阵推荐英雄数 x30%</color>",
		"ValueStrKey": ""
	},
	{
		"ID": 2002,
		"Value": "不能在当前频道发言",
		"ValueStrKey": ""
	},
	{
		"ID": 2003,
		"Value": "队伍等级到达{0}级以后可发言",
		"ValueStrKey": ""
	},
	{
		"ID": 2004,
		"Value": "你说话频率太快了，试着休息会后再说吧",
		"ValueStrKey": ""
	},
	{
		"ID": 2005,
		"Value": "[ HH:mm ]",
		"ValueStrKey": ""
	},
	{
		"ID": 2006,
		"Value": "[ {0}小时前 ]",
		"ValueStrKey": ""
	},
	{
		"ID": 2007,
		"Value": "[ 1天前 ]",
		"ValueStrKey": ""
	},
	{
		"ID": 2008,
		"Value": "找不到可用的语音录入设备",
		"ValueStrKey": ""
	},
	{
		"ID": 2009,
		"Value": "您已被拉入黑名单",
		"ValueStrKey": ""
	},
	{
		"ID": 2010,
		"Value": "<size=50>无法录音</size>\n请在手机的“设置-隐私-麦克风”选项中，允许梦幻模拟战访问你的手机麦克风。",
		"ValueStrKey": ""
	},
	{
		"ID": 2011,
		"Value": "<size=50>无法录音</size>\n请在手机的“设置-应用-梦幻模拟战-权限”选项中，允许梦幻模拟战访问你的手机麦克风。",
		"ValueStrKey": ""
	},
	{
		"ID": 2012,
		"Value": "请先加入时空旅团",
		"ValueStrKey": ""
	},
	{
		"ID": 2101,
		"Value": "邮件已过期，无法领取",
		"ValueStrKey": ""
	},
	{
		"ID": 2102,
		"Value": "附件已经领取",
		"ValueStrKey": ""
	},
	{
		"ID": 2103,
		"Value": "你还没有收到任何邮件",
		"ValueStrKey": ""
	},
	{
		"ID": 2201,
		"Value": "确认要关闭建议窗口吗？关闭后将无法再开启",
		"ValueStrKey": ""
	},
	{
		"ID": 2202,
		"Value": "请输入你的建议",
		"ValueStrKey": ""
	},
	{
		"ID": 3001,
		"Value": "{0}x{1}",
		"ValueStrKey": ""
	},
	{
		"ID": 3002,
		"Value": "本周限购{0}次({1}/{0})",
		"ValueStrKey": ""
	},
	{
		"ID": 3003,
		"Value": "{0}天限购{1}次({2}/{1})",
		"ValueStrKey": ""
	},
	{
		"ID": 3004,
		"Value": "本月限购{0}次({1}/{0})",
		"ValueStrKey": ""
	},
	{
		"ID": 3005,
		"Value": "首次购买赠送物品",
		"ValueStrKey": ""
	},
	{
		"ID": 3006,
		"Value": "{0}天后下架",
		"ValueStrKey": ""
	},
	{
		"ID": 3007,
		"Value": "限购{0}次({1}/{0})",
		"ValueStrKey": ""
	},
	{
		"ID": 3008,
		"Value": "{0}天后刷新",
		"ValueStrKey": ""
	},
	{
		"ID": 3009,
		"Value": "http://www.zlongame.com/html/login/agreement.html",
		"ValueStrKey": ""
	},
	{
		"ID": 3010,
		"Value": "http://www.zlongame.com/html/login/agreement.html",
		"ValueStrKey": ""
	},
	{
		"ID": 3011,
		"Value": "购买<color=#FFFF00FF>{0}</color>天",
		"ValueStrKey": ""
	},
	{
		"ID": 3012,
		"Value": "购买礼包后，立刻获得当天的物品。\n后续{0}天的物品将通过邮件的方式每天陆续发放，确认要购买吗？",
		"ValueStrKey": ""
	},
	{
		"ID": 4001,
		"Value": "{0}的亲密度",
		"ValueStrKey": ""
	},
	{
		"ID": 4002,
		"Value": "亲密度{0}开启",
		"ValueStrKey": ""
	},
	{
		"ID": 5001,
		"Value": "Ver: {0}",
		"ValueStrKey": ""
	},
	{
		"ID": 5002,
		"Value": "连接到服务器失败！",
		"ValueStrKey": ""
	},
	{
		"ID": 5003,
		"Value": "用户名或密码错误！",
		"ValueStrKey": ""
	},
	{
		"ID": 5004,
		"Value": "账号已封停",
		"ValueStrKey": ""
	},
	{
		"ID": 5005,
		"Value": "客户端版本不正确，请更新。",
		"ValueStrKey": ""
	},
	{
		"ID": 5006,
		"Value": "下载公告失败！",
		"ValueStrKey": ""
	},
	{
		"ID": 5007,
		"Value": "下载服务器列表失败！",
		"ValueStrKey": ""
	},
	{
		"ID": 5008,
		"Value": "与服务器的连接断开！",
		"ValueStrKey": ""
	},
	{
		"ID": 5009,
		"Value": "与服务器的连接断开。",
		"ValueStrKey": ""
	},
	{
		"ID": 5010,
		"Value": "游戏更新了，请重新启动客户端。不便之处，敬请谅解。",
		"ValueStrKey": ""
	},
	{
		"ID": 5011,
		"Value": "您的账号在其他设备登录！",
		"ValueStrKey": ""
	},
	{
		"ID": 5020,
		"Value": "制作大号中……",
		"ValueStrKey": ""
	},
	{
		"ID": 5021,
		"Value": "你变得非常强大了！2秒后将重新登录。",
		"ValueStrKey": ""
	},
	{
		"ID": 5022,
		"Value": "提交问题中……",
		"ValueStrKey": ""
	},
	{
		"ID": 5023,
		"Value": "提交问题成功！",
		"ValueStrKey": ""
	},
	{
		"ID": 6001,
		"Value": "圣魔晶不足！",
		"ValueStrKey": ""
	},
	{
		"ID": 6002,
		"Value": "玩家名无效！",
		"ValueStrKey": ""
	},
	{
		"ID": 6003,
		"Value": "已经是该头像！",
		"ValueStrKey": ""
	},
	{
		"ID": 6004,
		"Value": "头像预览",
		"ValueStrKey": ""
	},
	{
		"ID": 6005,
		"Value": "切换资源模式必须关闭游戏，之后再次启动时才能生效。您确认切换吗？",
		"ValueStrKey": ""
	},
	{
		"ID": 6101,
		"Value": "玩家不在线，无法发起切磋",
		"ValueStrKey": ""
	},
	{
		"ID": 6102,
		"Value": "战斗中无法发起切磋",
		"ValueStrKey": ""
	},
	{
		"ID": 6103,
		"Value": "组队时无法发起切磋",
		"ValueStrKey": ""
	},
	{
		"ID": 7001,
		"Value": "普通模式",
		"ValueStrKey": ""
	},
	{
		"ID": 7002,
		"Value": "精英模式",
		"ValueStrKey": ""
	},
	{
		"ID": 7003,
		"Value": "普通模式到达{0}星后可开启精英模式",
		"ValueStrKey": ""
	},
	{
		"ID": 7004,
		"Value": "队伍{0}级后开启",
		"ValueStrKey": ""
	},
	{
		"ID": 7005,
		"Value": "该关卡未开启",
		"ValueStrKey": ""
	},
	{
		"ID": 7006,
		"Value": "{0}开启",
		"ValueStrKey": ""
	},
	{
		"ID": 7007,
		"Value": "还差{0}个",
		"ValueStrKey": ""
	},
	{
		"ID": 7008,
		"Value": "已满足",
		"ValueStrKey": ""
	},
	{
		"ID": 7009,
		"Value": "本次扫荡共获得{0}个",
		"ValueStrKey": ""
	},
	{
		"ID": 9001,
		"Value": "大量耳熟能详的声优们正在努力配音中哦~请期待！",
		"ValueStrKey": ""
	},
	{
		"ID": 9002,
		"Value": "兑换码以后会陆续发放哦~",
		"ValueStrKey": ""
	},
	{
		"ID": 9003,
		"Value": "分享暂未开启",
		"ValueStrKey": ""
	},
	{
		"ID": 9004,
		"Value": "官方论坛正在加紧建设中",
		"ValueStrKey": ""
	},
	{
		"ID": 9005,
		"Value": "版本信息",
		"ValueStrKey": ""
	},
	{
		"ID": 9006,
		"Value": "PC版暂不支持分享，快用手机下载移动版吧！",
		"ValueStrKey": ""
	},
	{
		"ID": 10001,
		"Value": "请先解锁兄贵健身房关卡",
		"ValueStrKey": ""
	},
	{
		"ID": 12001,
		"Value": "等级达到{0}级",
		"ValueStrKey": ""
	},
	{
		"ID": 12002,
		"Value": "(<color=red>{0}</color>/{1})",
		"ValueStrKey": ""
	},
	{
		"ID": 12003,
		"Value": "累计登录{0}天",
		"ValueStrKey": ""
	},
	{
		"ID": 12004,
		"Value": "(<color=red>{0}</color>/{1})",
		"ValueStrKey": ""
	},
	{
		"ID": 12005,
		"Value": "{0}月{1}日登录",
		"ValueStrKey": ""
	},
	{
		"ID": 12006,
		"Value": "还可以兑换<color=#00FF0CFF>{0}</color>次",
		"ValueStrKey": ""
	},
	{
		"ID": 12007,
		"Value": "还可以兑换<color=red>0</color>次",
		"ValueStrKey": ""
	},
	{
		"ID": 12008,
		"Value": "兑换结束时间：{0}",
		"ValueStrKey": ""
	},
	{
		"ID": 13001,
		"Value": "战斗力:",
		"ValueStrKey": ""
	},
	{
		"ID": 13002,
		"Value": "{0}的战斗力:",
		"ValueStrKey": ""
	},
	{
		"ID": 13003,
		"Value": "未上榜",
		"ValueStrKey": ""
	},
	{
		"ID": 13004,
		"Value": "我的地盘我主宰！",
		"ValueStrKey": ""
	},
	{
		"ID": 13005,
		"Value": "已进入频道{0} (当前人数：{1})",
		"ValueStrKey": ""
	},
	{
		"ID": 13006,
		"Value": "选择群组（<color=#B6B6B6FF>可前往群组功能中发起群组聊天</color>）",
		"ValueStrKey": ""
	},
	{
		"ID": 13007,
		"Value": "选择玩家（<color=#B6B6B6FF>可点击玩家头像发起私聊</color>）",
		"ValueStrKey": ""
	},
	{
		"ID": 13008,
		"Value": "倒计时{0}秒",
		"ValueStrKey": ""
	},
	{
		"ID": 13009,
		"Value": "当前房间：{0}",
		"ValueStrKey": ""
	},
	{
		"ID": 13010,
		"Value": "",
		"ValueStrKey": ""
	},
	{
		"ID": 13011,
		"Value": "59ba4c01",
		"ValueStrKey": ""
	},
	{
		"ID": 13012,
		"Value": "59b9efd7",
		"ValueStrKey": ""
	},
	{
		"ID": 13013,
		"Value": "已与服务器断开，请重新登录",
		"ValueStrKey": ""
	},
	{
		"ID": 13014,
		"Value": "取消购买",
		"ValueStrKey": ""
	},
	{
		"ID": 13015,
		"Value": "购买失败",
		"ValueStrKey": ""
	},
	{
		"ID": 13016,
		"Value": "购买成功",
		"ValueStrKey": ""
	},
	{
		"ID": 13017,
		"Value": "首次赠送 {0}",
		"ValueStrKey": ""
	},
	{
		"ID": 13018,
		"Value": "额外赠送 {0}",
		"ValueStrKey": ""
	},
	{
		"ID": 13019,
		"Value": "剩余天数：",
		"ValueStrKey": ""
	},
	{
		"ID": 13020,
		"Value": "您的圣魔晶数量不足，是否前往充值",
		"ValueStrKey": ""
	},
	{
		"ID": 13021,
		"Value": "确认",
		"ValueStrKey": ""
	},
	{
		"ID": 13022,
		"Value": "您的{0}数量不足，请前往商店购买。",
		"ValueStrKey": ""
	},
	{
		"ID": 13023,
		"Value": "特等奖",
		"ValueStrKey": ""
	},
	{
		"ID": 13024,
		"Value": "一等奖",
		"ValueStrKey": ""
	},
	{
		"ID": 13025,
		"Value": "二等奖",
		"ValueStrKey": ""
	},
	{
		"ID": 13026,
		"Value": "三等奖",
		"ValueStrKey": ""
	},
	{
		"ID": 13027,
		"Value": "四等奖",
		"ValueStrKey": ""
	},
	{
		"ID": 13028,
		"Value": "五等奖",
		"ValueStrKey": ""
	},
	{
		"ID": 13029,
		"Value": "六等奖",
		"ValueStrKey": ""
	},
	{
		"ID": 13030,
		"Value": "消耗{0}",
		"ValueStrKey": ""
	},
	{
		"ID": 13031,
		"Value": "{0} 次",
		"ValueStrKey": ""
	},
	{
		"ID": 13032,
		"Value": "以上是历史消息",
		"ValueStrKey": ""
	},
	{
		"ID": 13033,
		"Value": "点击输入上限50字",
		"ValueStrKey": ""
	},
	{
		"ID": 13034,
		"Value": "购买成功",
		"ValueStrKey": ""
	},
	{
		"ID": 13035,
		"Value": "累计充值",
		"ValueStrKey": ""
	},
	{
		"ID": 13036,
		"Value": "(<color=red>{0}</color>/{1})",
		"ValueStrKey": ""
	},
	{
		"ID": 13037,
		"Value": "累计消费",
		"ValueStrKey": ""
	},
	{
		"ID": 13038,
		"Value": "(<color=red>{0}</color>/{1})",
		"ValueStrKey": ""
	},
	{
		"ID": 13039,
		"Value": "更换成功",
		"ValueStrKey": ""
	},
	{
		"ID": 13040,
		"Value": "{0}个圣魔晶",
		"ValueStrKey": ""
	},
	{
		"ID": 13041,
		"Value": "初始时装，经典造型！",
		"ValueStrKey": ""
	},
	{
		"ID": 13042,
		"Value": "原原本本又普普通通的服装，不期待新时装的士兵不是好士兵。",
		"ValueStrKey": ""
	},
	{
		"ID": 13043,
		"Value": "初始拥有，坚固耐用。",
		"ValueStrKey": ""
	},
	{
		"ID": 13044,
		"Value": "初始",
		"ValueStrKey": ""
	},
	{
		"ID": 13045,
		"Value": "<size=40>{0}</size>年<size=40>{1}</size>月<size=40>{2}</size>日为止",
		"ValueStrKey": ""
	},
	{
		"ID": 13046,
		"Value": "您的圣魔晶数量不足，是否前往充值？",
		"ValueStrKey": ""
	},
	{
		"ID": 13047,
		"Value": "剩余<color=#FFFF00FF>{0}</color>日",
		"ValueStrKey": ""
	},
	{
		"ID": 13048,
		"Value": "当前职业无法穿戴此皮肤",
		"ValueStrKey": ""
	},
	{
		"ID": 13049,
		"Value": "没有任何强化素材可以添加",
		"ValueStrKey": ""
	},
	{
		"ID": 13050,
		"Value": "未获得该兵种无法更换",
		"ValueStrKey": ""
	},
	{
		"ID": 13051,
		"Value": "小于",
		"ValueStrKey": ""
	},
	{
		"ID": 13052,
		"Value": "剩余：",
		"ValueStrKey": ""
	},
	{
		"ID": 13054,
		"Value": "请至少选择一名英雄上阵",
		"ValueStrKey": ""
	},
	{
		"ID": 13055,
		"Value": "全部萃取将获得<color=red>{0}</color>个记忆精华，\n是否继续萃取？",
		"ValueStrKey": ""
	},
	{
		"ID": 13056,
		"Value": "仍在订阅期限内，不可购买",
		"ValueStrKey": ""
	},
	{
		"ID": 13057,
		"Value": "没有多余的英雄碎片，无法萃取",
		"ValueStrKey": ""
	},
	{
		"ID": 13058,
		"Value": "5a026626",
		"ValueStrKey": ""
	},
	{
		"ID": 13059,
		"Value": "支付{0}，即可购买{1}，是否确认这样做？",
		"ValueStrKey": ""
	},
	{
		"ID": 13060,
		"Value": "梦幻模拟战手游",
		"ValueStrKey": ""
	},
	{
		"ID": 13061,
		"Value": "#梦幻模拟战手游#\nhttp://mz.zlongame.com/",
		"ValueStrKey": ""
	},
	{
		"ID": 13062,
		"Value": "http://mz.zlongame.com/",
		"ValueStrKey": ""
	},
	{
		"ID": 13063,
		"Value": "http://mz.zlongame.com/",
		"ValueStrKey": ""
	},
	{
		"ID": 13064,
		"Value": "http://mz.zlongame.com/",
		"ValueStrKey": ""
	},
	{
		"ID": 13065,
		"Value": "全部",
		"ValueStrKey": ""
	},
	{
		"ID": 13066,
		"Value": "武器",
		"ValueStrKey": ""
	},
	{
		"ID": 13067,
		"Value": "护甲",
		"ValueStrKey": ""
	},
	{
		"ID": 13068,
		"Value": "头盔",
		"ValueStrKey": ""
	},
	{
		"ID": 13069,
		"Value": "饰品",
		"ValueStrKey": ""
	},
	{
		"ID": 13070,
		"Value": "其他",
		"ValueStrKey": ""
	},
	{
		"ID": 13071,
		"Value": "请选中一张塔罗牌",
		"ValueStrKey": ""
	},
	{
		"ID": 14001,
		"Value": "缺少{0}道具,是否前往礼包商店",
		"ValueStrKey": ""
	},
	{
		"ID": 14002,
		"Value": "确定创建「{0}」旅团吗",
		"ValueStrKey": ""
	},
	{
		"ID": 14003,
		"Value": "请输入旅团名再搜索",
		"ValueStrKey": ""
	},
	{
		"ID": 14004,
		"Value": "队伍等级{0}级后开启",
		"ValueStrKey": ""
	},
	{
		"ID": 14005,
		"Value": "保存成功",
		"ValueStrKey": ""
	},
	{
		"ID": 14006,
		"Value": "确认退出旅团「{0}」吗？",
		"ValueStrKey": ""
	},
	{
		"ID": 14007,
		"Value": "注：退出旅团1天后才能加入新的旅团",
		"ValueStrKey": ""
	},
	{
		"ID": 14008,
		"Value": "旅团退出成功",
		"ValueStrKey": ""
	},
	{
		"ID": 14009,
		"Value": "邀请成功",
		"ValueStrKey": ""
	},
	{
		"ID": 14010,
		"Value": "旅团更名成功",
		"ValueStrKey": ""
	},
	{
		"ID": 14011,
		"Value": "团长",
		"ValueStrKey": ""
	},
	{
		"ID": 14012,
		"Value": "副团长",
		"ValueStrKey": ""
	},
	{
		"ID": 14013,
		"Value": "精英",
		"ValueStrKey": ""
	},
	{
		"ID": 14014,
		"Value": "团员",
		"ValueStrKey": ""
	},
	{
		"ID": 14015,
		"Value": "刷新成功",
		"ValueStrKey": ""
	},
	{
		"ID": 14016,
		"Value": "加入成功",
		"ValueStrKey": ""
	},
	{
		"ID": 14017,
		"Value": "团长审批",
		"ValueStrKey": ""
	},
	{
		"ID": 14018,
		"Value": "自动加入",
		"ValueStrKey": ""
	},
	{
		"ID": 14019,
		"Value": "副团长职位任命成功",
		"ValueStrKey": ""
	},
	{
		"ID": 14020,
		"Value": "团长职位移交成功",
		"ValueStrKey": ""
	},
	{
		"ID": 14021,
		"Value": "该成员已从旅团中剔除",
		"ValueStrKey": ""
	},
	{
		"ID": 14022,
		"Value": "解除成功，您已成为新团长",
		"ValueStrKey": ""
	},
	{
		"ID": 14023,
		"Value": "副团长职位解除成功",
		"ValueStrKey": ""
	},
	{
		"ID": 14024,
		"Value": "确认要移交您的团长职位吗？",
		"ValueStrKey": ""
	},
	{
		"ID": 14025,
		"Value": "确认要逐出这位成员吗？",
		"ValueStrKey": ""
	},
	{
		"ID": 14026,
		"Value": "在线旅团成员",
		"ValueStrKey": ""
	},
	{
		"ID": 14027,
		"Value": "{0}小时{1}分钟后才能加入新的旅团",
		"ValueStrKey": ""
	},
	{
		"ID": 14028,
		"Value": "指挥官大人，无法使用旅团组队，请赶快加入一个「时空旅团」吧！",
		"ValueStrKey": ""
	},
	{
		"ID": 14029,
		"Value": "本周合战次数已用尽，下周一会刷新次数",
		"ValueStrKey": ""
	},
	{
		"ID": 14030,
		"Value": "等待  团长/副团长  开启合战",
		"ValueStrKey": ""
	},
	{
		"ID": 14031,
		"Value": "该据点已被压制",
		"ValueStrKey": ""
	},
	{
		"ID": 14032,
		"Value": "在此据点中<color=#FB0000FF>{0}</color>阵营的英雄有<color=#FB0000FF>40%</color>战力加成",
		"ValueStrKey": ""
	},
	{
		"ID": 14033,
		"Value": "旅团Lv.{0}以上的人数超过{1}人",
		"ValueStrKey": ""
	},
	{
		"ID": 14034,
		"Value": "合战积分",
		"ValueStrKey": ""
	},
	{
		"ID": 14035,
		"Value": "<size=60><color=red>注意！</color></size>\n放弃合战将会<color=red>直接结束</color>本轮合战并发放对应奖励，此操作将令<color=red>所有团员</color>在本轮合战中已经完成的压制进度付诸东流！\n是否放弃本轮合战？",
		"ValueStrKey": ""
	},
	{
		"ID": 14036,
		"Value": "个人合战积分",
		"ValueStrKey": ""
	},
	{
		"ID": 14037,
		"Value": "在旅团合战中击败敌人即可获得积分。每场战斗结束以后，根据本场战斗击败敌人的总数获取对应的积分。",
		"ValueStrKey": ""
	},
	{
		"ID": 14038,
		"Value": "旅团合战已经关闭！",
		"ValueStrKey": ""
	},
	{
		"ID": 14039,
		"Value": "确认开启难度为<color=red>{0}</color>的旅团合战吗？",
		"ValueStrKey": ""
	},
	{
		"ID": 14040,
		"Value": "需要加入一个旅团",
		"ValueStrKey": ""
	},
	{
		"ID": 14041,
		"Value": "此次压制已完成，是否结束合战并结算奖励？",
		"ValueStrKey": ""
	},
	{
		"ID": 15001,
		"Value": "内测期间您充值金额为<color=#DC143C>{0}</color>元，\n累计您可领取的圣魔晶数量为<color=#DC143C>{1}</color>",
		"ValueStrKey": ""
	},
	{
		"ID": 15002,
		"Value": "●充值圣魔晶档位：",
		"ValueStrKey": ""
	},
	{
		"ID": 15003,
		"Value": "●礼包及月卡特权：",
		"ValueStrKey": ""
	},
	{
		"ID": 15004,
		"Value": "累计您可领取的圣魔晶数量为<color=#DC143C>{0}</color>",
		"ValueStrKey": ""
	},
	{
		"ID": 15005,
		"Value": "{0}×{1}，",
		"ValueStrKey": ""
	},
	{
		"ID": 15006,
		"Value": "可获得圣魔晶<color=#DC143C>{0}</color>",
		"ValueStrKey": ""
	},
	{
		"ID": 15007,
		"Value": "648元|328元|128元|68元|30元|6元",
		"ValueStrKey": ""
	},
	{
		"ID": 15008,
		"Value": "女神的恩惠,6|勇气的旗帜,7|原谅的时钟,8|新手召唤礼包,0|魔导石礼包,1|超值皮肤礼包,2|每日优惠礼包,3|每日召唤礼包,4|皮肤券礼包,5",
		"ValueStrKey": ""
	},
	{
		"ID": 15009,
		"Value": "旅团第一步，宣言先上路",
		"ValueStrKey": ""
	},
	{
		"ID": 15010,
		"Value": "欢迎加入我们的旅团，让我们在时空旅途中一同奋战！",
		"ValueStrKey": ""
	},
	{
		"ID": 15011,
		"Value": "旅团管理者<color=#DC143C>[0]</color>更改了旅团宣言：<color=#008B00>[1]</color>",
		"ValueStrKey": ""
	},
	{
		"ID": 15012,
		"Value": "无法领取，您已领取过充值返还奖励",
		"ValueStrKey": ""
	},
	{
		"ID": 15013,
		"Value": "记忆商店尚未开启",
		"ValueStrKey": ""
	},
	{
		"ID": 15014,
		"Value": "队伍等级{0}以前无法发送评论",
		"ValueStrKey": ""
	},
	{
		"ID": 15015,
		"Value": "生命,攻击,防御,智力,魔防,技巧,暴伤",
		"ValueStrKey": ""
	},
	{
		"ID": 15016,
		"Value": "更换语言需要重新启动应用程序，确认更换吗？",
		"ValueStrKey": ""
	},
	{
		"ID": 15017,
		"Value": "英雄心之羁绊暂未开放，敬请期待",
		"ValueStrKey": ""
	},
	{
		"ID": 15018,
		"Value": "羁绊之力总等级达到{0}级",
		"ValueStrKey": ""
	},
	{
		"ID": 15019,
		"Value": "英雄等级达到{0}级",
		"ValueStrKey": ""
	},
	{
		"ID": 15020,
		"Value": "当前<color=#F85029FF>{0}</color>级",
		"ValueStrKey": ""
	},
	{
		"ID": 15021,
		"Value": "{NAME}",
		"ValueStrKey": ""
	},
	{
		"ID": 15022,
		"Value": "{BEGINTIME}",
		"ValueStrKey": ""
	},
	{
		"ID": 15023,
		"Value": "{BATTLETIME}",
		"ValueStrKey": ""
	},
	{
		"ID": 15024,
		"Value": "{ENDTIME}",
		"ValueStrKey": ""
	},
	{
		"ID": 15025,
		"Value": "{0}年{1}月{2}日",
		"ValueStrKey": ""
	},
	{
		"ID": 15026,
		"Value": "忘记了",
		"ValueStrKey": ""
	},
	{
		"ID": 15027,
		"Value": "要返回冒险吗？",
		"ValueStrKey": ""
	},
	{
		"ID": 15028,
		"Value": "需要心之羁绊到达Lv{0}",
		"ValueStrKey": ""
	},
	{
		"ID": 15029,
		"Value": "{0}月{1}日",
		"ValueStrKey": ""
	},
	{
		"ID": 20000,
		"Value": "<color=#a52a2aff>[0]</color>加入了旅团。",
		"ValueStrKey": ""
	},
	{
		"ID": 20001,
		"Value": "<color=#a52a2aff>[0]</color>退出了旅团。",
		"ValueStrKey": ""
	},
	{
		"ID": 20002,
		"Value": "<color=#a52a2aff>[0]</color>被逐出了旅团。",
		"ValueStrKey": ""
	},
	{
		"ID": 20003,
		"Value": "<color=#a52a2aff>[0]</color>将旅团名称变更为<color=#a52a2aff>「[1]」</color>。",
		"ValueStrKey": ""
	},
	{
		"ID": 20004,
		"Value": "<color=#a52a2aff>[0]</color>被提升为副团长。",
		"ValueStrKey": ""
	},
	{
		"ID": 20005,
		"Value": "<color=#a52a2aff>[0]</color>被解除了副团长职位。",
		"ValueStrKey": ""
	},
	{
		"ID": 20006,
		"Value": "<color=#a52a2aff>[0]</color>因为不懈努力，被提升为精英。",
		"ValueStrKey": ""
	},
	{
		"ID": 20007,
		"Value": "<color=#a52a2aff>[0]</color>已经将团长职位移交给<color=#a52a2aff>[1]</color>。",
		"ValueStrKey": ""
	},
	{
		"ID": 20008,
		"Value": "<color=#a52a2aff>[0]</color>因为长期不在线，被解除团长职位，现在由<color=#a52a2aff>[1]</color>接任。",
		"ValueStrKey": ""
	},
	{
		"ID": 20009,
		"Value": "<color=#a52a2aff>[0]</color>在旅团福利商店购买了<color=#a52a2aff>「[1]」</color>。",
		"ValueStrKey": ""
	},
	{
		"ID": 20010,
		"Value": "<color=#a52a2aff>[0]</color>同意您加入了旅团。",
		"ValueStrKey": ""
	},
	{
		"ID": 20011,
		"Value": "您被逐出了旅团。",
		"ValueStrKey": ""
	},
	{
		"ID": 20012,
		"Value": "您被提升为副团长。",
		"ValueStrKey": ""
	},
	{
		"ID": 20013,
		"Value": "您被解除了副团长职位。",
		"ValueStrKey": ""
	},
	{
		"ID": 20014,
		"Value": "您因为不懈努力，被提升为精英。",
		"ValueStrKey": ""
	},
	{
		"ID": 20015,
		"Value": "您被移交为团长。",
		"ValueStrKey": ""
	},
	{
		"ID": 20016,
		"Value": "<color=#a52a2aff>[0]</color>创建了旅团",
		"ValueStrKey": ""
	},
	{
		"ID": 20017,
		"Value": "<color=#a52a2aff>[0]</color>修改了旅团宣言",
		"ValueStrKey": ""
	},
	{
		"ID": 20018,
		"Value": "<color=#a52a2aff>[0]</color>开启了旅团合战，赶快组团参战吧！",
		"ValueStrKey": ""
	},
	{
		"ID": 20019,
		"Value": "<color=#a52a2aff>[0]</color>感到旅团实力尚不足以完成本轮合战，选择了放弃。所有参战团员请在邮件中收取本轮合战的奖励。",
		"ValueStrKey": ""
	},
	{
		"ID": 20020,
		"Value": "本轮合战中，<color=#a52a2aff>等级[0]</color>的据点已被压制，参加了本轮合战的团员都可以在合战结束后获得此据点的压制奖励哟。",
		"ValueStrKey": ""
	},
	{
		"ID": 20021,
		"Value": "我的排名：<color=#FFFF00FF><size=40>{0}</size></color>",
		"ValueStrKey": ""
	},
	{
		"ID": 20022,
		"Value": "\"您击败了<color=#FFFF00FF><size=35>{0}%</size></color>的玩家\"",
		"ValueStrKey": ""
	},
	{
		"ID": 20023,
		"Value": "<size=40><color=#FFFF00FF>S{0}</color></size>",
		"ValueStrKey": ""
	},
	{
		"ID": 20024,
		"Value": "淘汰赛将于   <size=40><color=#00FFFFFF>{0}</color></size>  后开始",
		"ValueStrKey": ""
	},
	{
		"ID": 20025,
		"Value": "距离{0}赛季积分赛结束还有<size=40><color=#00FFFFFF>{1}</color></size>",
		"ValueStrKey": ""
	},
	{
		"ID": 20026,
		"Value": "巅峰切磋",
		"ValueStrKey": ""
	},
	{
		"ID": 20027,
		"Value": "未到达{0}级，无法巅峰切磋",
		"ValueStrKey": ""
	},
	{
		"ID": 20028,
		"Value": "对手未到达{0}级，无法巅峰切磋",
		"ValueStrKey": ""
	},
	{
		"ID": 20029,
		"Value": "队伍编成未完成，请前往巅峰竞技场编辑",
		"ValueStrKey": ""
	},
	{
		"ID": 20030,
		"Value": "每周六、周日  12:00-21:00",
		"ValueStrKey": ""
	},
	{
		"ID": 20031,
		"Value": "等级满{0}级之后开放",
		"ValueStrKey": ""
	},
	{
		"ID": 20032,
		"Value": "阵容保存成功",
		"ValueStrKey": ""
	},
	{
		"ID": 20033,
		"Value": "已上阵同名英雄",
		"ValueStrKey": ""
	},
	{
		"ID": 20034,
		"Value": "切磋",
		"ValueStrKey": ""
	},
	{
		"ID": 20035,
		"Value": "巅峰切磋",
		"ValueStrKey": ""
	},
	{
		"ID": 20036,
		"Value": "巅峰切磋邀请已取消",
		"ValueStrKey": ""
	},
	{
		"ID": 20037,
		"Value": "已达到最大上阵人数",
		"ValueStrKey": ""
	},
	{
		"ID": 20038,
		"Value": "待定",
		"ValueStrKey": ""
	},
	{
		"ID": 20039,
		"Value": "必须先选择地图",
		"ValueStrKey": ""
	},
	{
		"ID": 20040,
		"Value": "下一赛季尚未开始",
		"ValueStrKey": ""
	},
	{
		"ID": 20041,
		"Value": "距离下一赛季开启还有",
		"ValueStrKey": ""
	},
	{
		"ID": 20042,
		"Value": "下一赛季开启时间",
		"ValueStrKey": ""
	},
	{
		"ID": 20043,
		"Value": "达到相应段位时发放奖励\n至少进行10场天梯战斗",
		"ValueStrKey": ""
	},
	{
		"ID": 20044,
		"Value": "段位奖励在积分赛期间每周周日22：00通过邮件发放",
		"ValueStrKey": ""
	},
	{
		"ID": 20045,
		"Value": "分享了一条巅峰战报",
		"ValueStrKey": ""
	},
	{
		"ID": 20046,
		"Value": "成功分享给我的好友",
		"ValueStrKey": ""
	},
	{
		"ID": 20047,
		"Value": "{0}月{1}日",
		"ValueStrKey": ""
	},
	{
		"ID": 20048,
		"Value": "256进128/128进64/64进32/32进16/16进8/8进4/4进2/总决赛",
		"ValueStrKey": ""
	},
	{
		"ID": 20049,
		"Value": "切磋",
		"ValueStrKey": ""
	},
	{
		"ID": 20050,
		"Value": "积分赛",
		"ValueStrKey": ""
	},
	{
		"ID": 20051,
		"Value": "淘汰赛",
		"ValueStrKey": ""
	},
	{
		"ID": 20052,
		"Value": "我分享了我的战报，大家来看一看吧！",
		"ValueStrKey": ""
	},
	{
		"ID": 20053,
		"Value": "即将播放由【{0}】分享的一条巅峰战报，确认播放吗？",
		"ValueStrKey": ""
	},
	{
		"ID": 20054,
		"Value": "播放",
		"ValueStrKey": ""
	},
	{
		"ID": 20055,
		"Value": "成功分享到名片",
		"ValueStrKey": ""
	},
	{
		"ID": 20056,
		"Value": "定级赛",
		"ValueStrKey": ""
	},
	{
		"ID": 20057,
		"Value": "成功分享到世界频道",
		"ValueStrKey": ""
	},
	{
		"ID": 20058,
		"Value": "成功分享到旅团频道",
		"ValueStrKey": ""
	},
	{
		"ID": 20059,
		"Value": "该战报已分享到名片",
		"ValueStrKey": ""
	},
	{
		"ID": 20060,
		"Value": "“{0}”",
		"ValueStrKey": ""
	},
	{
		"ID": 20061,
		"Value": "战斗中无法播放战报",
		"ValueStrKey": ""
	},
	{
		"ID": 20062,
		"Value": "即将取消战报【{0}】的分享，确定取消分享吗？",
		"ValueStrKey": ""
	},
	{
		"ID": 20063,
		"Value": "战报已过期，无法分享",
		"ValueStrKey": ""
	},
	{
		"ID": 20064,
		"Value": "淘汰赛尚未决出16强",
		"ValueStrKey": ""
	},
	{
		"ID": 20065,
		"Value": "今日购买应援券数量已达上限",
		"ValueStrKey": ""
	},
	{
		"ID": 20066,
		"Value": "本日限购{0}次",
		"ValueStrKey": ""
	},
	{
		"ID": 20067,
		"Value": "下轮比赛将于{0}月{1}日{2:D2}:{3:D2}开始",
		"ValueStrKey": ""
	},
	{
		"ID": 20068,
		"Value": "下轮比赛将于{0:D2}:{1:D2}开始",
		"ValueStrKey": ""
	},
	{
		"ID": 20069,
		"Value": "比赛已经开始",
		"ValueStrKey": ""
	},
	{
		"ID": 20070,
		"Value": "本赛季已经结束",
		"ValueStrKey": ""
	},
	{
		"ID": 20071,
		"Value": "无",
		"ValueStrKey": ""
	},
	{
		"ID": 20072,
		"Value": "{0}强",
		"ValueStrKey": ""
	},
	{
		"ID": 20073,
		"Value": "冠军",
		"ValueStrKey": ""
	},
	{
		"ID": 20074,
		"Value": "亚军",
		"ValueStrKey": ""
	},
	{
		"ID": 20075,
		"Value": "定级中",
		"ValueStrKey": ""
	},
	{
		"ID": 20076,
		"Value": "总决赛",
		"ValueStrKey": ""
	},
	{
		"ID": 20077,
		"Value": "梦幻模拟战",
		"ValueStrKey": ""
	},
	{
		"ID": 20078,
		"Value": "尊敬的指挥官，今日巅峰竞技场淘汰赛将于一小时后开启！巅峰竞技，等你来战！",
		"ValueStrKey": ""
	},
	{
		"ID": 20079,
		"Value": "尊敬的指挥官，巅峰竞技场淘汰赛现已重磅开启！为了艾露萨利亚的荣光！尽情战斗吧！",
		"ValueStrKey": ""
	},
	{
		"ID": 20080,
		"Value": "组",
		"ValueStrKey": ""
	},
	{
		"ID": 20081,
		"Value": "赛季淘汰赛{0}进行中",
		"ValueStrKey": ""
	},
	{
		"ID": 20082,
		"Value": "赛季淘汰赛{0}即将开始",
		"ValueStrKey": ""
	},
	{
		"ID": 20083,
		"Value": "赛季积分赛已经结束",
		"ValueStrKey": ""
	},
	{
		"ID": 20084,
		"Value": "正在战斗中",
		"ValueStrKey": ""
	},
	{
		"ID": 20085,
		"Value": "淘汰赛已经开始，参赛选手无法使用佣兵",
		"ValueStrKey": ""
	},
	{
		"ID": 20086,
		"Value": "{0}月{1}日{2:D2}:{3:D2}～{4}月{5}日{6:D2}:{7:D2}",
		"ValueStrKey": ""
	},
	{
		"ID": 20087,
		"Value": "第{0}名",
		"ValueStrKey": ""
	},
	{
		"ID": 20088,
		"Value": "第{0}～{1}名",
		"ValueStrKey": ""
	},
	{
		"ID": 20089,
		"Value": "结算周期为30天，排行奖励通过邮件发放。\n排行根据玩家在各Boss所获得的积分之和产生，积分相同时根据总伤害量排序",
		"ValueStrKey": ""
	},
	{
		"ID": 20090,
		"Value": "S{0}赛季淘汰赛将于今日开始，请前往编辑队伍",
		"ValueStrKey": ""
	},
	{
		"ID": 20091,
		"Value": "S{0}赛季淘汰赛已经开始，5分钟内未挑战将视为弃权",
		"ValueStrKey": ""
	},
	{
		"ID": 20092,
		"Value": "决赛圈",
		"ValueStrKey": ""
	},
	{
		"ID": 20093,
		"Value": "{0}赛季已经结束，正在进行结算",
		"ValueStrKey": ""
	},
	{
		"ID": 20094,
		"Value": "您在{0}比赛的对手已经弃权",
		"ValueStrKey": ""
	},
	{
		"ID": 20095,
		"Value": "{0}后开启",
		"ValueStrKey": ""
	},
	{
		"ID": 20096,
		"Value": "S{0}赛季",
		"ValueStrKey": ""
	},
	{
		"ID": 20097,
		"Value": "武器",
		"ValueStrKey": ""
	},
	{
		"ID": 20098,
		"Value": "防具",
		"ValueStrKey": ""
	},
	{
		"ID": 20099,
		"Value": "饰品",
		"ValueStrKey": ""
	},
	{
		"ID": 20100,
		"Value": "头饰",
		"ValueStrKey": ""
	},
	{
		"ID": 20101,
		"Value": "竞技",
		"ValueStrKey": ""
	},
	{
		"ID": 20102,
		"Value": "{0}精通",
		"ValueStrKey": ""
	},
	{
		"ID": 20103,
		"Value": "请选择一个精通石",
		"ValueStrKey": ""
	},
	{
		"ID": 20104,
		"Value": "No.{0} {1}",
		"ValueStrKey": ""
	},
	{
		"ID": 20105,
		"Value": "本周末限购{0}次({1}/{0})",
		"ValueStrKey": ""
	},
	{
		"ID": 20106,
		"Value": "",
		"ValueStrKey": ""
	},
	{
		"ID": 20107,
		"Value": "{0}后刷新",
		"ValueStrKey": ""
	},
	{
		"ID": 20108,
		"Value": "远古的呼唤排行榜暂无数据",
		"ValueStrKey": ""
	},
	{
		"ID": 20109,
		"Value": "使用该职业时，可获得以下属性加成",
		"ValueStrKey": ""
	},
	{
		"ID": 20110,
		"Value": "选手不能观看自己的比赛",
		"ValueStrKey": ""
	},
	{
		"ID": 20111,
		"Value": "Boss未到开启时间",
		"ValueStrKey": ""
	},
	{
		"ID": 20112,
		"Value": "总排行榜",
		"ValueStrKey": ""
	},
	{
		"ID": 20113,
		"Value": "尚未进行挑战",
		"ValueStrKey": ""
	},
	{
		"ID": 20114,
		"Value": "是否确认要扫荡【{0}】?",
		"ValueStrKey": ""
	},
	{
		"ID": 20115,
		"Value": "晋级成功",
		"ValueStrKey": ""
	},
	{
		"ID": 20116,
		"Value": "你已经成功晋级{0}!请再接再厉！祝你在接下来的比赛中一往无前！",
		"ValueStrKey": ""
	},
	{
		"ID": 20117,
		"Value": "祝贺你，指挥官！你获得了巅峰竞技赛的冠军！你的名字将传遍艾露萨利亚大陆，光辉的王冠属于你",
		"ValueStrKey": ""
	},
	{
		"ID": 20118,
		"Value": "恭喜你获得巅峰S{0}赛季亚军！",
		"ValueStrKey": ""
	},
	{
		"ID": 20119,
		"Value": "你最终的战绩为：{0}",
		"ValueStrKey": ""
	},
	{
		"ID": 20120,
		"Value": "已经获得秘境祝福的关卡可以<color=#DC143C>一键扫荡</color>。所有秘境关卡共享每日扫荡次数限制，次日零点刷新。",
		"ValueStrKey": ""
	},
	{
		"ID": 20121,
		"Value": "比赛已经结束",
		"ValueStrKey": ""
	},
	{
		"ID": 20122,
		"Value": "竞技属性，仅在<color=#FF1511FF>竞技场</color>中有效",
		"ValueStrKey": ""
	},
	{
		"ID": 20123,
		"Value": "{0}名以后",
		"ValueStrKey": ""
	},
	{
		"ID": 20124,
		"Value": "同样的属性只能有1条",
		"ValueStrKey": ""
	},
	{
		"ID": 20125,
		"Value": "排行榜结算周期为30天\n根据最高输出值进行排行，并获得相应的排行积分",
		"ValueStrKey": ""
	},
	{
		"ID": 20126,
		"Value": "结算周期为6天，将根据历史最佳评价通过邮件发放奖励",
		"ValueStrKey": ""
	},
	{
		"ID": 20127,
		"Value": "该职业尚未开启装备精通",
		"ValueStrKey": ""
	},
	{
		"ID": 20128,
		"Value": "重置后马修将会变成<color=red>初始职业</color>。\n等级、星级将保留，所有装备和技能将自动卸下。\n之前转职消耗的<color=red>魔导石</color>将会通过<color=red>邮件</color>全部返还。但转职材料以及装备精通石将不做返还，还请注意。\n\n确认要修改马修的职业吗？",
		"ValueStrKey": ""
	},
	{
		"ID": 20129,
		"Value": "马修的职业已成功变更。",
		"ValueStrKey": ""
	},
	{
		"ID": 20130,
		"Value": "尚未开启回流商店",
		"ValueStrKey": ""
	},
	{
		"ID": 20131,
		"Value": "该科技尚未开放",
		"ValueStrKey": ""
	},
	{
		"ID": 20132,
		"Value": "通过时狭之钟获取聊天挂件后解锁",
		"ValueStrKey": ""
	},
	{
		"ID": 20133,
		"Value": "英雄到达60级开启",
		"ValueStrKey": ""
	},
	{
		"ID": 20134,
		"Value": "生命,攻击,防御,智力,魔防,技巧",
		"ValueStrKey": ""
	},
	{
		"ID": 20135,
		"Value": "生命,攻击,防御,智力,魔防,技巧",
		"ValueStrKey": ""
	},
	{
		"ID": 20136,
		"Value": "生命,攻击,防御,智力,魔防,技巧",
		"ValueStrKey": ""
	},
	{
		"ID": 20137,
		"Value": "生命,攻击,防御,智力,魔防,技巧,暴击",
		"ValueStrKey": ""
	},
	{
		"ID": 20138,
		"Value": "尚未获得巅峰荣耀",
		"ValueStrKey": ""
	},
	{
		"ID": 20139,
		"Value": "觉醒材料不足",
		"ValueStrKey": ""
	},
	{
		"ID": 20140,
		"Value": "英雄等级不足",
		"ValueStrKey": ""
	},
	{
		"ID": 20141,
		"Value": "本阶觉醒暂未开放",
		"ValueStrKey": ""
	},
	{
		"ID": 20142,
		"Value": "休闲模式",
		"ValueStrKey": ""
	},
	{
		"ID": 20143,
		"Value": "古代金币",
		"ValueStrKey": ""
	},
	{
		"ID": 20144,
		"Value": "淹没在时光中，于封印战域中显现的昔日货币。",
		"ValueStrKey": ""
	},
	{
		"ID": 20145,
		"Value": "没有英雄符合当前的筛选条件",
		"ValueStrKey": ""
	},
	{
		"ID": 20146,
		"Value": "活动已过期",
		"ValueStrKey": ""
	},
	{
		"ID": 20147,
		"Value": "{0}成就",
		"ValueStrKey": ""
	},
	{
		"ID": 20148,
		"Value": "该道具兑换次数已用尽",
		"ValueStrKey": ""
	},
	{
		"ID": 20149,
		"Value": "队伍等级不足",
		"ValueStrKey": ""
	},
	{
		"ID": 20150,
		"Value": "英雄已经选入主要编队",
		"ValueStrKey": ""
	},
	{
		"ID": 20151,
		"Value": "英雄已经选入备用编队",
		"ValueStrKey": ""
	},
	{
		"ID": 20152,
		"Value": "巅峰切磋(三局两胜)",
		"ValueStrKey": ""
	},
	{
		"ID": 20153,
		"Value": "<color=#DC143C>{0}</color>级以下",
		"ValueStrKey": ""
	},
	{
		"ID": 20154,
		"Value": "<color=#DC143C>{0}</color>{1}",
		"ValueStrKey": ""
	},
	{
		"ID": 20155,
		"Value": "每日开放时间段  12:00:00-14:00:00  19:00:00-21:00:00",
		"ValueStrKey": ""
	},
	{
		"ID": 20156,
		"Value": "阵容保存成功",
		"ValueStrKey": ""
	},
	{
		"ID": 20157,
		"Value": "已达到最大上阵人数",
		"ValueStrKey": ""
	},
	{
		"ID": 20158,
		"Value": "已上阵同名英雄",
		"ValueStrKey": ""
	}
]