[
	{
		"ID": 1,
		"Name": "奇跡の海",
		"Tab": 1,
		"SortOrder": 1,
		"SoundName": "BattleMusic_KisekiNoUmi"
	},
	{
		"ID": 2,
		"Name": "Normal Battle",
		"Tab": 1,
		"SortOrder": 2,
		"SoundName": "BattleMusic_NormalBattle"
	},
	{
		"ID": 3,
		"Name": "Neo-HolyWar",
		"Tab": 1,
		"SortOrder": 3,
		"SoundName": "BattleMusic_Neo_HolyWar"
	},
	{
		"ID": 4,
		"Name": "Last Battle",
		"Tab": 1,
		"SortOrder": 4,
		"SoundName": "BattleMusic_Last_Battle"
	},
	{
		"ID": 5,
		"Name": "Knights Errant",
		"Tab": 1,
		"SortOrder": 5,
		"SoundName": "BattleMusic_Knights_Errant"
	},
	{
		"ID": 6,
		"Name": "Scramble",
		"Tab": 1,
		"SortOrder": 6,
		"SoundName": "BattleMusic_I_08"
	},
	{
		"ID": 7,
		"Name": "Velzeria Theme",
		"Tab": 1,
		"SortOrder": 7,
		"SoundName": "BattleMusic_Ⅲ_18"
	},
	{
		"ID": 8,
		"Name": "Salvation",
		"Tab": 1,
		"SortOrder": 8,
		"SoundName": "BattleMusic_Ⅲ_16_Salvation"
	},
	{
		"ID": 9,
		"Name": "Bharal Theme",
		"Tab": 1,
		"SortOrder": 9,
		"SoundName": "BattleMusic_Ⅲ_11_Bharal_Theme"
	},
	{
		"ID": 10,
		"Name": "Altemüller",
		"Tab": 1,
		"SortOrder": 10,
		"SoundName": "BattleMusic_Ⅲ_10_Artemüller's_Theme"
	},
	{
		"ID": 11,
		"Name": "Egbert",
		"Tab": 1,
		"SortOrder": 11,
		"SoundName": "BattleMusic_Ⅱ_11_Eggbert"
	},
	{
		"ID": 12,
		"Name": "Jyaakunaru Mono",
		"Tab": 1,
		"SortOrder": 12,
		"SoundName": "BattleMusic_Ⅱ_08_Jyaakunaru_Mono"
	},
	{
		"ID": 13,
		"Name": "Morgan",
		"Tab": 1,
		"SortOrder": 13,
		"SoundName": "BattleMusic_Ⅱ_06_Morgan"
	},
	{
		"ID": 14,
		"Name": "Leon",
		"Tab": 1,
		"SortOrder": 14,
		"SoundName": "BattleMusic_Ⅱ_02_Leon"
	},
	{
		"ID": 15,
		"Name": "Sword of Holy",
		"Tab": 1,
		"SortOrder": 15,
		"SoundName": "BattleMusic_Ⅰ_06_Remake"
	},
	{
		"ID": 16,
		"Name": "Enemy Assault",
		"Tab": 1,
		"SortOrder": 16,
		"SoundName": "BattleMusic_Ⅰ_05_Remake"
	},
	{
		"ID": 17,
		"Name": "Kingdom Knight",
		"Tab": 1,
		"SortOrder": 17,
		"SoundName": "BattleMusic_Ⅰ_03_Remake"
	},
	{
		"ID": 18,
		"Name": "Fight It Out",
		"Tab": 1,
		"SortOrder": 18,
		"SoundName": "BattleMusic_10_Fight_It_Out_Remake"
	},
	{
		"ID": 19,
		"Name": "Reinforce of Enemy",
		"Tab": 1,
		"SortOrder": 19,
		"SoundName": "BattleMusic_09_Reinforce_of_Enemy_Remake"
	},
	{
		"ID": 20,
		"Name": "No Surrender",
		"Tab": 1,
		"SortOrder": 20,
		"SoundName": "BattleMusic_07_No_Surrender_Remake_loop"
	},
	{
		"ID": 21,
		"Name": "One's Side",
		"Tab": 1,
		"SortOrder": 21,
		"SoundName": "BattleMusic_05_One's_Side_Remake_loop"
	},
	{
		"ID": 22,
		"Name": "Shika Theme",
		"Tab": 1,
		"SortOrder": 22,
		"SoundName": "BattleMusic_Ⅲ_20"
	},
	{
		"ID": 23,
		"Name": "A Story Forever",
		"Tab": 1,
		"SortOrder": 23,
		"SoundName": "BattleMusic_A_Story_Forever"
	},
	{
		"ID": 24,
		"Name": "Bargas",
		"Tab": 1,
		"SortOrder": 24,
		"SoundName": "BattleMusic_Bargas"
	},
	{
		"ID": 25,
		"Name": "Bozel",
		"Tab": 1,
		"SortOrder": 25,
		"SoundName": "BattleMusic_Bosel"
	},
	{
		"ID": 26,
		"Name": "Dark Princes",
		"Tab": 1,
		"SortOrder": 26,
		"SoundName": "BattleMusic_Dark_Princes"
	},
	{
		"ID": 27,
		"Name": "Imelda",
		"Tab": 1,
		"SortOrder": 27,
		"SoundName": "BattleMusic_Imelda"
	},
	{
		"ID": 28,
		"Name": "Gizlof",
		"Tab": 1,
		"SortOrder": 28,
		"SoundName": "BattleMusic_IV_Gizlof"
	},
	{
		"ID": 29,
		"Name": "Reinforce",
		"Tab": 1,
		"SortOrder": 29,
		"SoundName": "BattleMusic_IV_Reinforce"
	},
	{
		"ID": 30,
		"Name": "McClaine",
		"Tab": 1,
		"SortOrder": 30,
		"SoundName": "BattleMusic_IV_McClaine"
	},
	{
		"ID": 31,
		"Name": "Rainstorm",
		"Tab": 1,
		"SortOrder": 31,
		"SoundName": "BattleMusic_IV_Rainstorm"
	},
	{
		"ID": 32,
		"Name": "Ranford",
		"Tab": 1,
		"SortOrder": 32,
		"SoundName": "BattleMusic_IV_Ranford"
	},
	{
		"ID": 33,
		"Name": "Sigma066",
		"Tab": 1,
		"SortOrder": 33,
		"SoundName": "BattleMusic_V_Sigma066"
	},
	{
		"ID": 34,
		"Name": "Lainforce",
		"Tab": 1,
		"SortOrder": 34,
		"SoundName": "BattleMusic_V_Lainforce"
	},
	{
		"ID": 35,
		"Name": "Story -1-",
		"Tab": 2,
		"SortOrder": 1,
		"SoundName": "StoryMusic_25_BGM06"
	},
	{
		"ID": 36,
		"Name": "Story -2-",
		"Tab": 2,
		"SortOrder": 2,
		"SoundName": "StoryMusic_24_BGM03"
	},
	{
		"ID": 37,
		"Name": "Story -3-",
		"Tab": 2,
		"SortOrder": 3,
		"SoundName": "StoryMusic_22_Stage_bgm_022"
	},
	{
		"ID": 38,
		"Name": "Story -4-",
		"Tab": 2,
		"SortOrder": 4,
		"SoundName": "StoryMusic_21_BGM46"
	},
	{
		"ID": 39,
		"Name": "Story -5-",
		"Tab": 2,
		"SortOrder": 5,
		"SoundName": "StoryMusic_20_BGM32"
	},
	{
		"ID": 40,
		"Name": "Story -6-",
		"Tab": 2,
		"SortOrder": 6,
		"SoundName": "StoryMusic_18_BGM21"
	},
	{
		"ID": 41,
		"Name": "Story -7-",
		"Tab": 2,
		"SortOrder": 7,
		"SoundName": "StoryMusic_17_BGM37"
	},
	{
		"ID": 42,
		"Name": "Story -8-",
		"Tab": 2,
		"SortOrder": 8,
		"SoundName": "StoryMusic_14_BGM23"
	},
	{
		"ID": 43,
		"Name": "Story -9-",
		"Tab": 2,
		"SortOrder": 9,
		"SoundName": "StoryMusic_13_BGM20"
	},
	{
		"ID": 44,
		"Name": "Story -10-",
		"Tab": 2,
		"SortOrder": 10,
		"SoundName": "StoryMusic_12_BGM42"
	},
	{
		"ID": 45,
		"Name": "Story -11-",
		"Tab": 2,
		"SortOrder": 11,
		"SoundName": "StoryMusic_11_BGM39"
	},
	{
		"ID": 46,
		"Name": "Story -12-",
		"Tab": 2,
		"SortOrder": 12,
		"SoundName": "StoryMusic_10_BGM02"
	},
	{
		"ID": 47,
		"Name": "Story -13-",
		"Tab": 2,
		"SortOrder": 13,
		"SoundName": "StoryMusic_09_BGM35"
	},
	{
		"ID": 48,
		"Name": "Story -14-",
		"Tab": 2,
		"SortOrder": 14,
		"SoundName": "StoryMusic_08_BGM34"
	},
	{
		"ID": 49,
		"Name": "Story -15-",
		"Tab": 2,
		"SortOrder": 15,
		"SoundName": "StoryMusic_07_BGM33"
	},
	{
		"ID": 50,
		"Name": "Story -16-",
		"Tab": 2,
		"SortOrder": 16,
		"SoundName": "StoryMusic_03_BGM36"
	},
	{
		"ID": 51,
		"Name": "Story -17-",
		"Tab": 2,
		"SortOrder": 17,
		"SoundName": "StoryMusic_17_BGM44"
	},
	{
		"ID": 52,
		"Name": "Story -18-",
		"Tab": 2,
		"SortOrder": 18,
		"SoundName": "StoryMusic_26_BGM28"
	},
	{
		"ID": 53,
		"Name": "Story -19-",
		"Tab": 2,
		"SortOrder": 19,
		"SoundName": "StoryMusic_27_BGM49"
	},
	{
		"ID": 54,
		"Name": "Story -20-",
		"Tab": 2,
		"SortOrder": 20,
		"SoundName": "StoryMusic_25_Adv_bgm_009"
	},
	{
		"ID": 55,
		"Name": "Story -21-",
		"Tab": 2,
		"SortOrder": 21,
		"SoundName": "StoryMusic_24_Adv_bgm_008"
	},
	{
		"ID": 56,
		"Name": "Story -22-",
		"Tab": 2,
		"SortOrder": 22,
		"SoundName": "StoryMusic_23_Adv_bgm_007"
	},
	{
		"ID": 57,
		"Name": "Story -23-",
		"Tab": 2,
		"SortOrder": 23,
		"SoundName": "StoryMusic_22_BGM50"
	},
	{
		"ID": 58,
		"Name": "Goddess's Questions",
		"Tab": 2,
		"SortOrder": 24,
		"SoundName": "StartMusic_GodnessQuestions"
	},
	{
		"ID": 59,
		"Name": "The Beginning",
		"Tab": 2,
		"SortOrder": 25,
		"SoundName": "StartMusic_TouchScreen"
	},
	{
		"ID": 60,
		"Name": "Goddess Summoning",
		"Tab": 2,
		"SortOrder": 26,
		"SoundName": "MIMusic_Summon"
	},
	{
		"ID": 61,
		"Name": "El Sallia",
		"Tab": 2,
		"SortOrder": 27,
		"SoundName": "MIMusic_Main"
	},
	{
		"ID": 62,
		"Name": "Yeless",
		"Tab": 2,
		"SortOrder": 28,
		"SoundName": "MIMusic_Main02"
	}
]