[
	{
		"ID": 1,
		"Ranking": 1,
		"Points": 300,
		"Name": "第1名"
	},
	{
		"ID": 2,
		"Ranking": 2,
		"Points": 290,
		"Name": "第2名"
	},
	{
		"ID": 3,
		"Ranking": 3,
		"Points": 280,
		"Name": "第3名"
	},
	{
		"ID": 4,
		"Ranking": 4,
		"Points": 270,
		"Name": "第4名"
	},
	{
		"ID": 5,
		"Ranking": 5,
		"Points": 260,
		"Name": "第5~10名"
	},
	{
		"ID": 6,
		"Ranking": 11,
		"Points": 250,
		"Name": "第11~20名"
	},
	{
		"ID": 7,
		"Ranking": 21,
		"Points": 240,
		"Name": "第21~30名"
	},
	{
		"ID": 8,
		"Ranking": 31,
		"Points": 230,
		"Name": "第31~40名"
	},
	{
		"ID": 9,
		"Ranking": 41,
		"Points": 220,
		"Name": "第41~50名"
	},
	{
		"ID": 10,
		"Ranking": 51,
		"Points": 210,
		"Name": "第51~60名"
	},
	{
		"ID": 11,
		"Ranking": 61,
		"Points": 200,
		"Name": "第61~80名"
	},
	{
		"ID": 12,
		"Ranking": 81,
		"Points": 190,
		"Name": "第81~100名"
	},
	{
		"ID": 13,
		"Ranking": 101,
		"Points": 180,
		"Name": "第101~150名"
	},
	{
		"ID": 14,
		"Ranking": 151,
		"Points": 170,
		"Name": "第151~200名"
	},
	{
		"ID": 15,
		"Ranking": 201,
		"Points": 160,
		"Name": "第201~300名"
	},
	{
		"ID": 16,
		"Ranking": 301,
		"Points": 150,
		"Name": "第301~400名"
	},
	{
		"ID": 17,
		"Ranking": 401,
		"Points": 140,
		"Name": "第401~500名"
	},
	{
		"ID": 18,
		"Ranking": 501,
		"Points": 130,
		"Name": "第501~800名"
	},
	{
		"ID": 19,
		"Ranking": 801,
		"Points": 120,
		"Name": "第801~1200名"
	},
	{
		"ID": 20,
		"Ranking": 1201,
		"Points": 100,
		"Name": "第1201~1600名"
	},
	{
		"ID": 21,
		"Ranking": 1601,
		"Points": 80,
		"Name": "第1601~2000名"
	},
	{
		"ID": 22,
		"Ranking": 2001,
		"Points": 60,
		"Name": "第2001~3000名"
	},
	{
		"ID": 23,
		"Ranking": 3001,
		"Points": 40,
		"Name": "第3001~5000名"
	},
	{
		"ID": 24,
		"Ranking": 5001,
		"Points": 20,
		"Name": "5000名以后"
	}
]