[
	{
		"ID": 1,
		"Name": "战斗修行之证",
		"Desc": "用于提升职业品阶，<color=#a52a2aff>入门级战斗者的修行证明。</color>",
		"Rank": 1,
		"SellGold": 100,
		"ComposeGold": 0,
		"Property1ID": "PropertyModifyType_None",
		"Property1Value": 0,
		"Property2ID": "PropertyModifyType_None",
		"Property2Value": 0,
		"Property3ID": "PropertyModifyType_None",
		"Property3Value": 0,
		"Property4ID": "PropertyModifyType_None",
		"Property4Value": 0,
		"Property5ID": "PropertyModifyType_None",
		"Property5Value": 0,
		"Icon": "UI/Icon/JobMaterial_ABS/Item_BattlePractice.png",
		"GetPathList": [
			{
				"ID": 4503,
				"Name": 52
			},
			{
				"PathType": "GetPathType_Rift",
				"ID": 101,
				"Name": 201
			},
			{
				"PathType": "GetPathType_Rift",
				"ID": 207,
				"Name": 210
			},
			{
				"PathType": "GetPathType_Rift",
				"ID": 5101,
				"Name": 501
			},
			{
				"PathType": "GetPathType_GuildStore",
				"ID": 501,
				"Name": 30
			}
		],
		"GetPathDesc": "暂时无获取途径",
		"RandomDropRewardID": 20,
		"DisplayRewardCount": 1
	},
	{
		"ID": 2,
		"Name": "生存修行之证",
		"Desc": "用于提升职业品阶，<color=#a52a2aff>入门级守卫者的修行证明。</color>",
		"Rank": 1,
		"SellGold": 100,
		"ComposeGold": 0,
		"Property1ID": "PropertyModifyType_None",
		"Property1Value": 0,
		"Property2ID": "PropertyModifyType_None",
		"Property2Value": 0,
		"Property3ID": "PropertyModifyType_None",
		"Property3Value": 0,
		"Property4ID": "PropertyModifyType_None",
		"Property4Value": 0,
		"Property5ID": "PropertyModifyType_None",
		"Property5Value": 0,
		"Icon": "UI/Icon/JobMaterial_ABS/Item_SurvivalPractice.png",
		"GetPathList": [
			{
				"ID": 4503,
				"Name": 52
			},
			{
				"PathType": "GetPathType_Rift",
				"ID": 107,
				"Name": 203
			},
			{
				"PathType": "GetPathType_Rift",
				"ID": 213,
				"Name": 212
			},
			{
				"PathType": "GetPathType_Rift",
				"ID": 5104,
				"Name": 502
			},
			{
				"PathType": "GetPathType_GuildStore",
				"ID": 501,
				"Name": 30
			}
		],
		"GetPathDesc": "暂时无获取途径",
		"RandomDropRewardID": 20,
		"DisplayRewardCount": 1
	},
	{
		"ID": 3,
		"Name": "骑士修行之证",
		"Desc": "用于提升职业品阶，<color=#a52a2aff>入门级骑士的修行证明。</color>",
		"Rank": 1,
		"SellGold": 100,
		"ComposeGold": 0,
		"Property1ID": "PropertyModifyType_None",
		"Property1Value": 0,
		"Property2ID": "PropertyModifyType_None",
		"Property2Value": 0,
		"Property3ID": "PropertyModifyType_None",
		"Property3Value": 0,
		"Property4ID": "PropertyModifyType_None",
		"Property4Value": 0,
		"Property5ID": "PropertyModifyType_None",
		"Property5Value": 0,
		"Icon": "UI/Icon/JobMaterial_ABS/Item_KnightPractice.png",
		"GetPathList": [
			{
				"ID": 4503,
				"Name": 52
			},
			{
				"PathType": "GetPathType_Rift",
				"ID": 104,
				"Name": 202
			},
			{
				"PathType": "GetPathType_Rift",
				"ID": 210,
				"Name": 211
			},
			{
				"PathType": "GetPathType_Rift",
				"ID": 5110,
				"Name": 504
			},
			{
				"PathType": "GetPathType_GuildStore",
				"ID": 501,
				"Name": 30
			}
		],
		"GetPathDesc": "暂时无获取途径",
		"RandomDropRewardID": 20,
		"DisplayRewardCount": 1
	},
	{
		"ID": 4,
		"Name": "神职修行之证",
		"Desc": "用于提升职业品阶，<color=#a52a2aff>入门级神职者的修行证明。</color>",
		"Rank": 1,
		"SellGold": 100,
		"ComposeGold": 0,
		"Property1ID": "PropertyModifyType_None",
		"Property1Value": 0,
		"Property2ID": "PropertyModifyType_None",
		"Property2Value": 0,
		"Property3ID": "PropertyModifyType_None",
		"Property3Value": 0,
		"Property4ID": "PropertyModifyType_None",
		"Property4Value": 0,
		"Property5ID": "PropertyModifyType_None",
		"Property5Value": 0,
		"Icon": "UI/Icon/JobMaterial_ABS/Item_ClergyPractice.png",
		"GetPathList": [
			{
				"ID": 4503,
				"Name": 52
			},
			{
				"PathType": "GetPathType_Rift",
				"ID": 110,
				"Name": 204
			},
			{
				"PathType": "GetPathType_Rift",
				"ID": 216,
				"Name": 213
			},
			{
				"PathType": "GetPathType_Rift",
				"ID": 5107,
				"Name": 503
			},
			{
				"PathType": "GetPathType_GuildStore",
				"ID": 501,
				"Name": 30
			}
		],
		"GetPathDesc": "暂时无获取途径",
		"RandomDropRewardID": 20,
		"DisplayRewardCount": 1
	},
	{
		"ID": 5,
		"Name": "法术修行之证",
		"Desc": "用于提升职业品阶，<color=#a52a2aff>入门级施法者的修行证明。</color>",
		"Rank": 1,
		"SellGold": 100,
		"ComposeGold": 0,
		"Property1ID": "PropertyModifyType_None",
		"Property1Value": 0,
		"Property2ID": "PropertyModifyType_None",
		"Property2Value": 0,
		"Property3ID": "PropertyModifyType_None",
		"Property3Value": 0,
		"Property4ID": "PropertyModifyType_None",
		"Property4Value": 0,
		"Property5ID": "PropertyModifyType_None",
		"Property5Value": 0,
		"Icon": "UI/Icon/JobMaterial_ABS/Item_SpellPractice.png",
		"GetPathList": [
			{
				"ID": 4503,
				"Name": 52
			},
			{
				"PathType": "GetPathType_Rift",
				"ID": 113,
				"Name": 205
			},
			{
				"PathType": "GetPathType_Rift",
				"ID": 219,
				"Name": 214
			},
			{
				"PathType": "GetPathType_Rift",
				"ID": 5113,
				"Name": 505
			},
			{
				"PathType": "GetPathType_GuildStore",
				"ID": 501,
				"Name": 30
			}
		],
		"GetPathDesc": "暂时无获取途径",
		"RandomDropRewardID": 20,
		"DisplayRewardCount": 1
	},
	{
		"ID": 6,
		"Name": "力量绶带",
		"Desc": "用于提升职业品阶，<color=#a52a2aff>让你觉得自己力量很强的荣誉绶带。</color>",
		"Rank": 2,
		"SellGold": 200,
		"ComposeGold": 0,
		"Property1ID": "PropertyModifyType_None",
		"Property1Value": 0,
		"Property2ID": "PropertyModifyType_None",
		"Property2Value": 0,
		"Property3ID": "PropertyModifyType_None",
		"Property3Value": 0,
		"Property4ID": "PropertyModifyType_None",
		"Property4Value": 0,
		"Property5ID": "PropertyModifyType_None",
		"Property5Value": 0,
		"Icon": "UI/Icon/JobMaterial_ABS/Item_PowerRibbon.png",
		"GetPathList": [
			{
				"ID": 4503,
				"Name": 52
			},
			{
				"PathType": "GetPathType_Rift",
				"ID": 207,
				"Name": 210
			},
			{
				"PathType": "GetPathType_Rift",
				"ID": 301,
				"Name": 215
			},
			{
				"PathType": "GetPathType_Rift",
				"ID": 5101,
				"Name": 501
			},
			{
				"PathType": "GetPathType_GuildStore",
				"ID": 501,
				"Name": 30
			}
		],
		"GetPathDesc": "暂时无获取途径",
		"RandomDropRewardID": 20,
		"DisplayRewardCount": 1
	},
	{
		"ID": 7,
		"Name": "守护绶带",
		"Desc": "用于提升职业品阶，<color=#a52a2aff>默默守护你的绶带，当然只是精神层面。</color>",
		"Rank": 2,
		"SellGold": 200,
		"ComposeGold": 0,
		"Property1ID": "PropertyModifyType_None",
		"Property1Value": 0,
		"Property2ID": "PropertyModifyType_None",
		"Property2Value": 0,
		"Property3ID": "PropertyModifyType_None",
		"Property3Value": 0,
		"Property4ID": "PropertyModifyType_None",
		"Property4Value": 0,
		"Property5ID": "PropertyModifyType_None",
		"Property5Value": 0,
		"Icon": "UI/Icon/JobMaterial_ABS/Item_DeffenceRibbon.png",
		"GetPathList": [
			{
				"ID": 4503,
				"Name": 52
			},
			{
				"PathType": "GetPathType_Rift",
				"ID": 213,
				"Name": 212
			},
			{
				"PathType": "GetPathType_Rift",
				"ID": 307,
				"Name": 217
			},
			{
				"PathType": "GetPathType_Rift",
				"ID": 5104,
				"Name": 502
			},
			{
				"PathType": "GetPathType_GuildStore",
				"ID": 501,
				"Name": 30
			}
		],
		"GetPathDesc": "暂时无获取途径",
		"RandomDropRewardID": 20,
		"DisplayRewardCount": 1
	},
	{
		"ID": 8,
		"Name": "迅捷绶带",
		"Desc": "用于提升职业品阶，<color=#a52a2aff>快！再快一点！总像是在催促着你的绶带。</color>",
		"Rank": 2,
		"SellGold": 200,
		"ComposeGold": 0,
		"Property1ID": "PropertyModifyType_None",
		"Property1Value": 0,
		"Property2ID": "PropertyModifyType_None",
		"Property2Value": 0,
		"Property3ID": "PropertyModifyType_None",
		"Property3Value": 0,
		"Property4ID": "PropertyModifyType_None",
		"Property4Value": 0,
		"Property5ID": "PropertyModifyType_None",
		"Property5Value": 0,
		"Icon": "UI/Icon/JobMaterial_ABS/Item_QuickRibbon.png",
		"GetPathList": [
			{
				"ID": 4503,
				"Name": 52
			},
			{
				"PathType": "GetPathType_Rift",
				"ID": 210,
				"Name": 211
			},
			{
				"PathType": "GetPathType_Rift",
				"ID": 304,
				"Name": 216
			},
			{
				"PathType": "GetPathType_Rift",
				"ID": 5110,
				"Name": 504
			},
			{
				"PathType": "GetPathType_GuildStore",
				"ID": 501,
				"Name": 30
			}
		],
		"GetPathDesc": "暂时无获取途径",
		"RandomDropRewardID": 20,
		"DisplayRewardCount": 1
	},
	{
		"ID": 9,
		"Name": "智慧绶带",
		"Desc": "用于提升职业品阶，<color=#a52a2aff>看上去很便宜，但据说戴上可以让你变聪明。</color>",
		"Rank": 2,
		"SellGold": 200,
		"ComposeGold": 0,
		"Property1ID": "PropertyModifyType_None",
		"Property1Value": 0,
		"Property2ID": "PropertyModifyType_None",
		"Property2Value": 0,
		"Property3ID": "PropertyModifyType_None",
		"Property3Value": 0,
		"Property4ID": "PropertyModifyType_None",
		"Property4Value": 0,
		"Property5ID": "PropertyModifyType_None",
		"Property5Value": 0,
		"Icon": "UI/Icon/JobMaterial_ABS/Item_WisdomRibbon.png",
		"GetPathList": [
			{
				"ID": 4503,
				"Name": 52
			},
			{
				"PathType": "GetPathType_Rift",
				"ID": 219,
				"Name": 214
			},
			{
				"PathType": "GetPathType_Rift",
				"ID": 316,
				"Name": 220
			},
			{
				"PathType": "GetPathType_Rift",
				"ID": 5113,
				"Name": 505
			},
			{
				"PathType": "GetPathType_GuildStore",
				"ID": 501,
				"Name": 30
			}
		],
		"GetPathDesc": "暂时无获取途径",
		"RandomDropRewardID": 20,
		"DisplayRewardCount": 1
	},
	{
		"ID": 10,
		"Name": "心灵绶带",
		"Desc": "用于提升职业品阶，<color=#a52a2aff>戴上它，感受到激动的心情了么？</color>",
		"Rank": 2,
		"SellGold": 200,
		"ComposeGold": 0,
		"Property1ID": "PropertyModifyType_None",
		"Property1Value": 0,
		"Property2ID": "PropertyModifyType_None",
		"Property2Value": 0,
		"Property3ID": "PropertyModifyType_None",
		"Property3Value": 0,
		"Property4ID": "PropertyModifyType_None",
		"Property4Value": 0,
		"Property5ID": "PropertyModifyType_None",
		"Property5Value": 0,
		"Icon": "UI/Icon/JobMaterial_ABS/Item_SpiritRibbon.png",
		"GetPathList": [
			{
				"ID": 4503,
				"Name": 52
			},
			{
				"PathType": "GetPathType_Rift",
				"ID": 216,
				"Name": 213
			},
			{
				"PathType": "GetPathType_Rift",
				"ID": 310,
				"Name": 218
			},
			{
				"PathType": "GetPathType_Rift",
				"ID": 5107,
				"Name": 503
			},
			{
				"PathType": "GetPathType_GuildStore",
				"ID": 501,
				"Name": 30
			}
		],
		"GetPathDesc": "暂时无获取途径",
		"RandomDropRewardID": 20,
		"DisplayRewardCount": 1
	},
	{
		"ID": 11,
		"Name": "记忆绶带",
		"Desc": "用于提升职业品阶，<color=#a52a2aff>饱含美好记忆的荣誉绶带。</color>",
		"Rank": 2,
		"SellGold": 200,
		"ComposeGold": 0,
		"Property1ID": "PropertyModifyType_None",
		"Property1Value": 0,
		"Property2ID": "PropertyModifyType_None",
		"Property2Value": 0,
		"Property3ID": "PropertyModifyType_None",
		"Property3Value": 0,
		"Property4ID": "PropertyModifyType_None",
		"Property4Value": 0,
		"Property5ID": "PropertyModifyType_None",
		"Property5Value": 0,
		"Icon": "UI/Icon/JobMaterial_ABS/Item_MemoryRibbon.png",
		"GetPathList": [
			{
				"ID": 4503,
				"Name": 52
			},
			{
				"PathType": "GetPathType_Rift",
				"ID": 219,
				"Name": 214
			},
			{
				"PathType": "GetPathType_Rift",
				"ID": 313,
				"Name": 219
			},
			{
				"PathType": "GetPathType_Rift",
				"ID": 5116,
				"Name": 506
			},
			{
				"PathType": "GetPathType_GuildStore",
				"ID": 501,
				"Name": 30
			}
		],
		"GetPathDesc": "暂时无获取途径",
		"RandomDropRewardID": 20,
		"DisplayRewardCount": 1
	},
	{
		"ID": 12,
		"Name": "战士之证",
		"Desc": "用于提升职业品阶，<color=#a52a2aff>正式战士的证明之物。</color>",
		"Rank": 3,
		"SellGold": 300,
		"ComposeGold": 0,
		"Property1ID": "PropertyModifyType_None",
		"Property1Value": 0,
		"Property2ID": "PropertyModifyType_None",
		"Property2Value": 0,
		"Property3ID": "PropertyModifyType_None",
		"Property3Value": 0,
		"Property4ID": "PropertyModifyType_None",
		"Property4Value": 0,
		"Property5ID": "PropertyModifyType_None",
		"Property5Value": 0,
		"Icon": "UI/Icon/JobMaterial_ABS/Item_SoldierProof.png",
		"GetPathList": [
			{
				"ID": 4505,
				"Name": 52
			},
			{
				"PathType": "GetPathType_Rift",
				"ID": 501,
				"Name": 229
			},
			{
				"PathType": "GetPathType_Rift",
				"ID": 5313,
				"Name": 519
			},
			{
				"PathType": "GetPathType_Rift",
				"ID": 5410,
				"Name": 525
			},
			{
				"PathType": "GetPathType_GuildStore",
				"ID": 503,
				"Name": 111
			}
		],
		"GetPathDesc": "暂时无获取途径",
		"RandomDropRewardID": 20,
		"DisplayRewardCount": 1
	},
	{
		"ID": 13,
		"Name": "浪人之证",
		"Desc": "用于提升职业品阶，<color=#a52a2aff>正式的…浪人？！</color>",
		"Rank": 3,
		"SellGold": 300,
		"ComposeGold": 0,
		"Property1ID": "PropertyModifyType_None",
		"Property1Value": 0,
		"Property2ID": "PropertyModifyType_None",
		"Property2Value": 0,
		"Property3ID": "PropertyModifyType_None",
		"Property3Value": 0,
		"Property4ID": "PropertyModifyType_None",
		"Property4Value": 0,
		"Property5ID": "PropertyModifyType_None",
		"Property5Value": 0,
		"Icon": "UI/Icon/JobMaterial_ABS/Item_RogueProof.png",
		"GetPathList": [
			{
				"ID": 4505,
				"Name": 52
			},
			{
				"PathType": "GetPathType_Rift",
				"ID": 516,
				"Name": 234
			},
			{
				"PathType": "GetPathType_Rift",
				"ID": 5407,
				"Name": 524
			},
			{
				"PathType": "GetPathType_Rift",
				"ID": 5504,
				"Name": 530
			},
			{
				"PathType": "GetPathType_GuildStore",
				"ID": 503,
				"Name": 111
			}
		],
		"GetPathDesc": "暂时无获取途径",
		"RandomDropRewardID": 20,
		"DisplayRewardCount": 1
	},
	{
		"ID": 14,
		"Name": "骑士之证",
		"Desc": "用于提升职业品阶，<color=#a52a2aff>被认可骑士的证明。</color>",
		"Rank": 3,
		"SellGold": 300,
		"ComposeGold": 0,
		"Property1ID": "PropertyModifyType_None",
		"Property1Value": 0,
		"Property2ID": "PropertyModifyType_None",
		"Property2Value": 0,
		"Property3ID": "PropertyModifyType_None",
		"Property3Value": 0,
		"Property4ID": "PropertyModifyType_None",
		"Property4Value": 0,
		"Property5ID": "PropertyModifyType_None",
		"Property5Value": 0,
		"Icon": "UI/Icon/JobMaterial_ABS/Item_KnightProof.png",
		"GetPathList": [
			{
				"ID": 4505,
				"Name": 52
			},
			{
				"PathType": "GetPathType_Rift",
				"ID": 504,
				"Name": 230
			},
			{
				"PathType": "GetPathType_Rift",
				"ID": 5316,
				"Name": 520
			},
			{
				"PathType": "GetPathType_Rift",
				"ID": 5414,
				"Name": 526
			},
			{
				"PathType": "GetPathType_GuildStore",
				"ID": 503,
				"Name": 111
			}
		],
		"GetPathDesc": "暂时无获取途径",
		"RandomDropRewardID": 20,
		"DisplayRewardCount": 1
	},
	{
		"ID": 15,
		"Name": "祭司之证",
		"Desc": "用于提升职业品阶，<color=#a52a2aff>获得神殿认可的祭司证明。</color>",
		"Rank": 3,
		"SellGold": 300,
		"ComposeGold": 0,
		"Property1ID": "PropertyModifyType_None",
		"Property1Value": 0,
		"Property2ID": "PropertyModifyType_None",
		"Property2Value": 0,
		"Property3ID": "PropertyModifyType_None",
		"Property3Value": 0,
		"Property4ID": "PropertyModifyType_None",
		"Property4Value": 0,
		"Property5ID": "PropertyModifyType_None",
		"Property5Value": 0,
		"Icon": "UI/Icon/JobMaterial_ABS/Item_PriestProof.png",
		"GetPathList": [
			{
				"ID": 4505,
				"Name": 52
			},
			{
				"PathType": "GetPathType_Rift",
				"ID": 510,
				"Name": 232
			},
			{
				"PathType": "GetPathType_Rift",
				"ID": 5401,
				"Name": 522
			},
			{
				"PathType": "GetPathType_Rift",
				"ID": 5420,
				"Name": 528
			},
			{
				"PathType": "GetPathType_GuildStore",
				"ID": 503,
				"Name": 111
			}
		],
		"GetPathDesc": "暂时无获取途径",
		"RandomDropRewardID": 20,
		"DisplayRewardCount": 1
	},
	{
		"ID": 16,
		"Name": "术士之证",
		"Desc": "用于提升职业品阶，<color=#a52a2aff>魔法行会认可的施法者证明。</color>",
		"Rank": 3,
		"SellGold": 300,
		"ComposeGold": 0,
		"Property1ID": "PropertyModifyType_None",
		"Property1Value": 0,
		"Property2ID": "PropertyModifyType_None",
		"Property2Value": 0,
		"Property3ID": "PropertyModifyType_None",
		"Property3Value": 0,
		"Property4ID": "PropertyModifyType_None",
		"Property4Value": 0,
		"Property5ID": "PropertyModifyType_None",
		"Property5Value": 0,
		"Icon": "UI/Icon/JobMaterial_ABS/Item_WizardProof.png",
		"GetPathList": [
			{
				"ID": 4505,
				"Name": 52
			},
			{
				"PathType": "GetPathType_Rift",
				"ID": 513,
				"Name": 233
			},
			{
				"PathType": "GetPathType_Rift",
				"ID": 5404,
				"Name": 523
			},
			{
				"PathType": "GetPathType_Rift",
				"ID": 5501,
				"Name": 529
			},
			{
				"PathType": "GetPathType_GuildStore",
				"ID": 503,
				"Name": 111
			}
		],
		"GetPathDesc": "暂时无获取途径",
		"RandomDropRewardID": 20,
		"DisplayRewardCount": 1
	},
	{
		"ID": 17,
		"Name": "勇气纹章",
		"Desc": "用于提升职业品阶，<color=#a52a2aff>象征勇气的荣耀纹章。</color>",
		"Rank": 3,
		"SellGold": 300,
		"ComposeGold": 0,
		"Property1ID": "PropertyModifyType_None",
		"Property1Value": 0,
		"Property2ID": "PropertyModifyType_None",
		"Property2Value": 0,
		"Property3ID": "PropertyModifyType_None",
		"Property3Value": 0,
		"Property4ID": "PropertyModifyType_None",
		"Property4Value": 0,
		"Property5ID": "PropertyModifyType_None",
		"Property5Value": 0,
		"Icon": "UI/Icon/JobMaterial_ABS/Item_CourageEmblem.png",
		"GetPathList": [
			{
				"ID": 4506,
				"Name": 52
			},
			{
				"PathType": "GetPathType_Rift",
				"ID": 5410,
				"Name": 525
			},
			{
				"PathType": "GetPathType_Rift",
				"ID": 5513,
				"Name": 533
			},
			{
				"PathType": "GetPathType_GuildStore",
				"ID": 504,
				"Name": 112
			}
		],
		"GetPathDesc": "暂时无获取途径",
		"RandomDropRewardID": 20,
		"DisplayRewardCount": 1
	},
	{
		"ID": 18,
		"Name": "秩序纹章",
		"Desc": "用于提升职业品阶，<color=#a52a2aff>象征秩序的荣耀纹章。</color>",
		"Rank": 3,
		"SellGold": 300,
		"ComposeGold": 0,
		"Property1ID": "PropertyModifyType_None",
		"Property1Value": 0,
		"Property2ID": "PropertyModifyType_None",
		"Property2Value": 0,
		"Property3ID": "PropertyModifyType_None",
		"Property3Value": 0,
		"Property4ID": "PropertyModifyType_None",
		"Property4Value": 0,
		"Property5ID": "PropertyModifyType_None",
		"Property5Value": 0,
		"Icon": "UI/Icon/JobMaterial_ABS/Item_OrderEmblem.png",
		"GetPathList": [
			{
				"ID": 4506,
				"Name": 52
			},
			{
				"PathType": "GetPathType_Rift",
				"ID": 5414,
				"Name": 526
			},
			{
				"PathType": "GetPathType_Rift",
				"ID": 5516,
				"Name": 534
			},
			{
				"PathType": "GetPathType_GuildStore",
				"ID": 504,
				"Name": 112
			}
		],
		"GetPathDesc": "暂时无获取途径",
		"RandomDropRewardID": 20,
		"DisplayRewardCount": 1
	},
	{
		"ID": 19,
		"Name": "自由纹章",
		"Desc": "用于提升职业品阶，<color=#a52a2aff>象征自由的荣耀纹章。</color>",
		"Rank": 3,
		"SellGold": 300,
		"ComposeGold": 0,
		"Property1ID": "PropertyModifyType_None",
		"Property1Value": 0,
		"Property2ID": "PropertyModifyType_None",
		"Property2Value": 0,
		"Property3ID": "PropertyModifyType_None",
		"Property3Value": 0,
		"Property4ID": "PropertyModifyType_None",
		"Property4Value": 0,
		"Property5ID": "PropertyModifyType_None",
		"Property5Value": 0,
		"Icon": "UI/Icon/JobMaterial_ABS/Item_FreedomEmblem.png",
		"GetPathList": [
			{
				"ID": 4506,
				"Name": 52
			},
			{
				"PathType": "GetPathType_Rift",
				"ID": 5417,
				"Name": 527
			},
			{
				"PathType": "GetPathType_Rift",
				"ID": 5520,
				"Name": 535
			},
			{
				"PathType": "GetPathType_GuildStore",
				"ID": 504,
				"Name": 112
			}
		],
		"GetPathDesc": "暂时无获取途径",
		"RandomDropRewardID": 20,
		"DisplayRewardCount": 1
	},
	{
		"ID": 20,
		"Name": "意志纹章",
		"Desc": "用于提升职业品阶，<color=#a52a2aff>象征意志的荣耀纹章。</color>",
		"Rank": 3,
		"SellGold": 300,
		"ComposeGold": 0,
		"Property1ID": "PropertyModifyType_None",
		"Property1Value": 0,
		"Property2ID": "PropertyModifyType_None",
		"Property2Value": 0,
		"Property3ID": "PropertyModifyType_None",
		"Property3Value": 0,
		"Property4ID": "PropertyModifyType_None",
		"Property4Value": 0,
		"Property5ID": "PropertyModifyType_None",
		"Property5Value": 0,
		"Icon": "UI/Icon/JobMaterial_ABS/Item_WillEmblem.png",
		"GetPathList": [
			{
				"ID": 4506,
				"Name": 52
			},
			{
				"PathType": "GetPathType_Rift",
				"ID": 5420,
				"Name": 528
			},
			{
				"PathType": "GetPathType_Rift",
				"ID": 5601,
				"Name": 536
			},
			{
				"PathType": "GetPathType_GuildStore",
				"ID": 504,
				"Name": 112
			}
		],
		"GetPathDesc": "暂时无获取途径",
		"RandomDropRewardID": 20,
		"DisplayRewardCount": 1
	},
	{
		"ID": 21,
		"Name": "信仰纹章",
		"Desc": "用于提升职业品阶，<color=#a52a2aff>象征信仰的荣耀纹章。</color>",
		"Rank": 3,
		"SellGold": 300,
		"ComposeGold": 0,
		"Property1ID": "PropertyModifyType_None",
		"Property1Value": 0,
		"Property2ID": "PropertyModifyType_None",
		"Property2Value": 0,
		"Property3ID": "PropertyModifyType_None",
		"Property3Value": 0,
		"Property4ID": "PropertyModifyType_None",
		"Property4Value": 0,
		"Property5ID": "PropertyModifyType_None",
		"Property5Value": 0,
		"Icon": "UI/Icon/JobMaterial_ABS/Item_FaithEmblem.png",
		"GetPathList": [
			{
				"ID": 4506,
				"Name": 52
			},
			{
				"PathType": "GetPathType_Rift",
				"ID": 5501,
				"Name": 529
			},
			{
				"PathType": "GetPathType_Rift",
				"ID": 5601,
				"Name": 536
			},
			{
				"PathType": "GetPathType_GuildStore",
				"ID": 504,
				"Name": 112
			}
		],
		"GetPathDesc": "暂时无获取途径",
		"RandomDropRewardID": 20,
		"DisplayRewardCount": 1
	},
	{
		"ID": 22,
		"Name": "公正纹章",
		"Desc": "用于提升职业品阶，<color=#a52a2aff>象征公正的荣耀纹章。</color>",
		"Rank": 3,
		"SellGold": 300,
		"ComposeGold": 0,
		"Property1ID": "PropertyModifyType_None",
		"Property1Value": 0,
		"Property2ID": "PropertyModifyType_None",
		"Property2Value": 0,
		"Property3ID": "PropertyModifyType_None",
		"Property3Value": 0,
		"Property4ID": "PropertyModifyType_None",
		"Property4Value": 0,
		"Property5ID": "PropertyModifyType_None",
		"Property5Value": 0,
		"Icon": "UI/Icon/JobMaterial_ABS/Item_FairEmblem.png",
		"GetPathList": [
			{
				"ID": 4506,
				"Name": 52
			},
			{
				"PathType": "GetPathType_Rift",
				"ID": 5504,
				"Name": 530
			},
			{
				"PathType": "GetPathType_Rift",
				"ID": 5604,
				"Name": 537
			},
			{
				"PathType": "GetPathType_GuildStore",
				"ID": 504,
				"Name": 112
			}
		],
		"GetPathDesc": "暂时无获取途径",
		"RandomDropRewardID": 20,
		"DisplayRewardCount": 1
	},
	{
		"ID": 23,
		"Name": "希望纹章",
		"Desc": "用于提升职业品阶，<color=#a52a2aff>象征希望的荣耀纹章。</color>",
		"Rank": 3,
		"SellGold": 300,
		"ComposeGold": 0,
		"Property1ID": "PropertyModifyType_None",
		"Property1Value": 0,
		"Property2ID": "PropertyModifyType_None",
		"Property2Value": 0,
		"Property3ID": "PropertyModifyType_None",
		"Property3Value": 0,
		"Property4ID": "PropertyModifyType_None",
		"Property4Value": 0,
		"Property5ID": "PropertyModifyType_None",
		"Property5Value": 0,
		"Icon": "UI/Icon/JobMaterial_ABS/Item_HopeEmblem.png",
		"GetPathList": [
			{
				"ID": 4506,
				"Name": 52
			},
			{
				"PathType": "GetPathType_Rift",
				"ID": 5507,
				"Name": 531
			},
			{
				"PathType": "GetPathType_Rift",
				"ID": 5607,
				"Name": 538
			},
			{
				"PathType": "GetPathType_GuildStore",
				"ID": 504,
				"Name": 112
			}
		],
		"GetPathDesc": "暂时无获取途径",
		"RandomDropRewardID": 20,
		"DisplayRewardCount": 1
	},
	{
		"ID": 24,
		"Name": "慈爱纹章",
		"Desc": "用于提升职业品阶，<color=#a52a2aff>象征慈爱的荣耀纹章。</color>",
		"Rank": 3,
		"SellGold": 300,
		"ComposeGold": 0,
		"Property1ID": "PropertyModifyType_None",
		"Property1Value": 0,
		"Property2ID": "PropertyModifyType_None",
		"Property2Value": 0,
		"Property3ID": "PropertyModifyType_None",
		"Property3Value": 0,
		"Property4ID": "PropertyModifyType_None",
		"Property4Value": 0,
		"Property5ID": "PropertyModifyType_None",
		"Property5Value": 0,
		"Icon": "UI/Icon/JobMaterial_ABS/Item_LoveEmblem.png",
		"GetPathList": [
			{
				"ID": 4506,
				"Name": 52
			},
			{
				"PathType": "GetPathType_Rift",
				"ID": 5510,
				"Name": 532
			},
			{
				"PathType": "GetPathType_Rift",
				"ID": 5610,
				"Name": 539
			},
			{
				"PathType": "GetPathType_GuildStore",
				"ID": 504,
				"Name": 112
			}
		],
		"GetPathDesc": "暂时无获取途径",
		"RandomDropRewardID": 20,
		"DisplayRewardCount": 1
	},
	{
		"ID": 25,
		"Name": "英雄之证",
		"Desc": "用于提升职业品阶，<color=#a52a2aff>人人都爱英雄。</color>",
		"Rank": 4,
		"SellGold": 400,
		"ComposeGold": 0,
		"Property1ID": "PropertyModifyType_None",
		"Property1Value": 0,
		"Property2ID": "PropertyModifyType_None",
		"Property2Value": 0,
		"Property3ID": "PropertyModifyType_None",
		"Property3Value": 0,
		"Property4ID": "PropertyModifyType_None",
		"Property4Value": 0,
		"Property5ID": "PropertyModifyType_None",
		"Property5Value": 0,
		"Icon": "UI/Icon/JobMaterial_ABS/Item_HeroProof.png",
		"GetPathList": [
			{
				"ID": 4507,
				"Name": 52
			},
			{
				"PathType": "GetPathType_Rift",
				"ID": 5513,
				"Name": 533
			},
			{
				"PathType": "GetPathType_Rift",
				"ID": 5614,
				"Name": 540
			},
			{
				"PathType": "GetPathType_Rift",
				"ID": 5716,
				"Name": 547
			},
			{
				"PathType": "GetPathType_GuildStore",
				"ID": 505,
				"Name": 113
			}
		],
		"GetPathDesc": "暂时无获取途径",
		"RandomDropRewardID": 20,
		"DisplayRewardCount": 1
	},
	{
		"ID": 26,
		"Name": "勇者之证",
		"Desc": "用于提升职业品阶，<color=#a52a2aff>真是勇敢的家伙啊。</color>",
		"Rank": 4,
		"SellGold": 400,
		"ComposeGold": 0,
		"Property1ID": "PropertyModifyType_None",
		"Property1Value": 0,
		"Property2ID": "PropertyModifyType_None",
		"Property2Value": 0,
		"Property3ID": "PropertyModifyType_None",
		"Property3Value": 0,
		"Property4ID": "PropertyModifyType_None",
		"Property4Value": 0,
		"Property5ID": "PropertyModifyType_None",
		"Property5Value": 0,
		"Icon": "UI/Icon/JobMaterial_ABS/Item_BraveProof.png",
		"GetPathList": [
			{
				"ID": 4507,
				"Name": 52
			},
			{
				"PathType": "GetPathType_Rift",
				"ID": 5516,
				"Name": 534
			},
			{
				"PathType": "GetPathType_Rift",
				"ID": 5618,
				"Name": 541
			},
			{
				"PathType": "GetPathType_GuildStore",
				"ID": 505,
				"Name": 113
			}
		],
		"GetPathDesc": "暂时无获取途径",
		"RandomDropRewardID": 20,
		"DisplayRewardCount": 1
	},
	{
		"ID": 27,
		"Name": "游侠之证",
		"Desc": "用于提升职业品阶，<color=#a52a2aff>自由最高！</color>",
		"Rank": 4,
		"SellGold": 400,
		"ComposeGold": 0,
		"Property1ID": "PropertyModifyType_None",
		"Property1Value": 0,
		"Property2ID": "PropertyModifyType_None",
		"Property2Value": 0,
		"Property3ID": "PropertyModifyType_None",
		"Property3Value": 0,
		"Property4ID": "PropertyModifyType_None",
		"Property4Value": 0,
		"Property5ID": "PropertyModifyType_None",
		"Property5Value": 0,
		"Icon": "UI/Icon/JobMaterial_ABS/Item_RangerProof.png",
		"GetPathList": [
			{
				"ID": 4507,
				"Name": 52
			},
			{
				"PathType": "GetPathType_Rift",
				"ID": 5520,
				"Name": 535
			},
			{
				"PathType": "GetPathType_Rift",
				"ID": 5701,
				"Name": 542
			},
			{
				"PathType": "GetPathType_GuildStore",
				"ID": 505,
				"Name": 113
			}
		],
		"GetPathDesc": "暂时无获取途径",
		"RandomDropRewardID": 20,
		"DisplayRewardCount": 1
	},
	{
		"ID": 28,
		"Name": "霸者之证",
		"Desc": "用于提升职业品阶，<color=#a52a2aff>我的！都是我的！</color>",
		"Rank": 4,
		"SellGold": 400,
		"ComposeGold": 0,
		"Property1ID": "PropertyModifyType_None",
		"Property1Value": 0,
		"Property2ID": "PropertyModifyType_None",
		"Property2Value": 0,
		"Property3ID": "PropertyModifyType_None",
		"Property3Value": 0,
		"Property4ID": "PropertyModifyType_None",
		"Property4Value": 0,
		"Property5ID": "PropertyModifyType_None",
		"Property5Value": 0,
		"Icon": "UI/Icon/JobMaterial_ABS/Item_OppressorProof.png",
		"GetPathList": [
			{
				"ID": 4507,
				"Name": 52
			},
			{
				"PathType": "GetPathType_Rift",
				"ID": 5601,
				"Name": 536
			},
			{
				"PathType": "GetPathType_Rift",
				"ID": 5704,
				"Name": 543
			},
			{
				"PathType": "GetPathType_GuildStore",
				"ID": 505,
				"Name": 113
			}
		],
		"GetPathDesc": "暂时无获取途径",
		"RandomDropRewardID": 20,
		"DisplayRewardCount": 1
	},
	{
		"ID": 29,
		"Name": "圣者之证",
		"Desc": "用于提升职业品阶，<color=#a52a2aff>人格完美无瑕。</color>",
		"Rank": 4,
		"SellGold": 400,
		"ComposeGold": 0,
		"Property1ID": "PropertyModifyType_None",
		"Property1Value": 0,
		"Property2ID": "PropertyModifyType_None",
		"Property2Value": 0,
		"Property3ID": "PropertyModifyType_None",
		"Property3Value": 0,
		"Property4ID": "PropertyModifyType_None",
		"Property4Value": 0,
		"Property5ID": "PropertyModifyType_None",
		"Property5Value": 0,
		"Icon": "UI/Icon/JobMaterial_ABS/Item_SaintProof.png",
		"GetPathList": [
			{
				"ID": 4507,
				"Name": 52
			},
			{
				"PathType": "GetPathType_Rift",
				"ID": 5604,
				"Name": 537
			},
			{
				"PathType": "GetPathType_Rift",
				"ID": 5707,
				"Name": 544
			},
			{
				"PathType": "GetPathType_Rift",
				"ID": 5720,
				"Name": 548
			},
			{
				"PathType": "GetPathType_GuildStore",
				"ID": 505,
				"Name": 113
			}
		],
		"GetPathDesc": "暂时无获取途径",
		"RandomDropRewardID": 20,
		"DisplayRewardCount": 1
	},
	{
		"ID": 30,
		"Name": "隐者之证",
		"Desc": "用于提升职业品阶，<color=#a52a2aff>你们找不到我的…</color>",
		"Rank": 4,
		"SellGold": 400,
		"ComposeGold": 0,
		"Property1ID": "PropertyModifyType_None",
		"Property1Value": 0,
		"Property2ID": "PropertyModifyType_None",
		"Property2Value": 0,
		"Property3ID": "PropertyModifyType_None",
		"Property3Value": 0,
		"Property4ID": "PropertyModifyType_None",
		"Property4Value": 0,
		"Property5ID": "PropertyModifyType_None",
		"Property5Value": 0,
		"Icon": "UI/Icon/JobMaterial_ABS/Item_HermitProof.png",
		"GetPathList": [
			{
				"ID": 4507,
				"Name": 52
			},
			{
				"PathType": "GetPathType_Rift",
				"ID": 5607,
				"Name": 538
			},
			{
				"PathType": "GetPathType_Rift",
				"ID": 5710,
				"Name": 545
			},
			{
				"PathType": "GetPathType_GuildStore",
				"ID": 505,
				"Name": 113
			}
		],
		"GetPathDesc": "暂时无获取途径",
		"RandomDropRewardID": 20,
		"DisplayRewardCount": 1
	},
	{
		"ID": 31,
		"Name": "统帅之证",
		"Desc": "用于提升职业品阶，<color=#a52a2aff>大家都听你的！</color>",
		"Rank": 4,
		"SellGold": 400,
		"ComposeGold": 0,
		"Property1ID": "PropertyModifyType_None",
		"Property1Value": 0,
		"Property2ID": "PropertyModifyType_None",
		"Property2Value": 0,
		"Property3ID": "PropertyModifyType_None",
		"Property3Value": 0,
		"Property4ID": "PropertyModifyType_None",
		"Property4Value": 0,
		"Property5ID": "PropertyModifyType_None",
		"Property5Value": 0,
		"Icon": "UI/Icon/JobMaterial_ABS/Item_CommanderProof.png",
		"GetPathList": [
			{
				"ID": 4507,
				"Name": 52
			},
			{
				"PathType": "GetPathType_Rift",
				"ID": 5610,
				"Name": 539
			},
			{
				"PathType": "GetPathType_Rift",
				"ID": 5713,
				"Name": 546
			},
			{
				"PathType": "GetPathType_GuildStore",
				"ID": 505,
				"Name": 113
			}
		],
		"GetPathDesc": "暂时无获取途径",
		"RandomDropRewardID": 20,
		"DisplayRewardCount": 1
	},
	{
		"ID": 32,
		"Name": "正义之印",
		"Desc": "用于提升职业品阶，<color=#a52a2aff>可爱也是正义的一种。</color>",
		"Rank": 4,
		"SellGold": 400,
		"ComposeGold": 0,
		"Property1ID": "PropertyModifyType_None",
		"Property1Value": 0,
		"Property2ID": "PropertyModifyType_None",
		"Property2Value": 0,
		"Property3ID": "PropertyModifyType_None",
		"Property3Value": 0,
		"Property4ID": "PropertyModifyType_None",
		"Property4Value": 0,
		"Property5ID": "PropertyModifyType_None",
		"Property5Value": 0,
		"Icon": "UI/Icon/JobMaterial_ABS/Item_JusticeMark.png",
		"GetPathList": [
			{
				"ID": 4508,
				"Name": 52
			},
			{
				"PathType": "GetPathType_Rift",
				"ID": 5614,
				"Name": 540
			},
			{
				"PathType": "GetPathType_Rift",
				"ID": 5801,
				"Name": 549
			},
			{
				"PathType": "GetPathType_GuildStore",
				"ID": 506,
				"Name": 114
			}
		],
		"GetPathDesc": "暂时无获取途径",
		"RandomDropRewardID": 20,
		"DisplayRewardCount": 1
	},
	{
		"ID": 33,
		"Name": "命运之印",
		"Desc": "用于提升职业品阶，<color=#a52a2aff>命运之神在注视着你...</color>",
		"Rank": 4,
		"SellGold": 400,
		"ComposeGold": 0,
		"Property1ID": "PropertyModifyType_None",
		"Property1Value": 0,
		"Property2ID": "PropertyModifyType_None",
		"Property2Value": 0,
		"Property3ID": "PropertyModifyType_None",
		"Property3Value": 0,
		"Property4ID": "PropertyModifyType_None",
		"Property4Value": 0,
		"Property5ID": "PropertyModifyType_None",
		"Property5Value": 0,
		"Icon": "UI/Icon/JobMaterial_ABS/Item_DestinyMark.png",
		"GetPathList": [
			{
				"ID": 4508,
				"Name": 52
			},
			{
				"PathType": "GetPathType_Rift",
				"ID": 5618,
				"Name": 541
			},
			{
				"PathType": "GetPathType_Rift",
				"ID": 5801,
				"Name": 549
			},
			{
				"PathType": "GetPathType_GuildStore",
				"ID": 506,
				"Name": 114
			}
		],
		"GetPathDesc": "暂时无获取途径",
		"RandomDropRewardID": 20,
		"DisplayRewardCount": 1
	},
	{
		"ID": 34,
		"Name": "世界之印",
		"Desc": "用于提升职业品阶，<color=#a52a2aff>世界在我手中！</color>",
		"Rank": 4,
		"SellGold": 400,
		"ComposeGold": 0,
		"Property1ID": "PropertyModifyType_None",
		"Property1Value": 0,
		"Property2ID": "PropertyModifyType_None",
		"Property2Value": 0,
		"Property3ID": "PropertyModifyType_None",
		"Property3Value": 0,
		"Property4ID": "PropertyModifyType_None",
		"Property4Value": 0,
		"Property5ID": "PropertyModifyType_None",
		"Property5Value": 0,
		"Icon": "UI/Icon/JobMaterial_ABS/Item_WorldMark.png",
		"GetPathList": [
			{
				"ID": 4508,
				"Name": 52
			},
			{
				"PathType": "GetPathType_Rift",
				"ID": 5701,
				"Name": 542
			},
			{
				"PathType": "GetPathType_Rift",
				"ID": 5804,
				"Name": 550
			},
			{
				"PathType": "GetPathType_GuildStore",
				"ID": 506,
				"Name": 114
			}
		],
		"GetPathDesc": "暂时无获取途径",
		"RandomDropRewardID": 20,
		"DisplayRewardCount": 1
	},
	{
		"ID": 35,
		"Name": "奥秘之印",
		"Desc": "用于提升职业品阶，<color=#a52a2aff>奥秘，多么神秘！</color>",
		"Rank": 4,
		"SellGold": 400,
		"ComposeGold": 0,
		"Property1ID": "PropertyModifyType_None",
		"Property1Value": 0,
		"Property2ID": "PropertyModifyType_None",
		"Property2Value": 0,
		"Property3ID": "PropertyModifyType_None",
		"Property3Value": 0,
		"Property4ID": "PropertyModifyType_None",
		"Property4Value": 0,
		"Property5ID": "PropertyModifyType_None",
		"Property5Value": 0,
		"Icon": "UI/Icon/JobMaterial_ABS/Item_MysteryMark.png",
		"GetPathList": [
			{
				"ID": 4508,
				"Name": 52
			},
			{
				"PathType": "GetPathType_Rift",
				"ID": 5704,
				"Name": 543
			},
			{
				"PathType": "GetPathType_Rift",
				"ID": 5807,
				"Name": 551
			},
			{
				"PathType": "GetPathType_GuildStore",
				"ID": 506,
				"Name": 114
			}
		],
		"GetPathDesc": "暂时无获取途径",
		"RandomDropRewardID": 20,
		"DisplayRewardCount": 1
	},
	{
		"ID": 36,
		"Name": "奇迹之印",
		"Desc": "用于提升职业品阶，<color=#a52a2aff>奇迹无处不在！</color>",
		"Rank": 4,
		"SellGold": 400,
		"ComposeGold": 0,
		"Property1ID": "PropertyModifyType_None",
		"Property1Value": 0,
		"Property2ID": "PropertyModifyType_None",
		"Property2Value": 0,
		"Property3ID": "PropertyModifyType_None",
		"Property3Value": 0,
		"Property4ID": "PropertyModifyType_None",
		"Property4Value": 0,
		"Property5ID": "PropertyModifyType_None",
		"Property5Value": 0,
		"Icon": "UI/Icon/JobMaterial_ABS/Item_MiracleMark.png",
		"GetPathList": [
			{
				"ID": 4508,
				"Name": 52
			},
			{
				"PathType": "GetPathType_Rift",
				"ID": 5707,
				"Name": 544
			},
			{
				"PathType": "GetPathType_Rift",
				"ID": 5807,
				"Name": 551
			},
			{
				"PathType": "GetPathType_GuildStore",
				"ID": 506,
				"Name": 114
			}
		],
		"GetPathDesc": "暂时无获取途径",
		"RandomDropRewardID": 20,
		"DisplayRewardCount": 1
	},
	{
		"ID": 37,
		"Name": "审判之印",
		"Desc": "用于提升职业品阶，<color=#a52a2aff>死吧，异端...</color>",
		"Rank": 4,
		"SellGold": 400,
		"ComposeGold": 0,
		"Property1ID": "PropertyModifyType_None",
		"Property1Value": 0,
		"Property2ID": "PropertyModifyType_None",
		"Property2Value": 0,
		"Property3ID": "PropertyModifyType_None",
		"Property3Value": 0,
		"Property4ID": "PropertyModifyType_None",
		"Property4Value": 0,
		"Property5ID": "PropertyModifyType_None",
		"Property5Value": 0,
		"Icon": "UI/Icon/JobMaterial_ABS/Item_JudgementMark.png",
		"GetPathList": [
			{
				"ID": 4508,
				"Name": 52
			},
			{
				"PathType": "GetPathType_Rift",
				"ID": 5710,
				"Name": 545
			},
			{
				"PathType": "GetPathType_Rift",
				"ID": 5811,
				"Name": 552
			},
			{
				"PathType": "GetPathType_GuildStore",
				"ID": 506,
				"Name": 114
			}
		],
		"GetPathDesc": "暂时无获取途径",
		"RandomDropRewardID": 20,
		"DisplayRewardCount": 1
	},
	{
		"ID": 38,
		"Name": "荣耀之印",
		"Desc": "用于提升职业品阶，<color=#a52a2aff>为了荣耀！</color>",
		"Rank": 4,
		"SellGold": 400,
		"ComposeGold": 0,
		"Property1ID": "PropertyModifyType_None",
		"Property1Value": 0,
		"Property2ID": "PropertyModifyType_None",
		"Property2Value": 0,
		"Property3ID": "PropertyModifyType_None",
		"Property3Value": 0,
		"Property4ID": "PropertyModifyType_None",
		"Property4Value": 0,
		"Property5ID": "PropertyModifyType_None",
		"Property5Value": 0,
		"Icon": "UI/Icon/JobMaterial_ABS/Item_GloryMark.png",
		"GetPathList": [
			{
				"ID": 4508,
				"Name": 52
			},
			{
				"PathType": "GetPathType_Rift",
				"ID": 5716,
				"Name": 547
			},
			{
				"PathType": "GetPathType_Rift",
				"ID": 5817,
				"Name": 554
			},
			{
				"PathType": "GetPathType_GuildStore",
				"ID": 506,
				"Name": 114
			}
		],
		"GetPathDesc": "暂时无获取途径",
		"RandomDropRewardID": 20,
		"DisplayRewardCount": 1
	},
	{
		"ID": 39,
		"Name": "混沌之印",
		"Desc": "用于提升职业品阶，<color=#a52a2aff>混沌是一个阶梯...</color>",
		"Rank": 4,
		"SellGold": 400,
		"ComposeGold": 0,
		"Property1ID": "PropertyModifyType_None",
		"Property1Value": 0,
		"Property2ID": "PropertyModifyType_None",
		"Property2Value": 0,
		"Property3ID": "PropertyModifyType_None",
		"Property3Value": 0,
		"Property4ID": "PropertyModifyType_None",
		"Property4Value": 0,
		"Property5ID": "PropertyModifyType_None",
		"Property5Value": 0,
		"Icon": "UI/Icon/JobMaterial_ABS/Item_ChaosMark.png",
		"GetPathList": [
			{
				"ID": 4508,
				"Name": 52
			},
			{
				"PathType": "GetPathType_Rift",
				"ID": 5713,
				"Name": 546
			},
			{
				"PathType": "GetPathType_Rift",
				"ID": 5814,
				"Name": 553
			},
			{
				"PathType": "GetPathType_GuildStore",
				"ID": 506,
				"Name": 114
			}
		],
		"GetPathDesc": "暂时无获取途径",
		"RandomDropRewardID": 20,
		"DisplayRewardCount": 1
	},
	{
		"ID": 40,
		"Name": "时光之印",
		"Desc": "用于提升职业品阶，<color=#a52a2aff>时光不可逆…</color>",
		"Rank": 4,
		"SellGold": 400,
		"ComposeGold": 0,
		"Property1ID": "PropertyModifyType_None",
		"Property1Value": 0,
		"Property2ID": "PropertyModifyType_None",
		"Property2Value": 0,
		"Property3ID": "PropertyModifyType_None",
		"Property3Value": 0,
		"Property4ID": "PropertyModifyType_None",
		"Property4Value": 0,
		"Property5ID": "PropertyModifyType_None",
		"Property5Value": 0,
		"Icon": "UI/Icon/JobMaterial_ABS/Item_TimeMark.png",
		"GetPathList": [
			{
				"ID": 4508,
				"Name": 52
			},
			{
				"PathType": "GetPathType_Rift",
				"ID": 5720,
				"Name": 548
			},
			{
				"PathType": "GetPathType_Rift",
				"ID": 5820,
				"Name": 555
			},
			{
				"PathType": "GetPathType_GuildStore",
				"ID": 506,
				"Name": 114
			}
		],
		"GetPathDesc": "暂时无获取途径",
		"RandomDropRewardID": 20,
		"DisplayRewardCount": 1
	},
	{
		"ID": 41,
		"Name": "斗技之证",
		"Desc": "用于提升职业品阶，<color=#a52a2aff>斗技场的猛士！</color>",
		"Rank": 2,
		"SellGold": 200,
		"ComposeGold": 0,
		"Property1ID": "PropertyModifyType_None",
		"Property1Value": 0,
		"Property2ID": "PropertyModifyType_None",
		"Property2Value": 0,
		"Property3ID": "PropertyModifyType_None",
		"Property3Value": 0,
		"Property4ID": "PropertyModifyType_None",
		"Property4Value": 0,
		"Property5ID": "PropertyModifyType_None",
		"Property5Value": 0,
		"Icon": "UI/Icon/JobMaterial_ABS/Item_CombatProof.png",
		"GetPathList": [
			{
				"ID": 4503,
				"Name": 52
			},
			{
				"PathType": "GetPathType_Rift",
				"ID": 301,
				"Name": 215
			},
			{
				"PathType": "GetPathType_Rift",
				"ID": 5119,
				"Name": 507
			},
			{
				"PathType": "GetPathType_Rift",
				"ID": 5216,
				"Name": 513
			},
			{
				"PathType": "GetPathType_GuildStore",
				"ID": 501,
				"Name": 30
			}
		],
		"GetPathDesc": "暂时无获取途径",
		"RandomDropRewardID": 20,
		"DisplayRewardCount": 1
	},
	{
		"ID": 42,
		"Name": "巡林之证",
		"Desc": "用于提升职业品阶，<color=#a52a2aff>游侠之心。</color>",
		"Rank": 2,
		"SellGold": 200,
		"ComposeGold": 0,
		"Property1ID": "PropertyModifyType_None",
		"Property1Value": 0,
		"Property2ID": "PropertyModifyType_None",
		"Property2Value": 0,
		"Property3ID": "PropertyModifyType_None",
		"Property3Value": 0,
		"Property4ID": "PropertyModifyType_None",
		"Property4Value": 0,
		"Property5ID": "PropertyModifyType_None",
		"Property5Value": 0,
		"Icon": "UI/Icon/JobMaterial_ABS/Item_ForestProof.png",
		"GetPathList": [
			{
				"ID": 4503,
				"Name": 52
			},
			{
				"PathType": "GetPathType_Rift",
				"ID": 313,
				"Name": 219
			},
			{
				"PathType": "GetPathType_Rift",
				"ID": 5213,
				"Name": 512
			},
			{
				"PathType": "GetPathType_Rift",
				"ID": 5310,
				"Name": 518
			},
			{
				"PathType": "GetPathType_GuildStore",
				"ID": 501,
				"Name": 30
			}
		],
		"GetPathDesc": "暂时无获取途径",
		"RandomDropRewardID": 20,
		"DisplayRewardCount": 1
	},
	{
		"ID": 43,
		"Name": "骑术之证",
		"Desc": "用于提升职业品阶，<color=#a52a2aff>我只想纵情狂奔。</color>",
		"Rank": 2,
		"SellGold": 200,
		"ComposeGold": 0,
		"Property1ID": "PropertyModifyType_None",
		"Property1Value": 0,
		"Property2ID": "PropertyModifyType_None",
		"Property2Value": 0,
		"Property3ID": "PropertyModifyType_None",
		"Property3Value": 0,
		"Property4ID": "PropertyModifyType_None",
		"Property4Value": 0,
		"Property5ID": "PropertyModifyType_None",
		"Property5Value": 0,
		"Icon": "UI/Icon/JobMaterial_ABS/Item_RidingProof.png",
		"GetPathList": [
			{
				"ID": 4503,
				"Name": 52
			},
			{
				"PathType": "GetPathType_Rift",
				"ID": 304,
				"Name": 216
			},
			{
				"PathType": "GetPathType_Rift",
				"ID": 5201,
				"Name": 508
			},
			{
				"PathType": "GetPathType_Rift",
				"ID": 5219,
				"Name": 514
			},
			{
				"PathType": "GetPathType_GuildStore",
				"ID": 501,
				"Name": 30
			}
		],
		"GetPathDesc": "暂时无获取途径",
		"RandomDropRewardID": 20,
		"DisplayRewardCount": 1
	},
	{
		"ID": 44,
		"Name": "祈祷之证",
		"Desc": "用于提升职业品阶，<color=#a52a2aff>女神会回应你的…</color>",
		"Rank": 2,
		"SellGold": 200,
		"ComposeGold": 0,
		"Property1ID": "PropertyModifyType_None",
		"Property1Value": 0,
		"Property2ID": "PropertyModifyType_None",
		"Property2Value": 0,
		"Property3ID": "PropertyModifyType_None",
		"Property3Value": 0,
		"Property4ID": "PropertyModifyType_None",
		"Property4Value": 0,
		"Property5ID": "PropertyModifyType_None",
		"Property5Value": 0,
		"Icon": "UI/Icon/JobMaterial_ABS/Item_PrayProof.png",
		"GetPathList": [
			{
				"ID": 4503,
				"Name": 52
			},
			{
				"PathType": "GetPathType_Rift",
				"ID": 310,
				"Name": 218
			},
			{
				"PathType": "GetPathType_Rift",
				"ID": 5207,
				"Name": 510
			},
			{
				"PathType": "GetPathType_Rift",
				"ID": 5304,
				"Name": 516
			},
			{
				"PathType": "GetPathType_GuildStore",
				"ID": 501,
				"Name": 30
			}
		],
		"GetPathDesc": "暂时无获取途径",
		"RandomDropRewardID": 20,
		"DisplayRewardCount": 1
	},
	{
		"ID": 45,
		"Name": "魔法之证",
		"Desc": "用于提升职业品阶，<color=#a52a2aff>感受体内的魔力律动…</color>",
		"Rank": 2,
		"SellGold": 200,
		"ComposeGold": 0,
		"Property1ID": "PropertyModifyType_None",
		"Property1Value": 0,
		"Property2ID": "PropertyModifyType_None",
		"Property2Value": 0,
		"Property3ID": "PropertyModifyType_None",
		"Property3Value": 0,
		"Property4ID": "PropertyModifyType_None",
		"Property4Value": 0,
		"Property5ID": "PropertyModifyType_None",
		"Property5Value": 0,
		"Icon": "UI/Icon/JobMaterial_ABS/Item_MagicProof.png",
		"GetPathList": [
			{
				"ID": 4503,
				"Name": 52
			},
			{
				"PathType": "GetPathType_Rift",
				"ID": 316,
				"Name": 220
			},
			{
				"PathType": "GetPathType_Rift",
				"ID": 5210,
				"Name": 511
			},
			{
				"PathType": "GetPathType_Rift",
				"ID": 5307,
				"Name": 517
			},
			{
				"PathType": "GetPathType_GuildStore",
				"ID": 501,
				"Name": 30
			}
		],
		"GetPathDesc": "暂时无获取途径",
		"RandomDropRewardID": 20,
		"DisplayRewardCount": 1
	},
	{
		"ID": 46,
		"Name": "护盾之证",
		"Desc": "用于提升职业品阶，<color=#a52a2aff>防御是最好的进攻。</color>",
		"Rank": 2,
		"SellGold": 200,
		"ComposeGold": 0,
		"Property1ID": "PropertyModifyType_None",
		"Property1Value": 0,
		"Property2ID": "PropertyModifyType_None",
		"Property2Value": 0,
		"Property3ID": "PropertyModifyType_None",
		"Property3Value": 0,
		"Property4ID": "PropertyModifyType_None",
		"Property4Value": 0,
		"Property5ID": "PropertyModifyType_None",
		"Property5Value": 0,
		"Icon": "UI/Icon/JobMaterial_ABS/Item_ShieldProof.png",
		"GetPathList": [
			{
				"ID": 4503,
				"Name": 52
			},
			{
				"PathType": "GetPathType_Rift",
				"ID": 307,
				"Name": 217
			},
			{
				"PathType": "GetPathType_Rift",
				"ID": 5204,
				"Name": 509
			},
			{
				"PathType": "GetPathType_Rift",
				"ID": 5301,
				"Name": 515
			},
			{
				"PathType": "GetPathType_GuildStore",
				"ID": 501,
				"Name": 30
			}
		],
		"GetPathDesc": "暂时无获取途径",
		"RandomDropRewardID": 20,
		"DisplayRewardCount": 1
	},
	{
		"ID": 47,
		"Name": "卫士之证",
		"Desc": "用于提升职业品阶，<color=#a52a2aff>我身作盾，舍己为人。</color>",
		"Rank": 3,
		"SellGold": 300,
		"ComposeGold": 0,
		"Property1ID": "PropertyModifyType_None",
		"Property1Value": 0,
		"Property2ID": "PropertyModifyType_None",
		"Property2Value": 0,
		"Property3ID": "PropertyModifyType_None",
		"Property3Value": 0,
		"Property4ID": "PropertyModifyType_None",
		"Property4Value": 0,
		"Property5ID": "PropertyModifyType_None",
		"Property5Value": 0,
		"Icon": "UI/Icon/JobMaterial_ABS/Item_GuardianProof.png",
		"GetPathList": [
			{
				"ID": 4505,
				"Name": 52
			},
			{
				"PathType": "GetPathType_Rift",
				"ID": 507,
				"Name": 231
			},
			{
				"PathType": "GetPathType_Rift",
				"ID": 5319,
				"Name": 521
			},
			{
				"PathType": "GetPathType_Rift",
				"ID": 5417,
				"Name": 527
			},
			{
				"PathType": "GetPathType_GuildStore",
				"ID": 503,
				"Name": 111
			}
		],
		"GetPathDesc": "暂时无获取途径",
		"RandomDropRewardID": 20,
		"DisplayRewardCount": 1
	},
	{
		"ID": 48,
		"Name": "无畏徽记",
		"Desc": "用于提升职业品阶，<color=#a52a2aff>他们、无所畏惧。</color>",
		"Rank": 3,
		"SellGold": 300,
		"ComposeGold": 0,
		"Property1ID": "PropertyModifyType_None",
		"Property1Value": 0,
		"Property2ID": "PropertyModifyType_None",
		"Property2Value": 0,
		"Property3ID": "PropertyModifyType_None",
		"Property3Value": 0,
		"Property4ID": "PropertyModifyType_None",
		"Property4Value": 0,
		"Property5ID": "PropertyModifyType_None",
		"Property5Value": 0,
		"Icon": "UI/Icon/JobMaterial_ABS/Item_FearlessBadge.png",
		"GetPathList": [
			{
				"ID": 4504,
				"Name": 52
			},
			{
				"PathType": "GetPathType_Rift",
				"ID": 404,
				"Name": 223
			},
			{
				"PathType": "GetPathType_Rift",
				"ID": 5216,
				"Name": 513
			},
			{
				"PathType": "GetPathType_Rift",
				"ID": 5313,
				"Name": 519
			},
			{
				"PathType": "GetPathType_GuildStore",
				"ID": 502,
				"Name": 110
			}
		],
		"GetPathDesc": "暂时无获取途径",
		"RandomDropRewardID": 20,
		"DisplayRewardCount": 1
	},
	{
		"ID": 49,
		"Name": "不屈徽记",
		"Desc": "用于提升职业品阶，<color=#a52a2aff>倒下的将不朽…</color>",
		"Rank": 3,
		"SellGold": 300,
		"ComposeGold": 0,
		"Property1ID": "PropertyModifyType_None",
		"Property1Value": 0,
		"Property2ID": "PropertyModifyType_None",
		"Property2Value": 0,
		"Property3ID": "PropertyModifyType_None",
		"Property3Value": 0,
		"Property4ID": "PropertyModifyType_None",
		"Property4Value": 0,
		"Property5ID": "PropertyModifyType_None",
		"Property5Value": 0,
		"Icon": "UI/Icon/JobMaterial_ABS/Item_UnyieldingBadge.png",
		"GetPathList": [
			{
				"ID": 4504,
				"Name": 52
			},
			{
				"PathType": "GetPathType_Rift",
				"ID": 410,
				"Name": 225
			},
			{
				"PathType": "GetPathType_Rift",
				"ID": 5219,
				"Name": 514
			},
			{
				"PathType": "GetPathType_Rift",
				"ID": 5316,
				"Name": 520
			},
			{
				"PathType": "GetPathType_GuildStore",
				"ID": 502,
				"Name": 110
			}
		],
		"GetPathDesc": "暂时无获取途径",
		"RandomDropRewardID": 20,
		"DisplayRewardCount": 1
	},
	{
		"ID": 50,
		"Name": "隐秘徽记",
		"Desc": "用于提升职业品阶，<color=#a52a2aff>神秘即是力量。</color>",
		"Rank": 3,
		"SellGold": 300,
		"ComposeGold": 0,
		"Property1ID": "PropertyModifyType_None",
		"Property1Value": 0,
		"Property2ID": "PropertyModifyType_None",
		"Property2Value": 0,
		"Property3ID": "PropertyModifyType_None",
		"Property3Value": 0,
		"Property4ID": "PropertyModifyType_None",
		"Property4Value": 0,
		"Property5ID": "PropertyModifyType_None",
		"Property5Value": 0,
		"Icon": "UI/Icon/JobMaterial_ABS/Item_SecretBadge.png",
		"GetPathList": [
			{
				"ID": 4504,
				"Name": 52
			},
			{
				"PathType": "GetPathType_Rift",
				"ID": 417,
				"Name": 227
			},
			{
				"PathType": "GetPathType_Rift",
				"ID": 5310,
				"Name": 518
			},
			{
				"PathType": "GetPathType_Rift",
				"ID": 5407,
				"Name": 524
			},
			{
				"PathType": "GetPathType_GuildStore",
				"ID": 502,
				"Name": 110
			}
		],
		"GetPathDesc": "暂时无获取途径",
		"RandomDropRewardID": 20,
		"DisplayRewardCount": 1
	},
	{
		"ID": 51,
		"Name": "远见徽记",
		"Desc": "用于提升职业品阶，<color=#a52a2aff>尽在掌握。</color>",
		"Rank": 3,
		"SellGold": 300,
		"ComposeGold": 0,
		"Property1ID": "PropertyModifyType_None",
		"Property1Value": 0,
		"Property2ID": "PropertyModifyType_None",
		"Property2Value": 0,
		"Property3ID": "PropertyModifyType_None",
		"Property3Value": 0,
		"Property4ID": "PropertyModifyType_None",
		"Property4Value": 0,
		"Property5ID": "PropertyModifyType_None",
		"Property5Value": 0,
		"Icon": "UI/Icon/JobMaterial_ABS/Item_ForeseerBadge.png",
		"GetPathList": [
			{
				"ID": 4504,
				"Name": 52
			},
			{
				"PathType": "GetPathType_Rift",
				"ID": 420,
				"Name": 228
			},
			{
				"PathType": "GetPathType_Rift",
				"ID": 5307,
				"Name": 517
			},
			{
				"PathType": "GetPathType_Rift",
				"ID": 5404,
				"Name": 523
			},
			{
				"PathType": "GetPathType_GuildStore",
				"ID": 502,
				"Name": 110
			}
		],
		"GetPathDesc": "暂时无获取途径",
		"RandomDropRewardID": 20,
		"DisplayRewardCount": 1
	},
	{
		"ID": 52,
		"Name": "灵魂徽记",
		"Desc": "用于提升职业品阶，<color=#a52a2aff>灵魂，在燃烧…</color>",
		"Rank": 3,
		"SellGold": 300,
		"ComposeGold": 0,
		"Property1ID": "PropertyModifyType_None",
		"Property1Value": 0,
		"Property2ID": "PropertyModifyType_None",
		"Property2Value": 0,
		"Property3ID": "PropertyModifyType_None",
		"Property3Value": 0,
		"Property4ID": "PropertyModifyType_None",
		"Property4Value": 0,
		"Property5ID": "PropertyModifyType_None",
		"Property5Value": 0,
		"Icon": "UI/Icon/JobMaterial_ABS/Item_SoulBadge.png",
		"GetPathList": [
			{
				"ID": 4504,
				"Name": 52
			},
			{
				"PathType": "GetPathType_Rift",
				"ID": 414,
				"Name": 226
			},
			{
				"PathType": "GetPathType_Rift",
				"ID": 5304,
				"Name": 516
			},
			{
				"PathType": "GetPathType_Rift",
				"ID": 5401,
				"Name": 522
			},
			{
				"PathType": "GetPathType_GuildStore",
				"ID": 502,
				"Name": 110
			}
		],
		"GetPathDesc": "暂时无获取途径",
		"RandomDropRewardID": 20,
		"DisplayRewardCount": 1
	},
	{
		"ID": 53,
		"Name": "忠诚徽记",
		"Desc": "用于提升职业品阶，<color=#a52a2aff>忠诚即是最好的奖励。</color>",
		"Rank": 3,
		"SellGold": 300,
		"ComposeGold": 0,
		"Property1ID": "PropertyModifyType_None",
		"Property1Value": 0,
		"Property2ID": "PropertyModifyType_None",
		"Property2Value": 0,
		"Property3ID": "PropertyModifyType_None",
		"Property3Value": 0,
		"Property4ID": "PropertyModifyType_None",
		"Property4Value": 0,
		"Property5ID": "PropertyModifyType_None",
		"Property5Value": 0,
		"Icon": "UI/Icon/JobMaterial_ABS/Item_LoyaltyBadge.png",
		"GetPathList": [
			{
				"ID": 4504,
				"Name": 52
			},
			{
				"PathType": "GetPathType_Rift",
				"ID": 407,
				"Name": 224
			},
			{
				"PathType": "GetPathType_Rift",
				"ID": 5301,
				"Name": 515
			},
			{
				"PathType": "GetPathType_Rift",
				"ID": 5319,
				"Name": 521
			},
			{
				"PathType": "GetPathType_GuildStore",
				"ID": 502,
				"Name": 110
			}
		],
		"GetPathDesc": "暂时无获取途径",
		"RandomDropRewardID": 20,
		"DisplayRewardCount": 1
	}
]