v 1.0 0.0 0.0
v 0.8019999861717224 0.0 0.020000001415610313
v 0.7746725082397461 0.20757286250591278 0.020000001415610313
v 0.9659258127212524 0.258819043636322 0.0
v 0.6945523619651794 0.4009999930858612 0.020000001415610313
v 0.8660253882408142 0.5 0.0
v 0.5670996308326721 0.5670996308326721 0.020000001415610313
v 0.7071067690849304 0.7071067690849304 0.0
v 0.4009999632835388 0.6945524215698242 0.020000001415610313
v 0.4999999701976776 0.866025447845459 0.0
v 0.20757289230823517 0.7746725082397461 0.020000001415610313
v 0.2588190734386444 0.9659258127212524 0.0
v 6.054931844801104e-08 0.8019999861717224 0.020000001415610313
v 7.549790126404332e-08 1.0 0.0
v 0.9659256339073181 -0.2588197588920593 0.0
v 0.7746723294258118 -0.20757344365119934 0.020000001415610313
v 0.8660250902175903 -0.5000005960464478 0.0
v 0.6945521235466003 -0.4010004699230194 0.020000001415610313
v 0.707106351852417 -0.7071072459220886 0.0
v 0.5670992732048035 -0.5670999884605408 0.020000001415610313
v 0.4999994933605194 -0.8660256862640381 0.0
v 0.4009995758533478 -0.6945526003837585 0.020000001415610313
v 0.25881853699684143 -0.965925931930542 0.0
v 0.20757246017456055 -0.7746725678443909 0.020000001415610313
v -4.649122899991198e-07 -1.0 0.0
v -3.728596595919953e-07 -0.8019999861717224 0.020000001415610313
v -0.25881943106651306 -0.9659256935119629 0.0
v -0.20757317543029785 -0.7746723890304565 0.020000001415610313
v -0.5000002980232239 -0.8660252094268799 0.0
v -0.4010002315044403 -0.6945521831512451 0.020000001415610313
v -0.7071071863174438 -0.7071064114570618 0.0
v -0.567099928855896 -0.5670993328094482 0.020000001415610313
v -0.8660256266593933 -0.4999995827674866 0.0
v -0.6945525407791138 -0.40099966526031494 0.020000001415610313
v -0.965925931930542 -0.2588186264038086 0.0
v -0.7746725678443909 -0.20757253468036652 0.020000001415610313
v -1.0 3.8941436741879443e-07 0.0
v -0.8019999861717224 3.1231030561684747e-07 0.020000001415610313
v -0.9659257531166077 0.2588193714618683 0.0
v -0.7746724486351013 0.20757313072681427 0.020000001415610313
v -0.8660252690315247 0.5000002384185791 0.0
v -0.6945522427558899 0.40100017189979553 0.020000001415610313
v -0.7071065902709961 0.7071069478988647 0.0
v -0.5670994520187378 0.5670997500419617 0.020000001415610313
v -0.49999985098838806 0.8660255074501038 0.0
v -0.40099987387657166 0.6945524215698242 0.020000001415610313
v -0.25881892442703247 0.9659258723258972 0.0
v -0.20757277309894562 0.7746725082397461 0.020000001415610313
v 7.549790126404332e-08 1.0 0.0
v 6.054931844801104e-08 0.8019999861717224 0.020000001415610313
v -0.15632663667201996 0.5834192633628845 0.04000000283122063
v 4.560073563197875e-08 0.6040000319480896 0.04000000283122063
v -0.30199992656707764 0.5230794548988342 0.04000000283122063
v -0.42709240317344666 0.42709261178970337 0.04000000283122063
v -0.5230792760848999 0.30200016498565674 0.04000000283122063
v -0.5834192037582397 0.15632690489292145 0.04000000283122063
v -0.6040000319480896 2.3520628644746466e-07 0.04000000283122063
v -0.5834193229675293 -0.15632645785808563 0.04000000283122063
v -0.523079514503479 -0.3019997775554657 0.04000000283122063
v -0.4270927608013153 -0.4270922839641571 0.04000000283122063
v -0.3020001947879791 -0.5230792760848999 0.04000000283122063
v -0.15632694959640503 -0.583419144153595 0.04000000283122063
v -2.8080702918487077e-07 -0.6040000319480896 0.04000000283122063
v 0.15632639825344086 -0.5834193229675293 0.04000000283122063
v 0.3019997179508209 -0.523079514503479 0.04000000283122063
v 0.4270922541618347 -0.4270927906036377 0.04000000283122063
v 0.5230791568756104 -0.30200037360191345 0.04000000283122063
v 0.5834190845489502 -0.15632714331150055 0.04000000283122063
v 0.6040000319480896 0.0 0.04000000283122063
v 0.5834192037582397 0.15632671117782593 0.04000000283122063
v 0.5230793356895447 0.3020000159740448 0.04000000283122063
v 0.4270925223827362 0.4270925223827362 0.04000000283122063
v 0.3019999861717224 0.5230793952941895 0.04000000283122063
v 0.15632672607898712 0.5834192037582397 0.04000000283122063
v 4.560073563197875e-08 0.6040000319480896 0.04000000283122063
v 0.392165869474411 0.10508053004741669 0.06000000238418579
v 0.4059999883174896 0.0 0.06000000238418579
v 0.3516063094139099 0.2029999941587448 0.06000000238418579
v 0.2870853543281555 0.2870853543281555 0.06000000238418579
v 0.20299997925758362 0.3516063094139099 0.06000000238418579
v 0.10508053749799728 0.392165869474411 0.06000000238418579
v 3.065214571051911e-08 0.4059999883174896 0.06000000238418579
v 0.20091256499290466 0.05383436009287834 0.08000000566244125
v 0.20799998939037323 0.0 0.08000000566244125
v 0.18013326823711395 0.10399999469518661 0.08000000566244125
v 0.14707820117473602 0.14707820117473602 0.08000000566244125
v 0.10399998724460602 0.18013328313827515 0.08000000566244125
v 0.05383436381816864 0.20091256499290466 0.08000000566244125
v 1.5703562894486822e-08 0.20799998939037323 0.08000000566244125
v 0.39216580986976624 -0.10508082062005997 0.06000000238418579
v 0.35160619020462036 -0.2030002325773239 0.06000000238418579
v 0.2870851755142212 -0.28708553314208984 0.06000000238418579
v 0.2029997855424881 -0.35160642862319946 0.06000000238418579
v 0.10508032143115997 -0.3921659290790558 0.06000000238418579
v -1.8875438456689153e-07 -0.4059999883174896 0.06000000238418579
v -0.10508068650960922 -0.39216580986976624 0.06000000238418579
v -0.20300011336803436 -0.35160622000694275 0.06000000238418579
v -0.28708550333976746 -0.2870852053165436 0.06000000238418579
v -0.3516063988208771 -0.20299983024597168 0.06000000238418579
v -0.3921659290790558 -0.10508035868406296 0.06000000238418579
v -0.4059999883174896 1.581022246455177e-07 0.06000000238418579
v -0.3921658396720886 0.10508066415786743 0.06000000238418579
v -0.35160624980926514 0.20300008356571198 0.06000000238418579
v -0.28708526492118835 0.2870854139328003 0.06000000238418579
v -0.20299993455410004 0.3516063392162323 0.06000000238418579
v -0.10508047789335251 0.3921658992767334 0.06000000238418579
v 3.065214571051911e-08 0.4059999883174896 0.06000000238418579
v -0.05383433401584625 0.20091256499290466 0.08000000566244125
v 1.5703562894486822e-08 0.20799998939037323 0.08000000566244125
v -0.10399996489286423 0.18013329803943634 0.08000000566244125
v -0.14707815647125244 0.1470782309770584 0.08000000566244125
v -0.18013325333595276 0.1040000468492508 0.08000000566244125
v -0.20091255009174347 0.053834427148103714 0.08000000566244125
v -0.20799998939037323 8.099818415985283e-08 0.08000000566244125
v -0.20091257989406586 -0.05383427068591118 0.08000000566244125
v -0.18013332784175873 -0.10399990528821945 0.08000000566244125
v -0.14707829058170319 -0.14707812666893005 0.08000000566244125
v -0.10400005429983139 -0.18013323843479156 0.08000000566244125
v -0.05383443832397461 -0.20091253519058228 0.08000000566244125
v -9.6701754159767e-08 -0.20799998939037323 0.08000000566244125
v 0.053834252059459686 -0.20091257989406586 0.08000000566244125
v 0.10399989038705826 -0.18013332784175873 0.08000000566244125
v 0.14707811176776886 -0.14707830548286438 0.08000000566244125
v 0.18013320863246918 -0.10400012135505676 0.08000000566244125
v 0.20091252028942108 -0.05383450537919998 0.08000000566244125
v -4.6491228644640614e-09 -0.009999999776482582 0.10000000149011612
v -0.002588194329291582 -0.009659256786108017 0.10000000149011612
v 0.0025881852488964796 -0.009659258648753166 0.10000000149011612
v 0.004999994765967131 -0.00866025686264038 0.10000000149011612
v 0.0070710633881390095 -0.007071072235703468 0.10000000149011612
v 0.008660250343382359 -0.005000005941838026 0.10000000149011612
v 0.009659255854785442 -0.0025881975889205933 0.10000000149011612
v 0.009999999776482582 0.0 0.10000000149011612
v 0.009659257717430592 0.00258819037117064 0.10000000149011612
v 0.008660254068672657 0.004999999888241291 0.10000000149011612
v 0.007071067579090595 0.007071067579090595 0.10000000149011612
v 0.004999999422580004 0.008660254068672657 0.10000000149011612
v 0.0025881906040012836 0.009659257717430592 0.10000000149011612
v 7.549789682315122e-10 0.009999999776482582 0.10000000149011612
v 7.549789682315122e-10 0.009999999776482582 0.10000000149011612
v -0.0025881892070174217 0.009659258648753166 0.10000000149011612
v -0.004999998491257429 0.008660254999995232 0.10000000149011612
v -0.007071065716445446 0.0070710694417357445 0.10000000149011612
v -0.008660252206027508 0.005000002216547728 0.10000000149011612
v -0.009659257717430592 0.002588193630799651 0.10000000149011612
v -0.009999999776482582 3.894143674187944e-09 0.10000000149011612
v -0.009659258648753166 -0.0025881861802190542 0.10000000149011612
v -0.008660255931317806 -0.004999995697289705 0.10000000149011612
v -0.007071071770042181 -0.007071063853800297 0.10000000149011612
v -0.005000002682209015 -0.008660252206027508 0.10000000149011612
vn 0.10049871355295181 0.0 0.9949371814727783
vn 0.10049871355295181 0.0 0.9949371814727783
vn 0.09707430005073547 0.026010986417531967 0.9949371814727783
vn 0.09707429260015488 0.02601098082959652 0.9949371814727783
vn 0.0870344415307045 0.050249360501766205 0.9949371814727783
vn 0.0870344415307045 0.05024935305118561 0.9949371814727783
vn 0.071063332259655 0.0710633248090744 0.9949371814727783
vn 0.0710633248090744 0.0710633173584938 0.9949371814727783
vn 0.050249356776475906 0.0870344415307045 0.9949371814727783
vn 0.05024935305118561 0.0870344266295433 0.9949371814727783
vn 0.02601097710430622 0.09707431495189667 0.9949371814727783
vn 0.026010973379015923 0.09707430750131607 0.9949371814727783
vn -0.0 0.10049872100353241 0.9949371814727783
vn -0.0 0.10049869865179062 0.9949371814727783
vn 0.09707427024841309 -0.0260110292583704 0.9949371814727783
vn 0.09707429260015488 -0.0260110292583704 0.9949371814727783
vn 0.08703438937664032 -0.050249405205249786 0.9949371814727783
vn 0.08703439682722092 -0.05024940147995949 0.9949371814727783
vn 0.07106326520442963 -0.07106335461139679 0.9949371814727783
vn 0.07106327265501022 -0.07106336951255798 0.9949371814727783
vn 0.05024929344654083 -0.08703446388244629 0.9949371814727783
vn 0.05024930462241173 -0.08703447878360748 0.9949371814727783
vn 0.026010926812887192 -0.09707429260015488 0.9949371814727783
vn 0.02601093426346779 -0.09707431495189667 0.9949371814727783
vn -0.0 -0.10049869865179062 0.9949371814727783
vn -0.0 -0.100498728454113 0.9949371814727783
vn -0.0260110255330801 -0.09707428514957428 0.9949371814727783
vn -0.02601102739572525 -0.09707429260015488 0.9949371814727783
vn -0.0502493754029274 -0.08703441172838211 0.9949371814727783
vn -0.050249386578798294 -0.0870344340801239 0.9949371814727783
vn -0.07106334716081619 -0.07106328010559082 0.9949371814727783
vn -0.07106336206197739 -0.07106330245733261 0.9949371814727783
vn -0.08703445643186569 -0.050249308347702026 0.9949371814727783
vn -0.08703447133302689 -0.05024931579828262 0.9949371814727783
vn -0.09707429260015488 -0.026010937988758087 0.9949371814727783
vn -0.09707431495189667 -0.026010941714048386 0.9949371814727783
vn -0.10049870610237122 0.0 0.9949371814727783
vn -0.10049872100353241 0.0 0.9949371814727783
vn -0.09707429260015488 0.026011014357209206 0.9949371814727783
vn -0.09707429260015488 0.026011018082499504 0.9949371814727783
vn -0.08703441917896271 0.050249386578798294 0.9949371814727783
vn -0.08703441917896271 0.05024939402937889 0.9949371814727783
vn -0.07106330245733261 0.0710633248090744 0.9949371814727783
vn -0.07106330990791321 0.0710633397102356 0.9949371814727783
vn -0.050249338150024414 0.0870344415307045 0.9949371814727783
vn -0.05024934560060501 0.0870344489812851 0.9949371814727783
vn -0.026010962203145027 0.09707430005073547 0.9949371814727783
vn -0.026010967791080475 0.09707432240247726 0.9949371814727783
vn -0.0 0.10049869865179062 0.9949371814727783
vn -0.0 0.10049872100353241 0.9949371814727783
vn -0.026010964065790176 0.09707431495189667 0.9949371814727783
vn -0.0 0.10049871355295181 0.9949371814727783
vn -0.05024934560060501 0.0870344489812851 0.9949371814727783
vn -0.07106330990791321 0.071063332259655 0.9949371814727783
vn -0.08703441172838211 0.05024939402937889 0.9949371814727783
vn -0.09707427769899368 0.026011012494564056 0.9949371814727783
vn -0.10049869865179062 0.0 0.9949371814727783
vn -0.09707431495189667 -0.026010939851403236 0.9949371814727783
vn -0.08703446388244629 -0.05024931579828262 0.9949371814727783
vn -0.07106335461139679 -0.07106329500675201 0.9949371814727783
vn -0.0502493791282177 -0.08703441172838211 0.9949371814727783
vn -0.026011023670434952 -0.09707428514957428 0.9949371814727783
vn -0.0 -0.10049871355295181 0.9949371814727783
vn 0.02601093426346779 -0.09707431495189667 0.9949371814727783
vn 0.05024930462241173 -0.08703447133302689 0.9949371814727783
vn 0.07106326520442963 -0.07106336206197739 0.9949371814727783
vn 0.08703439682722092 -0.05024940147995949 0.9949371814727783
vn 0.09707429260015488 -0.026011032983660698 0.9949371814727783
vn 0.10049871355295181 0.0 0.9949371814727783
vn 0.09707429260015488 0.026010986417531967 0.9949371814727783
vn 0.0870344415307045 0.05024934560060501 0.9949371814727783
vn 0.0710633248090744 0.07106330990791321 0.9949371814727783
vn 0.05024934932589531 0.0870344340801239 0.9949371814727783
vn 0.02601097710430622 0.09707429260015488 0.9949371814727783
vn -0.0 0.10049871355295181 0.9949371814727783
vn 0.09707428514957428 0.02601098082959652 0.9949371814727783
vn 0.10049871355295181 0.0 0.9949371814727783
vn 0.0870344340801239 0.05024934560060501 0.9949371814727783
vn 0.0710633248090744 0.07106330990791321 0.9949371814727783
vn 0.05024934560060501 0.0870344340801239 0.9949371814727783
vn 0.02601097710430622 0.09707429260015488 0.9949371814727783
vn -0.0 0.10049869865179062 0.9949371814727783
vn 0.09707429260015488 0.02601098082959652 0.9949371814727783
vn 0.10049869865179062 0.0 0.9949371814727783
vn 0.08703441917896271 0.05024934932589531 0.9949371814727783
vn 0.07106330990791321 0.07106330990791321 0.9949371814727783
vn 0.05024934560060501 0.08703441917896271 0.9949371814727783
vn 0.026010971516370773 0.09707429260015488 0.9949371814727783
vn -0.0 0.10049869865179062 0.9949371814727783
vn 0.09707427769899368 -0.02601102739572525 0.9949371814727783
vn 0.08703439682722092 -0.050249408930540085 0.9949371814727783
vn 0.07106326520442963 -0.07106336206197739 0.9949371814727783
vn 0.05024929717183113 -0.0870344489812851 0.9949371814727783
vn 0.026010926812887192 -0.09707429260015488 0.9949371814727783
vn -0.0 -0.10049869865179062 0.9949371814727783
vn -0.026011019945144653 -0.09707427769899368 0.9949371814727783
vn -0.0502493754029274 -0.08703440427780151 0.9949371814727783
vn -0.0710633397102356 -0.07106328010559082 0.9949371814727783
vn -0.0870344489812851 -0.050249312072992325 0.9949371814727783
vn -0.09707430005073547 -0.02601093426346779 0.9949371814727783
vn -0.10049869865179062 0.0 0.9949371814727783
vn -0.09707427769899368 0.026011010631918907 0.9949371814727783
vn -0.08703440427780151 0.050249382853507996 0.9949371814727783
vn -0.07106329500675201 0.0710633248090744 0.9949371814727783
vn -0.050249334424734116 0.0870344340801239 0.9949371814727783
vn -0.02601095847785473 0.09707429260015488 0.9949371814727783
vn -0.0 0.10049869865179062 0.9949371814727783
vn -0.026010962203145027 0.09707429260015488 0.9949371814727783
vn -0.0 0.10049869865179062 0.9949371814727783
vn -0.05024934560060501 0.0870344340801239 0.9949371814727783
vn -0.07106329500675201 0.0710633397102356 0.9949371814727783
vn -0.08703440427780151 0.05024939402937889 0.9949371814727783
vn -0.09707428514957428 0.02601100504398346 0.9949371814727783
vn -0.10049871355295181 0.0 0.9949371814727783
vn -0.09707430005073547 -0.02601092867553234 0.9949371814727783
vn -0.08703446388244629 -0.05024929717183113 0.9949371814727783
vn -0.07106335461139679 -0.07106328755617142 0.9949371814727783
vn -0.050249382853507996 -0.0870344340801239 0.9949371814727783
vn -0.026011023670434952 -0.09707428514957428 0.9949371814727783
vn -0.0 -0.10049871355295181 0.9949371814727783
vn 0.026010924950242043 -0.09707430005073547 0.9949371814727783
vn 0.050249289721250534 -0.0870344489812851 0.9949371814727783
vn 0.07106326520442963 -0.07106336206197739 0.9949371814727783
vn 0.08703440427780151 -0.05024941265583038 0.9949371814727783
vn 0.09707427769899368 -0.026011021807789803 0.9949371814727783
vn -0.0 -0.10049868375062943 0.9949371814727783
vn -0.026011019945144653 -0.09707425534725189 0.9949371814727783
vn 0.026010919362306595 -0.09707428514957428 0.9949371814727783
vn 0.05024927482008934 -0.0870344489812851 0.9949371814727783
vn 0.07106325030326843 -0.07106334716081619 0.9949371814727783
vn 0.08703438192605972 -0.05024939402937889 0.9949371814727783
vn 0.09707425534725189 -0.026011019945144653 0.9949371814727783
vn 0.10049867630004883 0.0 0.9949371814727783
vn 0.09707425534725189 0.026010971516370773 0.9949371814727783
vn 0.08703441172838211 0.05024934932589531 0.9949371814727783
vn 0.07106329500675201 0.07106328755617142 0.9949371814727783
vn 0.050249338150024414 0.08703440427780151 0.9949371814727783
vn 0.026010965928435326 0.09707427769899368 0.9949371814727783
vn -0.0 0.10049869120121002 0.9949371814727783
vn -0.0 0.10049869120121002 0.9949371814727783
vn -0.02601095288991928 0.09707428514957428 0.9949371814727783
vn -0.050249334424734116 0.08703441917896271 0.9949371814727783
vn -0.07106328010559082 0.071063332259655 0.9949371814727783
vn -0.08703438192605972 0.05024939775466919 0.9949371814727783
vn -0.09707427024841309 0.02601100318133831 0.9949371814727783
vn -0.10049870610237122 0.0 0.9949371814727783
vn -0.09707428514957428 -0.026010921224951744 0.9949371814727783
vn -0.0870344415307045 -0.050249289721250534 0.9949371814727783
vn -0.0710633397102356 -0.07106326520442963 0.9949371814727783
vn -0.0502493679523468 -0.08703439682722092 0.9949371814727783
vt 0.75 1.0
vt 0.75 0.7999999821186066
vt 0.7916666269302368 0.7999999821186066
vt 0.7916666269302368 1.0
vt 0.8333333134651184 0.7999999821186066
vt 0.8333333134651184 1.0
vt 0.875 0.7999999821186066
vt 0.875 1.0
vt 0.9166666865348816 0.7999999821186066
vt 0.9166666865348816 1.0
vt 0.9583333134651184 0.7999999821186066
vt 0.9583333134651184 1.0
vt 0.9999999403953552 0.7999999821186066
vt 0.9999999403953552 1.0
vt 0.7083332538604736 1.0
vt 0.7083332538604736 0.7999999821186066
vt 0.666666567325592 1.0
vt 0.666666567325592 0.7999999821186066
vt 0.6249998807907104 1.0
vt 0.6249998807907104 0.7999999821186066
vt 0.5833332538604736 1.0
vt 0.5833332538604736 0.7999999821186066
vt 0.541666567325592 1.0
vt 0.541666567325592 0.7999999821186066
vt 0.49999991059303284 1.0
vt 0.49999991059303284 0.7999999821186066
vt 0.45833325386047363 1.0
vt 0.45833325386047363 0.7999999821186066
vt 0.41666659712791443 1.0
vt 0.41666659712791443 0.7999999821186066
vt 0.37499991059303284 1.0
vt 0.37499991059303284 0.7999999821186066
vt 0.33333325386047363 1.0
vt 0.33333325386047363 0.7999999821186066
vt 0.29166659712791443 1.0
vt 0.2916666269302368 0.7999999821186066
vt 0.24999994039535522 1.0
vt 0.24999994039535522 0.7999999821186066
vt 0.20833328366279602 1.0
vt 0.20833328366279602 0.7999999821186066
vt 0.16666662693023682 1.0
vt 0.16666662693023682 0.7999999821186066
vt 0.12499997019767761 1.0
vt 0.12499997019767761 0.7999999821186066
vt 0.08333331346511841 1.0
vt 0.08333331346511841 0.7999999821186066
vt 0.041666656732559204 1.0
vt 0.041666656732559204 0.7999999821186066
vt -5.960464477539063e-08 1.0
vt -5.960464477539063e-08 0.7999999821186066
vt 0.041666656732559204 0.5999999642372131
vt -5.960464477539063e-08 0.5999999642372131
vt 0.08333331346511841 0.5999999642372131
vt 0.12499997019767761 0.5999999642372131
vt 0.16666662693023682 0.5999999642372131
vt 0.20833329856395721 0.5999999642372131
vt 0.24999994039535522 0.5999999642372131
vt 0.2916666269302368 0.5999999642372131
vt 0.33333325386047363 0.5999999642372131
vt 0.37499991059303284 0.5999999642372131
vt 0.4166666567325592 0.5999999642372131
vt 0.45833325386047363 0.5999999642372131
vt 0.49999991059303284 0.5999999642372131
vt 0.541666567325592 0.5999999642372131
vt 0.5833332538604736 0.5999999642372131
vt 0.6249998807907104 0.5999999642372131
vt 0.6666665077209473 0.5999999642372131
vt 0.7083332538604736 0.5999999642372131
vt 0.75 0.5999999642372131
vt 0.7916666865348816 0.5999999642372131
vt 0.8333333134651184 0.5999999642372131
vt 0.875 0.5999999642372131
vt 0.9166666865348816 0.5999999642372131
vt 0.9583333134651184 0.5999999642372131
vt 0.9999999403953552 0.5999999642372131
vt 0.7916666269302368 0.3999999761581421
vt 0.75 0.3999999761581421
vt 0.8333333134651184 0.3999999761581421
vt 0.875 0.3999999761581421
vt 0.9166666269302368 0.3999999761581421
vt 0.9583333134651184 0.3999999761581421
vt 0.9999999403953552 0.3999999761581421
vt 0.7916666269302368 0.19999992847442627
vt 0.75 0.19999992847442627
vt 0.8333333134651184 0.19999992847442627
vt 0.875 0.19999992847442627
vt 0.9166666865348816 0.19999992847442627
vt 0.9583333134651184 0.19999992847442627
vt 0.9999999403953552 0.19999992847442627
vt 0.7083332538604736 0.3999999761581421
vt 0.666666567325592 0.3999999761581421
vt 0.6249998807907104 0.3999999761581421
vt 0.5833332538604736 0.3999999761581421
vt 0.541666567325592 0.3999999761581421
vt 0.49999991059303284 0.3999999761581421
vt 0.45833325386047363 0.3999999761581421
vt 0.41666659712791443 0.3999999761581421
vt 0.37499991059303284 0.3999999761581421
vt 0.33333325386047363 0.3999999761581421
vt 0.29166659712791443 0.3999999761581421
vt 0.24999994039535522 0.3999999761581421
vt 0.20833328366279602 0.3999999761581421
vt 0.16666662693023682 0.3999999761581421
vt 0.12499997019767761 0.3999999761581421
vt 0.08333331346511841 0.3999999761581421
vt 0.041666656732559204 0.3999999761581421
vt -5.960464477539063e-08 0.3999999761581421
vt 0.041666656732559204 0.19999992847442627
vt -5.960464477539063e-08 0.19999992847442627
vt 0.08333331346511841 0.19999992847442627
vt 0.12499997019767761 0.19999992847442627
vt 0.16666662693023682 0.19999992847442627
vt 0.20833328366279602 0.19999992847442627
vt 0.24999994039535522 0.19999992847442627
vt 0.29166659712791443 0.19999992847442627
vt 0.33333325386047363 0.19999992847442627
vt 0.37499991059303284 0.19999992847442627
vt 0.41666659712791443 0.19999992847442627
vt 0.45833325386047363 0.19999992847442627
vt 0.49999991059303284 0.19999992847442627
vt 0.541666567325592 0.19999992847442627
vt 0.5833332538604736 0.19999992847442627
vt 0.6249998807907104 0.19999992847442627
vt 0.6666665077209473 0.19999992847442627
vt 0.7083332538604736 0.19999992847442627
vt 0.49999991059303284 0.0
vt 0.45833325386047363 0.0
vt 0.541666567325592 0.0
vt 0.5833332538604736 0.0
vt 0.6249998807907104 0.0
vt 0.6666665077209473 0.0
vt 0.7083332538604736 0.0
vt 0.75 0.0
vt 0.7916666865348816 0.0
vt 0.8333333134651184 0.0
vt 0.875 0.0
vt 0.9166666865348816 0.0
vt 0.9583333134651184 0.0
vt 0.9999999403953552 0.0
vt -5.960464477539063e-08 0.0
vt 0.041666656732559204 0.0
vt 0.08333331346511841 0.0
vt 0.12499997019767761 0.0
vt 0.16666662693023682 0.0
vt 0.20833329856395721 0.0
vt 0.24999994039535522 0.0
vt 0.2916666269302368 0.0
vt 0.33333325386047363 0.0
vt 0.37499991059303284 0.0
vt 0.4166666567325592 0.0

g Mesh_FX_Circle
s 1
usemtl Mesh_FX_Circle
f 3/3/3 2/2/2 1/1/1 
f 4/4/4 3/3/3 1/1/1 
f 5/5/5 3/3/3 4/4/4 
f 6/6/6 5/5/5 4/4/4 
f 7/7/7 5/5/5 6/6/6 
f 8/8/8 7/7/7 6/6/6 
f 9/9/9 7/7/7 8/8/8 
f 10/10/10 9/9/9 8/8/8 
f 11/11/11 9/9/9 10/10/10 
f 12/12/12 11/11/11 10/10/10 
f 13/13/13 11/11/11 12/12/12 
f 14/14/14 13/13/13 12/12/12 
f 1/1/1 2/2/2 15/15/15 
f 2/2/2 16/16/16 15/15/15 
f 15/15/15 16/16/16 17/17/17 
f 16/16/16 18/18/18 17/17/17 
f 17/17/17 18/18/18 19/19/19 
f 18/18/18 20/20/20 19/19/19 
f 19/19/19 20/20/20 21/21/21 
f 20/20/20 22/22/22 21/21/21 
f 21/21/21 22/22/22 23/23/23 
f 22/22/22 24/24/24 23/23/23 
f 23/23/23 24/24/24 25/25/25 
f 24/24/24 26/26/26 25/25/25 
f 25/25/25 26/26/26 27/27/27 
f 26/26/26 28/28/28 27/27/27 
f 27/27/27 28/28/28 29/29/29 
f 28/28/28 30/30/30 29/29/29 
f 29/29/29 30/30/30 31/31/31 
f 30/30/30 32/32/32 31/31/31 
f 31/31/31 32/32/32 33/33/33 
f 32/32/32 34/34/34 33/33/33 
f 33/33/33 34/34/34 35/35/35 
f 34/34/34 36/36/36 35/35/35 
f 35/35/35 36/36/36 37/37/37 
f 36/36/36 38/38/38 37/37/37 
f 37/37/37 38/38/38 39/39/39 
f 38/38/38 40/40/40 39/39/39 
f 39/39/39 40/40/40 41/41/41 
f 40/40/40 42/42/42 41/41/41 
f 41/41/41 42/42/42 43/43/43 
f 42/42/42 44/44/44 43/43/43 
f 43/43/43 44/44/44 45/45/45 
f 44/44/44 46/46/46 45/45/45 
f 45/45/45 46/46/46 47/47/47 
f 46/46/46 48/48/48 47/47/47 
f 47/47/47 48/48/48 49/49/49 
f 48/48/48 50/50/50 49/49/49 
f 48/48/48 51/51/51 50/50/50 
f 51/51/51 52/52/52 50/50/50 
f 53/53/53 51/51/51 48/48/48 
f 46/46/46 53/53/53 48/48/48 
f 54/54/54 53/53/53 46/46/46 
f 44/44/44 54/54/54 46/46/46 
f 55/55/55 54/54/54 44/44/44 
f 42/42/42 55/55/55 44/44/44 
f 56/56/56 55/55/55 42/42/42 
f 40/40/40 56/56/56 42/42/42 
f 57/57/57 56/56/56 40/40/40 
f 38/38/38 57/57/57 40/40/40 
f 58/58/58 57/57/57 38/38/38 
f 36/36/36 58/58/58 38/38/38 
f 59/59/59 58/58/58 36/36/36 
f 34/34/34 59/59/59 36/36/36 
f 60/60/60 59/59/59 34/34/34 
f 32/32/32 60/60/60 34/34/34 
f 61/61/61 60/60/60 32/32/32 
f 30/30/30 61/61/61 32/32/32 
f 62/62/62 61/61/61 30/30/30 
f 28/28/28 62/62/62 30/30/30 
f 63/63/63 62/62/62 28/28/28 
f 26/26/26 63/63/63 28/28/28 
f 64/64/64 63/63/63 26/26/26 
f 24/24/24 64/64/64 26/26/26 
f 65/65/65 64/64/64 24/24/24 
f 22/22/22 65/65/65 24/24/24 
f 66/66/66 65/65/65 22/22/22 
f 20/20/20 66/66/66 22/22/22 
f 67/67/67 66/66/66 20/20/20 
f 18/18/18 67/67/67 20/20/20 
f 68/68/68 67/67/67 18/18/18 
f 16/16/16 68/68/68 18/18/18 
f 69/69/69 68/68/68 16/16/16 
f 2/2/2 69/69/69 16/16/16 
f 70/70/70 69/69/69 2/2/2 
f 3/3/3 70/70/70 2/2/2 
f 71/71/71 70/70/70 3/3/3 
f 5/5/5 71/71/71 3/3/3 
f 72/72/72 71/71/71 5/5/5 
f 7/7/7 72/72/72 5/5/5 
f 73/73/73 72/72/72 7/7/7 
f 9/9/9 73/73/73 7/7/7 
f 74/74/74 73/73/73 9/9/9 
f 11/11/11 74/74/74 9/9/9 
f 75/75/75 74/74/74 11/11/11 
f 13/13/13 75/75/75 11/11/11 
f 70/70/70 76/76/76 69/69/69 
f 76/76/76 77/77/77 69/69/69 
f 78/78/78 76/76/76 70/70/70 
f 71/71/71 78/78/78 70/70/70 
f 79/79/79 78/78/78 71/71/71 
f 72/72/72 79/79/79 71/71/71 
f 80/80/80 79/79/79 72/72/72 
f 73/73/73 80/80/80 72/72/72 
f 81/81/81 80/80/80 73/73/73 
f 74/74/74 81/81/81 73/73/73 
f 82/82/82 81/81/81 74/74/74 
f 75/75/75 82/82/82 74/74/74 
f 76/76/76 83/83/83 77/77/77 
f 83/83/83 84/84/84 77/77/77 
f 85/85/85 83/83/83 76/76/76 
f 78/78/78 85/85/85 76/76/76 
f 86/86/86 85/85/85 78/78/78 
f 79/79/79 86/86/86 78/78/78 
f 87/87/87 86/86/86 79/79/79 
f 80/80/80 87/87/87 79/79/79 
f 88/88/88 87/87/87 80/80/80 
f 81/81/81 88/88/88 80/80/80 
f 89/89/89 88/88/88 81/81/81 
f 82/82/82 89/89/89 81/81/81 
f 77/77/77 84/84/84 90/90/90 
f 77/77/77 90/90/90 68/68/68 
f 68/68/68 90/90/90 67/67/67 
f 90/90/90 91/91/91 67/67/67 
f 67/67/67 91/91/91 66/66/66 
f 91/91/91 92/92/92 66/66/66 
f 66/66/66 92/92/92 65/65/65 
f 92/92/92 93/93/93 65/65/65 
f 65/65/65 93/93/93 64/64/64 
f 93/93/93 94/94/94 64/64/64 
f 64/64/64 94/94/94 63/63/63 
f 94/94/94 95/95/95 63/63/63 
f 63/63/63 95/95/95 62/62/62 
f 95/95/95 96/96/96 62/62/62 
f 62/62/62 96/96/96 61/61/61 
f 96/96/96 97/97/97 61/61/61 
f 61/61/61 97/97/97 60/60/60 
f 97/97/97 98/98/98 60/60/60 
f 60/60/60 98/98/98 59/59/59 
f 98/98/98 99/99/99 59/59/59 
f 59/59/59 99/99/99 58/58/58 
f 99/99/99 100/100/100 58/58/58 
f 58/58/58 100/100/100 57/57/57 
f 100/100/100 101/101/101 57/57/57 
f 57/57/57 101/101/101 56/56/56 
f 101/101/101 102/102/102 56/56/56 
f 56/56/56 102/102/102 55/55/55 
f 102/102/102 103/103/103 55/55/55 
f 55/55/55 103/103/103 54/54/54 
f 103/103/103 104/104/104 54/54/54 
f 54/54/54 104/104/104 53/53/53 
f 104/104/104 105/105/105 53/53/53 
f 53/53/53 105/105/105 51/51/51 
f 105/105/105 106/106/106 51/51/51 
f 51/51/51 106/106/106 52/52/52 
f 106/106/106 107/107/107 52/52/52 
f 106/106/106 108/108/108 107/107/107 
f 108/108/108 109/109/109 107/107/107 
f 110/110/110 108/108/108 106/106/106 
f 105/105/105 110/110/110 106/106/106 
f 111/111/111 110/110/110 105/105/105 
f 104/104/104 111/111/111 105/105/105 
f 112/112/112 111/111/111 104/104/104 
f 103/103/103 112/112/112 104/104/104 
f 113/113/113 112/112/112 103/103/103 
f 102/102/102 113/113/113 103/103/103 
f 114/114/114 113/113/113 102/102/102 
f 101/101/101 114/114/114 102/102/102 
f 115/115/115 114/114/114 101/101/101 
f 100/100/100 115/115/115 101/101/101 
f 116/116/116 115/115/115 100/100/100 
f 99/99/99 116/116/116 100/100/100 
f 117/117/117 116/116/116 99/99/99 
f 98/98/98 117/117/117 99/99/99 
f 118/118/118 117/117/117 98/98/98 
f 97/97/97 118/118/118 98/98/98 
f 119/119/119 118/118/118 97/97/97 
f 96/96/96 119/119/119 97/97/97 
f 120/120/120 119/119/119 96/96/96 
f 95/95/95 120/120/120 96/96/96 
f 121/121/121 120/120/120 95/95/95 
f 94/94/94 121/121/121 95/95/95 
f 122/122/122 121/121/121 94/94/94 
f 93/93/93 122/122/122 94/94/94 
f 123/123/123 122/122/122 93/93/93 
f 92/92/92 123/123/123 93/93/93 
f 124/124/124 123/123/123 92/92/92 
f 91/91/91 124/124/124 92/92/92 
f 125/125/125 124/124/124 91/91/91 
f 90/90/90 125/125/125 91/91/91 
f 84/84/84 125/125/125 90/90/90 
f 120/120/120 126/126/126 119/119/119 
f 126/126/126 127/127/127 119/119/119 
f 128/128/128 126/126/126 120/120/120 
f 121/121/121 128/128/128 120/120/120 
f 129/129/129 128/128/128 121/121/121 
f 122/122/122 129/129/129 121/121/121 
f 130/130/130 129/129/129 122/122/122 
f 123/123/123 130/130/130 122/122/122 
f 131/131/131 130/130/130 123/123/123 
f 124/124/124 131/131/131 123/123/123 
f 132/132/132 131/131/131 124/124/124 
f 125/125/125 132/132/132 124/124/124 
f 133/133/133 132/132/132 125/125/125 
f 84/84/84 133/133/133 125/125/125 
f 134/134/134 133/133/133 84/84/84 
f 83/83/83 134/134/134 84/84/84 
f 135/135/135 134/134/134 83/83/83 
f 85/85/85 135/135/135 83/83/83 
f 136/136/136 135/135/135 85/85/85 
f 86/86/86 136/136/136 85/85/85 
f 137/137/137 136/136/136 86/86/86 
f 87/87/87 137/137/137 86/86/86 
f 138/138/138 137/137/137 87/87/87 
f 88/88/88 138/138/138 87/87/87 
f 139/139/139 138/138/138 88/88/88 
f 89/89/89 139/139/139 88/88/88 
f 69/69/69 77/77/77 68/68/68 
f 141/141/141 140/140/140 109/109/109 
f 108/108/108 141/141/141 109/109/109 
f 142/142/142 141/141/141 108/108/108 
f 110/110/110 142/142/142 108/108/108 
f 143/143/143 142/142/142 110/110/110 
f 111/111/111 143/143/143 110/110/110 
f 144/144/144 143/143/143 111/111/111 
f 112/112/112 144/144/144 111/111/111 
f 145/145/145 144/144/144 112/112/112 
f 113/113/113 145/145/145 112/112/112 
f 146/146/146 145/145/145 113/113/113 
f 114/114/114 146/146/146 113/113/113 
f 147/147/147 146/146/146 114/114/114 
f 115/115/115 147/147/147 114/114/114 
f 148/148/148 147/147/147 115/115/115 
f 116/116/116 148/148/148 115/115/115 
f 149/149/149 148/148/148 116/116/116 
f 117/117/117 149/149/149 116/116/116 
f 150/150/150 149/149/149 117/117/117 
f 118/118/118 150/150/150 117/117/117 
f 127/127/127 150/150/150 118/118/118 
f 119/119/119 127/127/127 118/118/118 

