v -0.008737334981560707 -0.17190562188625336 -0.1767766773700714
v 0.30466291308403015 -0.20776435732841492 -0.1767767071723938
v -0.013152160681784153 0.18162018060684204 0.176776722073555
v 0.3938540518283844 0.13435378670692444 0.1767767071723938
v 0.5395590662956238 -0.304421067237854 -0.1767767071723938
v 0.7213522791862488 -0.0011865615379065275 0.176776722073555
v 0.6868930459022522 -0.42530202865600586 -0.1767766922712326
v 0.9560874104499817 -0.1960984766483307 0.1767767071723938
v 0.7415595054626465 -0.5195283889770508 -0.1767767071723938
v 1.0850327014923096 -0.4357067346572876 0.1767767071723938
v 0.73753821849823 -0.5583726167678833 -0.1767766773700714
v 1.066828966140747 -0.6870875954627991 0.1767766922712326
v 0.681509792804718 -0.6360020637512207 -0.1767767071723938
v 0.9277456998825073 -0.8897100687026978 0.1767766773700714
v 0.5395529866218567 -0.7323731780052185 -0.1767767071723938
v 0.6970526576042175 -1.0489071607589722 0.176776722073555
v 0.2981797754764557 -0.8159398436546326 -0.1767767071723938
v 0.37818464636802673 -1.1603220701217651 0.176776722073555
v -0.048620909452438354 -0.8607752323150635 -0.1767767071723938
v -0.03290054202079773 -1.213978886604309 0.1767766922712326
v -0.2637585401535034 -0.8607559204101562 -0.1767767071723938
v -0.28075483441352844 -1.2139004468917847 0.1767766922712326
v -0.42246711254119873 -0.8488378524780273 -0.1767766773700714
v -0.45701566338539124 -1.2006992101669312 0.17677663266658783
v -0.6034578680992126 -0.8274816870689392 -0.1767766922712326
v -0.6508797407150269 -1.177840232849121 0.1767767071723938
v -0.8045335412025452 -0.7972369194030762 -0.1767766773700714
v -0.8616927862167358 -1.146139144897461 0.1767766922712326
v -1.023797869682312 -0.7587412595748901 -0.1767766922712326
v -1.0884987115859985 -1.1063240766525269 0.17677664756774902
v -1.2595255374908447 -0.7126657962799072 -0.17677664756774902
v -1.3301703929901123 -1.0590893030166626 0.1767766773700714
v -1.5100923776626587 -0.6596941351890564 -0.1767766773700714
v -1.585479974746704 -1.005116581916809 0.176776722073555
v -1.7739379405975342 -0.6005146503448486 -0.1767767071723938
v -1.8531368970870972 -0.9450833201408386 0.1767767071723938
v -2.0495405197143555 -0.5358168482780457 -0.1767766773700714
v -2.1318092346191406 -0.8796653747558594 0.1767766773700714
v -2.3354060649871826 -0.46628984808921814 -0.1767767071723938
v -2.4201388359069824 -0.8095394968986511 0.1767766773700714
v -2.6300604343414307 -0.3926216661930084 -0.1767766773700714
v -2.7167487144470215 -0.7353826761245728 0.1767766922712326
v -2.9320409297943115 -0.3154999017715454 -0.1767766922712326
v -3.0202484130859375 -0.6578730344772339 0.1767766922712326
v -3.239896059036255 -0.2356109321117401 -0.1767766773700714
v -3.329237222671509 -0.577690064907074 0.1767767071723938
v -3.552182197570801 -0.15364013612270355 -0.1767766773700714
v -3.642307996749878 -0.49551331996917725 0.1767766922712326
v -3.8674614429473877 -0.07027214020490646 -0.1767766922712326
v -3.9580466747283936 -0.41202375292778015 0.1767767071723938
v -4.183350086212158 0.01355693768709898 -0.1767766922712326
v -4.274084568023682 -0.3281552791595459 0.1767767071723938
v -0.008737334981560707 -0.17190566658973694 0.1767767071723938
v 0.30466291308403015 -0.2077644318342209 0.176776722073555
v -0.013152160681784153 0.181620255112648 -0.1767766773700714
v 0.39385420083999634 0.13435393571853638 -0.1767766773700714
v 0.5395590662956238 -0.3044211268424988 0.1767767071723938
v 0.7213522791862488 -0.0011864471016451716 -0.1767766773700714
v 0.6868927478790283 -0.425302118062973 0.1767767071723938
v 0.9560874104499817 -0.1960984319448471 -0.1767766773700714
v 0.7415595054626465 -0.5195283889770508 0.1767767071723938
v 1.0850330591201782 -0.4357067346572876 -0.1767766773700714
v 0.73753821849823 -0.5583726167678833 0.1767767071723938
v 1.066828966140747 -0.6870877146720886 -0.1767766773700714
v 0.681509792804718 -0.6360020041465759 0.1767767071723938
v 0.9277459979057312 -0.8897101879119873 -0.1767766922712326
v 0.5395529866218567 -0.7323731184005737 0.176776722073555
v 0.6970529556274414 -1.0489071607589722 -0.17677664756774902
v 0.2981797754764557 -0.8159397840499878 0.1767766773700714
v 0.37818464636802673 -1.1603221893310547 -0.1767766773700714
v -0.048620909452438354 -0.8607751131057739 0.1767766922712326
v -0.03290054202079773 -1.213978886604309 -0.1767767071723938
v -0.2637585401535034 -0.8607558012008667 0.1767766922712326
v -0.28075483441352844 -1.2139004468917847 -0.17677676677703857
v -0.42246702313423157 -0.8488378524780273 0.17677675187587738
v -0.45701566338539124 -1.2006992101669312 -0.1767767071723938
v -0.6034578680992126 -0.8274816870689392 0.1767766922712326
v -0.6508797407150269 -1.1778403520584106 -0.1767766922712326
v -0.8045335412025452 -0.7972369194030762 0.1767767071723938
v -0.8616927862167358 -1.146139144897461 -0.1767766773700714
v -1.023797869682312 -0.7587411999702454 0.1767766922712326
v -1.0884987115859985 -1.1063240766525269 -0.1767766922712326
v -1.2595255374908447 -0.7126656770706177 0.1767766922712326
v -1.3301703929901123 -1.0590893030166626 -0.1767766773700714
v -1.5100923776626587 -0.6596940755844116 0.1767767071723938
v -1.585479974746704 -1.0051167011260986 -0.1767767071723938
v -1.7739379405975342 -0.6005146503448486 0.1767767071723938
v -1.8531368970870972 -0.9450833201408386 -0.1767767071723938
v -2.0495405197143555 -0.5358168482780457 0.1767767071723938
v -2.1318092346191406 -0.8796654343605042 -0.176776722073555
v -2.3354060649871826 -0.46628978848457336 0.1767767071723938
v -2.4201388359069824 -0.8095396161079407 -0.1767767071723938
v -2.6300599575042725 -0.39262160658836365 0.1767767071723938
v -2.7167487144470215 -0.7353826761245728 -0.1767766922712326
v -2.9320409297943115 -0.315499871969223 0.1767767071723938
v -3.0202484130859375 -0.6578731536865234 -0.1767766773700714
v -3.239896059036255 -0.23561084270477295 0.1767767071723938
v -3.329237222671509 -0.577690064907074 -0.1767766773700714
v -3.552182197570801 -0.15364006161689758 0.176776722073555
v -3.642307996749878 -0.4955134093761444 -0.1767766773700714
v -3.8674614429473877 -0.0702720656991005 0.1767767071723938
v -3.9580466747283936 -0.4120238423347473 -0.1767766922712326
v -4.183350086212158 0.013557090424001217 0.1767767071723938
v -4.274084568023682 -0.3281553089618683 -0.1767766922712326
vn 0.08070270717144012 0.7053315043449402 -0.7042688131332397
vn 0.17650805413722992 0.6845194697380066 -0.7073032259941101
vn 0.08150806277990341 0.7056316137313843 -0.7038753032684326
vn 0.17758101224899292 0.6846328377723694 -0.7069248557090759
vn 0.3628750145435333 0.6066359281539917 -0.707329273223877
vn 0.3649289608001709 0.6061670184135437 -0.7066742181777954
vn 0.5387817025184631 0.4570211172103882 -0.7077047228813171
vn 0.5469169020652771 0.45065072178840637 -0.7055464386940002
vn 0.6902311444282532 0.13990797102451324 -0.7099342942237854
vn 0.6906580328941345 0.1494496464729309 -0.7075707912445068
vn 0.6652116179466248 -0.24836121499538422 -0.7041377425193787
vn 0.6654087901115417 -0.2366645485162735 -0.707969605922699
vn 0.49626004695892334 -0.5066962242126465 -0.7049714922904968
vn 0.4993288218975067 -0.49998173117637634 -0.7075937986373901
vn 0.318317174911499 -0.6322354078292847 -0.706365704536438
vn 0.3196467459201813 -0.6304592490196228 -0.7073522210121155
vn 0.16240835189819336 -0.6885166168212891 -0.7068015933036804
vn 0.1629256308078766 -0.6879497766494751 -0.7072343230247498
vn 0.04602976143360138 -0.705826461315155 -0.7068877220153809
vn 0.04536857828497887 -0.7057370543479919 -0.7070198059082031
vn -0.02642059698700905 -0.7066133618354797 -0.707106351852417
vn -0.026671409606933594 -0.7066100239753723 -0.7071003317832947
vn -0.06789562851190567 -0.7038537859916687 -0.7070927023887634
vn -0.06784053891897202 -0.7038396000862122 -0.7071120738983154
vn -0.09401857107877731 -0.7008349299430847 -0.7071003317832947
vn -0.09399715811014175 -0.7008286714553833 -0.7071093916893005
vn -0.11372765153646469 -0.6979044079780579 -0.7071035504341125
vn -0.1137184128165245 -0.69790118932724 -0.707108199596405
vn -0.12896223366260529 -0.6952490210533142 -0.7071051001548767
vn -0.1289581060409546 -0.6952471733093262 -0.7071076035499573
vn -0.1409519612789154 -0.6929168701171875 -0.707105815410614
vn -0.1409500539302826 -0.6929159164428711 -0.7071072459220886
vn -0.15050692856311798 -0.6909039616584778 -0.7071062326431274
vn -0.15050601959228516 -0.69090336561203 -0.7071071267127991
vn -0.1581794172525406 -0.6891877055168152 -0.7071064710617065
vn -0.15817902982234955 -0.6891873478889465 -0.70710688829422
vn -0.1643550544977188 -0.6877411007881165 -0.7071064710617065
vn -0.16435496509075165 -0.687740683555603 -0.7071068286895752
vn -0.1693088859319687 -0.6865382790565491 -0.7071065902709961
vn -0.1693088263273239 -0.68653804063797 -0.7071067690849304
vn -0.1732395440340042 -0.6855568885803223 -0.7071066498756409
vn -0.17323952913284302 -0.6855567097663879 -0.7071068286895752
vn -0.1762913167476654 -0.6847784519195557 -0.7071066498756409
vn -0.1762913018465042 -0.6847783923149109 -0.7071066498756409
vn -0.17856846749782562 -0.684188187122345 -0.7071066498756409
vn -0.17856846749782562 -0.6841880679130554 -0.7071066498756409
vn -0.18014439940452576 -0.6837748289108276 -0.7071066498756409
vn -0.18014448881149292 -0.6837748885154724 -0.7071066498756409
vn -0.18106776475906372 -0.6835309863090515 -0.7071065902709961
vn -0.18106772005558014 -0.6835309863090515 -0.7071065902709961
vn -0.18137088418006897 -0.6834506392478943 -0.7071065902709961
vn -0.18137072026729584 -0.6834505796432495 -0.7071067094802856
vn -0.08070293068885803 -0.7053313851356506 -0.7042688131332397
vn -0.17650797963142395 -0.6845192313194275 -0.707303524017334
vn -0.08150804042816162 -0.7056313753128052 -0.7038755416870117
vn -0.17758095264434814 -0.6846326589584351 -0.7069252133369446
vn -0.36287522315979004 -0.6066354513168335 -0.7073295712471008
vn -0.36492887139320374 -0.6061667203903198 -0.7066744565963745
vn -0.5387811064720154 -0.457021564245224 -0.7077049612998962
vn -0.546916663646698 -0.45065075159072876 -0.7055466771125793
vn -0.6902304291725159 -0.13990867137908936 -0.7099348306655884
vn -0.6906577348709106 -0.1494496613740921 -0.7075710296630859
vn -0.6652113795280457 0.2483615279197693 -0.7041379809379578
vn -0.6654086112976074 0.2366645783185959 -0.7079697251319885
vn -0.4962599277496338 0.5066961050033569 -0.7049717903137207
vn -0.4993288815021515 0.49998119473457336 -0.7075941562652588
vn -0.3183169364929199 0.6322351098060608 -0.7063660621643066
vn -0.31964659690856934 0.6304589509963989 -0.7073525190353394
vn -0.1624082773923874 0.6885163187980652 -0.7068018317222595
vn -0.16292555630207062 0.6879494786262512 -0.7072346210479736
vn -0.046029746532440186 0.7058263421058655 -0.7068879008293152
vn -0.04536841809749603 0.7057369947433472 -0.7070198655128479
vn 0.02642032504081726 0.706613302230835 -0.7071065306663513
vn 0.02667156793177128 0.7066100239753723 -0.7071003317832947
vn 0.06789560616016388 0.7038538455963135 -0.7070925831794739
vn 0.06784053146839142 0.7038396000862122 -0.7071120142936707
vn 0.09401856362819672 0.7008349299430847 -0.7071002721786499
vn 0.09399691969156265 0.7008286118507385 -0.7071095108985901
vn 0.11372774839401245 0.6979043483734131 -0.7071035504341125
vn 0.11371847987174988 0.6979010701179504 -0.7071082592010498
vn 0.1289622187614441 0.6952490210533142 -0.7071051001548767
vn 0.12895798683166504 0.6952471137046814 -0.707107663154602
vn 0.1409519463777542 0.6929168701171875 -0.7071058750152588
vn 0.1409500539302826 0.6929157972335815 -0.7071073055267334
vn 0.15050700306892395 0.690903902053833 -0.7071062326431274
vn 0.1505061239004135 0.6909033060073853 -0.7071070671081543
vn 0.1581794172525406 0.6891875863075256 -0.7071065306663513
vn 0.15817910432815552 0.6891872882843018 -0.70710688829422
vn 0.1643551141023636 0.6877409815788269 -0.7071065902709961
vn 0.1643548458814621 0.6877407431602478 -0.70710688829422
vn 0.1693088710308075 0.6865382194519043 -0.7071066498756409
vn 0.16930869221687317 0.6865379810333252 -0.7071068286895752
vn 0.17323945462703705 0.6855567693710327 -0.7071067690849304
vn 0.17323952913284302 0.6855566501617432 -0.70710688829422
vn 0.17629125714302063 0.6847783923149109 -0.7071067094802856
vn 0.17629128694534302 0.6847782731056213 -0.7071067690849304
vn 0.1785685420036316 0.6841880679130554 -0.7071067690849304
vn 0.178568497300148 0.6841878890991211 -0.7071068286895752
vn 0.18014436960220337 0.6837747693061829 -0.7071068286895752
vn 0.18014442920684814 0.6837747693061829 -0.7071067690849304
vn 0.1810678243637085 0.683530867099762 -0.7071067690849304
vn 0.18106776475906372 0.683530867099762 -0.7071067690849304
vn 0.18137095868587494 0.68345046043396 -0.7071067690849304
vn 0.18137076497077942 0.6834503412246704 -0.70710688829422
vt 0.0 0.0
vt 0.03999999910593033 0.0
vt 0.0 1.0
vt 0.03999999910593033 1.0
vt 0.07999999821186066 0.0
vt 0.07999999821186066 1.0
vt 0.11999999731779099 0.0
vt 0.11999999731779099 1.0
vt 0.1599999964237213 0.0
vt 0.1599999964237213 1.0
vt 0.19999998807907104 0.0
vt 0.19999998807907104 1.0
vt 0.23999997973442078 0.0
vt 0.23999997973442078 1.0
vt 0.2799999713897705 0.0
vt 0.2799999713897705 1.0
vt 0.31999996304512024 0.0
vt 0.31999996304512024 1.0
vt 0.35999995470046997 0.0
vt 0.35999995470046997 1.0
vt 0.3999999463558197 0.0
vt 0.3999999463558197 1.0
vt 0.43999993801116943 0.0
vt 0.43999993801116943 1.0
vt 0.47999992966651917 0.0
vt 0.47999992966651917 1.0
vt 0.5199999213218689 0.0
vt 0.5199999213218689 1.0
vt 0.559999942779541 0.0
vt 0.559999942779541 1.0
vt 0.5999999642372131 0.0
vt 0.5999999642372131 1.0
vt 0.6399999856948853 0.0
vt 0.6399999856948853 1.0
vt 0.6800000071525574 0.0
vt 0.6800000071525574 1.0
vt 0.7200000286102295 0.0
vt 0.7200000286102295 1.0
vt 0.7600000500679016 0.0
vt 0.7600000500679016 1.0
vt 0.8000000715255737 0.0
vt 0.8000000715255737 1.0
vt 0.8400000929832458 0.0
vt 0.8400000929832458 1.0
vt 0.880000114440918 0.0
vt 0.880000114440918 1.0
vt 0.9200001358985901 0.0
vt 0.9200001358985901 1.0
vt 0.9600001573562622 0.0
vt 0.9600001573562622 1.0
vt 1.0000001192092896 0.0
vt 1.0000001192092896 1.0
vt 0.0 0.0
vt 0.03999999910593033 0.0
vt 0.0 1.0
vt 0.03999999910593033 1.0
vt 0.07999999821186066 0.0
vt 0.07999999821186066 1.0
vt 0.11999999731779099 0.0
vt 0.11999999731779099 1.0
vt 0.1599999964237213 0.0
vt 0.1599999964237213 1.0
vt 0.19999998807907104 0.0
vt 0.19999998807907104 1.0
vt 0.23999997973442078 0.0
vt 0.23999997973442078 1.0
vt 0.2799999713897705 0.0
vt 0.2799999713897705 1.0
vt 0.31999996304512024 0.0
vt 0.31999996304512024 1.0
vt 0.35999995470046997 0.0
vt 0.35999995470046997 1.0
vt 0.3999999463558197 0.0
vt 0.3999999463558197 1.0
vt 0.43999993801116943 0.0
vt 0.43999993801116943 1.0
vt 0.47999992966651917 0.0
vt 0.47999992966651917 1.0
vt 0.5199999213218689 0.0
vt 0.5199999213218689 1.0
vt 0.559999942779541 0.0
vt 0.559999942779541 1.0
vt 0.5999999642372131 0.0
vt 0.5999999642372131 1.0
vt 0.6399999856948853 0.0
vt 0.6399999856948853 1.0
vt 0.6800000071525574 0.0
vt 0.6800000071525574 1.0
vt 0.7200000286102295 0.0
vt 0.7200000286102295 1.0
vt 0.7600000500679016 0.0
vt 0.7600000500679016 1.0
vt 0.8000000715255737 0.0
vt 0.8000000715255737 1.0
vt 0.8400000929832458 0.0
vt 0.8400000929832458 1.0
vt 0.880000114440918 0.0
vt 0.880000114440918 1.0
vt 0.9200001358985901 0.0
vt 0.9200001358985901 1.0
vt 0.9600001573562622 0.0
vt 0.9600001573562622 1.0
vt 1.0000001192092896 0.0
vt 1.0000001192092896 1.0

g Plane002
s 1
usemtl Plane002
f 3/3/3 2/2/2 1/1/1 
f 2/2/2 3/3/3 4/4/4 
f 4/4/4 5/5/5 2/2/2 
f 5/5/5 4/4/4 6/6/6 
f 6/6/6 7/7/7 5/5/5 
f 7/7/7 6/6/6 8/8/8 
f 8/8/8 9/9/9 7/7/7 
f 9/9/9 8/8/8 10/10/10 
f 10/10/10 11/11/11 9/9/9 
f 11/11/11 10/10/10 12/12/12 
f 12/12/12 13/13/13 11/11/11 
f 13/13/13 12/12/12 14/14/14 
f 14/14/14 15/15/15 13/13/13 
f 15/15/15 14/14/14 16/16/16 
f 16/16/16 17/17/17 15/15/15 
f 17/17/17 16/16/16 18/18/18 
f 18/18/18 19/19/19 17/17/17 
f 19/19/19 18/18/18 20/20/20 
f 20/20/20 21/21/21 19/19/19 
f 21/21/21 20/20/20 22/22/22 
f 22/22/22 23/23/23 21/21/21 
f 23/23/23 22/22/22 24/24/24 
f 24/24/24 25/25/25 23/23/23 
f 25/25/25 24/24/24 26/26/26 
f 26/26/26 27/27/27 25/25/25 
f 27/27/27 26/26/26 28/28/28 
f 28/28/28 29/29/29 27/27/27 
f 29/29/29 28/28/28 30/30/30 
f 30/30/30 31/31/31 29/29/29 
f 31/31/31 30/30/30 32/32/32 
f 32/32/32 33/33/33 31/31/31 
f 33/33/33 32/32/32 34/34/34 
f 34/34/34 35/35/35 33/33/33 
f 35/35/35 34/34/34 36/36/36 
f 36/36/36 37/37/37 35/35/35 
f 37/37/37 36/36/36 38/38/38 
f 38/38/38 39/39/39 37/37/37 
f 39/39/39 38/38/38 40/40/40 
f 40/40/40 41/41/41 39/39/39 
f 41/41/41 40/40/40 42/42/42 
f 42/42/42 43/43/43 41/41/41 
f 43/43/43 42/42/42 44/44/44 
f 44/44/44 45/45/45 43/43/43 
f 45/45/45 44/44/44 46/46/46 
f 46/46/46 47/47/47 45/45/45 
f 47/47/47 46/46/46 48/48/48 
f 48/48/48 49/49/49 47/47/47 
f 49/49/49 48/48/48 50/50/50 
f 50/50/50 51/51/51 49/49/49 
f 51/51/51 50/50/50 52/52/52 
f 55/55/55 54/54/54 53/53/53 
f 54/54/54 55/55/55 56/56/56 
f 56/56/56 57/57/57 54/54/54 
f 57/57/57 56/56/56 58/58/58 
f 58/58/58 59/59/59 57/57/57 
f 59/59/59 58/58/58 60/60/60 
f 60/60/60 61/61/61 59/59/59 
f 61/61/61 60/60/60 62/62/62 
f 62/62/62 63/63/63 61/61/61 
f 63/63/63 62/62/62 64/64/64 
f 64/64/64 65/65/65 63/63/63 
f 65/65/65 64/64/64 66/66/66 
f 66/66/66 67/67/67 65/65/65 
f 67/67/67 66/66/66 68/68/68 
f 68/68/68 69/69/69 67/67/67 
f 69/69/69 68/68/68 70/70/70 
f 70/70/70 71/71/71 69/69/69 
f 71/71/71 70/70/70 72/72/72 
f 72/72/72 73/73/73 71/71/71 
f 73/73/73 72/72/72 74/74/74 
f 74/74/74 75/75/75 73/73/73 
f 75/75/75 74/74/74 76/76/76 
f 76/76/76 77/77/77 75/75/75 
f 77/77/77 76/76/76 78/78/78 
f 78/78/78 79/79/79 77/77/77 
f 79/79/79 78/78/78 80/80/80 
f 80/80/80 81/81/81 79/79/79 
f 81/81/81 80/80/80 82/82/82 
f 82/82/82 83/83/83 81/81/81 
f 83/83/83 82/82/82 84/84/84 
f 84/84/84 85/85/85 83/83/83 
f 85/85/85 84/84/84 86/86/86 
f 86/86/86 87/87/87 85/85/85 
f 87/87/87 86/86/86 88/88/88 
f 88/88/88 89/89/89 87/87/87 
f 89/89/89 88/88/88 90/90/90 
f 90/90/90 91/91/91 89/89/89 
f 91/91/91 90/90/90 92/92/92 
f 92/92/92 93/93/93 91/91/91 
f 93/93/93 92/92/92 94/94/94 
f 94/94/94 95/95/95 93/93/93 
f 95/95/95 94/94/94 96/96/96 
f 96/96/96 97/97/97 95/95/95 
f 97/97/97 96/96/96 98/98/98 
f 98/98/98 99/99/99 97/97/97 
f 99/99/99 98/98/98 100/100/100 
f 100/100/100 101/101/101 99/99/99 
f 101/101/101 100/100/100 102/102/102 
f 102/102/102 103/103/103 101/101/101 
f 103/103/103 102/102/102 104/104/104 

