v -0.03693056479096413 0.006972977891564369 -0.054599154740571976
v 0.01688426546752453 -0.0057532330974936485 -0.059528835117816925
v 0.04348210617899895 0.03179105743765831 0.030992070212960243
v -0.007713913917541504 0.04821089655160904 0.044830065220594406
v -0.018299279734492302 -0.0017855929909273982 0.06997573375701904
v -0.007713913917541504 0.04821089655160904 0.044830065220594406
v 0.04348210617899895 0.03179105743765831 0.030992070212960243
v 0.03500521928071976 -0.018907900899648666 0.055735256522893906
v 0.03500521928071976 -0.018907900899648666 0.055735256522893906
v 0.04348210617899895 0.03179105743765831 0.030992070212960243
v 0.01688426546752453 -0.0057532330974936485 -0.059528835117816925
v 0.0078339334577322 -0.057259030640125275 -0.0367334708571434
v 0.0078339334577322 -0.057259030640125275 -0.0367334708571434
v 0.01688426546752453 -0.0057532330974936485 -0.059528835117816925
v -0.03693056479096413 0.006972977891564369 -0.054599154740571976
v -0.04812271520495415 -0.04388004541397095 -0.03151861950755119
v -0.04812271520495415 -0.04388004541397095 -0.03151861950755119
v -0.03693056479096413 0.006972977891564369 -0.054599154740571976
v -0.007713913917541504 0.04821089655160904 0.044830065220594406
v -0.018299279734492302 -0.0017855929909273982 0.06997573375701904
v -0.04812271520495415 -0.04388004541397095 -0.03151861950755119
v -0.018299279734492302 -0.0017855929909273982 0.06997573375701904
v 0.03500521928071976 -0.018907900899648666 0.055735256522893906
v 0.0078339334577322 -0.057259030640125275 -0.0367334708571434
vn 0.17220528423786163 0.8909732103347778 -0.42013341188430786
vn 0.17220528423786163 0.8909732103347778 -0.42013341188430786
vn 0.17220528423786163 0.8909732103347778 -0.42013341188430786
vn 0.17220528423786163 0.8909732103347778 -0.42013341188430786
vn 0.3485555350780487 0.3622955083847046 0.8644368052482605
vn 0.3485555350780487 0.3622955083847046 0.8644368052482605
vn 0.3485555350780487 0.362295538187027 0.8644368052482605
vn 0.3485555648803711 0.362295538187027 0.8644368052482605
vn 0.9527748227119446 -0.24612891674041748 -0.17787790298461914
vn 0.9527748227119446 -0.24612894654273987 -0.17787790298461914
vn 0.9527748227119446 -0.24612891674041748 -0.17787790298461914
vn 0.9527748227119446 -0.24612891674041748 -0.17787790298461914
vn -0.17316173017024994 -0.37409088015556335 -0.9110822677612305
vn -0.17316173017024994 -0.37409090995788574 -0.9110822677612305
vn -0.17316171526908875 -0.37409088015556335 -0.9110822677612305
vn -0.17316173017024994 -0.37409090995788574 -0.9110822677612305
vn -0.9459490180015564 0.28138265013694763 0.16125845909118652
vn -0.9459490180015564 0.28138267993927 0.16125844419002533
vn -0.9459490180015564 0.28138265013694763 0.16125844419002533
vn -0.9459490180015564 0.28138267993927 0.16125845909118652
vn -0.17374594509601593 -0.8905458450317383 0.42040517926216125
vn -0.17374593019485474 -0.8905458450317383 0.4204051196575165
vn -0.17374593019485474 -0.8905458450317383 0.4204051196575165
vn -0.17374594509601593 -0.8905458450317383 0.42040520906448364
vt 0.8233968019485474 0.16217094659805298
vt 0.8221774101257324 0.34540432691574097
vt 0.344912588596344 0.34969544410705566
vt 0.3439694344997406 0.1608152985572815
vt 0.9192429780960083 0.06365656852722168
vt 0.9268354773521423 0.1893962025642395
vt 0.7944239377975464 0.183910071849823
vt 0.7813608050346375 0.05788213014602661
vt 0.17455175518989563 0.3498722314834595
vt 0.17807093262672424 0.1790858507156372
vt 0.6136230230331421 0.1720181107521057
vt 0.6157581210136414 0.34004640579223633
vt 0.6159706711769104 0.1893962025642395
vt 0.6132921576499939 0.06052190065383911
vt 0.7491737604141235 0.04975700378417969
vt 0.7573153376579285 0.17784661054611206
vt 0.40284258127212524 0.33486199378967285
vt 0.4011572003364563 0.45340079069137573
vt 0.05265473574399948 0.4518071413040161
vt 0.05273504927754402 0.33115625381469727
vt -0.011212821118533611 0.4473949670791626
vt 0.30777665972709656 0.4556728005409241
vt 0.3153253197669983 0.5916673243045807
vt -0.011559545993804932 0.5941402316093445

g Object001
s 1
usemtl Object001
f 3/3/3 2/2/2 1/1/1 
f 4/4/4 3/3/3 1/1/1 
f 7/7/7 6/6/6 5/5/5 
f 8/8/8 7/7/7 5/5/5 
f 11/11/11 10/10/10 9/9/9 
f 12/12/12 11/11/11 9/9/9 
f 15/15/15 14/14/14 13/13/13 
f 16/16/16 15/15/15 13/13/13 
f 19/19/19 18/18/18 17/17/17 
f 20/20/20 19/19/19 17/17/17 
f 23/23/23 22/22/22 21/21/21 
f 24/24/24 23/23/23 21/21/21 

