v 0.026438849046826363 0.0021013692021369934 -0.03063983842730522
v -0.05348025634884834 0.05309725180268288 -0.017469100654125214
v -0.0025510196574032307 0.02013345994055271 -0.06524186581373215
v -0.01082870364189148 0.04443182051181793 0.02711891196668148
v 0.06808870285749435 0.0009503417531959713 -0.005604438483715057
v 0.03904381021857262 0.027971215546131134 0.06064523383975029
v 0.01653318479657173 -0.02288343384861946 0.0729384571313858
v 0.06808870285749435 0.0009503417531959713 -0.005604438483715057
v 0.04650687426328659 -0.05081417039036751 0.004842052236199379
v 0.03904381021857262 0.027971215546131134 0.06064523383975029
v 0.04650687426328659 -0.05081417039036751 0.004842052236199379
v 0.026438849046826363 0.0021013692021369934 -0.03063983842730522
v 0.009130937047302723 -0.04002343490719795 -0.023689154535531998
v 0.06808870285749435 0.0009503417531959713 -0.005604438483715057
v -0.0025510196574032307 0.02013345994055271 -0.06524186581373215
v -0.025582844391465187 -0.031236819922924042 -0.05601939931511879
v -0.025582844391465187 -0.031236819922924042 -0.05601939931511879
v -0.05348025634884834 0.05309725180268288 -0.017469100654125214
v -0.07786951959133148 0.0027530535589903593 -0.0067624663934111595
v -0.0025510196574032307 0.02013345994055271 -0.06524186581373215
v -0.07786951959133148 0.0027530535589903593 -0.0067624663934111595
v -0.01082870364189148 0.04443182051181793 0.02711891196668148
v -0.03543001040816307 -0.006480645854026079 0.039881762117147446
v -0.05348025634884834 0.05309725180268288 -0.017469100654125214
v 0.03904381021857262 0.027971215546131134 0.06064523383975029
v 0.01653318479657173 -0.02288343384861946 0.0729384571313858
v 0.01653318479657173 -0.02288343384861946 0.0729384571313858
v -0.07786951959133148 0.0027530535589903593 -0.0067624663934111595
v -0.03543001040816307 -0.006480645854026079 0.039881762117147446
v 0.04650687426328659 -0.05081417039036751 0.004842052236199379
v 0.009130937047302723 -0.04002343490719795 -0.023689154535531998
v -0.07786951959133148 0.0027530535589903593 -0.0067624663934111595
v 0.009130937047302723 -0.04002343490719795 -0.023689154535531998
v -0.025582844391465187 -0.031236819922924042 -0.05601939931511879
v 0.01653318479657173 -0.02288343384861946 0.0729384571313858
vn 0.40985405445098877 0.8641795516014099 -0.29191333055496216
vn 0.5036137700080872 0.8406714200973511 -0.19910986721515656
vn 0.5367162823677063 0.8437037467956543 -0.009987510740756989
vn 0.4263824224472046 0.8575788140296936 -0.28767454624176025
vn 0.3440086543560028 0.8769393563270569 -0.3356119394302368
vn 0.4159086048603058 0.8911834359169006 -0.1811409592628479
vn 0.8418641686439514 -0.25681623816490173 0.4746686518192291
vn 0.8419187068939209 -0.2562564015388489 0.4748742878437042
vn 0.8420261740684509 -0.2551445960998535 0.47528213262557983
vn 0.8417518734931946 -0.2579570412635803 0.4742487370967865
vn 0.4899752140045166 -0.3496357500553131 -0.79854816198349
vn 0.551097571849823 -0.35963666439056396 -0.7529628276824951
vn 0.5496194362640381 -0.3592318296432495 -0.7542353868484497
vn 0.47339239716529846 -0.35963988304138184 -0.8040887713432312
vn 0.5915500521659851 -0.3773038387298584 -0.712537944316864
vn 0.5740986466407776 -0.3869425356388092 -0.7215858697891235
vn -0.6271010041236877 0.1426030546426773 -0.765773355960846
vn -0.6275341510772705 0.1423214077949524 -0.7654707431793213
vn -0.6283938884735107 0.14176197350025177 -0.764868974685669
vn -0.6262190937995911 0.14317575097084045 -0.7663878798484802
vn -0.6088058352470398 0.44585293531417847 0.6561787724494934
vn -0.5159791111946106 0.4293920695781708 0.7412071228027344
vn -0.5159351825714111 0.4294132888317108 0.7412254810333252
vn -0.6067718863487244 0.4353827238082886 0.6650338172912598
vn -0.41087567806243896 0.3921481668949127 0.8230437636375427
vn -0.4076327979564667 0.3810381293296814 0.8298466801643372
vn -0.40325480699539185 -0.8952118754386902 0.1896873563528061
vn -0.40325480699539185 -0.8952117562294006 0.1896873563528061
vn -0.40325480699539185 -0.8952117562294006 0.1896873414516449
vn -0.4032535254955292 -0.8952126502990723 0.18968623876571655
vn -0.4032535254955292 -0.8952126502990723 0.18968623876571655
vn -0.4032541811466217 -0.8952124714851379 0.18968576192855835
vn -0.4032541811466217 -0.8952124714851379 0.18968577682971954
vn -0.4032541513442993 -0.8952125310897827 0.18968577682971954
vn -0.4032540023326874 -0.8952124714851379 0.18968626856803894
vt 0.1444544494152069 0.583615779876709
vt 0.004819993861019611 0.722144365310669
vt 0.001978384330868721 0.5830786228179932
vt 0.16420571506023407 0.7212221920490265
vt 0.37998929619789124 0.5846327543258667
vt 0.3860626518726349 0.7217747867107391
vt 0.9818854928016663 0.7069212198257446
vt 0.3456539809703827 0.8653240501880646
vt 0.34091100096702576 0.7093541622161865
vt 0.9815859198570251 0.8571426272392273
vt 0.8700300455093384 0.015404045581817627
vt 0.4858246445655823 0.1818121075630188
vt 0.4911503791809082 0.014490365982055664
vt 0.8769311904907227 0.17991763353347778
vt 0.21243563294410706 0.1765701174736023
vt 0.20973432064056396 0.012131929397583008
vt 0.6157006025314331 0.3441092371940613
vt 0.9949118494987488 0.1670668125152588
vt 0.9963697195053101 0.34063035249710083
vt 0.6107021570205688 0.17773306369781494
vt 0.11165085434913635 1.012015026062727
vt 0.45469510555267334 0.8484639525413513
vt 0.46035459637641907 1.0029282374307513
vt 0.11865341663360596 0.8483233153820038
vt 0.6576650142669678 0.8576475977897644
vt 0.6580909490585327 1.0108013693243265
vt 0.35595306754112244 0.7122821807861328
vt -0.009425021708011627 0.7172141969203949
vt 0.16125743091106415 0.7118427753448486
vt 0.367095023393631 0.8564301133155823
vt 0.16450725495815277 0.8611825704574585
vt -0.009425021708011627 0.7172141969203949
vt 0.16450725495815277 0.8611825704574585
vt -0.009186401963233948 0.8708598613739014
vt 0.35595306754112244 0.7122821807861328

g Object002
s 1
usemtl Object002
f 3/3/3 2/2/2 1/1/1 
f 2/2/2 4/4/4 1/1/1 
f 1/1/1 4/4/4 5/5/5 
f 5/5/5 4/4/4 6/6/6 
f 9/9/9 8/8/8 7/7/7 
f 10/10/10 7/7/7 8/8/8 
f 13/13/13 12/12/12 11/11/11 
f 14/14/14 11/11/11 12/12/12 
f 12/12/12 13/13/13 15/15/15 
f 16/16/16 15/15/15 13/13/13 
f 19/19/19 18/18/18 17/17/17 
f 20/20/20 17/17/17 18/18/18 
f 23/23/23 22/22/22 21/21/21 
f 24/24/24 21/21/21 22/22/22 
f 22/22/22 23/23/23 25/25/25 
f 26/26/26 25/25/25 23/23/23 
f 29/29/29 28/28/28 27/27/27 
f 31/31/31 30/30/30 27/27/27 
f 34/34/34 33/33/33 32/32/32 
f 32/32/32 33/33/33 35/35/35 

