v -6.11945915222168 -0.2756725251674652 -1.1562650570340338e-07
v -5.6306915283203125 -0.27432945370674133 -1.1577446201727071e-07
v -6.11945915222168 -0.34458065032958984 -1.0984656029222606e-07
v -5.630152702331543 -0.3361063301563263 -1.1268903676864284e-07
v -5.140347003936768 -0.23515872657299042 4.487610283376853e-09
v -5.140346050262451 -0.34520721435546875 7.492062081837503e-09
v -4.6507887840271 -0.1743926703929901 -7.555371883682938e-10
v -4.650788307189941 -0.3530309796333313 7.851704175720897e-09
v -4.1612324714660645 -0.1463291049003601 -2.679296340346582e-09
v -4.161231517791748 -0.3560972213745117 7.941390656185376e-09
v -3.6716768741607666 -0.17349658906459808 -4.5950159233143495e-08
v -3.6716768741607666 -0.35112735629081726 -3.974566809006319e-08
v -3.182119131088257 -0.21913282573223114 -3.963335615253527e-08
v -3.1821188926696777 -0.3520280420780182 -3.889983446470069e-08
v -2.6925628185272217 -0.22985601425170898 -3.675753035281559e-08
v -2.6925621032714844 -0.35432082414627075 -3.7840990785298345e-08
v -2.2030045986175537 -0.18223902583122253 -8.33083291240655e-08
v -2.2030041217803955 -0.35579246282577515 -4.912481443852812e-08
v -1.7134472131729126 -0.16361910104751587 -7.58996065997053e-08
v -1.7134472131729126 -0.36053478717803955 -7.104570443061675e-08
v -1.2238904237747192 -0.1935814619064331 -7.254791256627868e-08
v -1.2238913774490356 -0.33349213004112244 -7.408847579881694e-08
v -0.7343338131904602 -0.23600099980831146 -2.6103846195724145e-08
v -0.734331488609314 -0.320472776889801 -3.3711426539184686e-08
v -0.2447759360074997 -0.2590295970439911 -2.31486634305611e-08
v -0.2447759360074997 -0.3369736969470978 -3.206347187756364e-08
v 0.24478261172771454 -0.24909049272537231 -2.415198530059115e-08
v 0.24478194117546082 -0.35616937279701233 -3.035483331359501e-08
v 0.7343371510505676 -0.24818331003189087 -8.794510364396046e-08
v 0.7343364953994751 -0.365751177072525 -1.1386150333692058e-07
v 1.223893642425537 -0.2746797502040863 -8.836332909822886e-08
v 1.223892331123352 -0.3687679171562195 -1.1275598410520615e-07
v 1.7134495973587036 -0.27545514702796936 -8.781105975685932e-08
v 1.713451623916626 -0.3741932213306427 -1.1187737669615672e-07
v 2.202526092529297 -0.23702611029148102 1.99952037149842e-08
v 2.2034151554107666 -0.381086140871048 1.0112026771480487e-08
v 2.6855030059814453 -0.2756752073764801 2.130524912047349e-08
v 2.698603391647339 -0.39479050040245056 9.847320292522e-09
v 3.164421558380127 -0.31882157921791077 -1.3461507464285205e-08
v 3.1999282836914062 -0.4180413484573364 -2.128437337489686e-08
v 3.640324831008911 -0.30226844549179077 -1.4720012764257717e-08
v 3.7008163928985596 -0.4251600503921509 -1.9602239831328916e-08
v 4.1184186935424805 -0.3225369453430176 -1.1989511605747794e-08
v 4.200150966644287 -0.43745648860931396 -1.768819934966359e-08
v 4.615174770355225 -0.3723406195640564 -5.362720756352246e-08
v 4.691561698913574 -0.44555792212486267 -6.013869580101527e-08
v 5.133512496948242 -0.4102211594581604 -4.7099618427637324e-08
v 5.186689853668213 -0.4837270975112915 -5.5445667612730176e-08
v 5.606746196746826 -0.3851098120212555 -5.234917210827916e-08
v 5.655416965484619 -0.4788758456707001 -6.201959479312791e-08
v 6.119459629058838 -0.4448156952857971 -4.719385415796751e-08
v 6.1194610595703125 -0.5094063878059387 -5.943270053876404e-08
v 3.1919381618499756 -0.06201385334134102 -2.1230352587053858e-08
v 3.7149322032928467 -0.0018483877647668123 -2.658382491915745e-08
v 4.209661483764648 -0.06194340065121651 -1.9586716248909397e-08
v 4.625911712646484 -0.24885569512844086 -5.542775838307534e-08
v 5.094671726226807 -0.3405265510082245 -4.070655279519997e-08
v 5.619945526123047 -0.269603967666626 -5.2365162872547444e-08
v 6.119462490081787 -0.3802252411842346 -3.4756215683273695e-08
v 3.8134703636169434 0.2857411205768585 -3.725293140632857e-08
v 3.2414071559906006 0.21854811906814575 -3.110585211629768e-08
v 2.700817823410034 0.044319819658994675 2.6231498750917126e-08
v 2.2037816047668457 0.12335307896137238 2.3091779155492986e-08
v 1.713451623916626 -0.03575240075588226 -5.159965255074894e-08
v 1.223892331123352 -0.10204534232616425 -5.8219480791876776e-08
v 0.7343371510505676 -0.055123377591371536 -5.628500332477415e-08
v 0.24477994441986084 -0.11694417148828506 -2.1514662051913547e-08
v -0.2447759360074997 -0.1802825927734375 -1.5026886401869888e-08
v -0.7343324422836304 -0.15006332099437714 -1.8743994800729524e-08
v -1.2238900661468506 -0.04861684516072273 -7.169891347302837e-08
v -1.7134488821029663 0.03642185032367706 -8.111184257586501e-08
v -2.20300555229187 -0.009202271699905396 -1.171954480128079e-07
v -2.6925623416900635 -0.1050230860710144 -3.54139011449206e-08
v -3.182117462158203 -0.08590908348560333 -3.987975816244216e-08
v -3.6716768741607666 0.0015138474991545081 -5.151852633389353e-08
v -4.1612324714660645 0.05734355375170708 -1.2267167726065509e-08
v -4.650788307189941 0.0017067724838852882 -8.625224978686674e-09
v -5.140347003936768 -0.12455110996961594 1.8922079458860708e-09
v -5.6312456130981445 -0.21225032210350037 -1.1881353856324495e-07
v -6.11945915222168 -0.20676442980766296 -1.2135870974816498e-07
v -5.631372451782227 -0.15018275380134583 -1.217645149154123e-07
v -6.11945915222168 -0.13785628974437714 -1.2713864805391495e-07
v -5.140346527099609 -0.01598592847585678 -6.500562865774384e-10
v -4.650788307189941 0.16875247657299042 -1.6156723958715702e-08
v -4.1612324714660645 0.250055730342865 -2.123783637841825e-08
v -3.6716768741607666 0.1672125905752182 -5.651126144812224e-08
v -3.182117223739624 0.043012041598558426 -4.00927007149221e-08
v -2.6925621032714844 0.01736784726381302 -3.400748482818017e-08
v -2.20300555229187 0.16227199137210846 -1.5079392312600248e-07
v -1.7134499549865723 0.24105452001094818 -8.672817131127886e-08
v -1.2238891124725342 0.10819634795188904 -7.173429139584186e-08
v -0.7343321442604065 -0.05361420661211014 -1.2236721858016608e-08
v -0.24477460980415344 -0.08461116254329681 -8.116136207547697e-09
v 0.24478261172771454 0.06856080889701843 -2.3107865843030595e-08
v 0.7343391180038452 0.19954559206962585 -1.9114050786583903e-08
v 1.223892331123352 0.1451474130153656 -2.1310956554998484e-08
v 1.7134522199630737 0.24976032972335815 -1.1663658483485051e-08
v 2.2053565979003906 0.47543877363204956 2.608819116289851e-08
v 2.72163724899292 0.36204642057418823 3.1082482365718533e-08
v 4.336746692657471 0.18773537874221802 -2.628378936719855e-08
v 4.714898109436035 -0.08115912973880768 -6.36942871778956e-08
v 5.134530067443848 -0.2308109998703003 -3.939456760804205e-08
v 5.678823471069336 -0.14068014919757843 -4.027697286801413e-08
v 6.1194610595703125 -0.31563475728034973 -2.2277934164094404e-08
vn -0.0 0.0 1.0
vn -0.0 0.0 1.0
vn -0.0 0.0 1.0
vn -0.0 0.0 1.0
vn -0.0 0.0 1.0
vn -0.0 0.0 1.0
vn -0.0 0.0 1.0
vn -0.0 0.0 1.0
vn -0.0 0.0 1.0
vn -0.0 0.0 1.0
vn -0.0 0.0 1.0
vn -0.0 0.0 1.0
vn -0.0 0.0 1.0
vn -0.0 0.0 1.0
vn -0.0 0.0 1.0
vn -0.0 0.0 1.0
vn -0.0 0.0 1.0
vn -0.0 0.0 1.0
vn -0.0 0.0 1.0
vn -0.0 0.0 1.0
vn -0.0 0.0 1.0
vn -0.0 0.0 1.0
vn -0.0 0.0 1.0
vn -0.0 0.0 1.0
vn -0.0 0.0 1.0
vn -0.0 0.0 1.0
vn -0.0 0.0 1.0
vn -0.0 0.0 1.0
vn -0.0 0.0 1.0
vn -0.0 0.0 1.0
vn -0.0 0.0 1.0
vn -0.0 0.0 1.0
vn -0.0 0.0 1.0
vn -0.0 0.0 1.0
vn -0.0 0.0 1.0
vn -0.0 0.0 1.0
vn -0.0 0.0 1.0
vn -0.0 0.0 1.0
vn -0.0 0.0 1.0
vn -0.0 0.0 1.0
vn -0.0 0.0 1.0
vn -0.0 0.0 1.0
vn -0.0 0.0 1.0
vn -0.0 0.0 1.0
vn -0.0 0.0 1.0
vn -0.0 0.0 1.0
vn -0.0 0.0 1.0
vn -0.0 0.0 1.0
vn -0.0 0.0 1.0
vn -0.0 0.0 1.0
vn -0.0 0.0 1.0
vn -0.0 0.0 1.0
vn -0.0 0.0 1.0
vn -0.0 0.0 1.0
vn -0.0 0.0 1.0
vn -0.0 0.0 1.0
vn -0.0 0.0 1.0
vn -0.0 0.0 1.0
vn -0.0 0.0 1.0
vn -0.0 0.0 1.0
vn -0.0 0.0 1.0
vn -0.0 0.0 1.0
vn -0.0 0.0 1.0
vn -0.0 0.0 1.0
vn -0.0 0.0 1.0
vn -0.0 0.0 1.0
vn -0.0 0.0 1.0
vn -0.0 0.0 1.0
vn -0.0 0.0 1.0
vn -0.0 0.0 1.0
vn -0.0 0.0 1.0
vn -0.0 0.0 1.0
vn -0.0 0.0 1.0
vn -0.0 0.0 1.0
vn -0.0 0.0 1.0
vn -0.0 0.0 1.0
vn -0.0 0.0 1.0
vn -0.0 0.0 1.0
vn -0.0 0.0 1.0
vn -0.0 0.0 1.0
vn -0.0 0.0 1.0
vn -0.0 0.0 1.0
vn -0.0 0.0 1.0
vn -0.0 0.0 1.0
vn -0.0 0.0 1.0
vn -0.0 0.0 1.0
vn -0.0 0.0 1.0
vn -0.0 0.0 1.0
vn -0.0 0.0 1.0
vn -0.0 0.0 1.0
vn -0.0 0.0 1.0
vn -0.0 0.0 1.0
vn -0.0 0.0 1.0
vn -0.0 0.0 1.0
vn -0.0 0.0 1.0
vn -0.0 0.0 1.0
vn -0.0 0.0 1.0
vn -0.0 0.0 1.0
vn -0.0 0.0 1.0
vn -0.0 0.0 1.0
vn -0.0 0.0 1.0
vn -0.0 0.0 1.0
vn -0.0 0.0 1.0
vn -0.0 0.0 1.0
vt -0.1765749603509903 0.6666666567325592
vt -0.13657495379447937 0.6666666567325592
vt -0.1765749603509903 1.0
vt -0.13657495379447937 1.0
vt -0.09657496213912964 0.6666666567325592
vt -0.09657496213912964 1.0
vt -0.05657496303319931 0.6666666567325592
vt -0.05657496303319931 1.0
vt -0.016574963927268982 0.6666666567325592
vt -0.016574963927268982 1.0
vt 0.02342502772808075 0.6666666567325592
vt 0.02342502772808075 1.0
vt 0.06342501938343048 0.6666666567325592
vt 0.06342501938343048 1.0
vt 0.10342501103878021 0.6666666567325592
vt 0.10342501103878021 1.0
vt 0.14342500269412994 0.6666666567325592
vt 0.14342500269412994 1.0
vt 0.18342499434947968 0.6666666567325592
vt 0.18342499434947968 1.0
vt 0.2234249860048294 0.6666666567325592
vt 0.2234249860048294 1.0
vt 0.26342499256134033 0.6666666567325592
vt 0.26342499256134033 1.0
vt 0.3034249544143677 0.6666666567325592
vt 0.3034249544143677 1.0
vt 0.3434249758720398 0.6666666567325592
vt 0.3434249758720398 1.0
vt 0.3834249973297119 0.6666666567325592
vt 0.3834249973297119 1.0
vt 0.42342501878738403 0.6666666567325592
vt 0.42342501878738403 1.0
vt 0.46342504024505615 0.6666666567325592
vt 0.46342504024505615 1.0
vt 0.5034250617027283 0.6666666567325592
vt 0.5034250617027283 1.0
vt 0.5434250831604004 0.6666666567325592
vt 0.5434250831604004 1.0
vt 0.5834251046180725 0.6666666567325592
vt 0.5834251046180725 1.0
vt 0.6234251260757446 0.6666666567325592
vt 0.6234251260757446 1.0
vt 0.6634251475334167 0.6666666567325592
vt 0.6634251475334167 1.0
vt 0.7034251689910889 0.6666666567325592
vt 0.7034251689910889 1.0
vt 0.743425190448761 0.6666666567325592
vt 0.743425190448761 1.0
vt 0.7834252119064331 0.6666666567325592
vt 0.7834252119064331 1.0
vt 0.8234251737594604 0.6666666567325592
vt 0.8234251737594604 1.0
vt 0.5834251046180725 0.3333333134651184
vt 0.6234251260757446 0.3333333134651184
vt 0.6634251475334167 0.3333333134651184
vt 0.7034251689910889 0.3333333134651184
vt 0.743425190448761 0.3333333134651184
vt 0.7834252119064331 0.3333333134651184
vt 0.8234251737594604 0.3333333134651184
vt 0.6234251260757446 0.0
vt 0.5834251046180725 0.0
vt 0.5434250831604004 0.3333333134651184
vt 0.5034250617027283 0.3333333134651184
vt 0.46342504024505615 0.3333333134651184
vt 0.42342501878738403 0.3333333134651184
vt 0.3834249973297119 0.3333333134651184
vt 0.3434249758720398 0.3333333134651184
vt 0.3034249544143677 0.3333333134651184
vt 0.26342499256134033 0.3333333134651184
vt 0.2234249860048294 0.3333333134651184
vt 0.18342499434947968 0.3333333134651184
vt 0.14342500269412994 0.3333333134651184
vt 0.10342501103878021 0.3333333134651184
vt 0.06342501938343048 0.3333333134651184
vt 0.02342502772808075 0.3333333134651184
vt -0.016574963927268982 0.3333333134651184
vt -0.05657496303319931 0.3333333134651184
vt -0.09657496213912964 0.3333333134651184
vt -0.13657495379447937 0.3333333134651184
vt -0.1765749603509903 0.3333333134651184
vt -0.13657495379447937 0.0
vt -0.1765749603509903 0.0
vt -0.09657496213912964 0.0
vt -0.05657496303319931 0.0
vt -0.016574963927268982 0.0
vt 0.02342502772808075 0.0
vt 0.06342501938343048 0.0
vt 0.10342501103878021 0.0
vt 0.14342500269412994 0.0
vt 0.18342499434947968 0.0
vt 0.2234249860048294 0.0
vt 0.26342499256134033 0.0
vt 0.3034249544143677 0.0
vt 0.3434249758720398 0.0
vt 0.3834249973297119 0.0
vt 0.42342501878738403 0.0
vt 0.46342504024505615 0.0
vt 0.5034250617027283 0.0
vt 0.5434250831604004 0.0
vt 0.6634251475334167 0.0
vt 0.7034251689910889 0.0
vt 0.743425190448761 0.0
vt 0.7834252119064331 0.0
vt 0.8234251737594604 0.0

g beijiL
s 1
usemtl beijiL
f 3/3/3 2/2/2 1/1/1 
f 2/2/2 3/3/3 4/4/4 
f 4/4/4 5/5/5 2/2/2 
f 5/5/5 4/4/4 6/6/6 
f 6/6/6 7/7/7 5/5/5 
f 7/7/7 6/6/6 8/8/8 
f 8/8/8 9/9/9 7/7/7 
f 9/9/9 8/8/8 10/10/10 
f 10/10/10 11/11/11 9/9/9 
f 11/11/11 10/10/10 12/12/12 
f 12/12/12 13/13/13 11/11/11 
f 13/13/13 12/12/12 14/14/14 
f 14/14/14 15/15/15 13/13/13 
f 15/15/15 14/14/14 16/16/16 
f 16/16/16 17/17/17 15/15/15 
f 17/17/17 16/16/16 18/18/18 
f 18/18/18 19/19/19 17/17/17 
f 19/19/19 18/18/18 20/20/20 
f 20/20/20 21/21/21 19/19/19 
f 21/21/21 20/20/20 22/22/22 
f 22/22/22 23/23/23 21/21/21 
f 23/23/23 22/22/22 24/24/24 
f 24/24/24 25/25/25 23/23/23 
f 25/25/25 24/24/24 26/26/26 
f 26/26/26 27/27/27 25/25/25 
f 27/27/27 26/26/26 28/28/28 
f 28/28/28 29/29/29 27/27/27 
f 29/29/29 28/28/28 30/30/30 
f 30/30/30 31/31/31 29/29/29 
f 31/31/31 30/30/30 32/32/32 
f 32/32/32 33/33/33 31/31/31 
f 33/33/33 32/32/32 34/34/34 
f 34/34/34 35/35/35 33/33/33 
f 35/35/35 34/34/34 36/36/36 
f 36/36/36 37/37/37 35/35/35 
f 37/37/37 36/36/36 38/38/38 
f 38/38/38 39/39/39 37/37/37 
f 39/39/39 38/38/38 40/40/40 
f 40/40/40 41/41/41 39/39/39 
f 41/41/41 40/40/40 42/42/42 
f 42/42/42 43/43/43 41/41/41 
f 43/43/43 42/42/42 44/44/44 
f 44/44/44 45/45/45 43/43/43 
f 45/45/45 44/44/44 46/46/46 
f 46/46/46 47/47/47 45/45/45 
f 47/47/47 46/46/46 48/48/48 
f 48/48/48 49/49/49 47/47/47 
f 49/49/49 48/48/48 50/50/50 
f 50/50/50 51/51/51 49/49/49 
f 51/51/51 50/50/50 52/52/52 
f 53/53/53 37/37/37 39/39/39 
f 39/39/39 54/54/54 53/53/53 
f 54/54/54 39/39/39 41/41/41 
f 41/41/41 55/55/55 54/54/54 
f 55/55/55 41/41/41 43/43/43 
f 43/43/43 56/56/56 55/55/55 
f 56/56/56 43/43/43 45/45/45 
f 45/45/45 57/57/57 56/56/56 
f 57/57/57 45/45/45 47/47/47 
f 47/47/47 58/58/58 57/57/57 
f 58/58/58 47/47/47 49/49/49 
f 49/49/49 59/59/59 58/58/58 
f 59/59/59 49/49/49 51/51/51 
f 60/60/60 53/53/53 54/54/54 
f 53/53/53 60/60/60 61/61/61 
f 61/61/61 62/62/62 53/53/53 
f 37/37/37 53/53/53 62/62/62 
f 62/62/62 35/35/35 37/37/37 
f 35/35/35 62/62/62 63/63/63 
f 63/63/63 33/33/33 35/35/35 
f 33/33/33 63/63/63 64/64/64 
f 64/64/64 31/31/31 33/33/33 
f 31/31/31 64/64/64 65/65/65 
f 65/65/65 29/29/29 31/31/31 
f 29/29/29 65/65/65 66/66/66 
f 66/66/66 27/27/27 29/29/29 
f 27/27/27 66/66/66 67/67/67 
f 67/67/67 25/25/25 27/27/27 
f 25/25/25 67/67/67 68/68/68 
f 68/68/68 23/23/23 25/25/25 
f 23/23/23 68/68/68 69/69/69 
f 69/69/69 21/21/21 23/23/23 
f 21/21/21 69/69/69 70/70/70 
f 70/70/70 19/19/19 21/21/21 
f 19/19/19 70/70/70 71/71/71 
f 71/71/71 17/17/17 19/19/19 
f 17/17/17 71/71/71 72/72/72 
f 72/72/72 15/15/15 17/17/17 
f 15/15/15 72/72/72 73/73/73 
f 73/73/73 13/13/13 15/15/15 
f 13/13/13 73/73/73 74/74/74 
f 74/74/74 11/11/11 13/13/13 
f 11/11/11 74/74/74 75/75/75 
f 75/75/75 9/9/9 11/11/11 
f 9/9/9 75/75/75 76/76/76 
f 76/76/76 7/7/7 9/9/9 
f 7/7/7 76/76/76 77/77/77 
f 77/77/77 5/5/5 7/7/7 
f 5/5/5 77/77/77 78/78/78 
f 78/78/78 2/2/2 5/5/5 
f 2/2/2 78/78/78 79/79/79 
f 79/79/79 1/1/1 2/2/2 
f 1/1/1 79/79/79 80/80/80 
f 81/81/81 80/80/80 79/79/79 
f 80/80/80 81/81/81 82/82/82 
f 79/79/79 83/83/83 81/81/81 
f 83/83/83 79/79/79 78/78/78 
f 78/78/78 84/84/84 83/83/83 
f 84/84/84 78/78/78 77/77/77 
f 77/77/77 85/85/85 84/84/84 
f 85/85/85 77/77/77 76/76/76 
f 76/76/76 86/86/86 85/85/85 
f 86/86/86 76/76/76 75/75/75 
f 75/75/75 87/87/87 86/86/86 
f 87/87/87 75/75/75 74/74/74 
f 74/74/74 88/88/88 87/87/87 
f 88/88/88 74/74/74 73/73/73 
f 73/73/73 89/89/89 88/88/88 
f 89/89/89 73/73/73 72/72/72 
f 72/72/72 90/90/90 89/89/89 
f 90/90/90 72/72/72 71/71/71 
f 71/71/71 91/91/91 90/90/90 
f 91/91/91 71/71/71 70/70/70 
f 70/70/70 92/92/92 91/91/91 
f 92/92/92 70/70/70 69/69/69 
f 69/69/69 93/93/93 92/92/92 
f 93/93/93 69/69/69 68/68/68 
f 68/68/68 94/94/94 93/93/93 
f 94/94/94 68/68/68 67/67/67 
f 67/67/67 95/95/95 94/94/94 
f 95/95/95 67/67/67 66/66/66 
f 66/66/66 96/96/96 95/95/95 
f 96/96/96 66/66/66 65/65/65 
f 65/65/65 97/97/97 96/96/96 
f 97/97/97 65/65/65 64/64/64 
f 64/64/64 98/98/98 97/97/97 
f 98/98/98 64/64/64 63/63/63 
f 63/63/63 99/99/99 98/98/98 
f 99/99/99 63/63/63 62/62/62 
f 62/62/62 61/61/61 99/99/99 
f 54/54/54 100/100/100 60/60/60 
f 100/100/100 54/54/54 55/55/55 
f 55/55/55 101/101/101 100/100/100 
f 101/101/101 55/55/55 56/56/56 
f 56/56/56 102/102/102 101/101/101 
f 102/102/102 56/56/56 57/57/57 
f 57/57/57 103/103/103 102/102/102 
f 103/103/103 57/57/57 58/58/58 
f 58/58/58 104/104/104 103/103/103 
f 104/104/104 58/58/58 59/59/59 

