v 38.25127410888672 0.9839177131652832 10.124686241149902
v 37.50774383544922 -3.114502429962158 -10.124687194824219
v 36.52741241455078 -8.518220901489258 -8.99499225616455
v 37.28120040893555 -4.363259315490723 11.242559432983398
v 34.56403350830078 -14.104167938232422 -7.756876468658447
v 35.37129211425781 -9.790909767150879 12.445688247680664
v 31.756288528442383 -19.283594131469727 -6.504815101623535
v 32.69153594970703 -14.729924201965332 13.639762878417969
v 28.183090209960938 -23.92999839782715 -5.238473892211914
v 29.3475284576416 -19.074909210205078 14.82413101196289
v 23.94202423095703 -27.931636810302734 -3.9574880599975586
v 25.45863151550293 -22.741409301757812 15.998086929321289
v 19.147050857543945 -31.193973541259766 -2.661555767059326
v 21.153980255126953 -25.667633056640625 17.160892486572266
v 13.925227165222168 -33.64231491088867 -1.3503499031066895
v 16.568483352661133 -27.8153133392334 18.311738967895508
v 8.412992477416992 -35.22360610961914 -0.02344512939453125
v 11.8381986618042 -29.17011070251465 19.449851989746094
v 2.7538411617279053 -35.90728759765625 1.3193612098693848
v 7.096575736999512 -29.7408447265625 20.574392318725586
v -2.9065046310424805 -35.68650817871094 2.6783065795898438
v 2.470715284347534 -29.558326721191406 21.684432983398438
v -8.42428207397461 -34.57788848876953 4.053753852844238
v -1.9227089881896973 -28.673480987548828 22.779075622558594
v -13.660313606262207 -32.62104034423828 5.445905685424805
v -5.980125427246094 -27.154890060424805 23.857345581054688
v -18.48429298400879 -29.87741470336914 6.854931831359863
v -9.613815307617188 -25.08584976196289 24.918224334716797
v -22.778423309326172 -26.428401947021484 8.281042098999023
v -12.754016876220703 -22.561016082763672 25.960683822631836
v -26.440120697021484 -22.373180389404297 9.72435474395752
v -15.350044250488281 -19.682933807373047 26.983623504638672
v -29.384723663330078 -17.82613754272461 11.184861183166504
v -17.371204376220703 -16.558122634887695 27.9859619140625
v -31.548261642456055 -12.91283130645752 12.662687301635742
v -18.806299209594727 -13.2940673828125 28.9664306640625
v -32.888362884521484 -7.767463684082031 14.1577730178833
v -19.663564682006836 -9.99465560913086 29.92386245727539
v -33.38570785522461 -2.52860689163208 15.6699857711792
v -19.96892547607422 -6.757430076599121 30.857032775878906
v -33.04442596435547 2.664579391479492 17.199064254760742
v -19.764142990112305 -3.67055082321167 31.764671325683594
v -31.891796112060547 7.676633834838867 18.74471664428711
v -19.104440689086914 -0.8103382587432861 32.64548110961914
v -29.977258682250977 12.37942886352539 20.30652618408203
v -18.055728912353516 1.7607531547546387 33.49812316894531
v -27.371021270751953 16.655637741088867 21.88386344909668
v -16.69148826599121 3.9956274032592773 34.321292877197266
v -24.161296844482422 20.402973175048828 23.476154327392578
v -15.089730262756348 5.862878799438477 35.11357879638672
v -20.45198631286621 23.536163330078125 25.08255386352539
v -13.329461097717285 7.347443103790283 35.87368392944336
v -16.359786987304688 25.989524841308594 26.701812744140625
v -11.487700462341309 8.449634552001953 36.60029602050781
v -12.009265899658203 27.719676971435547 28.332807540893555
v -9.636784553527832 9.183956146240234 37.29206466674805
v -7.530192852020264 28.705820083618164 29.973907470703125
v -7.841247081756592 9.577672958374023 37.947811126708984
v -3.052549362182617 28.950767517089844 31.623260498046875
v -6.1560516357421875 9.668336868286133 38.56642150878906
v 1.2981340885162354 28.48039436340332 33.278926849365234
v -4.625492572784424 9.50137710571289 39.14673614501953
v 5.404138565063477 27.34241485595703 34.938499450683594
v -3.28145432472229 9.127447128295898 39.68781661987305
v -3.28145432472229 9.127447128295898 39.68781661987305
v 5.404138565063477 27.34241485595703 34.938499450683594
v 9.158639907836914 25.60517692565918 36.59877395629883
v -2.143289566040039 8.599387168884277 40.18888854980469
v 12.472631454467773 23.353744506835938 38.2569580078125
v -1.2178044319152832 7.969180107116699 40.64964294433594
v 15.274345397949219 20.68799591064453 39.90909957885742
v -0.5013837814331055 7.286014556884766 41.06977844238281
v 17.51346778869629 17.7181396484375 41.550819396972656
v 0.01973724365234375 6.593191146850586 41.449554443359375
v 19.162755966186523 14.560125350952148 43.17734909057617
v 0.3666696548461914 5.927016735076904 41.78944778442383
v 20.218524932861328 11.3311767578125 44.78325653076172
v 0.566004753112793 5.315013885498047 42.0905647277832
v 20.700435638427734 8.145201683044434 46.36231231689453
v 0.6470928192138672 4.77508544921875 42.35485076904297
v 20.650497436523438 5.1076250076293945 47.907588958740234
v 0.6391191482543945 4.316364288330078 42.58481979370117
v 20.208751678466797 2.7207584381103516 49.189048767089844
v 0.42650699615478516 3.1675775051116943 43.201541900634766
vn 0.9839391112327576 -0.17850421369075775 0.0
vn 0.9839391112327576 -0.17850421369075775 0.0
vn 0.967418372631073 -0.2526852786540985 0.015870971605181694
vn 0.9674171209335327 -0.2526898980140686 0.015871969982981682
vn 0.917106568813324 -0.3957599699497223 0.047849394381046295
vn 0.9171024560928345 -0.3957691788673401 0.047851525247097015
vn 0.8450520634651184 -0.52862548828125 0.08026290684938431
vn 0.8450465798377991 -0.5286339521408081 0.08026507496833801
vn 0.7533181309700012 -0.6478652954101562 0.11305907368659973
vn 0.7533112168312073 -0.6478729248046875 0.1130613312125206
vn 0.6445264220237732 -0.7504727244377136 0.14620673656463623
vn 0.6445183157920837 -0.7504792213439941 0.14620904624462128
vn 0.5217777490615845 -0.8339462876319885 0.17967060208320618
vn 0.5217681527137756 -0.8339517712593079 0.17967309057712555
vn 0.38855111598968506 -0.8963722586631775 0.2134122997522354
vn 0.38854020833969116 -0.8963763117790222 0.2134149968624115
vn 0.24859283864498138 -0.9364824295043945 0.24739105999469757
vn 0.24858219921588898 -0.9364845156669617 0.24739359319210052
vn 0.10580211132764816 -0.9536929130554199 0.2815593183040619
vn 0.10579133033752441 -0.9536933898925781 0.2815619111061096
vn -0.035904474556446075 -0.9481247663497925 0.3158643841743469
vn -0.035915911197662354 -0.9481233954429626 0.31586718559265137
vn -0.17272207140922546 -0.9205935001373291 0.35024958848953247
vn -0.17273327708244324 -0.9205902814865112 0.3502524793148041
vn -0.3010816276073456 -0.8725777268409729 0.3846530020236969
vn -0.30109232664108276 -0.8725727200508118 0.38465601205825806
vn -0.41777098178863525 -0.806164562702179 0.4190061092376709
vn -0.41778114438056946 -0.8061577081680298 0.419009268283844
vn -0.5200433731079102 -0.7239710092544556 0.45323383808135986
vn -0.520052433013916 -0.7239623069763184 0.4532371461391449
vn -0.6057095527648926 -0.6290456652641296 0.4872550070285797
vn -0.6057172417640686 -0.6290355920791626 0.4872584044933319
vn -0.6732087731361389 -0.5247581005096436 0.5209788084030151
vn -0.6732156276702881 -0.5247453451156616 0.5209827423095703
vn -0.7216614484786987 -0.4146641492843628 0.5543088912963867
vn -0.7216662168502808 -0.41465047001838684 0.5543129444122314
vn -0.7508891224861145 -0.3023752272129059 0.5871410965919495
vn -0.7508915662765503 -0.30236124992370605 0.5871451497077942
vn -0.7614138722419739 -0.19141757488250732 0.6193611025810242
vn -0.761414110660553 -0.1914038062095642 0.6193651556968689
vn -0.7544275522232056 -0.08509494364261627 0.6508440375328064
vn -0.754425585269928 -0.08508124202489853 0.6508480906486511
vn -0.7317329049110413 0.013644431717693806 0.6814548969268799
vn -0.7317286133766174 0.01365779247134924 0.6814592480659485
vn -0.6956589818000793 0.1023213267326355 0.7110477685928345
vn -0.6956527233123779 0.10233378410339355 0.7110521197319031
vn -0.6489539742469788 0.1790275275707245 0.739464521408081
vn -0.6489452719688416 0.17903947830200195 0.7394692897796631
vn -0.5946552157402039 0.2425040602684021 0.7665356993675232
vn -0.5946447253227234 0.24251435697078705 0.7665405869483948
vn -0.5359490513801575 0.29218411445617676 0.7920776605606079
vn -0.5359378457069397 0.29219213128089905 0.7920823097229004
vn -0.47602203488349915 0.32821452617645264 0.8158911466598511
vn -0.4760097563266754 0.32822054624557495 0.8158957958221436
vn -0.41790029406547546 0.35144340991973877 0.8377630710601807
vn -0.41788819432258606 0.35144704580307007 0.837767481803894
vn -0.3642977476119995 0.3633723258972168 0.8574658036231995
vn -0.3642861247062683 0.36337390542030334 0.8574701547622681
vn -0.31748083233833313 0.36607596278190613 0.8747538328170776
vn -0.31746941804885864 0.3660756051540375 0.8747581839561462
vn -0.27913805842399597 0.36209043860435486 0.8893663287162781
vn -0.2791281044483185 0.36208853125572205 0.8893702030181885
vn -0.25028637051582336 0.354274183511734 0.9010252356529236
vn -0.2502789795398712 0.35427144169807434 0.9010283946990967
vn -0.2502789795398712 0.35427144169807434 0.9010283946990967
vn -0.25028637051582336 0.354274183511734 0.9010252356529236
vn -0.23120521008968353 0.3456462621688843 0.9094353914260864
vn -0.23120026290416718 0.34564340114593506 0.9094377756118774
vn -0.2214014083147049 0.33921313285827637 0.914284348487854
vn -0.22139933705329895 0.3392113745212555 0.9142855405807495
vn -0.21961989998817444 0.33778131008148193 0.9152436256408691
vn -0.2196207046508789 0.3377821147441864 0.9152431488037109
vn -0.22389927506446838 0.34377220273017883 0.9119702577590942
vn -0.22390279173851013 0.34377750754356384 0.9119674563407898
vn -0.23167289793491364 0.35904693603515625 0.9041089415550232
vn -0.231678307056427 0.3590593934059143 0.904102623462677
vn -0.2399069368839264 0.3847562372684479 0.8912952542304993
vn -0.23991245031356812 0.3847787082195282 0.8912841081619263
vn -0.24528324604034424 0.4212193787097931 0.8731611371040344
vn -0.24528592824935913 0.42125585675239563 0.8731427192687988
vn -0.24435606598854065 0.4678517282009125 0.8493555188179016
vn -0.24435363709926605 0.4678769111633301 0.849342405796051
vn -0.24175822734832764 0.4933338761329651 0.8355684876441956
vn -0.24175822734832764 0.4933338761329651 0.8355684876441956
vt 0.984963595867157 0.9999840259552002
vt 0.01610732078552246 0.9999999403953552
vt 0.01610732078552246 0.9754921086132526
vt 0.984963595867157 0.9750066120177507
vt 0.01610732078552246 0.95098427683115
vt 0.984963595867157 0.9500291980803013
vt 0.01610732078552246 0.9264764487743378
vt 0.984963595867157 0.925051786005497
vt 0.01610732078552246 0.9019686132669449
vt 0.984963595867157 0.9000743702054024
vt 0.01610732078552246 0.877460777759552
vt 0.984963595867157 0.8750969544053078
vt 0.01610732078552246 0.8529529422521591
vt 0.984963595867157 0.8501195460557938
vt 0.01610732078552246 0.8284451067447662
vt 0.984963595867157 0.8251421302556992
vt 0.01610732078552246 0.8039372712373734
vt 0.984963595867157 0.8001647144556046
vt 0.01610732078552246 0.7794294357299805
vt 0.984963595867157 0.77518729865551
vt 0.01610732078552246 0.7549216002225876
vt 0.984963595867157 0.7502098828554153
vt 0.01610732078552246 0.7304137647151947
vt 0.984963595867157 0.7252324819564819
vt 0.01610732078552246 0.705905944108963
vt 0.984963595867157 0.7002550661563873
vt 0.01610732078552246 0.6813981235027313
vt 0.984963595867157 0.6752776503562927
vt 0.01610732078552246 0.6568903028964996
vt 0.984963595867157 0.6503002345561981
vt 0.01610732078552246 0.6323824822902679
vt 0.984963595867157 0.6253228187561035
vt 0.01610732078552246 0.6078746616840363
vt 0.984963595867157 0.6003454029560089
vt 0.01610732078552246 0.5833668410778046
vt 0.984963595867157 0.5753679871559143
vt 0.01610732078552246 0.5588590204715729
vt 0.984963595867157 0.5503905713558197
vt 0.01610732078552246 0.5343511998653412
vt 0.984963595867157 0.5254131555557251
vt 0.01610732078552246 0.5098433792591095
vt 0.984963595867157 0.5004357397556305
vt 0.01610732078552246 0.4853355288505554
vt 0.984963595867157 0.4754583239555359
vt 0.01610732078552246 0.46082770824432373
vt 0.984963595867157 0.45048093795776367
vt 0.01610732078552246 0.43631988763809204
vt 0.984963595867157 0.42550355195999146
vt 0.01610732078552246 0.41181206703186035
vt 0.984963595867157 0.40052616596221924
vt 0.01610732078552246 0.38730424642562866
vt 0.984963595867157 0.375548779964447
vt 0.01610732078552246 0.362796425819397
vt 0.984963595867157 0.3505713939666748
vt 0.01610732078552246 0.3382886052131653
vt 0.984963595867157 0.3255940079689026
vt 0.01610732078552246 0.3137807846069336
vt 0.984963595867157 0.30061662197113037
vt 0.01610732078552246 0.2892729640007019
vt 0.984963595867157 0.27563923597335815
vt 0.01610732078552246 0.2647651433944702
vt 0.984963595867157 0.25066184997558594
vt 0.01610732078552246 0.24025732278823853
vt 0.984963595867157 0.22568446397781372
vt 0.984963595867157 0.22568446397781372
vt 0.01610732078552246 0.2402571439743042
vt 0.01610732078552246 0.21226578950881958
vt 0.984963595867157 0.2007070779800415
vt 0.01610732078552246 0.18430960178375244
vt 0.984963595867157 0.1757296919822693
vt 0.01610732078552246 0.15645533800125122
vt 0.984963595867157 0.15075230598449707
vt 0.01610732078552246 0.12877678871154785
vt 0.984963595867157 0.12577491998672485
vt 0.01610732078552246 0.10135430097579956
vt 0.984963595867157 0.10079753398895264
vt 0.01610732078552246 0.07427948713302612
vt 0.984963595867157 0.07582014799118042
vt 0.01610732078552246 0.04765737056732178
vt 0.984963595867157 0.0508427619934082
vt 0.01610732078552246 0.02160477638244629
vt 0.984963595867157 0.025865375995635986
vt 0.01610732078552246 5.960464477539063e-08
vt 0.984963595867157 0.0008879899978637695

g Helix001
s 1
usemtl Helix001
f 3/3/3 2/2/2 1/1/1 
f 4/4/4 3/3/3 1/1/1 
f 5/5/5 3/3/3 4/4/4 
f 6/6/6 5/5/5 4/4/4 
f 7/7/7 5/5/5 6/6/6 
f 8/8/8 7/7/7 6/6/6 
f 9/9/9 7/7/7 8/8/8 
f 10/10/10 9/9/9 8/8/8 
f 11/11/11 9/9/9 10/10/10 
f 12/12/12 11/11/11 10/10/10 
f 13/13/13 11/11/11 12/12/12 
f 14/14/14 13/13/13 12/12/12 
f 15/15/15 13/13/13 14/14/14 
f 16/16/16 15/15/15 14/14/14 
f 17/17/17 15/15/15 16/16/16 
f 18/18/18 17/17/17 16/16/16 
f 19/19/19 17/17/17 18/18/18 
f 20/20/20 19/19/19 18/18/18 
f 21/21/21 19/19/19 20/20/20 
f 22/22/22 21/21/21 20/20/20 
f 23/23/23 21/21/21 22/22/22 
f 24/24/24 23/23/23 22/22/22 
f 25/25/25 23/23/23 24/24/24 
f 26/26/26 25/25/25 24/24/24 
f 27/27/27 25/25/25 26/26/26 
f 28/28/28 27/27/27 26/26/26 
f 29/29/29 27/27/27 28/28/28 
f 30/30/30 29/29/29 28/28/28 
f 31/31/31 29/29/29 30/30/30 
f 32/32/32 31/31/31 30/30/30 
f 33/33/33 31/31/31 32/32/32 
f 34/34/34 33/33/33 32/32/32 
f 35/35/35 33/33/33 34/34/34 
f 36/36/36 35/35/35 34/34/34 
f 37/37/37 35/35/35 36/36/36 
f 38/38/38 37/37/37 36/36/36 
f 39/39/39 37/37/37 38/38/38 
f 40/40/40 39/39/39 38/38/38 
f 41/41/41 39/39/39 40/40/40 
f 42/42/42 41/41/41 40/40/40 
f 43/43/43 41/41/41 42/42/42 
f 44/44/44 43/43/43 42/42/42 
f 45/45/45 43/43/43 44/44/44 
f 46/46/46 45/45/45 44/44/44 
f 47/47/47 45/45/45 46/46/46 
f 48/48/48 47/47/47 46/46/46 
f 49/49/49 47/47/47 48/48/48 
f 50/50/50 49/49/49 48/48/48 
f 51/51/51 49/49/49 50/50/50 
f 52/52/52 51/51/51 50/50/50 
f 53/53/53 51/51/51 52/52/52 
f 54/54/54 53/53/53 52/52/52 
f 55/55/55 53/53/53 54/54/54 
f 56/56/56 55/55/55 54/54/54 
f 57/57/57 55/55/55 56/56/56 
f 58/58/58 57/57/57 56/56/56 
f 59/59/59 57/57/57 58/58/58 
f 60/60/60 59/59/59 58/58/58 
f 61/61/61 59/59/59 60/60/60 
f 62/62/62 61/61/61 60/60/60 
f 63/63/63 61/61/61 62/62/62 
f 64/64/64 63/63/63 62/62/62 
f 67/67/67 66/66/66 65/65/65 
f 68/68/68 67/67/67 65/65/65 
f 69/69/69 67/67/67 68/68/68 
f 70/70/70 69/69/69 68/68/68 
f 71/71/71 69/69/69 70/70/70 
f 72/72/72 71/71/71 70/70/70 
f 73/73/73 71/71/71 72/72/72 
f 74/74/74 73/73/73 72/72/72 
f 75/75/75 73/73/73 74/74/74 
f 76/76/76 75/75/75 74/74/74 
f 77/77/77 75/75/75 76/76/76 
f 78/78/78 77/77/77 76/76/76 
f 79/79/79 77/77/77 78/78/78 
f 80/80/80 79/79/79 78/78/78 
f 81/81/81 79/79/79 80/80/80 
f 82/82/82 81/81/81 80/80/80 
f 83/83/83 81/81/81 82/82/82 
f 84/84/84 83/83/83 82/82/82 

