[
	{
		"ID": 1,
		"Name": "iPhone X",
		"DeviceModel": "iPhone10,3",
		"MarginFixHorizontal": true,
		"MarginFixVertical": true
	},
	{
		"ID": 2,
		"Name": "iPhone X",
		"DeviceModel": "iPhone10,6",
		"MarginFixHorizontal": true,
		"MarginFixVertical": true
	},
	{
		"ID": 3,
		"Name": "OPPO R15",
		"DeviceModel": "OPPO PACM00",
		"MarginFixHorizontal": true,
		"MarginFixVertical": false
	},
	{
		"ID": 4,
		"Name": "OPPO R15",
		"DeviceModel": "OPPO PACT00",
		"MarginFixHorizontal": true,
		"MarginFixVertical": false
	},
	{
		"ID": 5,
		"Name": "VIVO X21",
		"DeviceModel": "vivo X21",
		"MarginFixHorizontal": true,
		"MarginFixVertical": false
	},
	{
		"ID": 6,
		"Name": "OPPO A3",
		"DeviceModel": "OPPO PADM00",
		"MarginFixHorizontal": true,
		"MarginFixVertical": false
	},
	{
		"ID": 7,
		"Name": "vivo Y85",
		"DeviceModel": "vivo Y85",
		"MarginFixHorizontal": true,
		"MarginFixVertical": false
	},
	{
		"ID": 8,
		"Name": "华为P20",
		"DeviceModel": "EML-AL00",
		"MarginFixHorizontal": true,
		"MarginFixVertical": false
	},
	{
		"ID": 9,
		"Name": "荣耀10",
		"DeviceModel": "COL-AL10",
		"MarginFixHorizontal": true,
		"MarginFixVertical": false
	},
	{
		"ID": 10,
		"Name": "小米8",
		"DeviceModel": "Xiaomi MI 8",
		"MarginFixHorizontal": true,
		"MarginFixVertical": false
	},
	{
		"ID": 11,
		"Name": "OPPO R15s",
		"DeviceModel": "PBAT00",
		"MarginFixHorizontal": true,
		"MarginFixVertical": false
	},
	{
		"ID": 12,
		"Name": "OPPO R15s",
		"DeviceModel": "PBAM00",
		"MarginFixHorizontal": true,
		"MarginFixVertical": false
	},
	{
		"ID": 13,
		"Name": "OPPO R15s",
		"DeviceModel": "PAAT00",
		"MarginFixHorizontal": true,
		"MarginFixVertical": false
	},
	{
		"ID": 14,
		"Name": "OPPO R15s",
		"DeviceModel": "PAAM00",
		"MarginFixHorizontal": true,
		"MarginFixVertical": false
	},
	{
		"ID": 15,
		"Name": "iPhone XS",
		"DeviceModel": "iPhone11,2",
		"MarginFixHorizontal": true,
		"MarginFixVertical": true
	},
	{
		"ID": 16,
		"Name": "iPhone XS Max",
		"DeviceModel": "iPhone11,4",
		"MarginFixHorizontal": true,
		"MarginFixVertical": true
	},
	{
		"ID": 17,
		"Name": "iPhone XS Max",
		"DeviceModel": "iPhone11,6",
		"MarginFixHorizontal": true,
		"MarginFixVertical": true
	},
	{
		"ID": 18,
		"Name": "iPhone XR",
		"DeviceModel": "iPhone11,8",
		"MarginFixHorizontal": true,
		"MarginFixVertical": true
	},
	{
		"ID": 19,
		"Name": "一加6",
		"DeviceModel": "ONEPLUS A6",
		"MarginFixHorizontal": true,
		"MarginFixVertical": false
	},
	{
		"ID": 20,
		"Name": "iPad Pro",
		"DeviceModel": "iPad8,",
		"MarginFixHorizontal": false,
		"MarginFixVertical": true
	},
	{
		"ID": 21,
		"Name": "华为Mate20",
		"DeviceModel": "HMA-AL00",
		"MarginFixHorizontal": true,
		"MarginFixVertical": false
	},
	{
		"ID": 22,
		"Name": "华为Mate20Pro",
		"DeviceModel": "LYA-AL00",
		"MarginFixHorizontal": true,
		"MarginFixVertical": false
	},
	{
		"ID": 23,
		"Name": "p20 pro",
		"DeviceModel": "CLT-AL",
		"MarginFixHorizontal": true,
		"MarginFixVertical": false
	},
	{
		"ID": 24,
		"Name": "nova3",
		"DeviceModel": "PAR-AL",
		"MarginFixHorizontal": true,
		"MarginFixVertical": false
	},
	{
		"ID": 25,
		"Name": "nova3i",
		"DeviceModel": "nova 3",
		"MarginFixHorizontal": true,
		"MarginFixVertical": false
	},
	{
		"ID": 26,
		"Name": "荣耀畅玩8C",
		"DeviceModel": "BKK-AL",
		"MarginFixHorizontal": true,
		"MarginFixVertical": false
	},
	{
		"ID": 27,
		"Name": "荣耀(honor）9i",
		"DeviceModel": "LLD-AL",
		"MarginFixHorizontal": true,
		"MarginFixVertical": false
	},
	{
		"ID": 28,
		"Name": "华为畅享9",
		"DeviceModel": "DUB-AL",
		"MarginFixHorizontal": true,
		"MarginFixVertical": false
	},
	{
		"ID": 29,
		"Name": "Mate 20 X",
		"DeviceModel": "EVR-AL",
		"MarginFixHorizontal": true,
		"MarginFixVertical": false
	},
	{
		"ID": 30,
		"Name": "荣耀8X Max",
		"DeviceModel": "ARE-AL",
		"MarginFixHorizontal": true,
		"MarginFixVertical": false
	},
	{
		"ID": 31,
		"Name": "荣耀Play",
		"DeviceModel": "COR-AL",
		"MarginFixHorizontal": true,
		"MarginFixVertical": false
	},
	{
		"ID": 32,
		"Name": "荣耀V20",
		"DeviceModel": "PCT-AL",
		"MarginFixHorizontal": true,
		"MarginFixVertical": false
	},
	{
		"ID": 33,
		"Name": "荣耀V10",
		"DeviceModel": "BKL-AL",
		"MarginFixHorizontal": true,
		"MarginFixVertical": false
	},
	{
		"ID": 34,
		"Name": "nova 4",
		"DeviceModel": "VCE-AL",
		"MarginFixHorizontal": true,
		"MarginFixVertical": false
	},
	{
		"ID": 35,
		"Name": "nova 4",
		"DeviceModel": "VCE-TL",
		"MarginFixHorizontal": true,
		"MarginFixVertical": false
	},
	{
		"ID": 36,
		"Name": "OPPO R15、F7",
		"DeviceModel": "OPPO CPH18",
		"MarginFixHorizontal": true,
		"MarginFixVertical": false
	}
]