[
	{
		"ID": 1,
		"Dan": 1,
		"DanRewardMailTemplateId": 44
	},
	{
		"ID": 2,
		"Dan": 2,
		"DanRewardMailTemplateId": 45
	},
	{
		"ID": 3,
		"Dan": 3,
		"DanRewardMailTemplateId": 46
	},
	{
		"ID": 4,
		"Dan": 4,
		"DanRewardMailTemplateId": 47
	},
	{
		"ID": 5,
		"Dan": 5,
		"DanRewardMailTemplateId": 48
	},
	{
		"ID": 6,
		"Dan": 6,
		"DanRewardMailTemplateId": 49
	},
	{
		"ID": 7,
		"Dan": 7,
		"DanRewardMailTemplateId": 50
	},
	{
		"ID": 8,
		"Dan": 8,
		"DanRewardMailTemplateId": 51
	},
	{
		"ID": 9,
		"Dan": 9,
		"DanRewardMailTemplateId": 52
	},
	{
		"ID": 10,
		"Dan": 10,
		"DanRewardMailTemplateId": 53
	}
]