[
	{
		"ID": 1,
		"Name": "礼物夺还战Lv35-A",
		"TeamName": "Lv35A",
		"DaysBeforeActivate": 0,
		"PlayerLevelRequired": 30,
		"MonsterLevel": 35,
		"BattleID": 6621,
		"PlayerExp": 10,
		"HeroExp": 55,
		"GoldReward": 638,
		"EnergyCostSuccess": 10,
		"EnergyCostFail": 2,
		"EnergyCostTeam": 8,
		"FirstClearDrop": [
			{
				"GoodsType": "GoodsType_Crystal",
				"Id": 0,
				"Count": 10
			},
			{
				"GoodsType": "GoodsType_Item",
				"Id": 3508,
				"Count": 3
			}
		],
		"RandomDrop": 10001,
		"TeamDrop": 0,
		"DropDisplayCount": 2
	},
	{
		"ID": 2,
		"Name": "礼物夺还战Lv35-B",
		"TeamName": "Lv35B",
		"DaysBeforeActivate": 0,
		"PlayerLevelRequired": 30,
		"MonsterLevel": 35,
		"BattleID": 6624,
		"PlayerExp": 10,
		"HeroExp": 55,
		"GoldReward": 638,
		"EnergyCostSuccess": 10,
		"EnergyCostFail": 2,
		"EnergyCostTeam": 8,
		"FirstClearDrop": [
			{
				"GoodsType": "GoodsType_Crystal",
				"Id": 0,
				"Count": 10
			},
			{
				"GoodsType": "GoodsType_Item",
				"Id": 3506,
				"Count": 3
			}
		],
		"RandomDrop": 10002,
		"TeamDrop": 0,
		"DropDisplayCount": 2
	},
	{
		"ID": 3,
		"Name": "礼物夺还战Lv35-C",
		"TeamName": "Lv35C",
		"DaysBeforeActivate": 0,
		"PlayerLevelRequired": 30,
		"MonsterLevel": 35,
		"BattleID": 6627,
		"PlayerExp": 10,
		"HeroExp": 55,
		"GoldReward": 638,
		"EnergyCostSuccess": 10,
		"EnergyCostFail": 2,
		"EnergyCostTeam": 8,
		"FirstClearDrop": [
			{
				"GoodsType": "GoodsType_Crystal",
				"Id": 0,
				"Count": 10
			},
			{
				"GoodsType": "GoodsType_Item",
				"Id": 3507,
				"Count": 3
			}
		],
		"RandomDrop": 10003,
		"TeamDrop": 0,
		"DropDisplayCount": 2
	},
	{
		"ID": 4,
		"Name": "礼物夺还战Lv35-D",
		"TeamName": "Lv35D",
		"DaysBeforeActivate": 0,
		"PlayerLevelRequired": 30,
		"MonsterLevel": 35,
		"BattleID": 6630,
		"PlayerExp": 10,
		"HeroExp": 55,
		"GoldReward": 638,
		"EnergyCostSuccess": 10,
		"EnergyCostFail": 2,
		"EnergyCostTeam": 8,
		"FirstClearDrop": [
			{
				"GoodsType": "GoodsType_Crystal",
				"Id": 0,
				"Count": 10
			},
			{
				"GoodsType": "GoodsType_Item",
				"Id": 3505,
				"Count": 3
			}
		],
		"RandomDrop": 10004,
		"TeamDrop": 0,
		"DropDisplayCount": 2
	},
	{
		"ID": 5,
		"Name": "礼物夺还战Lv45-A",
		"TeamName": "Lv45A",
		"DaysBeforeActivate": 1,
		"PlayerLevelRequired": 40,
		"MonsterLevel": 45,
		"BattleID": 6622,
		"PlayerExp": 10,
		"HeroExp": 65,
		"GoldReward": 875,
		"EnergyCostSuccess": 10,
		"EnergyCostFail": 2,
		"EnergyCostTeam": 8,
		"FirstClearDrop": [
			{
				"GoodsType": "GoodsType_Crystal",
				"Id": 0,
				"Count": 10
			},
			{
				"GoodsType": "GoodsType_Item",
				"Id": 3507,
				"Count": 6
			}
		],
		"RandomDrop": 10005,
		"TeamDrop": 0,
		"DropDisplayCount": 2
	},
	{
		"ID": 6,
		"Name": "礼物夺还战Lv45-B",
		"TeamName": "Lv45B",
		"DaysBeforeActivate": 1,
		"PlayerLevelRequired": 40,
		"MonsterLevel": 45,
		"BattleID": 6625,
		"PlayerExp": 10,
		"HeroExp": 65,
		"GoldReward": 875,
		"EnergyCostSuccess": 10,
		"EnergyCostFail": 2,
		"EnergyCostTeam": 8,
		"FirstClearDrop": [
			{
				"GoodsType": "GoodsType_Crystal",
				"Id": 0,
				"Count": 10
			},
			{
				"GoodsType": "GoodsType_Item",
				"Id": 3505,
				"Count": 6
			}
		],
		"RandomDrop": 10006,
		"TeamDrop": 0,
		"DropDisplayCount": 2
	},
	{
		"ID": 7,
		"Name": "礼物夺还战Lv45-C",
		"TeamName": "Lv45C",
		"DaysBeforeActivate": 1,
		"PlayerLevelRequired": 40,
		"MonsterLevel": 45,
		"BattleID": 6628,
		"PlayerExp": 10,
		"HeroExp": 65,
		"GoldReward": 875,
		"EnergyCostSuccess": 10,
		"EnergyCostFail": 2,
		"EnergyCostTeam": 8,
		"FirstClearDrop": [
			{
				"GoodsType": "GoodsType_Crystal",
				"Id": 0,
				"Count": 10
			},
			{
				"GoodsType": "GoodsType_Item",
				"Id": 3508,
				"Count": 6
			}
		],
		"RandomDrop": 10007,
		"TeamDrop": 0,
		"DropDisplayCount": 2
	},
	{
		"ID": 8,
		"Name": "礼物夺还战Lv45-D",
		"TeamName": "Lv45D",
		"DaysBeforeActivate": 1,
		"PlayerLevelRequired": 40,
		"MonsterLevel": 45,
		"BattleID": 6631,
		"PlayerExp": 10,
		"HeroExp": 65,
		"GoldReward": 875,
		"EnergyCostSuccess": 10,
		"EnergyCostFail": 2,
		"EnergyCostTeam": 8,
		"FirstClearDrop": [
			{
				"GoodsType": "GoodsType_Crystal",
				"Id": 0,
				"Count": 10
			},
			{
				"GoodsType": "GoodsType_Item",
				"Id": 3506,
				"Count": 6
			}
		],
		"RandomDrop": 10008,
		"TeamDrop": 0,
		"DropDisplayCount": 2
	},
	{
		"ID": 9,
		"Name": "礼物夺还战Lv55-A",
		"TeamName": "Lv55A",
		"DaysBeforeActivate": 2,
		"PlayerLevelRequired": 50,
		"MonsterLevel": 55,
		"BattleID": 6623,
		"PlayerExp": 10,
		"HeroExp": 75,
		"GoldReward": 1140,
		"EnergyCostSuccess": 10,
		"EnergyCostFail": 2,
		"EnergyCostTeam": 8,
		"FirstClearDrop": [
			{
				"GoodsType": "GoodsType_Crystal",
				"Id": 0,
				"Count": 10
			},
			{
				"GoodsType": "GoodsType_Item",
				"Id": 3507,
				"Count": 9
			}
		],
		"RandomDrop": 10009,
		"TeamDrop": 0,
		"DropDisplayCount": 2
	},
	{
		"ID": 10,
		"Name": "礼物夺还战Lv55-B",
		"TeamName": "Lv55B",
		"DaysBeforeActivate": 2,
		"PlayerLevelRequired": 50,
		"MonsterLevel": 55,
		"BattleID": 6626,
		"PlayerExp": 10,
		"HeroExp": 75,
		"GoldReward": 1140,
		"EnergyCostSuccess": 10,
		"EnergyCostFail": 2,
		"EnergyCostTeam": 8,
		"FirstClearDrop": [
			{
				"GoodsType": "GoodsType_Crystal",
				"Id": 0,
				"Count": 10
			},
			{
				"GoodsType": "GoodsType_Item",
				"Id": 3505,
				"Count": 9
			}
		],
		"RandomDrop": 10010,
		"TeamDrop": 0,
		"DropDisplayCount": 2
	},
	{
		"ID": 11,
		"Name": "礼物夺还战Lv55-C",
		"TeamName": "Lv55C",
		"DaysBeforeActivate": 2,
		"PlayerLevelRequired": 50,
		"MonsterLevel": 55,
		"BattleID": 6629,
		"PlayerExp": 10,
		"HeroExp": 75,
		"GoldReward": 1140,
		"EnergyCostSuccess": 10,
		"EnergyCostFail": 2,
		"EnergyCostTeam": 8,
		"FirstClearDrop": [
			{
				"GoodsType": "GoodsType_Crystal",
				"Id": 0,
				"Count": 10
			},
			{
				"GoodsType": "GoodsType_Item",
				"Id": 3506,
				"Count": 9
			}
		],
		"RandomDrop": 10011,
		"TeamDrop": 0,
		"DropDisplayCount": 2
	},
	{
		"ID": 12,
		"Name": "礼物夺还战Lv55-D",
		"TeamName": "Lv55D",
		"DaysBeforeActivate": 2,
		"PlayerLevelRequired": 50,
		"MonsterLevel": 55,
		"BattleID": 6632,
		"PlayerExp": 10,
		"HeroExp": 75,
		"GoldReward": 1140,
		"EnergyCostSuccess": 10,
		"EnergyCostFail": 2,
		"EnergyCostTeam": 8,
		"FirstClearDrop": [
			{
				"GoodsType": "GoodsType_Crystal",
				"Id": 0,
				"Count": 10
			},
			{
				"GoodsType": "GoodsType_Item",
				"Id": 3508,
				"Count": 9
			}
		],
		"RandomDrop": 10012,
		"TeamDrop": 0,
		"DropDisplayCount": 2
	},
	{
		"ID": 13,
		"Name": "礼物夺还战Lv55-E",
		"TeamName": "Lv55E",
		"DaysBeforeActivate": 3,
		"PlayerLevelRequired": 50,
		"MonsterLevel": 55,
		"BattleID": 6633,
		"PlayerExp": 10,
		"HeroExp": 75,
		"GoldReward": 1140,
		"EnergyCostSuccess": 10,
		"EnergyCostFail": 2,
		"EnergyCostTeam": 8,
		"FirstClearDrop": [
			{
				"GoodsType": "GoodsType_Crystal",
				"Id": 0,
				"Count": 10
			},
			{
				"GoodsType": "GoodsType_Item",
				"Id": 3506,
				"Count": 8
			},
			{
				"GoodsType": "GoodsType_Item",
				"Id": 3507,
				"Count": 8
			}
		],
		"RandomDrop": 10013,
		"TeamDrop": 0,
		"DropDisplayCount": 3
	},
	{
		"ID": 14,
		"Name": "礼物夺还战Lv55-F",
		"TeamName": "Lv55F",
		"DaysBeforeActivate": 3,
		"PlayerLevelRequired": 50,
		"MonsterLevel": 55,
		"BattleID": 6634,
		"PlayerExp": 10,
		"HeroExp": 75,
		"GoldReward": 1140,
		"EnergyCostSuccess": 10,
		"EnergyCostFail": 2,
		"EnergyCostTeam": 8,
		"FirstClearDrop": [
			{
				"GoodsType": "GoodsType_Crystal",
				"Id": 0,
				"Count": 10
			},
			{
				"GoodsType": "GoodsType_Item",
				"Id": 3505,
				"Count": 8
			},
			{
				"GoodsType": "GoodsType_Item",
				"Id": 3506,
				"Count": 8
			}
		],
		"RandomDrop": 10014,
		"TeamDrop": 0,
		"DropDisplayCount": 3
	},
	{
		"ID": 15,
		"Name": "礼物夺还战Lv55-G",
		"TeamName": "Lv55G",
		"DaysBeforeActivate": 3,
		"PlayerLevelRequired": 50,
		"MonsterLevel": 55,
		"BattleID": 6635,
		"PlayerExp": 10,
		"HeroExp": 75,
		"GoldReward": 1140,
		"EnergyCostSuccess": 10,
		"EnergyCostFail": 2,
		"EnergyCostTeam": 8,
		"FirstClearDrop": [
			{
				"GoodsType": "GoodsType_Crystal",
				"Id": 0,
				"Count": 10
			},
			{
				"GoodsType": "GoodsType_Item",
				"Id": 3507,
				"Count": 8
			},
			{
				"GoodsType": "GoodsType_Item",
				"Id": 3508,
				"Count": 8
			}
		],
		"RandomDrop": 10015,
		"TeamDrop": 0,
		"DropDisplayCount": 3
	},
	{
		"ID": 16,
		"Name": "礼物夺还战Lv55-H",
		"TeamName": "Lv55H",
		"DaysBeforeActivate": 3,
		"PlayerLevelRequired": 50,
		"MonsterLevel": 55,
		"BattleID": 6636,
		"PlayerExp": 10,
		"HeroExp": 75,
		"GoldReward": 1140,
		"EnergyCostSuccess": 10,
		"EnergyCostFail": 2,
		"EnergyCostTeam": 8,
		"FirstClearDrop": [
			{
				"GoodsType": "GoodsType_Crystal",
				"Id": 0,
				"Count": 10
			},
			{
				"GoodsType": "GoodsType_Item",
				"Id": 3508,
				"Count": 8
			},
			{
				"GoodsType": "GoodsType_Item",
				"Id": 3505,
				"Count": 8
			}
		],
		"RandomDrop": 10016,
		"TeamDrop": 0,
		"DropDisplayCount": 3
	}
]