[
	{
		"ID": 1,
		"Name": "The Shadow of Larcuss",
		"Desc": "Bonding Realm",
		"TeamName": "Bonding Realm",
		"LevelList": [
			1,
			2,
			3,
			4,
			5,
			6,
			7,
			8,
			9
		],
		"StartTimeList": [
			1
		],
		"Background": "UI/MemoryCorridor_ABS/Bg/BG_Memoria.png",
		"Model": "Spine/Char/Aimeeda_ABS/Aimeeda_Goddess_Prefab.prefab",
		"UIModelScale": 135,
		"UIModelOffsetX": 0,
		"UIModelOffsetY": 0
	},
	{
		"ID": 2,
		"Name": "The Shadow of Kalxath",
		"Desc": "Bonding Realm",
		"TeamName": "Bonding Realm",
		"LevelList": [
			11,
			12,
			13,
			14,
			15,
			16,
			17,
			18,
			19
		],
		"StartTimeList": [
			2
		],
		"Background": "UI/MemoryCorridor_ABS/Bg/BG_Memoria.png",
		"Model": "Spine/Char/Aimeeda_ABS/Aimeeda_Goddess_Prefab.prefab",
		"UIModelScale": 135,
		"UIModelOffsetX": 0,
		"UIModelOffsetY": 0
	},
	{
		"ID": 3,
		"Name": "The Shadow of Rayguard",
		"Desc": "Bonding Realm",
		"TeamName": "Bonding Realm",
		"LevelList": [
			21,
			22,
			23,
			24,
			25,
			26,
			27,
			28,
			29
		],
		"StartTimeList": [
			3
		],
		"Background": "UI/MemoryCorridor_ABS/Bg/BG_Memoria.png",
		"Model": "Spine/Char/Aimeeda_ABS/Aimeeda_Goddess_Prefab.prefab",
		"UIModelScale": 135,
		"UIModelOffsetX": 0,
		"UIModelOffsetY": 0
	},
	{
		"ID": 4,
		"Name": "The Shadow of Salrath",
		"Desc": "Bonding Realm",
		"TeamName": "Bonding Realm",
		"LevelList": [
			31,
			32,
			33,
			34,
			35,
			36,
			37,
			38,
			39
		],
		"StartTimeList": [
			4
		],
		"Background": "UI/MemoryCorridor_ABS/Bg/BG_Memoria.png",
		"Model": "Spine/Char/Aimeeda_ABS/Aimeeda_Goddess_Prefab.prefab",
		"UIModelScale": 135,
		"UIModelOffsetX": 0,
		"UIModelOffsetY": 0
	},
	{
		"ID": 5,
		"Name": "The Shadow of Baldea",
		"Desc": "Bonding Realm",
		"TeamName": "Bonding Realm",
		"LevelList": [
			41,
			42,
			43,
			44,
			45,
			46,
			47,
			48,
			49
		],
		"StartTimeList": [
			5
		],
		"Background": "UI/MemoryCorridor_ABS/Bg/BG_Memoria.png",
		"Model": "Spine/Char/Aimeeda_ABS/Aimeeda_Goddess_Prefab.prefab",
		"UIModelScale": 135,
		"UIModelOffsetX": 0,
		"UIModelOffsetY": 0
	},
	{
		"ID": 6,
		"Name": "The Shadow of The Temple",
		"Desc": "Bonding Realm",
		"TeamName": "Bonding Realm",
		"LevelList": [
			51,
			52,
			53,
			54,
			55,
			56,
			57,
			58,
			59
		],
		"StartTimeList": [
			6
		],
		"Background": "UI/MemoryCorridor_ABS/Bg/BG_Memoria.png",
		"Model": "Spine/Char/Aimeeda_ABS/Aimeeda_Goddess_Prefab.prefab",
		"UIModelScale": 135,
		"UIModelOffsetX": 0,
		"UIModelOffsetY": 0
	},
	{
		"ID": 7,
		"Name": "The Shadow of Valyria",
		"Desc": "Bonding Realm",
		"TeamName": "Bonding Realm",
		"LevelList": [
			61,
			62,
			63,
			64,
			65,
			66,
			67,
			68,
			69
		],
		"StartTimeList": [
			7
		],
		"Background": "UI/MemoryCorridor_ABS/Bg/BG_Memoria.png",
		"Model": "Spine/Char/Aimeeda_ABS/Aimeeda_Goddess_Prefab.prefab",
		"UIModelScale": 135,
		"UIModelOffsetX": 0,
		"UIModelOffsetY": 0
	}
]