[
	{
		"ID": 1,
		"Name": "A Strange Sound",
		"PrevLevelId": 0,
		"UnlockDaysDelay": 0,
		"EnergySuccess": 10,
		"EnergyFail": 2,
		"MonsterLevel": 30,
		"BattleID": 6020,
		"DialogBeforeID": 0,
		"DialogAfterID": 0,
		"PlayerExp": 10,
		"HeroExp": 50,
		"Gold": 531,
		"ScoreBase": 200,
		"CommonRewardList": [
			{
				"GoodsType": "GoodsType_Gold",
				"Id": 0,
				"Count": 10000
			},
			{
				"GoodsType": "GoodsType_Item",
				"Id": 3203,
				"Count": 2
			}
		],
		"ItemDropCountDisplay": 2
	},
	{
		"ID": 2,
		"Name": "Alhazard Vortex",
		"PrevLevelId": 1,
		"UnlockDaysDelay": 2,
		"EnergySuccess": 10,
		"EnergyFail": 2,
		"MonsterLevel": 40,
		"BattleID": 6021,
		"DialogBeforeID": 0,
		"DialogAfterID": 0,
		"PlayerExp": 10,
		"HeroExp": 60,
		"Gold": 752,
		"ScoreBase": 400,
		"CommonRewardList": [
			{
				"GoodsType": "GoodsType_Gold",
				"Id": 0,
				"Count": 20000
			},
			{
				"GoodsType": "GoodsType_Crystal",
				"Id": 0,
				"Count": 50
			}
		],
		"ItemDropCountDisplay": 2
	},
	{
		"ID": 3,
		"Name": "Dark Revival",
		"PrevLevelId": 2,
		"UnlockDaysDelay": 4,
		"EnergySuccess": 10,
		"EnergyFail": 2,
		"MonsterLevel": 50,
		"BattleID": 6022,
		"DialogBeforeID": 0,
		"DialogAfterID": 0,
		"PlayerExp": 10,
		"HeroExp": 70,
		"Gold": 1004,
		"ScoreBase": 600,
		"CommonRewardList": [
			{
				"GoodsType": "GoodsType_Gold",
				"Id": 0,
				"Count": 30000
			},
			{
				"GoodsType": "GoodsType_Item",
				"Id": 3203,
				"Count": 3
			}
		],
		"ItemDropCountDisplay": 2
	},
	{
		"ID": 4,
		"Name": "Chaos War",
		"PrevLevelId": 3,
		"UnlockDaysDelay": 6,
		"EnergySuccess": 10,
		"EnergyFail": 2,
		"MonsterLevel": 60,
		"BattleID": 6023,
		"DialogBeforeID": 0,
		"DialogAfterID": 0,
		"PlayerExp": 10,
		"HeroExp": 80,
		"Gold": 1282,
		"ScoreBase": 800,
		"CommonRewardList": [
			{
				"GoodsType": "GoodsType_Gold",
				"Id": 0,
				"Count": 40000
			},
			{
				"GoodsType": "GoodsType_Item",
				"Id": 4001,
				"Count": 1
			}
		],
		"ItemDropCountDisplay": 2
	},
	{
		"ID": 5,
		"Name": "Demon Prince",
		"PrevLevelId": 4,
		"UnlockDaysDelay": 8,
		"EnergySuccess": 10,
		"EnergyFail": 2,
		"MonsterLevel": 65,
		"BattleID": 6024,
		"DialogBeforeID": 0,
		"DialogAfterID": 0,
		"PlayerExp": 10,
		"HeroExp": 80,
		"Gold": 1282,
		"ScoreBase": 1000,
		"CommonRewardList": [
			{
				"GoodsType": "GoodsType_Item",
				"Id": 1009,
				"Count": 25
			},
			{
				"GoodsType": "GoodsType_Gold",
				"Id": 0,
				"Count": 50000
			}
		],
		"ItemDropCountDisplay": 2
	},
	{
		"ID": 11,
		"Name": "Swimsuit Holiday",
		"PrevLevelId": 0,
		"UnlockDaysDelay": 0,
		"EnergySuccess": 10,
		"EnergyFail": 2,
		"MonsterLevel": 30,
		"BattleID": 6050,
		"DialogBeforeID": 8010101,
		"DialogAfterID": 0,
		"PlayerExp": 10,
		"HeroExp": 50,
		"Gold": 531,
		"ScoreBase": 200,
		"CommonRewardList": [
			{
				"GoodsType": "GoodsType_Gold",
				"Id": 0,
				"Count": 10000
			},
			{
				"GoodsType": "GoodsType_Item",
				"Id": 3503,
				"Count": 1
			}
		],
		"ItemDropCountDisplay": 2
	},
	{
		"ID": 12,
		"Name": "Aniki? An Unexpected Encounter",
		"PrevLevelId": 11,
		"UnlockDaysDelay": 1,
		"EnergySuccess": 10,
		"EnergyFail": 2,
		"MonsterLevel": 30,
		"BattleID": 6051,
		"DialogBeforeID": 0,
		"DialogAfterID": 8010201,
		"PlayerExp": 10,
		"HeroExp": 50,
		"Gold": 531,
		"ScoreBase": 200,
		"CommonRewardList": [
			{
				"GoodsType": "GoodsType_Gold",
				"Id": 0,
				"Count": 15000
			},
			{
				"GoodsType": "GoodsType_Item",
				"Id": 3203,
				"Count": 1
			}
		],
		"ItemDropCountDisplay": 2
	},
	{
		"ID": 13,
		"Name": "Crazy Comments",
		"PrevLevelId": 12,
		"UnlockDaysDelay": 2,
		"EnergySuccess": 10,
		"EnergyFail": 2,
		"MonsterLevel": 40,
		"BattleID": 6052,
		"DialogBeforeID": 8010301,
		"DialogAfterID": 8010351,
		"PlayerExp": 10,
		"HeroExp": 60,
		"Gold": 752,
		"ScoreBase": 400,
		"CommonRewardList": [
			{
				"GoodsType": "GoodsType_Gold",
				"Id": 0,
				"Count": 20000
			},
			{
				"GoodsType": "GoodsType_Crystal",
				"Id": 0,
				"Count": 30
			}
		],
		"ItemDropCountDisplay": 2
	},
	{
		"ID": 14,
		"Name": "Fish Fleet",
		"PrevLevelId": 13,
		"UnlockDaysDelay": 3,
		"EnergySuccess": 10,
		"EnergyFail": 2,
		"MonsterLevel": 50,
		"BattleID": 6053,
		"DialogBeforeID": 8010401,
		"DialogAfterID": 8010450,
		"PlayerExp": 10,
		"HeroExp": 70,
		"Gold": 1004,
		"ScoreBase": 600,
		"CommonRewardList": [
			{
				"GoodsType": "GoodsType_Gold",
				"Id": 0,
				"Count": 25000
			},
			{
				"GoodsType": "GoodsType_Item",
				"Id": 3203,
				"Count": 1
			}
		],
		"ItemDropCountDisplay": 2
	},
	{
		"ID": 15,
		"Name": "Pushball Battle",
		"PrevLevelId": 14,
		"UnlockDaysDelay": 4,
		"EnergySuccess": 10,
		"EnergyFail": 2,
		"MonsterLevel": 50,
		"BattleID": 6054,
		"DialogBeforeID": 8010501,
		"DialogAfterID": 0,
		"PlayerExp": 10,
		"HeroExp": 70,
		"Gold": 1004,
		"ScoreBase": 600,
		"CommonRewardList": [
			{
				"GoodsType": "GoodsType_Gold",
				"Id": 0,
				"Count": 30000
			},
			{
				"GoodsType": "GoodsType_Item",
				"Id": 1039,
				"Count": 20
			}
		],
		"ItemDropCountDisplay": 2
	},
	{
		"ID": 16,
		"Name": "Aniki Throne",
		"PrevLevelId": 15,
		"UnlockDaysDelay": 5,
		"EnergySuccess": 10,
		"EnergyFail": 2,
		"MonsterLevel": 60,
		"BattleID": 6055,
		"DialogBeforeID": 8010601,
		"DialogAfterID": 8010651,
		"PlayerExp": 10,
		"HeroExp": 80,
		"Gold": 1282,
		"ScoreBase": 800,
		"CommonRewardList": [
			{
				"GoodsType": "GoodsType_Gold",
				"Id": 0,
				"Count": 35000
			},
			{
				"GoodsType": "GoodsType_Item",
				"Id": 4001,
				"Count": 1
			}
		],
		"ItemDropCountDisplay": 2
	},
	{
		"ID": 17,
		"Name": "Deep-sea Crisis",
		"PrevLevelId": 16,
		"UnlockDaysDelay": 6,
		"EnergySuccess": 10,
		"EnergyFail": 2,
		"MonsterLevel": 65,
		"BattleID": 6056,
		"DialogBeforeID": 8010701,
		"DialogAfterID": 8010751,
		"PlayerExp": 10,
		"HeroExp": 80,
		"Gold": 1282,
		"ScoreBase": 1000,
		"CommonRewardList": [
			{
				"GoodsType": "GoodsType_Gold",
				"Id": 0,
				"Count": 40000
			},
			{
				"GoodsType": "GoodsType_Crystal",
				"Id": 0,
				"Count": 50
			}
		],
		"ItemDropCountDisplay": 2
	},
	{
		"ID": 18,
		"Name": "Muscle Seal",
		"PrevLevelId": 17,
		"UnlockDaysDelay": 7,
		"EnergySuccess": 10,
		"EnergyFail": 2,
		"MonsterLevel": 65,
		"BattleID": 6057,
		"DialogBeforeID": 8010801,
		"DialogAfterID": 8010851,
		"PlayerExp": 10,
		"HeroExp": 80,
		"Gold": 1282,
		"ScoreBase": 1000,
		"CommonRewardList": [
			{
				"GoodsType": "GoodsType_Gold",
				"Id": 0,
				"Count": 50000
			},
			{
				"GoodsType": "GoodsType_Item",
				"Id": 1039,
				"Count": 30
			}
		],
		"ItemDropCountDisplay": 2
	},
	{
		"ID": 21,
		"Name": "Epic Eatery",
		"PrevLevelId": 0,
		"UnlockDaysDelay": 0,
		"EnergySuccess": 10,
		"EnergyFail": 2,
		"MonsterLevel": 30,
		"BattleID": 6101,
		"DialogBeforeID": 8020101,
		"DialogAfterID": 8020151,
		"PlayerExp": 10,
		"HeroExp": 50,
		"Gold": 531,
		"ScoreBase": 400,
		"CommonRewardList": [
			{
				"GoodsType": "GoodsType_Gold",
				"Id": 0,
				"Count": 10000
			},
			{
				"GoodsType": "GoodsType_Item",
				"Id": 3503,
				"Count": 1
			}
		],
		"ItemDropCountDisplay": 2
	},
	{
		"ID": 22,
		"Name": "Four Lords of the Continent",
		"PrevLevelId": 21,
		"UnlockDaysDelay": 1,
		"EnergySuccess": 10,
		"EnergyFail": 2,
		"MonsterLevel": 40,
		"BattleID": 6102,
		"DialogBeforeID": 8020201,
		"DialogAfterID": 8020251,
		"PlayerExp": 10,
		"HeroExp": 60,
		"Gold": 752,
		"ScoreBase": 400,
		"CommonRewardList": [
			{
				"GoodsType": "GoodsType_Gold",
				"Id": 0,
				"Count": 15000
			},
			{
				"GoodsType": "GoodsType_Item",
				"Id": 4001,
				"Count": 1
			}
		],
		"ItemDropCountDisplay": 2
	},
	{
		"ID": 23,
		"Name": "Love and the Twin Towers",
		"PrevLevelId": 22,
		"UnlockDaysDelay": 2,
		"EnergySuccess": 10,
		"EnergyFail": 2,
		"MonsterLevel": 40,
		"BattleID": 6103,
		"DialogBeforeID": 8020301,
		"DialogAfterID": 8020351,
		"PlayerExp": 10,
		"HeroExp": 60,
		"Gold": 752,
		"ScoreBase": 600,
		"CommonRewardList": [
			{
				"GoodsType": "GoodsType_Gold",
				"Id": 0,
				"Count": 20000
			},
			{
				"GoodsType": "GoodsType_Crystal",
				"Id": 0,
				"Count": 30
			}
		],
		"ItemDropCountDisplay": 2
	},
	{
		"ID": 24,
		"Name": "Mightiest Knight",
		"PrevLevelId": 23,
		"UnlockDaysDelay": 3,
		"EnergySuccess": 10,
		"EnergyFail": 2,
		"MonsterLevel": 50,
		"BattleID": 6520,
		"DialogBeforeID": 8020401,
		"DialogAfterID": 8020423,
		"PlayerExp": 10,
		"HeroExp": 70,
		"Gold": 1004,
		"ScoreBase": 600,
		"CommonRewardList": [
			{
				"GoodsType": "GoodsType_Gold",
				"Id": 0,
				"Count": 25000
			},
			{
				"GoodsType": "GoodsType_Item",
				"Id": 3203,
				"Count": 1
			}
		],
		"ItemDropCountDisplay": 2
	},
	{
		"ID": 25,
		"Name": "A Strange Man",
		"PrevLevelId": 24,
		"UnlockDaysDelay": 4,
		"EnergySuccess": 10,
		"EnergyFail": 2,
		"MonsterLevel": 50,
		"BattleID": 6521,
		"DialogBeforeID": 8020501,
		"DialogAfterID": 8020532,
		"PlayerExp": 10,
		"HeroExp": 70,
		"Gold": 1004,
		"ScoreBase": 800,
		"CommonRewardList": [
			{
				"GoodsType": "GoodsType_Gold",
				"Id": 0,
				"Count": 30000
			},
			{
				"GoodsType": "GoodsType_Item",
				"Id": 1038,
				"Count": 10
			}
		],
		"ItemDropCountDisplay": 2
	},
	{
		"ID": 26,
		"Name": "The Hardest Trial",
		"PrevLevelId": 25,
		"UnlockDaysDelay": 5,
		"EnergySuccess": 10,
		"EnergyFail": 2,
		"MonsterLevel": 60,
		"BattleID": 6106,
		"DialogBeforeID": 8020601,
		"DialogAfterID": 8020651,
		"PlayerExp": 10,
		"HeroExp": 80,
		"Gold": 1282,
		"ScoreBase": 800,
		"CommonRewardList": [
			{
				"GoodsType": "GoodsType_Gold",
				"Id": 0,
				"Count": 35000
			},
			{
				"GoodsType": "GoodsType_Crystal",
				"Id": 0,
				"Count": 50
			}
		],
		"ItemDropCountDisplay": 2
	},
	{
		"ID": 27,
		"Name": "Love and Family",
		"PrevLevelId": 26,
		"UnlockDaysDelay": 6,
		"EnergySuccess": 10,
		"EnergyFail": 2,
		"MonsterLevel": 60,
		"BattleID": 6107,
		"DialogBeforeID": 0,
		"DialogAfterID": 8020701,
		"PlayerExp": 10,
		"HeroExp": 80,
		"Gold": 1282,
		"ScoreBase": 1000,
		"CommonRewardList": [
			{
				"GoodsType": "GoodsType_Gold",
				"Id": 0,
				"Count": 40000
			},
			{
				"GoodsType": "GoodsType_Item",
				"Id": 3203,
				"Count": 3
			}
		],
		"ItemDropCountDisplay": 2
	},
	{
		"ID": 28,
		"Name": "Past, Present, and Future",
		"PrevLevelId": 27,
		"UnlockDaysDelay": 7,
		"EnergySuccess": 10,
		"EnergyFail": 2,
		"MonsterLevel": 65,
		"BattleID": 6108,
		"DialogBeforeID": 8020801,
		"DialogAfterID": 8020901,
		"PlayerExp": 10,
		"HeroExp": 80,
		"Gold": 1282,
		"ScoreBase": 1000,
		"CommonRewardList": [
			{
				"GoodsType": "GoodsType_Gold",
				"Id": 0,
				"Count": 50000
			},
			{
				"GoodsType": "GoodsType_Item",
				"Id": 1038,
				"Count": 15
			}
		],
		"ItemDropCountDisplay": 2
	}
]