v -17.63758087158203 -4.087126731872559 -8.249811172485352
v -10.208293914794922 -4.087141036987305 -4.7854814529418945
v -9.815298080444336 -4.0871429443359375 -5.18647575378418
v -14.367972373962402 -4.087139129638672 -9.110749244689941
v -8.6036376953125 -4.087151527404785 -6.422798156738281
v -10.262860298156738 -4.087139129638672 -4.226675987243652
v -16.195430755615234 -4.087121963500977 -5.191747665405273
v -10.431096076965332 -4.087133407592773 -2.5037970542907715
v 1.3790559023618698e-06 -4.087159156799316 -0.025280265137553215
v -0.22377963364124298 -4.087156295776367 0.45461979508399963
v 0.22378240525722504 -4.087162017822266 -0.5051799416542053
v 9.815299987792969 -4.087180137634277 5.135915756225586
v 10.208294868469238 -4.08718204498291 4.734921455383301
v 17.637582778930664 -4.087197303771973 8.199250221252441
v 10.262862205505371 -4.087184906005859 4.176115989685059
v 14.367973327636719 -4.087182998657227 9.060188293457031
v 8.603639602661133 -4.08717155456543 6.372237205505371
v 16.195430755615234 -4.087202072143555 5.1411871910095215
v 10.431097984313965 -4.087189674377441 2.4532365798950195
v -9.815298080444336 -4.0871429443359375 -5.18647575378418
v -9.815301895141602 -3.700179100036621 -5.186476230621338
v -8.603638648986816 -3.700188636779785 -6.422798156738281
v -8.6036376953125 -4.087151527404785 -6.422798156738281
v -8.6036376953125 -4.087151527404785 -6.422798156738281
v -8.603638648986816 -3.700188636779785 -6.422798156738281
v -14.367973327636719 -3.700176239013672 -9.110751152038574
v -14.367972373962402 -4.087139129638672 -9.110749244689941
v -17.63758087158203 -4.087126731872559 -8.249811172485352
v -17.63758087158203 -3.7001638412475586 -8.249811172485352
v -16.195430755615234 -3.7001590728759766 -5.191749095916748
v -16.195430755615234 -4.087121963500977 -5.191747665405273
v -16.195430755615234 -4.087121963500977 -5.191747665405273
v -16.195430755615234 -3.7001590728759766 -5.191749095916748
v -10.431097030639648 -3.7001705169677734 -2.503798007965088
v -10.431096076965332 -4.087133407592773 -2.5037970542907715
v -14.367972373962402 -4.087139129638672 -9.110749244689941
v -14.367973327636719 -3.700176239013672 -9.110751152038574
v -17.63758087158203 -3.7001638412475586 -8.249811172485352
v -17.63758087158203 -4.087126731872559 -8.249811172485352
v -10.431096076965332 -4.087133407592773 -2.5037970542907715
v -10.431097030639648 -3.7001705169677734 -2.503798007965088
v -10.262861251831055 -3.7001752853393555 -4.226676940917969
v -10.262860298156738 -4.087139129638672 -4.226675987243652
v 0.22378240525722504 -4.087162017822266 -0.5051799416542053
v 0.22378095984458923 -3.7001991271972656 -0.505181074142456
v -9.815301895141602 -3.700179100036621 -5.186476230621338
v -9.815298080444336 -4.0871429443359375 -5.18647575378418
v 10.262862205505371 -4.087184906005859 4.176115989685059
v 10.262862205505371 -3.7002220153808594 4.1761155128479
v -10.262860298156738 -4.087139129638672 -4.226675987243652
v -10.262861251831055 -3.7001752853393555 -4.226676940917969
v -0.2237795889377594 -3.700193405151367 0.45461833477020264
v -0.22377963364124298 -4.087156295776367 0.45461979508399963
v 9.815301895141602 -3.7002182006835938 5.135914325714111
v 9.815299987792969 -4.087180137634277 5.135915756225586
v 10.431097984313965 -4.087189674377441 2.4532365798950195
v 10.431097984313965 -3.7002267837524414 2.453234910964966
v 10.262862205505371 -3.7002220153808594 4.1761155128479
v 10.262862205505371 -4.087184906005859 4.176115989685059
v 16.195430755615234 -4.087202072143555 5.1411871910095215
v 16.195432662963867 -3.7002391815185547 5.141186237335205
v 10.431097984313965 -3.7002267837524414 2.453234910964966
v 10.431097984313965 -4.087189674377441 2.4532365798950195
v 14.367973327636719 -4.087182998657227 9.060188293457031
v 14.36797046661377 -3.700221061706543 9.060185432434082
v 17.6375789642334 -3.7002344131469727 8.199247360229492
v 17.637582778930664 -4.087197303771973 8.199250221252441
v 8.603639602661133 -4.08717155456543 6.372237205505371
v 8.603636741638184 -3.7002077102661133 6.3722357749938965
v 14.36797046661377 -3.700221061706543 9.060185432434082
v 14.367973327636719 -4.087182998657227 9.060188293457031
v 17.637582778930664 -4.087197303771973 8.199250221252441
v 17.6375789642334 -3.7002344131469727 8.199247360229492
v 16.195432662963867 -3.7002391815185547 5.141186237335205
v 16.195430755615234 -4.087202072143555 5.1411871910095215
v 9.815299987792969 -4.087180137634277 5.135915756225586
v 9.815301895141602 -3.7002182006835938 5.135914325714111
v 8.603636741638184 -3.7002077102661133 6.3722357749938965
v 8.603639602661133 -4.08717155456543 6.372237205505371
vn -0.0 -1.0 0.0
vn -0.0 -1.0 0.0
vn -0.0 -1.0 0.0
vn -0.0 -1.0 0.0
vn -0.0 -1.0 0.0
vn -0.0 -1.0 0.0
vn -0.0 -1.0 0.0
vn -0.0 -1.0 0.0
vn -0.0 -1.0 0.0
vn -0.0 -1.0 0.0
vn -0.0 -1.0 0.0
vn -0.0 -1.0 0.0
vn -0.0 -1.0 0.0
vn -0.0 -1.0 0.0
vn -0.0 -1.0 0.0
vn -0.0 -1.0 0.0
vn -0.0 -1.0 0.0
vn -0.0 -1.0 0.0
vn -0.0 -1.0 0.0
vn 0.7141937613487244 0.0 0.6999480724334717
vn 0.7141937613487244 0.0 0.6999480128288269
vn 0.7141937613487244 0.0 0.6999479532241821
vn 0.7141937613487244 0.0 0.6999479532241821
vn 0.4226180911064148 0.0 -0.9063078761100769
vn 0.4226180911064148 0.0 -0.9063078761100769
vn 0.4226181209087372 0.0 -0.9063078761100769
vn 0.42261815071105957 0.0 -0.9063078761100769
vn -0.9044694900512695 0.0 0.42653828859329224
vn -0.9044694900512695 0.0 0.42653828859329224
vn -0.9044694900512695 0.0 0.42653828859329224
vn -0.9044694900512695 0.0 0.42653828859329224
vn -0.42261794209480286 0.0 0.9063078761100769
vn -0.42261794209480286 0.0 0.9063079953193665
vn -0.42261794209480286 0.0 0.9063079953193665
vn -0.42261797189712524 0.0 0.9063079953193665
vn -0.2546360194683075 0.0 -0.9670370221138
vn -0.2546360194683075 0.0 -0.9670370221138
vn -0.2546360194683075 0.0 -0.9670370221138
vn -0.2546359896659851 0.0 -0.9670370221138
vn 0.9952661991119385 0.0 0.09718580543994904
vn 0.9952661991119385 0.0 0.09718580543994904
vn 0.9952661991119385 0.0 0.09718580543994904
vn 0.9952661991119385 0.0 0.09718579798936844
vn 0.4226178228855133 0.0 -0.9063079953193665
vn 0.4226178228855133 0.0 -0.9063079953193665
vn 0.4226178526878357 0.0 -0.9063079953193665
vn 0.4226178228855133 0.0 -0.9063079953193665
vn 0.42261797189712524 0.0 -0.9063079953193665
vn 0.42261797189712524 0.0 -0.9063079953193665
vn -0.42261791229248047 0.0 0.9063079953193665
vn -0.42261791229248047 0.0 0.9063079953193665
vn -0.42261791229248047 0.0 0.9063079953193665
vn -0.42261791229248047 0.0 0.9063079953193665
vn -0.42261794209480286 0.0 0.9063078761100769
vn -0.42261794209480286 0.0 0.9063078761100769
vn -0.995266318321228 0.0 -0.09718575328588486
vn -0.995266318321228 0.0 -0.09718575328588486
vn -0.995266318321228 0.0 -0.09718575328588486
vn -0.995266318321228 0.0 -0.09718576073646545
vn 0.42261797189712524 0.0 -0.9063078761100769
vn 0.42261803150177 0.0 -0.9063078761100769
vn 0.42261797189712524 0.0 -0.9063078761100769
vn 0.42261800169944763 0.0 -0.9063078761100769
vn 0.25463566184043884 0.0 0.9670370221138
vn 0.25463563203811646 0.0 0.9670370221138
vn 0.25463566184043884 0.0 0.9670370221138
vn 0.25463566184043884 0.0 0.9670370221138
vn -0.42261794209480286 0.0 0.9063079953193665
vn -0.42261797189712524 0.0 0.9063079953193665
vn -0.42261791229248047 0.0 0.9063079953193665
vn -0.42261791229248047 0.0 0.9063079953193665
vn 0.9044695496559143 0.0 -0.4265380799770355
vn 0.9044695496559143 0.0 -0.4265380799770355
vn 0.9044695496559143 0.0 -0.4265380799770355
vn 0.9044695496559143 0.0 -0.4265380799770355
vn -0.7141932845115662 0.0 -0.6999485492706299
vn -0.7141932845115662 0.0 -0.6999485492706299
vn -0.7141932845115662 0.0 -0.6999485492706299
vn -0.7141932845115662 0.0 -0.6999485492706299
vt 0.010183736681938171 0.3917888402938843
vt 0.12270712107419968 0.3917890191078186
vt 0.1252383589744568 0.3989490270614624
vt 0.045798689126968384 0.42121922969818115
vt 0.1328272521495819 0.4212350845336914
vt 0.12523847818374634 0.3846290111541748
vt 0.0457988865673542 0.3623589277267456
vt 0.13282737135887146 0.36234307289123535
vt 0.277426540851593 0.3917890191078186
vt 0.277426540851593 0.3845708966255188
vt 0.277426540851593 0.39900708198547363
vt 0.42961350083351135 0.38462936878204346
vt 0.4321449100971222 0.3917890787124634
vt 0.5446670651435852 0.3917893171310425
vt 0.4296133816242218 0.39894890785217285
vt 0.5090513825416565 0.36235958337783813
vt 0.4220227897167206 0.3623437285423279
vt 0.5090513825416565 0.4212190508842468
vt 0.42202287912368774 0.42123472690582275
vt 0.1252383589744568 0.3989490270614624
vt 0.13265326619148254 0.40429431200027466
vt 0.13789764046669006 0.41963452100753784
vt 0.1328272521495819 0.4212350845336914
vt 0.1328272521495819 0.4212350845336914
vt 0.13251492381095886 0.4263263940811157
vt 0.04416445270180702 0.4258928894996643
vt 0.045798689126968384 0.42121922969818115
vt 0.010183736681938171 0.3917888402938843
vt 0.007076665759086609 0.387328565120697
vt 0.04416465014219284 0.35768526792526245
vt 0.0457988865673542 0.3623589277267456
vt 0.0457988865673542 0.3623589277267456
vt 0.04416465014219284 0.35768526792526245
vt 0.13251492381095886 0.35725176334381104
vt 0.13282737135887146 0.36234307289123535
vt 0.045798689126968384 0.42121922969818115
vt 0.04416445270180702 0.4258928894996643
vt 0.007076427340507507 0.39624929428100586
vt 0.010183736681938171 0.3917888402938843
vt 0.13282737135887146 0.36234307289123535
vt 0.13789784908294678 0.3639436364173889
vt 0.13265365362167358 0.3792837858200073
vt 0.12523847818374634 0.3846290111541748
vt 0.277426540851593 0.39900708198547363
vt 0.277426540851593 0.4042941927909851
vt 0.13265326619148254 0.40429431200027466
vt 0.1252383589744568 0.3989490270614624
vt 0.4296133816242218 0.39894890785217285
vt 0.42212367057800293 0.40445107221603394
vt 0.12523847818374634 0.3846290111541748
vt 0.13265365362167358 0.3792837858200073
vt 0.27742671966552734 0.3792839050292969
vt 0.277426540851593 0.3845708966255188
vt 0.42225882411003113 0.3795241713523865
vt 0.42961350083351135 0.38462936878204346
vt 0.42202287912368774 0.42123472690582275
vt 0.4169524312019348 0.41963374614715576
vt 0.42212367057800293 0.40445107221603394
vt 0.4296133816242218 0.39894890785217285
vt 0.5090513825416565 0.4212190508842468
vt 0.5106853246688843 0.42589259147644043
vt 0.4223349392414093 0.4263264536857605
vt 0.42202287912368774 0.42123472690582275
vt 0.5090513825416565 0.36235958337783813
vt 0.5106852054595947 0.3576858639717102
vt 0.5477738380432129 0.38732874393463135
vt 0.5446670651435852 0.3917893171310425
vt 0.4220227897167206 0.3623437285423279
vt 0.4223349392414093 0.35725218057632446
vt 0.5106852054595947 0.3576858639717102
vt 0.5090513825416565 0.36235958337783813
vt 0.5446670651435852 0.3917893171310425
vt 0.5477738380432129 0.39624983072280884
vt 0.5106853246688843 0.42589259147644043
vt 0.5090513825416565 0.4212190508842468
vt 0.42961350083351135 0.38462936878204346
vt 0.42225882411003113 0.3795241713523865
vt 0.41695234179496765 0.3639447093009949
vt 0.4220227897167206 0.3623437285423279

g Object03
s 1
usemtl Object03
f 3/3/3 2/2/2 1/1/1 
f 3/3/3 1/1/1 4/4/4 
f 5/5/5 3/3/3 4/4/4 
f 2/2/2 6/6/6 1/1/1 
f 1/1/1 6/6/6 7/7/7 
f 6/6/6 8/8/8 7/7/7 
f 2/2/2 9/9/9 6/6/6 
f 9/9/9 10/10/10 6/6/6 
f 11/11/11 9/9/9 2/2/2 
f 3/3/3 11/11/11 2/2/2 
f 10/10/10 9/9/9 12/12/12 
f 9/9/9 13/13/13 12/12/12 
f 9/9/9 11/11/11 13/13/13 
f 12/12/12 13/13/13 14/14/14 
f 13/13/13 15/15/15 14/14/14 
f 11/11/11 15/15/15 13/13/13 
f 12/12/12 14/14/14 16/16/16 
f 17/17/17 12/12/12 16/16/16 
f 18/18/18 14/14/14 15/15/15 
f 19/19/19 18/18/18 15/15/15 
f 22/22/22 21/21/21 20/20/20 
f 23/23/23 22/22/22 20/20/20 
f 26/26/26 25/25/25 24/24/24 
f 27/27/27 26/26/26 24/24/24 
f 30/30/30 29/29/29 28/28/28 
f 31/31/31 30/30/30 28/28/28 
f 34/34/34 33/33/33 32/32/32 
f 35/35/35 34/34/34 32/32/32 
f 38/38/38 37/37/37 36/36/36 
f 39/39/39 38/38/38 36/36/36 
f 42/42/42 41/41/41 40/40/40 
f 43/43/43 42/42/42 40/40/40 
f 46/46/46 45/45/45 44/44/44 
f 47/47/47 46/46/46 44/44/44 
f 44/44/44 45/45/45 48/48/48 
f 45/45/45 49/49/49 48/48/48 
f 52/52/52 51/51/51 50/50/50 
f 53/53/53 52/52/52 50/50/50 
f 54/54/54 52/52/52 53/53/53 
f 55/55/55 54/54/54 53/53/53 
f 58/58/58 57/57/57 56/56/56 
f 59/59/59 58/58/58 56/56/56 
f 62/62/62 61/61/61 60/60/60 
f 63/63/63 62/62/62 60/60/60 
f 66/66/66 65/65/65 64/64/64 
f 67/67/67 66/66/66 64/64/64 
f 70/70/70 69/69/69 68/68/68 
f 71/71/71 70/70/70 68/68/68 
f 74/74/74 73/73/73 72/72/72 
f 75/75/75 74/74/74 72/72/72 
f 78/78/78 77/77/77 76/76/76 
f 79/79/79 78/78/78 76/76/76 

