[
	{
		"ID": 8,
		"Name": "Lana",
		"BackGroundImage": "UI/Fetters_ABS/Bg/LanaConfessionBG.png",
		"CharImage": "Spine/Confession/Lana_ABS/Lana_Confession_Prefab.prefab",
		"PreWordID": 801,
		"CorrectID": 803,
		"WrongID": 805,
		"UnknownID": 807,
		"ConfessionLetterID": 8,
		"LastWordID": 809,
		"UnlockHeroHeartFetterMinLevel": 10
	},
	{
		"ID": 14,
		"Name": "Cherie",
		"BackGroundImage": "UI/Fetters_ABS/Bg/SherryConfessionBG.png",
		"CharImage": "Spine/Confession/Sherry_ABS/Sherry_Confession_Prefab.prefab",
		"PreWordID": 1401,
		"CorrectID": 1403,
		"WrongID": 1405,
		"UnknownID": 1407,
		"ConfessionLetterID": 14,
		"LastWordID": 1409,
		"UnlockHeroHeartFetterMinLevel": 10
	},
	{
		"ID": 26,
		"Name": "Luna",
		"BackGroundImage": "UI/Fetters_ABS/Bg/LunaConfessionBG.png",
		"CharImage": "Spine/Confession/Luna_ABS/Luna_Confession_Prefab.prefab",
		"PreWordID": 2601,
		"CorrectID": 2603,
		"WrongID": 2605,
		"UnknownID": 2607,
		"ConfessionLetterID": 26,
		"LastWordID": 2609,
		"UnlockHeroHeartFetterMinLevel": 10
	},
	{
		"ID": 29,
		"Name": "Tiaris",
		"BackGroundImage": "UI/Fetters_ABS/Bg/TialiceConfessionBG.png",
		"CharImage": "Spine/Confession/Tialice_ABS/Tialice_Confession_Prefab.prefab",
		"PreWordID": 2901,
		"CorrectID": 2903,
		"WrongID": 2905,
		"UnknownID": 2907,
		"ConfessionLetterID": 29,
		"LastWordID": 2909,
		"UnlockHeroHeartFetterMinLevel": 10
	},
	{
		"ID": 5,
		"Name": "Chris",
		"BackGroundImage": "UI/Fetters_ABS/Bg/ChrisConfessionBG.png",
		"CharImage": "Spine/Confession/Chris_ABS/Chris_Confession_Prefab.prefab",
		"PreWordID": 501,
		"CorrectID": 503,
		"WrongID": 505,
		"UnknownID": 507,
		"ConfessionLetterID": 5,
		"LastWordID": 509,
		"UnlockHeroHeartFetterMinLevel": 10
	},
	{
		"ID": 15,
		"Name": "Liana",
		"BackGroundImage": "UI/Fetters_ABS/Bg/RianaConfessionBG.png",
		"CharImage": "Spine/Confession/Riana_ABS/Riana_Confession_Prefab.prefab",
		"PreWordID": 1501,
		"CorrectID": 1503,
		"WrongID": 1505,
		"UnknownID": 1507,
		"ConfessionLetterID": 15,
		"LastWordID": 1509,
		"UnlockHeroHeartFetterMinLevel": 10
	},
	{
		"ID": 51,
		"Name": "Shelfaniel",
		"BackGroundImage": "UI/Fetters_ABS/Bg/SchelfanielConfessionBG.png",
		"CharImage": "Spine/Confession/Schelfaniel_ABS/Schelfaniel_Confession_Prefab.prefab",
		"PreWordID": 5101,
		"CorrectID": 5103,
		"WrongID": 5105,
		"UnknownID": 5107,
		"ConfessionLetterID": 51,
		"LastWordID": 5109,
		"UnlockHeroHeartFetterMinLevel": 10
	},
	{
		"ID": 28,
		"Name": "Zerida",
		"BackGroundImage": "UI/Fetters_ABS/Bg/ZalrahdaConfessionBG.png",
		"CharImage": "Spine/Confession/Zalrahda_ABS/Zalrahda_Confession_Prefab.prefab",
		"PreWordID": 2801,
		"CorrectID": 2803,
		"WrongID": 2805,
		"UnknownID": 2807,
		"ConfessionLetterID": 28,
		"LastWordID": 2809,
		"UnlockHeroHeartFetterMinLevel": 10
	},
	{
		"ID": 33,
		"Name": "Freya",
		"BackGroundImage": "UI/Fetters_ABS/Bg/FreyaConfessionBG.png",
		"CharImage": "Spine/Confession/Freya_ABS/Freya_Confession_Prefab.prefab",
		"PreWordID": 3301,
		"CorrectID": 3303,
		"WrongID": 3305,
		"UnknownID": 3307,
		"ConfessionLetterID": 33,
		"LastWordID": 3309,
		"UnlockHeroHeartFetterMinLevel": 10
	},
	{
		"ID": 52,
		"Name": "Angelina",
		"BackGroundImage": "UI/Fetters_ABS/Bg/AngelinaConfessionBG.png",
		"CharImage": "Spine/Confession/Angelina_ABS/Angelina_Confession_Prefab.prefab",
		"PreWordID": 5201,
		"CorrectID": 5203,
		"WrongID": 5205,
		"UnknownID": 5207,
		"ConfessionLetterID": 52,
		"LastWordID": 5209,
		"UnlockHeroHeartFetterMinLevel": 10
	},
	{
		"ID": 11,
		"Name": "Narm",
		"BackGroundImage": "UI/Fetters_ABS/Bg/NurmConfessionBG.png",
		"CharImage": "Spine/Confession/Norm_ABS/Norm_Confession_Prefab.prefab",
		"PreWordID": 1101,
		"CorrectID": 1103,
		"WrongID": 1105,
		"UnknownID": 1107,
		"ConfessionLetterID": 11,
		"LastWordID": 1109,
		"UnlockHeroHeartFetterMinLevel": 10
	},
	{
		"ID": 18,
		"Name": "Imelda",
		"BackGroundImage": "UI/Fetters_ABS/Bg/ImeldaConfessionBG.png",
		"CharImage": "Spine/Confession/Imelda_ABS/Imelda_Confession_Prefab.prefab",
		"PreWordID": 1801,
		"CorrectID": 1803,
		"WrongID": 1805,
		"UnknownID": 1807,
		"ConfessionLetterID": 18,
		"LastWordID": 1809,
		"UnlockHeroHeartFetterMinLevel": 10
	},
	{
		"ID": 30,
		"Name": "Liffany",
		"BackGroundImage": "UI/Fetters_ABS/Bg/LeafaniConfessionBG.png",
		"CharImage": "Spine/Confession/Leafani_ABS/Leafani_Confession_Prefab.prefab",
		"PreWordID": 3001,
		"CorrectID": 3003,
		"WrongID": 3005,
		"UnknownID": 3007,
		"ConfessionLetterID": 30,
		"LastWordID": 3009,
		"UnlockHeroHeartFetterMinLevel": 10
	},
	{
		"ID": 56,
		"Name": "Rachel",
		"BackGroundImage": "UI/Fetters_ABS/Bg/RachelConfessionBG.png",
		"CharImage": "Spine/Confession/Rachel_ABS/Rachel_Confession_Prefab.prefab",
		"PreWordID": 5601,
		"CorrectID": 5603,
		"WrongID": 5605,
		"UnknownID": 5607,
		"ConfessionLetterID": 56,
		"LastWordID": 5609,
		"UnlockHeroHeartFetterMinLevel": 10
	},
	{
		"ID": 54,
		"Name": "Listell",
		"BackGroundImage": "UI/Fetters_ABS/Bg/ListellConfessionBG.png",
		"CharImage": "Spine/Confession/Listell_ABS/Listell_Confession_Prefab.prefab",
		"PreWordID": 5401,
		"CorrectID": 5403,
		"WrongID": 5405,
		"UnknownID": 5407,
		"ConfessionLetterID": 54,
		"LastWordID": 5409,
		"UnlockHeroHeartFetterMinLevel": 10
	},
	{
		"ID": 39,
		"Name": "Feraquea",
		"BackGroundImage": "UI/Fetters_ABS/Bg/FlakiaConfessionBG.png",
		"CharImage": "Spine/Confession/Flakia_ABS/Flakia_Confession_Prefab.prefab",
		"PreWordID": 3901,
		"CorrectID": 3903,
		"WrongID": 3905,
		"UnknownID": 3907,
		"ConfessionLetterID": 39,
		"LastWordID": 3909,
		"UnlockHeroHeartFetterMinLevel": 10
	},
	{
		"ID": 31,
		"Name": "Sophia",
		"BackGroundImage": "UI/Fetters_ABS/Bg/SofiaConfessionBG.png",
		"CharImage": "Spine/Confession/Sofia_ABS/Sofia_Confession_Prefab.prefab",
		"PreWordID": 3101,
		"CorrectID": 3103,
		"WrongID": 3105,
		"UnknownID": 3107,
		"ConfessionLetterID": 31,
		"LastWordID": 3109,
		"UnlockHeroHeartFetterMinLevel": 10
	},
	{
		"ID": 20,
		"Name": "Sonya",
		"BackGroundImage": "UI/Fetters_ABS/Bg/SoniaConfessionBG.png",
		"CharImage": "Spine/Confession/Sonia_ABS/Sonia_Confession_Prefab.prefab",
		"PreWordID": 2001,
		"CorrectID": 2003,
		"WrongID": 2005,
		"UnknownID": 2007,
		"ConfessionLetterID": 20,
		"LastWordID": 2009,
		"UnlockHeroHeartFetterMinLevel": 10
	},
	{
		"ID": 49,
		"Name": "Varna",
		"BackGroundImage": "UI/Fetters_ABS/Bg/FanaConfessionBG.png",
		"CharImage": "Spine/Confession/Fana_ABS/Fana_Confession_Prefab.prefab",
		"PreWordID": 4901,
		"CorrectID": 4903,
		"WrongID": 4905,
		"UnknownID": 4907,
		"ConfessionLetterID": 49,
		"LastWordID": 4909,
		"UnlockHeroHeartFetterMinLevel": 10
	},
	{
		"ID": 43,
		"Name": "Anna",
		"BackGroundImage": "UI/Fetters_ABS/Bg/AnnaConfessionBG.png",
		"CharImage": "Spine/Confession/Anna_ABS/Anna_Confession_Prefab.prefab",
		"PreWordID": 4301,
		"CorrectID": 4303,
		"WrongID": 4305,
		"UnknownID": 4307,
		"ConfessionLetterID": 43,
		"LastWordID": 4309,
		"UnlockHeroHeartFetterMinLevel": 10
	},
	{
		"ID": 22,
		"Name": "Jessica",
		"BackGroundImage": "UI/Fetters_ABS/Bg/JessicaConfessionBG.png",
		"CharImage": "Spine/Confession/Jessica_ABS/Jessica_Confession_Prefab.prefab",
		"PreWordID": 2201,
		"CorrectID": 2203,
		"WrongID": 2205,
		"UnknownID": 2207,
		"ConfessionLetterID": 22,
		"LastWordID": 2209,
		"UnlockHeroHeartFetterMinLevel": 10
	},
	{
		"ID": 61,
		"Name": "Lambda",
		"BackGroundImage": "UI/Fetters_ABS/Bg/LambdaConfessionBG.png",
		"CharImage": "Spine/Confession/Lambda_ABS/Lambda_Confession_Prefab.prefab",
		"PreWordID": 6101,
		"CorrectID": 6103,
		"WrongID": 6105,
		"UnknownID": 6107,
		"ConfessionLetterID": 61,
		"LastWordID": 6109,
		"UnlockHeroHeartFetterMinLevel": 10
	},
	{
		"ID": 35,
		"Name": "Angelica",
		"BackGroundImage": "UI/Fetters_ABS/Bg/AnjelicaConfessionBG.png",
		"CharImage": "Spine/Confession/Anjelica_ABS/Anjelica_Confession_Prefab.prefab",
		"PreWordID": 3501,
		"CorrectID": 3503,
		"WrongID": 3505,
		"UnknownID": 3507,
		"ConfessionLetterID": 35,
		"LastWordID": 3509,
		"UnlockHeroHeartFetterMinLevel": 10
	},
	{
		"ID": 47,
		"Name": "Leticia",
		"BackGroundImage": "UI/Fetters_ABS/Bg/LeticiaConfessionBG.png",
		"CharImage": "Spine/Confession/Leticia_ABS/Leticia_Confession_Prefab.prefab",
		"PreWordID": 4701,
		"CorrectID": 4703,
		"WrongID": 4705,
		"UnknownID": 4707,
		"ConfessionLetterID": 47,
		"LastWordID": 4709,
		"UnlockHeroHeartFetterMinLevel": 10
	},
	{
		"ID": 58,
		"Name": "Serena",
		"BackGroundImage": "UI/Fetters_ABS/Bg/SerenaConfessionBG.png",
		"CharImage": "Spine/Confession/Serena_ABS/Serena_Confession_Prefab.prefab",
		"PreWordID": 5801,
		"CorrectID": 5803,
		"WrongID": 5805,
		"UnknownID": 5807,
		"ConfessionLetterID": 58,
		"LastWordID": 5809,
		"UnlockHeroHeartFetterMinLevel": 10
	},
	{
		"ID": 66,
		"Name": "Clarett",
		"BackGroundImage": "UI/Fetters_ABS/Bg/ClarettConfessionBG.png",
		"CharImage": "Spine/Confession/Clarett_ABS/Clarett_Confession_Prefab.prefab",
		"PreWordID": 6601,
		"CorrectID": 6603,
		"WrongID": 6605,
		"UnknownID": 6607,
		"ConfessionLetterID": 66,
		"LastWordID": 6609,
		"UnlockHeroHeartFetterMinLevel": 10
	}
]