[
	{
		"ID": 1,
		"Ranking": 1,
		"TotalRankingRewardMailTemplateId": 220
	},
	{
		"ID": 5,
		"Ranking": 5,
		"TotalRankingRewardMailTemplateId": 221
	},
	{
		"ID": 11,
		"Ranking": 11,
		"TotalRankingRewardMailTemplateId": 222
	},
	{
		"ID": 101,
		"Ranking": 101,
		"TotalRankingRewardMailTemplateId": 223
	},
	{
		"ID": 501,
		"Ranking": 501,
		"TotalRankingRewardMailTemplateId": 224
	},
	{
		"ID": 1501,
		"Ranking": 1501,
		"TotalRankingRewardMailTemplateId": 225
	},
	{
		"ID": 3001,
		"Ranking": 3001,
		"TotalRankingRewardMailTemplateId": 226
	},
	{
		"ID": 5001,
		"Ranking": 5001,
		"TotalRankingRewardMailTemplateId": 227
	}
]