[
	{
		"ID": 1,
		"Desc": "Legend has it that there exist two swords on the distant continent of El Sallia: \nThe Sword of Light, known as Langrisser, can destroy all the evil in this world with a single wave. \nThe Sword of Darkness, known as Alhazard, can grant its wielder total command over all the demons in the world. \n\nFor a long time, light and darkness were opposed to each other. The two swords, Langrisser and Alhazard, were locked in a never-ending war. \nThat was until the war that ended 150 years ago, after which, Langrisser and Alhazard disappeared. The thousand-year-old legend had finally come to an end. \n\nHowever...\nThe voice of the God of Darkness, Bozel, returned, and the army of darkness was assembled again. An evil plot enshrouded the entire continent. \n\nWho can bring hope to the continent again? \n\nA new legend begins with the dreams of young Matthew...",
		"Music": "",
		"Image": "UI/StoryDescImage_ABS/StoryDescBG_01.png"
	},
	{
		"ID": 2,
		"Desc": "Battle of Langrisser II\n\nIn the 200th year of the war of the legendary swords, light and darkness remained locked in a stalemate. Langrisser and Alhazard each awaited their respective owners...\n\nEmperor Bernhardt of the Rayguard Empire is ambitious in his conquest of the continent, constantly launching new offensives and expanding his sphere of influence. \nBehind this ambition and warfare stands Bozel, Prince of the Dark Kingdom of Velzeria, and the legendary sword Alhazard. \n\nWar has swept the continent. Alhazard is about to be unsealed, and the darkness is coming! \nA boy named Elwin, who was destined to inherit Langrisser, came one day to the village of his friend, Hein. At that moment, the Knights of the Rayguard Empire charged into the village...",
		"Music": "",
		"Image": "UI/StoryDescImage_ABS/StoryDescBG_01.png"
	},
	{
		"ID": 3,
		"Desc": "Langrisser I\n\nLegend has it that there is a sword named Langrisser, and whoever wields it can gain unlimited power. \nFor thousands of years, war has been ceaselessly waged to take control of Langrisser...\n\nThe Kingdom of Baldea guards Langrisser. The ruthless Emperor Digos of the Dalsis Empire launched an invasion against the Kingdom in order to seize the power of Langrisser for himself! \n\nThe sky turned red with blood, as entire villages burned... The Kingdom was in grave danger, and the final hope for the Kingdom, Prince Ledin, was forced to flee from the flames of chaos...",
		"Music": "",
		"Image": "UI/StoryDescImage_ABS/StoryDescBG_01.png"
	},
	{
		"ID": 4,
		"Desc": "Langrisser III\n\nIn the age before the ancient Langrisser had been created, the Goddess of Light, Lushiris, protected the world with her holy barrier, and the God of Darkness, Chaos, clawed at the human world from the shadows...\n\nAt that time, there was a rich and prosperous nation called Larcuss on the continent of El Sallia. Its prosperity drew the covetous glares of its neighbors, who tried repeatedly to invade it. However, thanks to the power of the Floating City, the Kingdom remains safe to this day. \n\nHowever, the power of the Floating City caused the Kingdom of Larcuss to become overly relaxed about its security, and at the knighting ceremony of young Dieharte, the Riguler Empire launched a raid on the Floating City. \n\nThe eternal battle between light and darkness has swept the entire continent, dividing families and friends on both sides...",
		"Music": "",
		"Image": "UI/StoryDescImage_ABS/StoryDescBG_01.png"
	}
]