[
	{
		"ID": 1,
		"Desc": "1st Season",
		"PointRaceWeeks": 12,
		"SeasonStartTime": "8/8/2019 00:00:00",
		"PointRaceRewards": [
			{
				"BattleNum": 10,
				"DanId": 10,
				"TemplateMailId": 140
			},
			{
				"BattleNum": 10,
				"DanId": 7,
				"TemplateMailId": 139
			},
			{
				"BattleNum": 10,
				"DanId": 4,
				"TemplateMailId": 138
			}
		],
		"PlayOff256StartTime": "11/2/2019 15:00:00",
		"PlayOff128StartTime": "11/2/2019 16:00:00",
		"PlayOff64StartTime": "11/3/2019 15:00:00",
		"PlayOff32StartTime": "11/3/2019 16:00:00",
		"PlayOff16StartTime": "11/9/2019 16:00:00",
		"PlayOff8StartTime": "11/10/2019 16:00:00",
		"PlayOff4StartTime": "11/16/2019 16:00:00",
		"PlayOff2StartTime": "11/17/2019 16:00:00",
		"PlayOff256BattlesNumber": 1,
		"PlayOff128BattlesNumber": 1,
		"PlayOff64BattlesNumber": 1,
		"PlayOff32BattlesNumber": 1,
		"PlayOff16BattlesNumber": 3,
		"PlayOff8BattlesNumber": 3,
		"PlayOff4BattlesNumber": 3,
		"PlayOff2BattlesNumber": 3
	},
	{
		"ID": 2,
		"Desc": "Second Season",
		"PointRaceWeeks": 10,
		"SeasonStartTime": "11/21/2019 00:00:00",
		"PointRaceRewards": [
			{
				"BattleNum": 10,
				"DanId": 10,
				"TemplateMailId": 230
			},
			{
				"BattleNum": 10,
				"DanId": 7,
				"TemplateMailId": 229
			},
			{
				"BattleNum": 10,
				"DanId": 4,
				"TemplateMailId": 228
			}
		],
		"PlayOff256StartTime": "2/1/2020 15:00:00",
		"PlayOff128StartTime": "2/1/2020 16:00:00",
		"PlayOff64StartTime": "2/2/2020 15:00:00",
		"PlayOff32StartTime": "2/2/2020 16:00:00",
		"PlayOff16StartTime": "2/8/2020 16:00:00",
		"PlayOff8StartTime": "2/9/2020 16:00:00",
		"PlayOff4StartTime": "2/15/2020 16:00:00",
		"PlayOff2StartTime": "2/16/2020 16:00:00",
		"PlayOff256BattlesNumber": 3,
		"PlayOff128BattlesNumber": 3,
		"PlayOff64BattlesNumber": 3,
		"PlayOff32BattlesNumber": 3,
		"PlayOff16BattlesNumber": 3,
		"PlayOff8BattlesNumber": 3,
		"PlayOff4BattlesNumber": 3,
		"PlayOff2BattlesNumber": 3
	}
]