[
	{
		"ID": 1,
		"Name": "开场白1",
		"NextDialogID": 2,
		"PreAnimation": "",
		"PreFacialAnimation": "",
		"IdleAnimation": "idle_Normal",
		"IdleFacialAnimation": "idle_Normal",
		"Voice": "Godness_01",
		"Words": "Welcome, adventurer!",
		"FeedbackVoice1": "We meet again, Adventurer.",
		"FeedbackVoice2": "",
		"FeedbackVoice3": "",
		"FeedbackText1": "",
		"FeedbackText2": "",
		"FeedbackText3": "",
		"Choice1Text": ""
	},
	{
		"ID": 2,
		"Name": "开场白2",
		"NextDialogID": 3,
		"PreAnimation": "",
		"PreFacialAnimation": "",
		"IdleAnimation": "idle_Normal",
		"IdleFacialAnimation": "idle_Normal",
		"Voice": "Godness_02",
		"Words": "My name is Lushiris. I am known to the world as the Goddess of Light.",
		"FeedbackVoice1": "I am the Goddess of Light, Lushiris, your former guide.",
		"FeedbackVoice2": "",
		"FeedbackVoice3": "",
		"FeedbackText1": "",
		"FeedbackText2": "",
		"FeedbackText3": "",
		"Choice1Text": ""
	},
	{
		"ID": 3,
		"Name": "开场白3",
		"NextDialogID": 4,
		"PreAnimation": "",
		"PreFacialAnimation": "",
		"IdleAnimation": "idle_Normal",
		"IdleFacialAnimation": "idle_Normal",
		"Voice": "Godness_03",
		"Words": "The world is in grave danger.",
		"FeedbackVoice1": "This world is still ravaged by darkness... I have used the power of the light to give you another opportunity to choose.",
		"FeedbackVoice2": "",
		"FeedbackVoice3": "",
		"FeedbackText1": "",
		"FeedbackText2": "",
		"FeedbackText3": "",
		"Choice1Text": ""
	},
	{
		"ID": 4,
		"Name": "开场白4",
		"NextDialogID": 5,
		"PreAnimation": "",
		"PreFacialAnimation": "",
		"IdleAnimation": "idle_Normal",
		"IdleFacialAnimation": "idle_Normal",
		"Voice": "Godness_04",
		"Words": "I have been waiting for someone as courageous and strong as you.",
		"FeedbackVoice1": "This is your final chance, and also the world's final chance.",
		"FeedbackVoice2": "",
		"FeedbackVoice3": "",
		"FeedbackText1": "",
		"FeedbackText2": "",
		"FeedbackText3": "",
		"Choice1Text": ""
	},
	{
		"ID": 5,
		"Name": "开场白5",
		"NextDialogID": 6,
		"PreAnimation": "",
		"PreFacialAnimation": "",
		"IdleAnimation": "idle_Normal",
		"IdleFacialAnimation": "idle_Normal",
		"Voice": "Godness_05",
		"Words": "I will ask you some questions now to see if you're really the one I've been waiting for.",
		"FeedbackVoice1": "But first, I must confirm something: Having been through the strife of war, do you now have a more profound understanding of yourself?",
		"FeedbackVoice2": "",
		"FeedbackVoice3": "",
		"FeedbackText1": "",
		"FeedbackText2": "",
		"FeedbackText3": "",
		"Choice1Text": ""
	},
	{
		"ID": 6,
		"Name": "开场白6",
		"NextDialogID": 7,
		"PreAnimation": "",
		"PreFacialAnimation": "",
		"IdleAnimation": "idle_Normal",
		"IdleFacialAnimation": "idle_Normal",
		"Voice": "Godness_06",
		"Words": "Adventurer, hear my questions now!",
		"FeedbackVoice1": "Well then, Adventurer, please answer my question again.",
		"FeedbackVoice2": "",
		"FeedbackVoice3": "",
		"FeedbackText1": "",
		"FeedbackText2": "",
		"FeedbackText3": "",
		"Choice1Text": ""
	},
	{
		"ID": 7,
		"Name": "问题1",
		"NextDialogID": 0,
		"PreAnimation": "",
		"PreFacialAnimation": "",
		"IdleAnimation": "idle_Normal",
		"IdleFacialAnimation": "idle_Normal",
		"Voice": "Godness_07",
		"Words": "What would you do if an enemy raided you while you were gathering supplies?",
		"FeedbackVoice1": "",
		"FeedbackVoice2": "Godness_20",
		"FeedbackVoice3": "Godness_21",
		"FeedbackText1": "Godness_21",
		"FeedbackText2": "I've received your answer.",
		"FeedbackText3": "I see...",
		"Choice1Text": "I see...",
		"Choice2Text": "\b\u0001\u0010\u0001",
		"Choice3Text": "\b\u0004\u0010\u0001"
	},
	{
		"ID": 8,
		"Name": "问题2",
		"NextDialogID": 0,
		"PreAnimation": "",
		"PreFacialAnimation": "",
		"IdleAnimation": "idle_Normal",
		"IdleFacialAnimation": "idle_Normal",
		"Voice": "Godness_08",
		"Words": "What is the most important factor when creating an unbeatable team?",
		"FeedbackVoice1": "",
		"FeedbackVoice2": "Godness_21",
		"FeedbackVoice3": "Godness_20",
		"FeedbackText1": "Godness_20",
		"FeedbackText2": "I see...",
		"FeedbackText3": "I've received your answer.",
		"Choice1Text": "I've received your answer.",
		"Choice2Text": "\b\u0001\u0010\u0001",
		"Choice3Text": "\b\u0004\u0010\u0001"
	},
	{
		"ID": 9,
		"Name": "问题3",
		"NextDialogID": 0,
		"PreAnimation": "",
		"PreFacialAnimation": "",
		"IdleAnimation": "idle_Normal",
		"IdleFacialAnimation": "idle_Normal",
		"Voice": "Godness_09",
		"Words": "Where do the gods live?",
		"FeedbackVoice1": "",
		"FeedbackVoice2": "Godness_23",
		"FeedbackVoice3": "Godness_20",
		"FeedbackText1": "Godness_21",
		"FeedbackText2": "Oh? Do you really think so?",
		"FeedbackText3": "I've received your answer.",
		"Choice1Text": "I see..."
	},
	{
		"ID": 10,
		"Name": "问题4",
		"NextDialogID": 0,
		"PreAnimation": "",
		"PreFacialAnimation": "",
		"IdleAnimation": "idle_Normal",
		"IdleFacialAnimation": "idle_Normal",
		"Voice": "Godness_10",
		"Words": "Which of these do you like most?",
		"FeedbackVoice1": "",
		"FeedbackVoice2": "Godness_20",
		"FeedbackVoice3": "Godness_21",
		"FeedbackText1": "Godness_21",
		"FeedbackText2": "I've received your answer.",
		"FeedbackText3": "I see...",
		"Choice1Text": "I see...",
		"Choice2Text": "\b\u0004\u0010\u0001",
		"Choice3Text": "\b\u0003\u0010\u0001"
	},
	{
		"ID": 11,
		"Name": "问题5",
		"NextDialogID": 0,
		"PreAnimation": "",
		"PreFacialAnimation": "",
		"IdleAnimation": "idle_Normal",
		"IdleFacialAnimation": "idle_Normal",
		"Voice": "Godness_11",
		"Words": "What is the meaning of life?",
		"FeedbackVoice1": "",
		"FeedbackVoice2": "Godness_21",
		"FeedbackVoice3": "Godness_20",
		"FeedbackText1": "Godness_23",
		"FeedbackText2": "I see...",
		"FeedbackText3": "I've received your answer.",
		"Choice1Text": "Oh? Do you really think so?",
		"Choice2Text": "\b\u0002\u0010\u0001",
		"Choice3Text": "\b\u0003\u0010\u0001"
	},
	{
		"ID": 12,
		"Name": "问题6",
		"NextDialogID": 0,
		"PreAnimation": "",
		"PreFacialAnimation": "",
		"IdleAnimation": "idle_Normal",
		"IdleFacialAnimation": "idle_Normal",
		"Voice": "Godness_12",
		"Words": "What do you look for in your companions?",
		"FeedbackVoice1": "",
		"FeedbackVoice2": "Godness_20",
		"FeedbackVoice3": "Godness_20",
		"FeedbackText1": "Godness_21",
		"FeedbackText2": "I've received your answer.",
		"FeedbackText3": "I've received your answer.",
		"Choice1Text": "I see...",
		"Choice2Text": "\b\u0001\u0010\u0001",
		"Choice3Text": "\b\u0002\u0010\u0001"
	},
	{
		"ID": 13,
		"Name": "问题7",
		"NextDialogID": 0,
		"PreAnimation": "",
		"PreFacialAnimation": "",
		"IdleAnimation": "idle_Normal",
		"IdleFacialAnimation": "idle_Normal",
		"Voice": "Godness_13",
		"Words": "What makes a hero?",
		"FeedbackVoice1": "",
		"FeedbackVoice2": "Godness_20",
		"FeedbackVoice3": "Godness_21",
		"FeedbackText1": "Godness_21",
		"FeedbackText2": "I've received your answer.",
		"FeedbackText3": "I see...",
		"Choice1Text": "I see...",
		"Choice2Text": "\b\u0004\u0010\u0001",
		"Choice3Text": "\b\u0001\u0010\u0001"
	},
	{
		"ID": 14,
		"Name": "问题8",
		"NextDialogID": 0,
		"PreAnimation": "",
		"PreFacialAnimation": "",
		"IdleAnimation": "idle_Normal",
		"IdleFacialAnimation": "idle_Normal",
		"Voice": "Godness_14",
		"Words": "What does love mean to you?",
		"FeedbackVoice1": "",
		"FeedbackVoice2": "Godness_21",
		"FeedbackVoice3": "Godness_20",
		"FeedbackText1": "Godness_20",
		"FeedbackText2": "I see...",
		"FeedbackText3": "I've received your answer.",
		"Choice1Text": "I've received your answer.",
		"Choice2Text": "\b\u0004\u0010\u0001",
		"Choice3Text": "\b\u0003\u0010\u0001"
	},
	{
		"ID": 15,
		"Name": "问题9",
		"NextDialogID": 0,
		"PreAnimation": "",
		"PreFacialAnimation": "",
		"IdleAnimation": "idle_Normal",
		"IdleFacialAnimation": "idle_Normal",
		"Voice": "Godness_15",
		"Words": "And lastly... What is truly worth fighting for?",
		"FeedbackVoice1": "",
		"FeedbackVoice2": "Godness_20",
		"FeedbackVoice3": "Godness_20",
		"FeedbackText1": "Godness_21",
		"FeedbackText2": "I've received your answer.",
		"FeedbackText3": "I've received your answer.",
		"Choice1Text": "I see...",
		"Choice2Text": "\b\u0001\u0010\u0001",
		"Choice3Text": "\b\u0003\u0010\u0001"
	},
	{
		"ID": 16,
		"Name": "结果确认",
		"NextDialogID": 0,
		"PreAnimation": "",
		"PreFacialAnimation": "",
		"IdleAnimation": "idle_Normal",
		"IdleFacialAnimation": "idle_Normal",
		"Voice": "Godness_16",
		"Words": "These are your results. Do you want to continue?",
		"FeedbackVoice1": "",
		"FeedbackVoice2": "",
		"FeedbackVoice3": "",
		"FeedbackText1": "",
		"FeedbackText2": "",
		"FeedbackText3": "",
		"Choice1Text": ""
	},
	{
		"ID": 17,
		"Name": "结果选择",
		"NextDialogID": 0,
		"PreAnimation": "",
		"PreFacialAnimation": "",
		"IdleAnimation": "idle_Normal",
		"IdleFacialAnimation": "idle_Normal",
		"Voice": "Godness_17",
		"Words": "Please choose the fate you desire.",
		"FeedbackVoice1": "",
		"FeedbackVoice2": "",
		"FeedbackVoice3": "",
		"FeedbackText1": "",
		"FeedbackText2": "",
		"FeedbackText3": "",
		"Choice1Text": ""
	},
	{
		"ID": 18,
		"Name": "结束语1",
		"NextDialogID": 19,
		"PreAnimation": "",
		"PreFacialAnimation": "",
		"IdleAnimation": "idle_Normal",
		"IdleFacialAnimation": "idle_Normal",
		"Voice": "Godness_18",
		"Words": "Adventurer, your journey awaits! I wish you the best of luck! May victory always smile upon you!",
		"FeedbackVoice1": "Go forth, Adventurer, and bring light to this world. I will give you my blessing, and the doors of victory will lie forever open to you.",
		"FeedbackVoice2": "",
		"FeedbackVoice3": "",
		"FeedbackText1": "",
		"FeedbackText2": "",
		"FeedbackText3": "",
		"Choice1Text": ""
	},
	{
		"ID": 19,
		"Name": "结束语2",
		"NextDialogID": 0,
		"PreAnimation": "",
		"PreFacialAnimation": "",
		"IdleAnimation": "idle_Normal",
		"IdleFacialAnimation": "idle_Normal",
		"Voice": "Godness_19",
		"Words": "Believe in yourself and never give up hope.",
		"FeedbackVoice1": "",
		"FeedbackVoice2": "",
		"FeedbackVoice3": "",
		"FeedbackText1": "",
		"FeedbackText2": "",
		"FeedbackText3": "",
		"Choice1Text": ""
	}
]