[
	{
		"ID": 1,
		"Name": "Bronze III",
		"DisplayDan": 1,
		"DanGroup": 1,
		"IsDanGroupProtected": true,
		"BaselineScore": 1000,
		"NextSeasonDan": 1,
		"WinScoreDiffBonus": [
			{
				"ScoreDiff": -400,
				"ScoreBonus": -4000
			},
			{
				"ScoreDiff": -300,
				"ScoreBonus": -2000
			},
			{
				"ScoreDiff": -200,
				"ScoreBonus": -1000
			},
			{
				"ScoreDiff": -100,
				"ScoreBonus": 0
			},
			{
				"ScoreDiff": 100,
				"ScoreBonus": 2000
			},
			{
				"ScoreDiff": 200,
				"ScoreBonus": 3000
			},
			{
				"ScoreDiff": 300,
				"ScoreBonus": 5000
			},
			{
				"ScoreDiff": 400,
				"ScoreBonus": 7500
			}
		],
		"LossScoreDiffBonus": [
			{
				"ScoreDiff": -400,
				"ScoreBonus": -5000
			},
			{
				"ScoreDiff": -300,
				"ScoreBonus": -3000
			},
			{
				"ScoreDiff": -200,
				"ScoreBonus": -1000
			},
			{
				"ScoreDiff": -100,
				"ScoreBonus": 0
			},
			{
				"ScoreDiff": 100,
				"ScoreBonus": 1000
			},
			{
				"ScoreDiff": 200,
				"ScoreBonus": 2000
			},
			{
				"ScoreDiff": 300,
				"ScoreBonus": 3000
			},
			{
				"ScoreDiff": 400,
				"ScoreBonus": 4000
			}
		],
		"ConsecutiveWinScoreBonus": [
			{
				"ConsecutiveWins": 2,
				"ScoreBonus": 2000
			},
			{
				"ConsecutiveWins": 3,
				"ScoreBonus": 3000
			},
			{
				"ConsecutiveWins": 4,
				"ScoreBonus": 5000
			},
			{
				"ConsecutiveWins": 5,
				"ScoreBonus": 7500
			}
		],
		"WinBasicScore": 50,
		"LossBasicScore": 15,
		"DanDiffUpperBound": 3,
		"DanDiffLowerBound": 1,
		"WaitingTimeAdjustment": [
			{
				"WaitingTime": 20000,
				"Min": 1,
				"Max": 4
			},
			{
				"WaitingTime": 60000,
				"Min": 1,
				"Max": 5
			},
			{
				"WaitingTime": 300000,
				"Min": 1,
				"Max": 5
			}
		],
		"ConsecutiveWinsMatchmakingScoreAdjustment": [
			{
				"Count": 6,
				"ScoreAdjust": 50
			},
			{
				"Count": 7,
				"ScoreAdjust": 100
			},
			{
				"Count": 8,
				"ScoreAdjust": 150
			},
			{
				"Count": 9,
				"ScoreAdjust": 200
			},
			{
				"Count": 10,
				"ScoreAdjust": 250
			}
		],
		"Icon": "UI/Arena_ABS/PeakRankIcon/RankIconPeak_01.png",
		"FriendlyWaitingTimeAdjustment": [
			{
				"WaitingTime": 15000,
				"TopBattlePowerMin": 1000,
				"TopBattlePowerMax": 20000
			},
			{
				"WaitingTime": 30000,
				"TopBattlePowerMin": 1000,
				"TopBattlePowerMax": 20000
			},
			{
				"WaitingTime": 60000,
				"TopBattlePowerMin": 1000,
				"TopBattlePowerMax": 20000
			}
		],
		"DanRewardMailTemplateId": 128
	},
	{
		"ID": 2,
		"Name": "Bronze II",
		"DisplayDan": 2,
		"DanGroup": 1,
		"IsDanGroupProtected": true,
		"BaselineScore": 1100,
		"NextSeasonDan": 1,
		"WinScoreDiffBonus": [
			{
				"ScoreDiff": -400,
				"ScoreBonus": -4000
			},
			{
				"ScoreDiff": -300,
				"ScoreBonus": -2000
			},
			{
				"ScoreDiff": -200,
				"ScoreBonus": -1000
			},
			{
				"ScoreDiff": -100,
				"ScoreBonus": 0
			},
			{
				"ScoreDiff": 100,
				"ScoreBonus": 2000
			},
			{
				"ScoreDiff": 200,
				"ScoreBonus": 3000
			},
			{
				"ScoreDiff": 300,
				"ScoreBonus": 5000
			},
			{
				"ScoreDiff": 400,
				"ScoreBonus": 7500
			}
		],
		"LossScoreDiffBonus": [
			{
				"ScoreDiff": -400,
				"ScoreBonus": -5000
			},
			{
				"ScoreDiff": -300,
				"ScoreBonus": -3000
			},
			{
				"ScoreDiff": -200,
				"ScoreBonus": -1000
			},
			{
				"ScoreDiff": -100,
				"ScoreBonus": 0
			},
			{
				"ScoreDiff": 100,
				"ScoreBonus": 1000
			},
			{
				"ScoreDiff": 200,
				"ScoreBonus": 2000
			},
			{
				"ScoreDiff": 300,
				"ScoreBonus": 3000
			},
			{
				"ScoreDiff": 400,
				"ScoreBonus": 4000
			}
		],
		"ConsecutiveWinScoreBonus": [
			{
				"ConsecutiveWins": 2,
				"ScoreBonus": 2000
			},
			{
				"ConsecutiveWins": 3,
				"ScoreBonus": 3000
			},
			{
				"ConsecutiveWins": 4,
				"ScoreBonus": 5000
			},
			{
				"ConsecutiveWins": 5,
				"ScoreBonus": 7500
			}
		],
		"WinBasicScore": 50,
		"LossBasicScore": 15,
		"DanDiffUpperBound": 3,
		"DanDiffLowerBound": 1,
		"WaitingTimeAdjustment": [
			{
				"WaitingTime": 20000,
				"Min": 1,
				"Max": 4
			},
			{
				"WaitingTime": 60000,
				"Min": 1,
				"Max": 5
			},
			{
				"WaitingTime": 300000,
				"Min": 1,
				"Max": 5
			}
		],
		"ConsecutiveWinsMatchmakingScoreAdjustment": [
			{
				"Count": 6,
				"ScoreAdjust": 50
			},
			{
				"Count": 7,
				"ScoreAdjust": 100
			},
			{
				"Count": 8,
				"ScoreAdjust": 150
			},
			{
				"Count": 9,
				"ScoreAdjust": 200
			},
			{
				"Count": 10,
				"ScoreAdjust": 250
			}
		],
		"Icon": "UI/Arena_ABS/PeakRankIcon/RankIconPeak_02.png",
		"FriendlyWaitingTimeAdjustment": [
			{
				"WaitingTime": 15000,
				"TopBattlePowerMin": 1000,
				"TopBattlePowerMax": 20000
			},
			{
				"WaitingTime": 30000,
				"TopBattlePowerMin": 1000,
				"TopBattlePowerMax": 20000
			},
			{
				"WaitingTime": 60000,
				"TopBattlePowerMin": 1000,
				"TopBattlePowerMax": 20000
			}
		],
		"DanRewardMailTemplateId": 129
	},
	{
		"ID": 3,
		"Name": "Bronze I",
		"DisplayDan": 3,
		"DanGroup": 1,
		"IsDanGroupProtected": true,
		"BaselineScore": 1200,
		"NextSeasonDan": 2,
		"WinScoreDiffBonus": [
			{
				"ScoreDiff": -400,
				"ScoreBonus": -4000
			},
			{
				"ScoreDiff": -300,
				"ScoreBonus": -2000
			},
			{
				"ScoreDiff": -200,
				"ScoreBonus": -1000
			},
			{
				"ScoreDiff": -100,
				"ScoreBonus": 0
			},
			{
				"ScoreDiff": 100,
				"ScoreBonus": 2000
			},
			{
				"ScoreDiff": 200,
				"ScoreBonus": 3000
			},
			{
				"ScoreDiff": 300,
				"ScoreBonus": 5000
			},
			{
				"ScoreDiff": 400,
				"ScoreBonus": 7500
			}
		],
		"LossScoreDiffBonus": [
			{
				"ScoreDiff": -400,
				"ScoreBonus": -5000
			},
			{
				"ScoreDiff": -300,
				"ScoreBonus": -3000
			},
			{
				"ScoreDiff": -200,
				"ScoreBonus": -1000
			},
			{
				"ScoreDiff": -100,
				"ScoreBonus": 0
			},
			{
				"ScoreDiff": 100,
				"ScoreBonus": 1000
			},
			{
				"ScoreDiff": 200,
				"ScoreBonus": 2000
			},
			{
				"ScoreDiff": 300,
				"ScoreBonus": 3000
			},
			{
				"ScoreDiff": 400,
				"ScoreBonus": 4000
			}
		],
		"ConsecutiveWinScoreBonus": [
			{
				"ConsecutiveWins": 2,
				"ScoreBonus": 2000
			},
			{
				"ConsecutiveWins": 3,
				"ScoreBonus": 3000
			},
			{
				"ConsecutiveWins": 4,
				"ScoreBonus": 5000
			},
			{
				"ConsecutiveWins": 5,
				"ScoreBonus": 7500
			}
		],
		"WinBasicScore": 50,
		"LossBasicScore": 15,
		"DanDiffUpperBound": 4,
		"DanDiffLowerBound": 2,
		"WaitingTimeAdjustment": [
			{
				"WaitingTime": 10000,
				"Min": 1,
				"Max": 5
			},
			{
				"WaitingTime": 20000,
				"Min": 1,
				"Max": 6
			},
			{
				"WaitingTime": 60000,
				"Min": 1,
				"Max": 7
			},
			{
				"WaitingTime": 300000,
				"Min": 1,
				"Max": 7
			}
		],
		"ConsecutiveWinsMatchmakingScoreAdjustment": [
			{
				"Count": 6,
				"ScoreAdjust": 50
			},
			{
				"Count": 7,
				"ScoreAdjust": 100
			},
			{
				"Count": 8,
				"ScoreAdjust": 150
			},
			{
				"Count": 9,
				"ScoreAdjust": 200
			},
			{
				"Count": 10,
				"ScoreAdjust": 250
			}
		],
		"Icon": "UI/Arena_ABS/PeakRankIcon/RankIconPeak_03.png",
		"FriendlyWaitingTimeAdjustment": [
			{
				"WaitingTime": 15000,
				"TopBattlePowerMin": 1000,
				"TopBattlePowerMax": 20000
			},
			{
				"WaitingTime": 30000,
				"TopBattlePowerMin": 1000,
				"TopBattlePowerMax": 20000
			},
			{
				"WaitingTime": 60000,
				"TopBattlePowerMin": 1000,
				"TopBattlePowerMax": 20000
			}
		],
		"DanRewardMailTemplateId": 130
	},
	{
		"ID": 4,
		"Name": "Silver III",
		"DisplayDan": 4,
		"DanGroup": 2,
		"IsDanGroupProtected": true,
		"BaselineScore": 1300,
		"NextSeasonDan": 2,
		"WinScoreDiffBonus": [
			{
				"ScoreDiff": -400,
				"ScoreBonus": -4000
			},
			{
				"ScoreDiff": -300,
				"ScoreBonus": -2000
			},
			{
				"ScoreDiff": -200,
				"ScoreBonus": -1000
			},
			{
				"ScoreDiff": -100,
				"ScoreBonus": 0
			},
			{
				"ScoreDiff": 100,
				"ScoreBonus": 2000
			},
			{
				"ScoreDiff": 200,
				"ScoreBonus": 3000
			},
			{
				"ScoreDiff": 300,
				"ScoreBonus": 5000
			},
			{
				"ScoreDiff": 400,
				"ScoreBonus": 7500
			}
		],
		"LossScoreDiffBonus": [
			{
				"ScoreDiff": -400,
				"ScoreBonus": -5000
			},
			{
				"ScoreDiff": -300,
				"ScoreBonus": -3000
			},
			{
				"ScoreDiff": -200,
				"ScoreBonus": -1000
			},
			{
				"ScoreDiff": -100,
				"ScoreBonus": 0
			},
			{
				"ScoreDiff": 100,
				"ScoreBonus": 1000
			},
			{
				"ScoreDiff": 200,
				"ScoreBonus": 2000
			},
			{
				"ScoreDiff": 300,
				"ScoreBonus": 3000
			},
			{
				"ScoreDiff": 400,
				"ScoreBonus": 4000
			}
		],
		"ConsecutiveWinScoreBonus": [
			{
				"ConsecutiveWins": 2,
				"ScoreBonus": 2000
			},
			{
				"ConsecutiveWins": 3,
				"ScoreBonus": 3000
			},
			{
				"ConsecutiveWins": 4,
				"ScoreBonus": 5000
			},
			{
				"ConsecutiveWins": 5,
				"ScoreBonus": 7500
			}
		],
		"WinBasicScore": 30,
		"LossBasicScore": 15,
		"DanDiffUpperBound": 5,
		"DanDiffLowerBound": 3,
		"WaitingTimeAdjustment": [
			{
				"WaitingTime": 10000,
				"Min": 2,
				"Max": 6
			},
			{
				"WaitingTime": 20000,
				"Min": 1,
				"Max": 7
			},
			{
				"WaitingTime": 60000,
				"Min": 1,
				"Max": 8
			},
			{
				"WaitingTime": 300000,
				"Min": 1,
				"Max": 8
			}
		],
		"ConsecutiveWinsMatchmakingScoreAdjustment": [
			{
				"Count": 6,
				"ScoreAdjust": 50
			},
			{
				"Count": 7,
				"ScoreAdjust": 100
			},
			{
				"Count": 8,
				"ScoreAdjust": 150
			},
			{
				"Count": 9,
				"ScoreAdjust": 200
			},
			{
				"Count": 10,
				"ScoreAdjust": 250
			}
		],
		"Icon": "UI/Arena_ABS/PeakRankIcon/RankIconPeak_04.png",
		"FriendlyWaitingTimeAdjustment": [
			{
				"WaitingTime": 15000,
				"TopBattlePowerMin": 1000,
				"TopBattlePowerMax": 20000
			},
			{
				"WaitingTime": 30000,
				"TopBattlePowerMin": 1000,
				"TopBattlePowerMax": 20000
			},
			{
				"WaitingTime": 60000,
				"TopBattlePowerMin": 1000,
				"TopBattlePowerMax": 20000
			}
		],
		"DanRewardMailTemplateId": 131
	},
	{
		"ID": 5,
		"Name": "Silver II",
		"DisplayDan": 5,
		"DanGroup": 2,
		"IsDanGroupProtected": true,
		"BaselineScore": 1400,
		"NextSeasonDan": 3,
		"WinScoreDiffBonus": [
			{
				"ScoreDiff": -400,
				"ScoreBonus": -4000
			},
			{
				"ScoreDiff": -300,
				"ScoreBonus": -2000
			},
			{
				"ScoreDiff": -200,
				"ScoreBonus": -1000
			},
			{
				"ScoreDiff": -100,
				"ScoreBonus": 0
			},
			{
				"ScoreDiff": 100,
				"ScoreBonus": 2000
			},
			{
				"ScoreDiff": 200,
				"ScoreBonus": 3000
			},
			{
				"ScoreDiff": 300,
				"ScoreBonus": 5000
			},
			{
				"ScoreDiff": 400,
				"ScoreBonus": 7500
			}
		],
		"LossScoreDiffBonus": [
			{
				"ScoreDiff": -400,
				"ScoreBonus": -5000
			},
			{
				"ScoreDiff": -300,
				"ScoreBonus": -3000
			},
			{
				"ScoreDiff": -200,
				"ScoreBonus": -1000
			},
			{
				"ScoreDiff": -100,
				"ScoreBonus": 0
			},
			{
				"ScoreDiff": 100,
				"ScoreBonus": 1000
			},
			{
				"ScoreDiff": 200,
				"ScoreBonus": 2000
			},
			{
				"ScoreDiff": 300,
				"ScoreBonus": 3000
			},
			{
				"ScoreDiff": 400,
				"ScoreBonus": 4000
			}
		],
		"ConsecutiveWinScoreBonus": [
			{
				"ConsecutiveWins": 2,
				"ScoreBonus": 2000
			},
			{
				"ConsecutiveWins": 3,
				"ScoreBonus": 3000
			},
			{
				"ConsecutiveWins": 4,
				"ScoreBonus": 5000
			},
			{
				"ConsecutiveWins": 5,
				"ScoreBonus": 7500
			}
		],
		"WinBasicScore": 30,
		"LossBasicScore": 15,
		"DanDiffUpperBound": 6,
		"DanDiffLowerBound": 4,
		"WaitingTimeAdjustment": [
			{
				"WaitingTime": 10000,
				"Min": 3,
				"Max": 7
			},
			{
				"WaitingTime": 20000,
				"Min": 2,
				"Max": 8
			},
			{
				"WaitingTime": 60000,
				"Min": 1,
				"Max": 9
			},
			{
				"WaitingTime": 300000,
				"Min": 1,
				"Max": 9
			}
		],
		"ConsecutiveWinsMatchmakingScoreAdjustment": [
			{
				"Count": 6,
				"ScoreAdjust": 50
			},
			{
				"Count": 7,
				"ScoreAdjust": 100
			},
			{
				"Count": 8,
				"ScoreAdjust": 150
			},
			{
				"Count": 9,
				"ScoreAdjust": 200
			},
			{
				"Count": 10,
				"ScoreAdjust": 250
			}
		],
		"Icon": "UI/Arena_ABS/PeakRankIcon/RankIconPeak_05.png",
		"FriendlyWaitingTimeAdjustment": [
			{
				"WaitingTime": 15000,
				"TopBattlePowerMin": 1000,
				"TopBattlePowerMax": 20000
			},
			{
				"WaitingTime": 30000,
				"TopBattlePowerMin": 1000,
				"TopBattlePowerMax": 20000
			},
			{
				"WaitingTime": 60000,
				"TopBattlePowerMin": 1000,
				"TopBattlePowerMax": 20000
			}
		],
		"DanRewardMailTemplateId": 132
	},
	{
		"ID": 6,
		"Name": "Silver I",
		"DisplayDan": 6,
		"DanGroup": 2,
		"IsDanGroupProtected": true,
		"BaselineScore": 1500,
		"NextSeasonDan": 3,
		"WinScoreDiffBonus": [
			{
				"ScoreDiff": -400,
				"ScoreBonus": -4000
			},
			{
				"ScoreDiff": -300,
				"ScoreBonus": -2000
			},
			{
				"ScoreDiff": -200,
				"ScoreBonus": -1000
			},
			{
				"ScoreDiff": -100,
				"ScoreBonus": 0
			},
			{
				"ScoreDiff": 100,
				"ScoreBonus": 2000
			},
			{
				"ScoreDiff": 200,
				"ScoreBonus": 3000
			},
			{
				"ScoreDiff": 300,
				"ScoreBonus": 5000
			},
			{
				"ScoreDiff": 400,
				"ScoreBonus": 7500
			}
		],
		"LossScoreDiffBonus": [
			{
				"ScoreDiff": -400,
				"ScoreBonus": -5000
			},
			{
				"ScoreDiff": -300,
				"ScoreBonus": -3000
			},
			{
				"ScoreDiff": -200,
				"ScoreBonus": -1000
			},
			{
				"ScoreDiff": -100,
				"ScoreBonus": 0
			},
			{
				"ScoreDiff": 100,
				"ScoreBonus": 1000
			},
			{
				"ScoreDiff": 200,
				"ScoreBonus": 2000
			},
			{
				"ScoreDiff": 300,
				"ScoreBonus": 3000
			},
			{
				"ScoreDiff": 400,
				"ScoreBonus": 4000
			}
		],
		"ConsecutiveWinScoreBonus": [
			{
				"ConsecutiveWins": 2,
				"ScoreBonus": 2000
			},
			{
				"ConsecutiveWins": 3,
				"ScoreBonus": 3000
			},
			{
				"ConsecutiveWins": 4,
				"ScoreBonus": 5000
			},
			{
				"ConsecutiveWins": 5,
				"ScoreBonus": 7500
			}
		],
		"WinBasicScore": 30,
		"LossBasicScore": 15,
		"DanDiffUpperBound": 7,
		"DanDiffLowerBound": 5,
		"WaitingTimeAdjustment": [
			{
				"WaitingTime": 10000,
				"Min": 4,
				"Max": 8
			},
			{
				"WaitingTime": 20000,
				"Min": 3,
				"Max": 9
			},
			{
				"WaitingTime": 60000,
				"Min": 2,
				"Max": 10
			},
			{
				"WaitingTime": 300000,
				"Min": 2,
				"Max": 10
			}
		],
		"ConsecutiveWinsMatchmakingScoreAdjustment": [
			{
				"Count": 6,
				"ScoreAdjust": 50
			},
			{
				"Count": 7,
				"ScoreAdjust": 100
			},
			{
				"Count": 8,
				"ScoreAdjust": 150
			},
			{
				"Count": 9,
				"ScoreAdjust": 200
			},
			{
				"Count": 10,
				"ScoreAdjust": 250
			}
		],
		"Icon": "UI/Arena_ABS/PeakRankIcon/RankIconPeak_06.png",
		"FriendlyWaitingTimeAdjustment": [
			{
				"WaitingTime": 15000,
				"TopBattlePowerMin": 1000,
				"TopBattlePowerMax": 20000
			},
			{
				"WaitingTime": 30000,
				"TopBattlePowerMin": 1000,
				"TopBattlePowerMax": 20000
			},
			{
				"WaitingTime": 60000,
				"TopBattlePowerMin": 1000,
				"TopBattlePowerMax": 20000
			}
		],
		"DanRewardMailTemplateId": 133
	},
	{
		"ID": 7,
		"Name": "Gold III",
		"DisplayDan": 7,
		"DanGroup": 3,
		"IsDanGroupProtected": true,
		"BaselineScore": 1600,
		"NextSeasonDan": 4,
		"WinScoreDiffBonus": [
			{
				"ScoreDiff": -400,
				"ScoreBonus": -4000
			},
			{
				"ScoreDiff": -300,
				"ScoreBonus": -2000
			},
			{
				"ScoreDiff": -200,
				"ScoreBonus": -1000
			},
			{
				"ScoreDiff": -100,
				"ScoreBonus": 0
			},
			{
				"ScoreDiff": 100,
				"ScoreBonus": 2000
			},
			{
				"ScoreDiff": 200,
				"ScoreBonus": 3000
			},
			{
				"ScoreDiff": 300,
				"ScoreBonus": 5000
			},
			{
				"ScoreDiff": 400,
				"ScoreBonus": 7500
			}
		],
		"LossScoreDiffBonus": [
			{
				"ScoreDiff": -400,
				"ScoreBonus": -5000
			},
			{
				"ScoreDiff": -300,
				"ScoreBonus": -3000
			},
			{
				"ScoreDiff": -200,
				"ScoreBonus": -1000
			},
			{
				"ScoreDiff": -100,
				"ScoreBonus": 0
			},
			{
				"ScoreDiff": 100,
				"ScoreBonus": 1000
			},
			{
				"ScoreDiff": 200,
				"ScoreBonus": 2000
			},
			{
				"ScoreDiff": 300,
				"ScoreBonus": 3000
			},
			{
				"ScoreDiff": 400,
				"ScoreBonus": 4000
			}
		],
		"ConsecutiveWinScoreBonus": [
			{
				"ConsecutiveWins": 2,
				"ScoreBonus": 2000
			},
			{
				"ConsecutiveWins": 3,
				"ScoreBonus": 3000
			},
			{
				"ConsecutiveWins": 4,
				"ScoreBonus": 5000
			},
			{
				"ConsecutiveWins": 5,
				"ScoreBonus": 7500
			}
		],
		"WinBasicScore": 15,
		"LossBasicScore": 15,
		"DanDiffUpperBound": 8,
		"DanDiffLowerBound": 6,
		"WaitingTimeAdjustment": [
			{
				"WaitingTime": 10000,
				"Min": 5,
				"Max": 9
			},
			{
				"WaitingTime": 20000,
				"Min": 4,
				"Max": 10
			},
			{
				"WaitingTime": 60000,
				"Min": 3,
				"Max": 11
			},
			{
				"WaitingTime": 300000,
				"Min": 3,
				"Max": 11
			}
		],
		"ConsecutiveWinsMatchmakingScoreAdjustment": [
			{
				"Count": 6,
				"ScoreAdjust": 50
			},
			{
				"Count": 7,
				"ScoreAdjust": 100
			},
			{
				"Count": 8,
				"ScoreAdjust": 150
			},
			{
				"Count": 9,
				"ScoreAdjust": 200
			},
			{
				"Count": 10,
				"ScoreAdjust": 250
			}
		],
		"Icon": "UI/Arena_ABS/PeakRankIcon/RankIconPeak_07.png",
		"FriendlyWaitingTimeAdjustment": [
			{
				"WaitingTime": 15000,
				"TopBattlePowerMin": 1000,
				"TopBattlePowerMax": 20000
			},
			{
				"WaitingTime": 30000,
				"TopBattlePowerMin": 1000,
				"TopBattlePowerMax": 20000
			},
			{
				"WaitingTime": 60000,
				"TopBattlePowerMin": 1000,
				"TopBattlePowerMax": 20000
			}
		],
		"DanRewardMailTemplateId": 134
	},
	{
		"ID": 8,
		"Name": "Gold II",
		"DisplayDan": 8,
		"DanGroup": 3,
		"IsDanGroupProtected": true,
		"BaselineScore": 1700,
		"NextSeasonDan": 5,
		"WinScoreDiffBonus": [
			{
				"ScoreDiff": -400,
				"ScoreBonus": -4000
			},
			{
				"ScoreDiff": -300,
				"ScoreBonus": -2000
			},
			{
				"ScoreDiff": -200,
				"ScoreBonus": -1000
			},
			{
				"ScoreDiff": -100,
				"ScoreBonus": 0
			},
			{
				"ScoreDiff": 100,
				"ScoreBonus": 2000
			},
			{
				"ScoreDiff": 200,
				"ScoreBonus": 3000
			},
			{
				"ScoreDiff": 300,
				"ScoreBonus": 5000
			},
			{
				"ScoreDiff": 400,
				"ScoreBonus": 7500
			}
		],
		"LossScoreDiffBonus": [
			{
				"ScoreDiff": -400,
				"ScoreBonus": -5000
			},
			{
				"ScoreDiff": -300,
				"ScoreBonus": -3000
			},
			{
				"ScoreDiff": -200,
				"ScoreBonus": -1000
			},
			{
				"ScoreDiff": -100,
				"ScoreBonus": 0
			},
			{
				"ScoreDiff": 100,
				"ScoreBonus": 1000
			},
			{
				"ScoreDiff": 200,
				"ScoreBonus": 2000
			},
			{
				"ScoreDiff": 300,
				"ScoreBonus": 3000
			},
			{
				"ScoreDiff": 400,
				"ScoreBonus": 4000
			}
		],
		"ConsecutiveWinScoreBonus": [
			{
				"ConsecutiveWins": 2,
				"ScoreBonus": 2000
			},
			{
				"ConsecutiveWins": 3,
				"ScoreBonus": 3000
			},
			{
				"ConsecutiveWins": 4,
				"ScoreBonus": 5000
			},
			{
				"ConsecutiveWins": 5,
				"ScoreBonus": 7500
			}
		],
		"WinBasicScore": 15,
		"LossBasicScore": 15,
		"DanDiffUpperBound": 9,
		"DanDiffLowerBound": 7,
		"WaitingTimeAdjustment": [
			{
				"WaitingTime": 10000,
				"Min": 6,
				"Max": 10
			},
			{
				"WaitingTime": 20000,
				"Min": 5,
				"Max": 11
			},
			{
				"WaitingTime": 60000,
				"Min": 4,
				"Max": 12
			},
			{
				"WaitingTime": 300000,
				"Min": 4,
				"Max": 12
			}
		],
		"ConsecutiveWinsMatchmakingScoreAdjustment": [
			{
				"Count": 6,
				"ScoreAdjust": 50
			},
			{
				"Count": 7,
				"ScoreAdjust": 100
			},
			{
				"Count": 8,
				"ScoreAdjust": 150
			},
			{
				"Count": 9,
				"ScoreAdjust": 200
			},
			{
				"Count": 10,
				"ScoreAdjust": 250
			}
		],
		"Icon": "UI/Arena_ABS/PeakRankIcon/RankIconPeak_08.png",
		"FriendlyWaitingTimeAdjustment": [
			{
				"WaitingTime": 15000,
				"TopBattlePowerMin": 1000,
				"TopBattlePowerMax": 20000
			},
			{
				"WaitingTime": 30000,
				"TopBattlePowerMin": 1000,
				"TopBattlePowerMax": 20000
			},
			{
				"WaitingTime": 60000,
				"TopBattlePowerMin": 1000,
				"TopBattlePowerMax": 20000
			}
		],
		"DanRewardMailTemplateId": 135
	},
	{
		"ID": 9,
		"Name": "Gold I",
		"DisplayDan": 9,
		"DanGroup": 3,
		"IsDanGroupProtected": true,
		"BaselineScore": 1800,
		"NextSeasonDan": 6,
		"WinScoreDiffBonus": [
			{
				"ScoreDiff": -400,
				"ScoreBonus": -4000
			},
			{
				"ScoreDiff": -300,
				"ScoreBonus": -2000
			},
			{
				"ScoreDiff": -200,
				"ScoreBonus": -1000
			},
			{
				"ScoreDiff": -100,
				"ScoreBonus": 0
			},
			{
				"ScoreDiff": 100,
				"ScoreBonus": 2000
			},
			{
				"ScoreDiff": 200,
				"ScoreBonus": 3000
			},
			{
				"ScoreDiff": 300,
				"ScoreBonus": 5000
			},
			{
				"ScoreDiff": 400,
				"ScoreBonus": 7500
			}
		],
		"LossScoreDiffBonus": [
			{
				"ScoreDiff": -400,
				"ScoreBonus": -5000
			},
			{
				"ScoreDiff": -300,
				"ScoreBonus": -3000
			},
			{
				"ScoreDiff": -200,
				"ScoreBonus": -1000
			},
			{
				"ScoreDiff": -100,
				"ScoreBonus": 0
			},
			{
				"ScoreDiff": 100,
				"ScoreBonus": 1000
			},
			{
				"ScoreDiff": 200,
				"ScoreBonus": 2000
			},
			{
				"ScoreDiff": 300,
				"ScoreBonus": 3000
			},
			{
				"ScoreDiff": 400,
				"ScoreBonus": 4000
			}
		],
		"ConsecutiveWinScoreBonus": [
			{
				"ConsecutiveWins": 2,
				"ScoreBonus": 2000
			},
			{
				"ConsecutiveWins": 3,
				"ScoreBonus": 3000
			},
			{
				"ConsecutiveWins": 4,
				"ScoreBonus": 5000
			},
			{
				"ConsecutiveWins": 5,
				"ScoreBonus": 7500
			}
		],
		"WinBasicScore": 15,
		"LossBasicScore": 15,
		"DanDiffUpperBound": 10,
		"DanDiffLowerBound": 8,
		"WaitingTimeAdjustment": [
			{
				"WaitingTime": 10000,
				"Min": 7,
				"Max": 11
			},
			{
				"WaitingTime": 20000,
				"Min": 6,
				"Max": 12
			},
			{
				"WaitingTime": 60000,
				"Min": 5,
				"Max": 13
			},
			{
				"WaitingTime": 300000,
				"Min": 5,
				"Max": 13
			}
		],
		"ConsecutiveWinsMatchmakingScoreAdjustment": [
			{
				"Count": 6,
				"ScoreAdjust": 50
			},
			{
				"Count": 7,
				"ScoreAdjust": 100
			},
			{
				"Count": 8,
				"ScoreAdjust": 150
			},
			{
				"Count": 9,
				"ScoreAdjust": 200
			},
			{
				"Count": 10,
				"ScoreAdjust": 250
			}
		],
		"Icon": "UI/Arena_ABS/PeakRankIcon/RankIconPeak_09.png",
		"FriendlyWaitingTimeAdjustment": [
			{
				"WaitingTime": 15000,
				"TopBattlePowerMin": 1000,
				"TopBattlePowerMax": 20000
			},
			{
				"WaitingTime": 30000,
				"TopBattlePowerMin": 1000,
				"TopBattlePowerMax": 20000
			},
			{
				"WaitingTime": 60000,
				"TopBattlePowerMin": 1000,
				"TopBattlePowerMax": 20000
			}
		],
		"DanRewardMailTemplateId": 136
	},
	{
		"ID": 10,
		"Name": "Langrisser",
		"DisplayDan": 10,
		"DanGroup": 4,
		"IsDanGroupProtected": false,
		"BaselineScore": 1900,
		"NextSeasonDan": 7,
		"WinScoreDiffBonus": [
			{
				"ScoreDiff": -400,
				"ScoreBonus": -5000
			},
			{
				"ScoreDiff": -300,
				"ScoreBonus": -3000
			},
			{
				"ScoreDiff": -200,
				"ScoreBonus": -1000
			},
			{
				"ScoreDiff": -100,
				"ScoreBonus": 0
			},
			{
				"ScoreDiff": 100,
				"ScoreBonus": 1000
			},
			{
				"ScoreDiff": 200,
				"ScoreBonus": 2000
			},
			{
				"ScoreDiff": 300,
				"ScoreBonus": 3000
			},
			{
				"ScoreDiff": 400,
				"ScoreBonus": 4000
			}
		],
		"LossScoreDiffBonus": [
			{
				"ScoreDiff": -400,
				"ScoreBonus": -4000
			},
			{
				"ScoreDiff": -300,
				"ScoreBonus": -2000
			},
			{
				"ScoreDiff": -200,
				"ScoreBonus": -1000
			},
			{
				"ScoreDiff": -100,
				"ScoreBonus": 0
			},
			{
				"ScoreDiff": 100,
				"ScoreBonus": 2000
			},
			{
				"ScoreDiff": 200,
				"ScoreBonus": 3000
			},
			{
				"ScoreDiff": 300,
				"ScoreBonus": 5000
			},
			{
				"ScoreDiff": 400,
				"ScoreBonus": 7500
			}
		],
		"ConsecutiveWinScoreBonus": [
			{
				"ConsecutiveWins": 2,
				"ScoreBonus": 2000
			},
			{
				"ConsecutiveWins": 3,
				"ScoreBonus": 3000
			},
			{
				"ConsecutiveWins": 4,
				"ScoreBonus": 5000
			},
			{
				"ConsecutiveWins": 5,
				"ScoreBonus": 7500
			}
		],
		"WinBasicScore": 15,
		"LossBasicScore": 15,
		"DanDiffUpperBound": 11,
		"DanDiffLowerBound": 9,
		"WaitingTimeAdjustment": [
			{
				"WaitingTime": 10000,
				"Min": 8,
				"Max": 12
			},
			{
				"WaitingTime": 20000,
				"Min": 7,
				"Max": 13
			},
			{
				"WaitingTime": 60000,
				"Min": 6,
				"Max": 16
			},
			{
				"WaitingTime": 300000,
				"Min": 6,
				"Max": 16
			}
		],
		"ConsecutiveWinsMatchmakingScoreAdjustment": [
			{
				"Count": 6,
				"ScoreAdjust": 50
			},
			{
				"Count": 7,
				"ScoreAdjust": 100
			},
			{
				"Count": 8,
				"ScoreAdjust": 150
			},
			{
				"Count": 9,
				"ScoreAdjust": 200
			},
			{
				"Count": 10,
				"ScoreAdjust": 250
			}
		],
		"Icon": "UI/Arena_ABS/PeakRankIcon/RankIconPeak_10.png",
		"FriendlyWaitingTimeAdjustment": [
			{
				"WaitingTime": 15000,
				"TopBattlePowerMin": 1000,
				"TopBattlePowerMax": 20000
			},
			{
				"WaitingTime": 30000,
				"TopBattlePowerMin": 1000,
				"TopBattlePowerMax": 20000
			},
			{
				"WaitingTime": 60000,
				"TopBattlePowerMin": 1000,
				"TopBattlePowerMax": 20000
			}
		],
		"DanRewardMailTemplateId": 137
	},
	{
		"ID": 11,
		"Name": "Langrisser",
		"DisplayDan": 10,
		"DanGroup": 4,
		"IsDanGroupProtected": false,
		"BaselineScore": 2000,
		"NextSeasonDan": 7,
		"WinScoreDiffBonus": [
			{
				"ScoreDiff": -400,
				"ScoreBonus": -5000
			},
			{
				"ScoreDiff": -300,
				"ScoreBonus": -3000
			},
			{
				"ScoreDiff": -200,
				"ScoreBonus": -1000
			},
			{
				"ScoreDiff": -100,
				"ScoreBonus": 0
			},
			{
				"ScoreDiff": 100,
				"ScoreBonus": 1000
			},
			{
				"ScoreDiff": 200,
				"ScoreBonus": 2000
			},
			{
				"ScoreDiff": 300,
				"ScoreBonus": 3000
			},
			{
				"ScoreDiff": 400,
				"ScoreBonus": 4000
			}
		],
		"LossScoreDiffBonus": [
			{
				"ScoreDiff": -400,
				"ScoreBonus": -4000
			},
			{
				"ScoreDiff": -300,
				"ScoreBonus": -2000
			},
			{
				"ScoreDiff": -200,
				"ScoreBonus": -1000
			},
			{
				"ScoreDiff": -100,
				"ScoreBonus": 0
			},
			{
				"ScoreDiff": 100,
				"ScoreBonus": 2000
			},
			{
				"ScoreDiff": 200,
				"ScoreBonus": 3000
			},
			{
				"ScoreDiff": 300,
				"ScoreBonus": 5000
			},
			{
				"ScoreDiff": 400,
				"ScoreBonus": 7500
			}
		],
		"ConsecutiveWinScoreBonus": [
			{
				"ConsecutiveWins": 2,
				"ScoreBonus": 2000
			},
			{
				"ConsecutiveWins": 3,
				"ScoreBonus": 3000
			},
			{
				"ConsecutiveWins": 4,
				"ScoreBonus": 5000
			},
			{
				"ConsecutiveWins": 5,
				"ScoreBonus": 7500
			}
		],
		"WinBasicScore": 15,
		"LossBasicScore": 15,
		"DanDiffUpperBound": 12,
		"DanDiffLowerBound": 10,
		"WaitingTimeAdjustment": [
			{
				"WaitingTime": 10000,
				"Min": 9,
				"Max": 13
			},
			{
				"WaitingTime": 20000,
				"Min": 8,
				"Max": 14
			},
			{
				"WaitingTime": 60000,
				"Min": 7,
				"Max": 16
			},
			{
				"WaitingTime": 300000,
				"Min": 7,
				"Max": 16
			}
		],
		"ConsecutiveWinsMatchmakingScoreAdjustment": [
			{
				"Count": 6,
				"ScoreAdjust": 50
			},
			{
				"Count": 7,
				"ScoreAdjust": 100
			},
			{
				"Count": 8,
				"ScoreAdjust": 150
			},
			{
				"Count": 9,
				"ScoreAdjust": 200
			},
			{
				"Count": 10,
				"ScoreAdjust": 250
			}
		],
		"Icon": "UI/Arena_ABS/PeakRankIcon/RankIconPeak_10.png",
		"FriendlyWaitingTimeAdjustment": [
			{
				"WaitingTime": 15000,
				"TopBattlePowerMin": 1000,
				"TopBattlePowerMax": 20000
			},
			{
				"WaitingTime": 30000,
				"TopBattlePowerMin": 1000,
				"TopBattlePowerMax": 20000
			},
			{
				"WaitingTime": 60000,
				"TopBattlePowerMin": 1000,
				"TopBattlePowerMax": 20000
			}
		],
		"DanRewardMailTemplateId": 137
	},
	{
		"ID": 12,
		"Name": "Langrisser",
		"DisplayDan": 10,
		"DanGroup": 4,
		"IsDanGroupProtected": false,
		"BaselineScore": 2100,
		"NextSeasonDan": 7,
		"WinScoreDiffBonus": [
			{
				"ScoreDiff": -400,
				"ScoreBonus": -5000
			},
			{
				"ScoreDiff": -300,
				"ScoreBonus": -3000
			},
			{
				"ScoreDiff": -200,
				"ScoreBonus": -1000
			},
			{
				"ScoreDiff": -100,
				"ScoreBonus": 0
			},
			{
				"ScoreDiff": 100,
				"ScoreBonus": 1000
			},
			{
				"ScoreDiff": 200,
				"ScoreBonus": 2000
			},
			{
				"ScoreDiff": 300,
				"ScoreBonus": 3000
			},
			{
				"ScoreDiff": 400,
				"ScoreBonus": 4000
			}
		],
		"LossScoreDiffBonus": [
			{
				"ScoreDiff": -400,
				"ScoreBonus": -4000
			},
			{
				"ScoreDiff": -300,
				"ScoreBonus": -2000
			},
			{
				"ScoreDiff": -200,
				"ScoreBonus": -1000
			},
			{
				"ScoreDiff": -100,
				"ScoreBonus": 0
			},
			{
				"ScoreDiff": 100,
				"ScoreBonus": 2000
			},
			{
				"ScoreDiff": 200,
				"ScoreBonus": 3000
			},
			{
				"ScoreDiff": 300,
				"ScoreBonus": 5000
			},
			{
				"ScoreDiff": 400,
				"ScoreBonus": 7500
			}
		],
		"ConsecutiveWinScoreBonus": [
			{
				"ConsecutiveWins": 2,
				"ScoreBonus": 2000
			},
			{
				"ConsecutiveWins": 3,
				"ScoreBonus": 3000
			},
			{
				"ConsecutiveWins": 4,
				"ScoreBonus": 5000
			},
			{
				"ConsecutiveWins": 5,
				"ScoreBonus": 7500
			}
		],
		"WinBasicScore": 15,
		"LossBasicScore": 15,
		"DanDiffUpperBound": 13,
		"DanDiffLowerBound": 11,
		"WaitingTimeAdjustment": [
			{
				"WaitingTime": 10000,
				"Min": 10,
				"Max": 14
			},
			{
				"WaitingTime": 20000,
				"Min": 9,
				"Max": 15
			},
			{
				"WaitingTime": 60000,
				"Min": 8,
				"Max": 16
			},
			{
				"WaitingTime": 300000,
				"Min": 8,
				"Max": 16
			}
		],
		"ConsecutiveWinsMatchmakingScoreAdjustment": [
			{
				"Count": 6,
				"ScoreAdjust": 50
			},
			{
				"Count": 7,
				"ScoreAdjust": 100
			},
			{
				"Count": 8,
				"ScoreAdjust": 150
			},
			{
				"Count": 9,
				"ScoreAdjust": 200
			},
			{
				"Count": 10,
				"ScoreAdjust": 250
			}
		],
		"Icon": "UI/Arena_ABS/PeakRankIcon/RankIconPeak_10.png",
		"FriendlyWaitingTimeAdjustment": [
			{
				"WaitingTime": 15000,
				"TopBattlePowerMin": 1000,
				"TopBattlePowerMax": 20000
			},
			{
				"WaitingTime": 30000,
				"TopBattlePowerMin": 1000,
				"TopBattlePowerMax": 20000
			},
			{
				"WaitingTime": 60000,
				"TopBattlePowerMin": 1000,
				"TopBattlePowerMax": 20000
			}
		],
		"DanRewardMailTemplateId": 137
	},
	{
		"ID": 13,
		"Name": "Langrisser",
		"DisplayDan": 10,
		"DanGroup": 4,
		"IsDanGroupProtected": false,
		"BaselineScore": 2200,
		"NextSeasonDan": 7,
		"WinScoreDiffBonus": [
			{
				"ScoreDiff": -400,
				"ScoreBonus": -5000
			},
			{
				"ScoreDiff": -300,
				"ScoreBonus": -3000
			},
			{
				"ScoreDiff": -200,
				"ScoreBonus": -1000
			},
			{
				"ScoreDiff": -100,
				"ScoreBonus": 0
			},
			{
				"ScoreDiff": 100,
				"ScoreBonus": 1000
			},
			{
				"ScoreDiff": 200,
				"ScoreBonus": 2000
			},
			{
				"ScoreDiff": 300,
				"ScoreBonus": 3000
			},
			{
				"ScoreDiff": 400,
				"ScoreBonus": 4000
			}
		],
		"LossScoreDiffBonus": [
			{
				"ScoreDiff": -400,
				"ScoreBonus": -4000
			},
			{
				"ScoreDiff": -300,
				"ScoreBonus": -2000
			},
			{
				"ScoreDiff": -200,
				"ScoreBonus": -1000
			},
			{
				"ScoreDiff": -100,
				"ScoreBonus": 0
			},
			{
				"ScoreDiff": 100,
				"ScoreBonus": 2000
			},
			{
				"ScoreDiff": 200,
				"ScoreBonus": 3000
			},
			{
				"ScoreDiff": 300,
				"ScoreBonus": 5000
			},
			{
				"ScoreDiff": 400,
				"ScoreBonus": 7500
			}
		],
		"ConsecutiveWinScoreBonus": [
			{
				"ConsecutiveWins": 2,
				"ScoreBonus": 2000
			},
			{
				"ConsecutiveWins": 3,
				"ScoreBonus": 3000
			},
			{
				"ConsecutiveWins": 4,
				"ScoreBonus": 5000
			},
			{
				"ConsecutiveWins": 5,
				"ScoreBonus": 7500
			}
		],
		"WinBasicScore": 15,
		"LossBasicScore": 15,
		"DanDiffUpperBound": 14,
		"DanDiffLowerBound": 12,
		"WaitingTimeAdjustment": [
			{
				"WaitingTime": 10000,
				"Min": 11,
				"Max": 15
			},
			{
				"WaitingTime": 20000,
				"Min": 10,
				"Max": 16
			},
			{
				"WaitingTime": 60000,
				"Min": 9,
				"Max": 16
			},
			{
				"WaitingTime": 300000,
				"Min": 9,
				"Max": 16
			}
		],
		"ConsecutiveWinsMatchmakingScoreAdjustment": [
			{
				"Count": 6,
				"ScoreAdjust": 50
			},
			{
				"Count": 7,
				"ScoreAdjust": 100
			},
			{
				"Count": 8,
				"ScoreAdjust": 150
			},
			{
				"Count": 9,
				"ScoreAdjust": 200
			},
			{
				"Count": 10,
				"ScoreAdjust": 250
			}
		],
		"Icon": "UI/Arena_ABS/PeakRankIcon/RankIconPeak_10.png",
		"FriendlyWaitingTimeAdjustment": [
			{
				"WaitingTime": 15000,
				"TopBattlePowerMin": 1000,
				"TopBattlePowerMax": 20000
			},
			{
				"WaitingTime": 30000,
				"TopBattlePowerMin": 1000,
				"TopBattlePowerMax": 20000
			},
			{
				"WaitingTime": 60000,
				"TopBattlePowerMin": 1000,
				"TopBattlePowerMax": 20000
			}
		],
		"DanRewardMailTemplateId": 137
	},
	{
		"ID": 14,
		"Name": "Langrisser",
		"DisplayDan": 10,
		"DanGroup": 4,
		"IsDanGroupProtected": false,
		"BaselineScore": 2300,
		"NextSeasonDan": 7,
		"WinScoreDiffBonus": [
			{
				"ScoreDiff": -400,
				"ScoreBonus": -5000
			},
			{
				"ScoreDiff": -300,
				"ScoreBonus": -3000
			},
			{
				"ScoreDiff": -200,
				"ScoreBonus": -1000
			},
			{
				"ScoreDiff": -100,
				"ScoreBonus": 0
			},
			{
				"ScoreDiff": 100,
				"ScoreBonus": 1000
			},
			{
				"ScoreDiff": 200,
				"ScoreBonus": 2000
			},
			{
				"ScoreDiff": 300,
				"ScoreBonus": 3000
			},
			{
				"ScoreDiff": 400,
				"ScoreBonus": 4000
			}
		],
		"LossScoreDiffBonus": [
			{
				"ScoreDiff": -400,
				"ScoreBonus": -4000
			},
			{
				"ScoreDiff": -300,
				"ScoreBonus": -2000
			},
			{
				"ScoreDiff": -200,
				"ScoreBonus": -1000
			},
			{
				"ScoreDiff": -100,
				"ScoreBonus": 0
			},
			{
				"ScoreDiff": 100,
				"ScoreBonus": 2000
			},
			{
				"ScoreDiff": 200,
				"ScoreBonus": 3000
			},
			{
				"ScoreDiff": 300,
				"ScoreBonus": 5000
			},
			{
				"ScoreDiff": 400,
				"ScoreBonus": 7500
			}
		],
		"ConsecutiveWinScoreBonus": [
			{
				"ConsecutiveWins": 2,
				"ScoreBonus": 2000
			},
			{
				"ConsecutiveWins": 3,
				"ScoreBonus": 3000
			},
			{
				"ConsecutiveWins": 4,
				"ScoreBonus": 5000
			},
			{
				"ConsecutiveWins": 5,
				"ScoreBonus": 7500
			}
		],
		"WinBasicScore": 15,
		"LossBasicScore": 15,
		"DanDiffUpperBound": 15,
		"DanDiffLowerBound": 13,
		"WaitingTimeAdjustment": [
			{
				"WaitingTime": 10000,
				"Min": 12,
				"Max": 16
			},
			{
				"WaitingTime": 20000,
				"Min": 11,
				"Max": 16
			},
			{
				"WaitingTime": 60000,
				"Min": 10,
				"Max": 16
			},
			{
				"WaitingTime": 300000,
				"Min": 10,
				"Max": 16
			}
		],
		"ConsecutiveWinsMatchmakingScoreAdjustment": [
			{
				"Count": 6,
				"ScoreAdjust": 50
			},
			{
				"Count": 7,
				"ScoreAdjust": 100
			},
			{
				"Count": 8,
				"ScoreAdjust": 150
			},
			{
				"Count": 9,
				"ScoreAdjust": 200
			},
			{
				"Count": 10,
				"ScoreAdjust": 250
			}
		],
		"Icon": "UI/Arena_ABS/PeakRankIcon/RankIconPeak_10.png",
		"FriendlyWaitingTimeAdjustment": [
			{
				"WaitingTime": 15000,
				"TopBattlePowerMin": 1000,
				"TopBattlePowerMax": 20000
			},
			{
				"WaitingTime": 30000,
				"TopBattlePowerMin": 1000,
				"TopBattlePowerMax": 20000
			},
			{
				"WaitingTime": 60000,
				"TopBattlePowerMin": 1000,
				"TopBattlePowerMax": 20000
			}
		],
		"DanRewardMailTemplateId": 137
	},
	{
		"ID": 15,
		"Name": "Langrisser",
		"DisplayDan": 10,
		"DanGroup": 4,
		"IsDanGroupProtected": false,
		"BaselineScore": 2400,
		"NextSeasonDan": 7,
		"WinScoreDiffBonus": [
			{
				"ScoreDiff": -400,
				"ScoreBonus": -5000
			},
			{
				"ScoreDiff": -300,
				"ScoreBonus": -3000
			},
			{
				"ScoreDiff": -200,
				"ScoreBonus": -1000
			},
			{
				"ScoreDiff": -100,
				"ScoreBonus": 0
			},
			{
				"ScoreDiff": 100,
				"ScoreBonus": 1000
			},
			{
				"ScoreDiff": 200,
				"ScoreBonus": 2000
			},
			{
				"ScoreDiff": 300,
				"ScoreBonus": 3000
			},
			{
				"ScoreDiff": 400,
				"ScoreBonus": 4000
			}
		],
		"LossScoreDiffBonus": [
			{
				"ScoreDiff": -400,
				"ScoreBonus": -4000
			},
			{
				"ScoreDiff": -300,
				"ScoreBonus": -2000
			},
			{
				"ScoreDiff": -200,
				"ScoreBonus": -1000
			},
			{
				"ScoreDiff": -100,
				"ScoreBonus": 0
			},
			{
				"ScoreDiff": 100,
				"ScoreBonus": 2000
			},
			{
				"ScoreDiff": 200,
				"ScoreBonus": 3000
			},
			{
				"ScoreDiff": 300,
				"ScoreBonus": 5000
			},
			{
				"ScoreDiff": 400,
				"ScoreBonus": 7500
			}
		],
		"ConsecutiveWinScoreBonus": [
			{
				"ConsecutiveWins": 2,
				"ScoreBonus": 2000
			},
			{
				"ConsecutiveWins": 3,
				"ScoreBonus": 3000
			},
			{
				"ConsecutiveWins": 4,
				"ScoreBonus": 5000
			},
			{
				"ConsecutiveWins": 5,
				"ScoreBonus": 7500
			}
		],
		"WinBasicScore": 15,
		"LossBasicScore": 15,
		"DanDiffUpperBound": 16,
		"DanDiffLowerBound": 14,
		"WaitingTimeAdjustment": [
			{
				"WaitingTime": 10000,
				"Min": 13,
				"Max": 16
			},
			{
				"WaitingTime": 20000,
				"Min": 12,
				"Max": 16
			},
			{
				"WaitingTime": 60000,
				"Min": 10,
				"Max": 16
			},
			{
				"WaitingTime": 300000,
				"Min": 10,
				"Max": 16
			}
		],
		"ConsecutiveWinsMatchmakingScoreAdjustment": [
			{
				"Count": 6,
				"ScoreAdjust": 50
			},
			{
				"Count": 7,
				"ScoreAdjust": 100
			},
			{
				"Count": 8,
				"ScoreAdjust": 150
			},
			{
				"Count": 9,
				"ScoreAdjust": 200
			},
			{
				"Count": 10,
				"ScoreAdjust": 250
			}
		],
		"Icon": "UI/Arena_ABS/PeakRankIcon/RankIconPeak_10.png",
		"FriendlyWaitingTimeAdjustment": [
			{
				"WaitingTime": 15000,
				"TopBattlePowerMin": 1000,
				"TopBattlePowerMax": 20000
			},
			{
				"WaitingTime": 30000,
				"TopBattlePowerMin": 1000,
				"TopBattlePowerMax": 20000
			},
			{
				"WaitingTime": 60000,
				"TopBattlePowerMin": 1000,
				"TopBattlePowerMax": 20000
			}
		],
		"DanRewardMailTemplateId": 137
	},
	{
		"ID": 16,
		"Name": "Langrisser",
		"DisplayDan": 10,
		"DanGroup": 4,
		"IsDanGroupProtected": false,
		"BaselineScore": 2500,
		"NextSeasonDan": 7,
		"WinScoreDiffBonus": [
			{
				"ScoreDiff": -400,
				"ScoreBonus": -5000
			},
			{
				"ScoreDiff": -300,
				"ScoreBonus": -3000
			},
			{
				"ScoreDiff": -200,
				"ScoreBonus": -1000
			},
			{
				"ScoreDiff": -100,
				"ScoreBonus": 0
			},
			{
				"ScoreDiff": 100,
				"ScoreBonus": 1000
			},
			{
				"ScoreDiff": 200,
				"ScoreBonus": 2000
			},
			{
				"ScoreDiff": 300,
				"ScoreBonus": 3000
			},
			{
				"ScoreDiff": 400,
				"ScoreBonus": 4000
			}
		],
		"LossScoreDiffBonus": [
			{
				"ScoreDiff": -400,
				"ScoreBonus": -4000
			},
			{
				"ScoreDiff": -300,
				"ScoreBonus": -2000
			},
			{
				"ScoreDiff": -200,
				"ScoreBonus": -1000
			},
			{
				"ScoreDiff": -100,
				"ScoreBonus": 0
			},
			{
				"ScoreDiff": 100,
				"ScoreBonus": 2000
			},
			{
				"ScoreDiff": 200,
				"ScoreBonus": 3000
			},
			{
				"ScoreDiff": 300,
				"ScoreBonus": 5000
			},
			{
				"ScoreDiff": 400,
				"ScoreBonus": 7500
			}
		],
		"ConsecutiveWinScoreBonus": [
			{
				"ConsecutiveWins": 2,
				"ScoreBonus": 2000
			},
			{
				"ConsecutiveWins": 3,
				"ScoreBonus": 3000
			},
			{
				"ConsecutiveWins": 4,
				"ScoreBonus": 5000
			},
			{
				"ConsecutiveWins": 5,
				"ScoreBonus": 7500
			}
		],
		"WinBasicScore": 15,
		"LossBasicScore": 15,
		"DanDiffUpperBound": 16,
		"DanDiffLowerBound": 15,
		"WaitingTimeAdjustment": [
			{
				"WaitingTime": 10000,
				"Min": 14,
				"Max": 16
			},
			{
				"WaitingTime": 20000,
				"Min": 13,
				"Max": 16
			},
			{
				"WaitingTime": 60000,
				"Min": 10,
				"Max": 16
			},
			{
				"WaitingTime": 300000,
				"Min": 10,
				"Max": 16
			}
		],
		"ConsecutiveWinsMatchmakingScoreAdjustment": [
			{
				"Count": 6,
				"ScoreAdjust": 50
			},
			{
				"Count": 7,
				"ScoreAdjust": 100
			},
			{
				"Count": 8,
				"ScoreAdjust": 150
			},
			{
				"Count": 9,
				"ScoreAdjust": 200
			},
			{
				"Count": 10,
				"ScoreAdjust": 250
			}
		],
		"Icon": "UI/Arena_ABS/PeakRankIcon/RankIconPeak_10.png",
		"FriendlyWaitingTimeAdjustment": [
			{
				"WaitingTime": 15000,
				"TopBattlePowerMin": 1000,
				"TopBattlePowerMax": 20000
			},
			{
				"WaitingTime": 30000,
				"TopBattlePowerMin": 1000,
				"TopBattlePowerMax": 20000
			},
			{
				"WaitingTime": 60000,
				"TopBattlePowerMin": 1000,
				"TopBattlePowerMax": 20000
			}
		],
		"DanRewardMailTemplateId": 137
	}
]