[
	{
		"ID": 1,
		"SpineDataName": "Aniki_Cut_SkeletonData",
		"AnimationName": "attack1",
		"EventName": "start",
		"SoundName": "SPSkill_xionggui_Atk_2"
	},
	{
		"ID": 2,
		"SpineDataName": "Aniki_Cut_SkeletonData",
		"AnimationName": "attack2",
		"EventName": "start",
		"SoundName": "SPSkill_xionggui_Atk_1"
	},
	{
		"ID": 3,
		"SpineDataName": "Fafnir_SkeletonData",
		"AnimationName": "attack2",
		"EventName": "start",
		"SoundName": "SPSkill_MagicDragon_Atk"
	},
	{
		"ID": 4,
		"SpineDataName": "Fafnir_SkeletonData",
		"AnimationName": "attack1",
		"EventName": "start",
		"SoundName": "SPSkill_MagicDragon_Fire"
	}
]