[
	{
		"ID": 1,
		"Text": "admin"
	},
	{
		"ID": 2,
		"Text": "gm"
	},
	{
		"ID": 3,
		"Text": "anal"
	},
	{
		"ID": 4,
		"Text": "anus"
	},
	{
		"ID": 5,
		"Text": "arse"
	},
	{
		"ID": 6,
		"Text": "bong"
	},
	{
		"ID": 7,
		"Text": "clit"
	},
	{
		"ID": 8,
		"Text": "cock"
	},
	{
		"ID": 9,
		"Text": "crap"
	},
	{
		"ID": 10,
		"Text": "cumm"
	},
	{
		"ID": 11,
		"Text": "cunt"
	},
	{
		"ID": 12,
		"Text": "damn"
	},
	{
		"ID": 13,
		"Text": "dike"
	},
	{
		"ID": 14,
		"Text": "dong"
	},
	{
		"ID": 15,
		"Text": "dope"
	},
	{
		"ID": 16,
		"Text": "fuck"
	},
	{
		"ID": 17,
		"Text": "gook"
	},
	{
		"ID": 18,
		"Text": "homo"
	},
	{
		"ID": 19,
		"Text": "hore"
	},
	{
		"ID": 20,
		"Text": "jism"
	},
	{
		"ID": 21,
		"Text": "jizz"
	},
	{
		"ID": 22,
		"Text": "jugs"
	},
	{
		"ID": 23,
		"Text": "koon"
	},
	{
		"ID": 24,
		"Text": "krap"
	},
	{
		"ID": 25,
		"Text": "kunt"
	},
	{
		"ID": 26,
		"Text": "lezz"
	},
	{
		"ID": 27,
		"Text": "limy"
	},
	{
		"ID": 28,
		"Text": "mams"
	},
	{
		"ID": 29,
		"Text": "muff"
	},
	{
		"ID": 30,
		"Text": "nude"
	},
	{
		"ID": 31,
		"Text": "orgy"
	},
	{
		"ID": 32,
		"Text": "pimp"
	},
	{
		"ID": 33,
		"Text": "piss"
	},
	{
		"ID": 34,
		"Text": "poop"
	},
	{
		"ID": 35,
		"Text": "porn"
	},
	{
		"ID": 36,
		"Text": "pudd"
	},
	{
		"ID": 37,
		"Text": "rape"
	},
	{
		"ID": 38,
		"Text": "shag"
	},
	{
		"ID": 39,
		"Text": "shit"
	},
	{
		"ID": 40,
		"Text": "skum"
	},
	{
		"ID": 41,
		"Text": "slut"
	},
	{
		"ID": 42,
		"Text": "snot"
	},
	{
		"ID": 43,
		"Text": "spic"
	},
	{
		"ID": 44,
		"Text": "spit"
	},
	{
		"ID": 45,
		"Text": "suck"
	},
	{
		"ID": 46,
		"Text": "tang"
	},
	{
		"ID": 47,
		"Text": "tits"
	},
	{
		"ID": 48,
		"Text": "3some"
	},
	{
		"ID": 49,
		"Text": "balls"
	},
	{
		"ID": 50,
		"Text": "bitch"
	},
	{
		"ID": 51,
		"Text": "boner"
	},
	{
		"ID": 52,
		"Text": "boobs"
	},
	{
		"ID": 53,
		"Text": "crabs"
	},
	{
		"ID": 54,
		"Text": "crack"
	},
	{
		"ID": 55,
		"Text": "devil"
	},
	{
		"ID": 56,
		"Text": "dildo"
	},
	{
		"ID": 57,
		"Text": "do me"
	},
	{
		"ID": 58,
		"Text": "drunk"
	},
	{
		"ID": 59,
		"Text": "eatme"
	},
	{
		"ID": 60,
		"Text": "fagot"
	},
	{
		"ID": 61,
		"Text": "fatso"
	},
	{
		"ID": 62,
		"Text": "fucka"
	},
	{
		"ID": 63,
		"Text": "fuuck"
	},
	{
		"ID": 64,
		"Text": "harem"
	},
	{
		"ID": 65,
		"Text": "ho mo"
	},
	{
		"ID": 66,
		"Text": "horny"
	},
	{
		"ID": 67,
		"Text": "hoser"
	},
	{
		"ID": 68,
		"Text": "jizim"
	},
	{
		"ID": 69,
		"Text": "lesbo"
	},
	{
		"ID": 70,
		"Text": "lezbe"
	},
	{
		"ID": 71,
		"Text": "lezbo"
	},
	{
		"ID": 72,
		"Text": "lezzo"
	},
	{
		"ID": 73,
		"Text": "naked"
	},
	{
		"ID": 74,
		"Text": "niger"
	},
	{
		"ID": 75,
		"Text": "nigga"
	},
	{
		"ID": 76,
		"Text": "ou812"
	},
	{
		"ID": 77,
		"Text": "penis"
	},
	{
		"ID": 78,
		"Text": "porno"
	},
	{
		"ID": 79,
		"Text": "prick"
	},
	{
		"ID": 80,
		"Text": "pubic"
	},
	{
		"ID": 81,
		"Text": "pussy"
	},
	{
		"ID": 82,
		"Text": "queef"
	},
	{
		"ID": 83,
		"Text": "queer"
	},
	{
		"ID": 84,
		"Text": "roach"
	},
	{
		"ID": 85,
		"Text": "sandm"
	},
	{
		"ID": 86,
		"Text": "satan"
	},
	{
		"ID": 87,
		"Text": "screw"
	},
	{
		"ID": 88,
		"Text": "semen"
	},
	{
		"ID": 89,
		"Text": "shits"
	},
	{
		"ID": 90,
		"Text": "skank"
	},
	{
		"ID": 91,
		"Text": "slant"
	},
	{
		"ID": 92,
		"Text": "slave"
	},
	{
		"ID": 93,
		"Text": "slime"
	},
	{
		"ID": 94,
		"Text": "sluts"
	},
	{
		"ID": 95,
		"Text": "slutt"
	},
	{
		"ID": 96,
		"Text": "sperm"
	},
	{
		"ID": 97,
		"Text": "spick"
	},
	{
		"ID": 98,
		"Text": "stagg"
	},
	{
		"ID": 99,
		"Text": "titty"
	},
	{
		"ID": 100,
		"Text": "tramp"
	},
	{
		"ID": 101,
		"Text": "trots"
	},
	{
		"ID": 102,
		"Text": "urine"
	},
	{
		"ID": 103,
		"Text": "vulva"
	},
	{
		"ID": 104,
		"Text": "whore"
	},
	{
		"ID": 105,
		"Text": "system"
	},
	{
		"ID": 106,
		"Text": "2 on 1"
	},
	{
		"ID": 107,
		"Text": "3rdeye"
	},
	{
		"ID": 108,
		"Text": "3rdleg"
	},
	{
		"ID": 109,
		"Text": "60nine"
	},
	{
		"ID": 110,
		"Text": "a.s.s."
	},
	{
		"ID": 111,
		"Text": "assman"
	},
	{
		"ID": 112,
		"Text": "b hard"
	},
	{
		"ID": 113,
		"Text": "biatch"
	},
	{
		"ID": 114,
		"Text": "bigass"
	},
	{
		"ID": 115,
		"Text": "bitchy"
	},
	{
		"ID": 116,
		"Text": "breast"
	},
	{
		"ID": 117,
		"Text": "condom"
	},
	{
		"ID": 118,
		"Text": "crappy"
	},
	{
		"ID": 119,
		"Text": "creamy"
	},
	{
		"ID": 120,
		"Text": "crotch"
	},
	{
		"ID": 121,
		"Text": "dahmer"
	},
	{
		"ID": 122,
		"Text": "damnit"
	},
	{
		"ID": 123,
		"Text": "eat me"
	},
	{
		"ID": 124,
		"Text": "faggot"
	},
	{
		"ID": 125,
		"Text": "fatass"
	},
	{
		"ID": 126,
		"Text": "fondle"
	},
	{
		"ID": 127,
		"Text": "fucked"
	},
	{
		"ID": 128,
		"Text": "fucker"
	},
	{
		"ID": 129,
		"Text": "fuckin"
	},
	{
		"ID": 130,
		"Text": "fuckit"
	},
	{
		"ID": 131,
		"Text": "fuckme"
	},
	{
		"ID": 132,
		"Text": "hardon"
	},
	{
		"ID": 133,
		"Text": "herpes"
	},
	{
		"ID": 134,
		"Text": "honkey"
	},
	{
		"ID": 135,
		"Text": "hooker"
	},
	{
		"ID": 136,
		"Text": "horney"
	},
	{
		"ID": 137,
		"Text": "incest"
	},
	{
		"ID": 138,
		"Text": "insest"
	},
	{
		"ID": 139,
		"Text": "jizzim"
	},
	{
		"ID": 140,
		"Text": "krappy"
	},
	{
		"ID": 141,
		"Text": "lesbin"
	},
	{
		"ID": 142,
		"Text": "lez be"
	},
	{
		"ID": 143,
		"Text": "licker"
	},
	{
		"ID": 144,
		"Text": "lickme"
	},
	{
		"ID": 145,
		"Text": "lolita"
	},
	{
		"ID": 146,
		"Text": "molest"
	},
	{
		"ID": 147,
		"Text": "murder"
	},
	{
		"ID": 148,
		"Text": "nigger"
	},
	{
		"ID": 149,
		"Text": "nipple"
	},
	{
		"ID": 150,
		"Text": "nittit"
	},
	{
		"ID": 151,
		"Text": "no sex"
	},
	{
		"ID": 152,
		"Text": "nookie"
	},
	{
		"ID": 153,
		"Text": "nooner"
	},
	{
		"ID": 154,
		"Text": "orgasm"
	},
	{
		"ID": 155,
		"Text": "pecker"
	},
	{
		"ID": 156,
		"Text": "period"
	},
	{
		"ID": 157,
		"Text": "pimped"
	},
	{
		"ID": 158,
		"Text": "pimper"
	},
	{
		"ID": 159,
		"Text": "pissed"
	},
	{
		"ID": 160,
		"Text": "pisser"
	},
	{
		"ID": 161,
		"Text": "polack"
	},
	{
		"ID": 162,
		"Text": "pooper"
	},
	{
		"ID": 163,
		"Text": "popimp"
	},
	{
		"ID": 164,
		"Text": "pudboy"
	},
	{
		"ID": 165,
		"Text": "rapist"
	},
	{
		"ID": 166,
		"Text": "rectum"
	},
	{
		"ID": 167,
		"Text": "reefer"
	},
	{
		"ID": 168,
		"Text": "retard"
	},
	{
		"ID": 169,
		"Text": "ribbed"
	},
	{
		"ID": 170,
		"Text": "rimjob"
	},
	{
		"ID": 171,
		"Text": "robber"
	},
	{
		"ID": 172,
		"Text": "sexpot"
	},
	{
		"ID": 173,
		"Text": "sextoy"
	},
	{
		"ID": 174,
		"Text": "sexual"
	},
	{
		"ID": 175,
		"Text": "shitty"
	},
	{
		"ID": 176,
		"Text": "sixty9"
	},
	{
		"ID": 177,
		"Text": "slutty"
	},
	{
		"ID": 178,
		"Text": "smagma"
	},
	{
		"ID": 179,
		"Text": "snatch"
	},
	{
		"ID": 180,
		"Text": "sniper"
	},
	{
		"ID": 181,
		"Text": "sodomy"
	},
	{
		"ID": 182,
		"Text": "stroke"
	},
	{
		"ID": 183,
		"Text": "stupid"
	},
	{
		"ID": 184,
		"Text": "sucker"
	},
	{
		"ID": 185,
		"Text": "suckme"
	},
	{
		"ID": 186,
		"Text": "swalow"
	},
	{
		"ID": 187,
		"Text": "tampon"
	},
	{
		"ID": 188,
		"Text": "titjob"
	},
	{
		"ID": 189,
		"Text": "toilet"
	},
	{
		"ID": 190,
		"Text": "tongue"
	},
	{
		"ID": 191,
		"Text": "trojan"
	},
	{
		"ID": 192,
		"Text": "uterus"
	},
	{
		"ID": 193,
		"Text": "vagina"
	},
	{
		"ID": 194,
		"Text": "virgin"
	},
	{
		"ID": 195,
		"Text": "weenie"
	},
	{
		"ID": 196,
		"Text": "wigger"
	},
	{
		"ID": 197,
		"Text": "manager"
	},
	{
		"ID": 198,
		"Text": "3rd eye"
	},
	{
		"ID": 199,
		"Text": "3rd leg"
	},
	{
		"ID": 200,
		"Text": "60 nine"
	},
	{
		"ID": 201,
		"Text": "analsex"
	},
	{
		"ID": 202,
		"Text": "ass man"
	},
	{
		"ID": 203,
		"Text": "assfuck"
	},
	{
		"ID": 204,
		"Text": "asshole"
	},
	{
		"ID": 205,
		"Text": "asshore"
	},
	{
		"ID": 206,
		"Text": "asskiss"
	},
	{
		"ID": 207,
		"Text": "asslick"
	},
	{
		"ID": 208,
		"Text": "asswipe"
	},
	{
		"ID": 209,
		"Text": "bad ass"
	},
	{
		"ID": 210,
		"Text": "badfuck"
	},
	{
		"ID": 211,
		"Text": "banging"
	},
	{
		"ID": 212,
		"Text": "bastard"
	},
	{
		"ID": 213,
		"Text": "bazooms"
	},
	{
		"ID": 214,
		"Text": "beatoff"
	},
	{
		"ID": 215,
		"Text": "big ass"
	},
	{
		"ID": 216,
		"Text": "bigbutt"
	},
	{
		"ID": 217,
		"Text": "bitches"
	},
	{
		"ID": 218,
		"Text": "bitchin"
	},
	{
		"ID": 219,
		"Text": "blowjob"
	},
	{
		"ID": 220,
		"Text": "boobies"
	},
	{
		"ID": 221,
		"Text": "bumfuck"
	},
	{
		"ID": 222,
		"Text": "buttman"
	},
	{
		"ID": 223,
		"Text": "cocknob"
	},
	{
		"ID": 224,
		"Text": "cumfest"
	},
	{
		"ID": 225,
		"Text": "cumming"
	},
	{
		"ID": 226,
		"Text": "cumquat"
	},
	{
		"ID": 227,
		"Text": "cumshot"
	},
	{
		"ID": 228,
		"Text": "damn it"
	},
	{
		"ID": 229,
		"Text": "dickman"
	},
	{
		"ID": 230,
		"Text": "dickwad"
	},
	{
		"ID": 231,
		"Text": "doubled"
	},
	{
		"ID": 232,
		"Text": "drunken"
	},
	{
		"ID": 233,
		"Text": "dumbass"
	},
	{
		"ID": 234,
		"Text": "fat ass"
	},
	{
		"ID": 235,
		"Text": "fatfuck"
	},
	{
		"ID": 236,
		"Text": "fisting"
	},
	{
		"ID": 237,
		"Text": "fuck it"
	},
	{
		"ID": 238,
		"Text": "fuck me"
	},
	{
		"ID": 239,
		"Text": "fuckbag"
	},
	{
		"ID": 240,
		"Text": "fuckers"
	},
	{
		"ID": 241,
		"Text": "fuckher"
	},
	{
		"ID": 242,
		"Text": "fuckina"
	},
	{
		"ID": 243,
		"Text": "fucking"
	},
	{
		"ID": 244,
		"Text": "fuckoff"
	},
	{
		"ID": 245,
		"Text": "fuckpig"
	},
	{
		"ID": 246,
		"Text": "fuckyou"
	},
	{
		"ID": 247,
		"Text": "funfuck"
	},
	{
		"ID": 248,
		"Text": "gay ass"
	},
	{
		"ID": 249,
		"Text": "genital"
	},
	{
		"ID": 250,
		"Text": "goddamn"
	},
	{
		"ID": 251,
		"Text": "handjob"
	},
	{
		"ID": 252,
		"Text": "hard on"
	},
	{
		"ID": 253,
		"Text": "honkers"
	},
	{
		"ID": 254,
		"Text": "hookers"
	},
	{
		"ID": 255,
		"Text": "hooters"
	},
	{
		"ID": 256,
		"Text": "hosejob"
	},
	{
		"ID": 257,
		"Text": "hotdamn"
	},
	{
		"ID": 258,
		"Text": "jackoff"
	},
	{
		"ID": 259,
		"Text": "japcrap"
	},
	{
		"ID": 260,
		"Text": "jerkoff"
	},
	{
		"ID": 261,
		"Text": "juggalo"
	},
	{
		"ID": 262,
		"Text": "kissass"
	},
	{
		"ID": 263,
		"Text": "lesbain"
	},
	{
		"ID": 264,
		"Text": "lesbayn"
	},
	{
		"ID": 265,
		"Text": "lesbian"
	},
	{
		"ID": 266,
		"Text": "lick me"
	},
	{
		"ID": 267,
		"Text": "livesex"
	},
	{
		"ID": 268,
		"Text": "lovegoo"
	},
	{
		"ID": 269,
		"Text": "lovegun"
	},
	{
		"ID": 270,
		"Text": "lubejob"
	},
	{
		"ID": 271,
		"Text": "nastyho"
	},
	{
		"ID": 272,
		"Text": "nit tit"
	},
	{
		"ID": 273,
		"Text": "p i m p"
	},
	{
		"ID": 274,
		"Text": "playboy"
	},
	{
		"ID": 275,
		"Text": "pud boy"
	},
	{
		"ID": 276,
		"Text": "puddboy"
	},
	{
		"ID": 277,
		"Text": "puntang"
	},
	{
		"ID": 278,
		"Text": "quickie"
	},
	{
		"ID": 279,
		"Text": "rearend"
	},
	{
		"ID": 280,
		"Text": "rim job"
	},
	{
		"ID": 281,
		"Text": "s and m"
	},
	{
		"ID": 282,
		"Text": "schlong"
	},
	{
		"ID": 283,
		"Text": "scrotum"
	},
	{
		"ID": 284,
		"Text": "sex pot"
	},
	{
		"ID": 285,
		"Text": "sex toy"
	},
	{
		"ID": 286,
		"Text": "sexfarm"
	},
	{
		"ID": 287,
		"Text": "sextogo"
	},
	{
		"ID": 288,
		"Text": "sextoys"
	},
	{
		"ID": 289,
		"Text": "shaggin"
	},
	{
		"ID": 290,
		"Text": "shitter"
	},
	{
		"ID": 291,
		"Text": "sixty 9"
	},
	{
		"ID": 292,
		"Text": "skumbag"
	},
	{
		"ID": 293,
		"Text": "spitter"
	},
	{
		"ID": 294,
		"Text": "strapon"
	},
	{
		"ID": 295,
		"Text": "suck me"
	},
	{
		"ID": 296,
		"Text": "suckoff"
	},
	{
		"ID": 297,
		"Text": "suicide"
	},
	{
		"ID": 298,
		"Text": "swallow"
	},
	{
		"ID": 299,
		"Text": "tit job"
	},
	{
		"ID": 300,
		"Text": "titfuck"
	},
	{
		"ID": 301,
		"Text": "titties"
	},
	{
		"ID": 302,
		"Text": "triplex"
	},
	{
		"ID": 303,
		"Text": "upskirt"
	},
	{
		"ID": 304,
		"Text": "urinate"
	},
	{
		"ID": 305,
		"Text": "vaginal"
	},
	{
		"ID": 306,
		"Text": "waysted"
	},
	{
		"ID": 307,
		"Text": "wetspot"
	},
	{
		"ID": 308,
		"Text": "whacker"
	},
	{
		"ID": 309,
		"Text": "wuutang"
	},
	{
		"ID": 310,
		"Text": "changyou"
	},
	{
		"ID": 311,
		"Text": "anal sex"
	},
	{
		"ID": 312,
		"Text": "ass fuck"
	},
	{
		"ID": 313,
		"Text": "ass hole"
	},
	{
		"ID": 314,
		"Text": "ass hore"
	},
	{
		"ID": 315,
		"Text": "ass kiss"
	},
	{
		"ID": 316,
		"Text": "ass lick"
	},
	{
		"ID": 317,
		"Text": "ass wipe"
	},
	{
		"ID": 318,
		"Text": "assclown"
	},
	{
		"ID": 319,
		"Text": "assholes"
	},
	{
		"ID": 320,
		"Text": "assklown"
	},
	{
		"ID": 321,
		"Text": "asslover"
	},
	{
		"ID": 322,
		"Text": "assmunch"
	},
	{
		"ID": 323,
		"Text": "asswhore"
	},
	{
		"ID": 324,
		"Text": "backdoor"
	},
	{
		"ID": 325,
		"Text": "backseat"
	},
	{
		"ID": 326,
		"Text": "bad fuck"
	},
	{
		"ID": 327,
		"Text": "ballsack"
	},
	{
		"ID": 328,
		"Text": "bazongas"
	},
	{
		"ID": 329,
		"Text": "beat off"
	},
	{
		"ID": 330,
		"Text": "beat-off"
	},
	{
		"ID": 331,
		"Text": "big butt"
	},
	{
		"ID": 332,
		"Text": "bisexual"
	},
	{
		"ID": 333,
		"Text": "blow job"
	},
	{
		"ID": 334,
		"Text": "bullcrap"
	},
	{
		"ID": 335,
		"Text": "bulldike"
	},
	{
		"ID": 336,
		"Text": "bulldyke"
	},
	{
		"ID": 337,
		"Text": "bullshit"
	},
	{
		"ID": 338,
		"Text": "bunghole"
	},
	{
		"ID": 339,
		"Text": "butt man"
	},
	{
		"ID": 340,
		"Text": "buttbang"
	},
	{
		"ID": 341,
		"Text": "buttface"
	},
	{
		"ID": 342,
		"Text": "buttfuck"
	},
	{
		"ID": 343,
		"Text": "butthead"
	},
	{
		"ID": 344,
		"Text": "buttplug"
	},
	{
		"ID": 345,
		"Text": "cameltoe"
	},
	{
		"ID": 346,
		"Text": "clitoris"
	},
	{
		"ID": 347,
		"Text": "cock nob"
	},
	{
		"ID": 348,
		"Text": "cockhead"
	},
	{
		"ID": 349,
		"Text": "cockknob"
	},
	{
		"ID": 350,
		"Text": "cocksman"
	},
	{
		"ID": 351,
		"Text": "cocktail"
	},
	{
		"ID": 352,
		"Text": "copulate"
	},
	{
		"ID": 353,
		"Text": "cornhole"
	},
	{
		"ID": 354,
		"Text": "cum fest"
	},
	{
		"ID": 355,
		"Text": "cum quat"
	},
	{
		"ID": 356,
		"Text": "cum shot"
	},
	{
		"ID": 357,
		"Text": "cumqueen"
	},
	{
		"ID": 358,
		"Text": "cuntfuck"
	},
	{
		"ID": 359,
		"Text": "cybersex"
	},
	{
		"ID": 360,
		"Text": "datnigga"
	},
	{
		"ID": 361,
		"Text": "defecate"
	},
	{
		"ID": 362,
		"Text": "dick wad"
	},
	{
		"ID": 363,
		"Text": "dickhead"
	},
	{
		"ID": 364,
		"Text": "dickless"
	},
	{
		"ID": 365,
		"Text": "dicklick"
	},
	{
		"ID": 366,
		"Text": "dickweed"
	},
	{
		"ID": 367,
		"Text": "dipstick"
	},
	{
		"ID": 368,
		"Text": "dirty ho"
	},
	{
		"ID": 369,
		"Text": "double d"
	},
	{
		"ID": 370,
		"Text": "dripdick"
	},
	{
		"ID": 371,
		"Text": "dumb ass"
	},
	{
		"ID": 372,
		"Text": "dumbfuck"
	},
	{
		"ID": 373,
		"Text": "easyslut"
	},
	{
		"ID": 374,
		"Text": "eatballs"
	},
	{
		"ID": 375,
		"Text": "eatpussy"
	},
	{
		"ID": 376,
		"Text": "erection"
	},
	{
		"ID": 377,
		"Text": "f.u.c.k."
	},
	{
		"ID": 378,
		"Text": "fastfuck"
	},
	{
		"ID": 379,
		"Text": "fat fuck"
	},
	{
		"ID": 380,
		"Text": "fellatio"
	},
	{
		"ID": 381,
		"Text": "fistfuck"
	},
	{
		"ID": 382,
		"Text": "footfuck"
	},
	{
		"ID": 383,
		"Text": "foreskin"
	},
	{
		"ID": 384,
		"Text": "freefuck"
	},
	{
		"ID": 385,
		"Text": "fuck bag"
	},
	{
		"ID": 386,
		"Text": "fuck her"
	},
	{
		"ID": 387,
		"Text": "fuck off"
	},
	{
		"ID": 388,
		"Text": "fuck pig"
	},
	{
		"ID": 389,
		"Text": "fuck you"
	},
	{
		"ID": 390,
		"Text": "fuckable"
	},
	{
		"ID": 391,
		"Text": "fuckedup"
	},
	{
		"ID": 392,
		"Text": "fuckface"
	},
	{
		"ID": 393,
		"Text": "fuckfest"
	},
	{
		"ID": 394,
		"Text": "fuckhead"
	},
	{
		"ID": 395,
		"Text": "fuckin a"
	},
	{
		"ID": 396,
		"Text": "fuckknob"
	},
	{
		"ID": 397,
		"Text": "fun fuck"
	},
	{
		"ID": 398,
		"Text": "gangbang"
	},
	{
		"ID": 399,
		"Text": "givehead"
	},
	{
		"ID": 400,
		"Text": "god damn"
	},
	{
		"ID": 401,
		"Text": "goddamit"
	},
	{
		"ID": 402,
		"Text": "gonzagas"
	},
	{
		"ID": 403,
		"Text": "gotohell"
	},
	{
		"ID": 404,
		"Text": "hand job"
	},
	{
		"ID": 405,
		"Text": "headfuck"
	},
	{
		"ID": 406,
		"Text": "hose job"
	},
	{
		"ID": 407,
		"Text": "hot damn"
	},
	{
		"ID": 408,
		"Text": "hot2trot"
	},
	{
		"ID": 409,
		"Text": "hotpussy"
	},
	{
		"ID": 410,
		"Text": "intheass"
	},
	{
		"ID": 411,
		"Text": "jap crap"
	},
	{
		"ID": 412,
		"Text": "jerk off"
	},
	{
		"ID": 413,
		"Text": "jizjuice"
	},
	{
		"ID": 414,
		"Text": "kiss ass"
	},
	{
		"ID": 415,
		"Text": "knockers"
	},
	{
		"ID": 416,
		"Text": "lapdance"
	},
	{
		"ID": 417,
		"Text": "limpdick"
	},
	{
		"ID": 418,
		"Text": "live sex"
	},
	{
		"ID": 419,
		"Text": "love goo"
	},
	{
		"ID": 420,
		"Text": "love gun"
	},
	{
		"ID": 421,
		"Text": "lovebone"
	},
	{
		"ID": 422,
		"Text": "lube job"
	},
	{
		"ID": 423,
		"Text": "manhater"
	},
	{
		"ID": 424,
		"Text": "manpaste"
	},
	{
		"ID": 425,
		"Text": "molester"
	},
	{
		"ID": 426,
		"Text": "molestor"
	},
	{
		"ID": 427,
		"Text": "muffdive"
	},
	{
		"ID": 428,
		"Text": "nasty ho"
	},
	{
		"ID": 429,
		"Text": "ontherag"
	},
	{
		"ID": 430,
		"Text": "peepshow"
	},
	{
		"ID": 431,
		"Text": "peepshpw"
	},
	{
		"ID": 432,
		"Text": "pimpjuic"
	},
	{
		"ID": 433,
		"Text": "pimpsimp"
	},
	{
		"ID": 434,
		"Text": "pisshead"
	},
	{
		"ID": 435,
		"Text": "play boy"
	},
	{
		"ID": 436,
		"Text": "playgirl"
	},
	{
		"ID": 437,
		"Text": "poontang"
	},
	{
		"ID": 438,
		"Text": "pornking"
	},
	{
		"ID": 439,
		"Text": "pudd boy"
	},
	{
		"ID": 440,
		"Text": "pun tang"
	},
	{
		"ID": 441,
		"Text": "pussycat"
	},
	{
		"ID": 442,
		"Text": "rear end"
	},
	{
		"ID": 443,
		"Text": "redlight"
	},
	{
		"ID": 444,
		"Text": "retarded"
	},
	{
		"ID": 445,
		"Text": "screwyou"
	},
	{
		"ID": 446,
		"Text": "sex farm"
	},
	{
		"ID": 447,
		"Text": "sex toys"
	},
	{
		"ID": 448,
		"Text": "sexhound"
	},
	{
		"ID": 449,
		"Text": "sexhouse"
	},
	{
		"ID": 450,
		"Text": "sexslave"
	},
	{
		"ID": 451,
		"Text": "sexwhore"
	},
	{
		"ID": 452,
		"Text": "sexymoma"
	},
	{
		"ID": 453,
		"Text": "shagging"
	},
	{
		"ID": 454,
		"Text": "shitdick"
	},
	{
		"ID": 455,
		"Text": "shitface"
	},
	{
		"ID": 456,
		"Text": "shitfuck"
	},
	{
		"ID": 457,
		"Text": "shithead"
	},
	{
		"ID": 458,
		"Text": "shitting"
	},
	{
		"ID": 459,
		"Text": "showtime"
	},
	{
		"ID": 460,
		"Text": "skum bag"
	},
	{
		"ID": 461,
		"Text": "slanteye"
	},
	{
		"ID": 462,
		"Text": "slutting"
	},
	{
		"ID": 463,
		"Text": "slutwear"
	},
	{
		"ID": 464,
		"Text": "sodomite"
	},
	{
		"ID": 465,
		"Text": "spermbag"
	},
	{
		"ID": 466,
		"Text": "strap on"
	},
	{
		"ID": 467,
		"Text": "stringer"
	},
	{
		"ID": 468,
		"Text": "stroking"
	},
	{
		"ID": 469,
		"Text": "suck off"
	},
	{
		"ID": 470,
		"Text": "suckdick"
	},
	{
		"ID": 471,
		"Text": "syphilis"
	},
	{
		"ID": 472,
		"Text": "testicle"
	},
	{
		"ID": 473,
		"Text": "thirdeye"
	},
	{
		"ID": 474,
		"Text": "thirdleg"
	},
	{
		"ID": 475,
		"Text": "tit fuck"
	},
	{
		"ID": 476,
		"Text": "titlover"
	},
	{
		"ID": 477,
		"Text": "triple x"
	},
	{
		"ID": 478,
		"Text": "uptheass"
	},
	{
		"ID": 479,
		"Text": "vibrater"
	},
	{
		"ID": 480,
		"Text": "vibrator"
	},
	{
		"ID": 481,
		"Text": "wet spot"
	},
	{
		"ID": 482,
		"Text": "analannie"
	},
	{
		"ID": 483,
		"Text": "ass clown"
	},
	{
		"ID": 484,
		"Text": "ass holes"
	},
	{
		"ID": 485,
		"Text": "ass klown"
	},
	{
		"ID": 486,
		"Text": "ass lover"
	},
	{
		"ID": 487,
		"Text": "ass munch"
	},
	{
		"ID": 488,
		"Text": "ass whore"
	},
	{
		"ID": 489,
		"Text": "assbagger"
	},
	{
		"ID": 490,
		"Text": "asscowboy"
	},
	{
		"ID": 491,
		"Text": "assfucker"
	},
	{
		"ID": 492,
		"Text": "assjockey"
	},
	{
		"ID": 493,
		"Text": "asskisser"
	},
	{
		"ID": 494,
		"Text": "asslicker"
	},
	{
		"ID": 495,
		"Text": "assmonkey"
	},
	{
		"ID": 496,
		"Text": "asspacker"
	},
	{
		"ID": 497,
		"Text": "asspirate"
	},
	{
		"ID": 498,
		"Text": "assranger"
	},
	{
		"ID": 499,
		"Text": "back door"
	},
	{
		"ID": 500,
		"Text": "ball sack"
	},
	{
		"ID": 501,
		"Text": "bi sexual"
	},
	{
		"ID": 502,
		"Text": "big bitch"
	},
	{
		"ID": 503,
		"Text": "bi-sexual"
	},
	{
		"ID": 504,
		"Text": "breastjob"
	},
	{
		"ID": 505,
		"Text": "breastman"
	},
	{
		"ID": 506,
		"Text": "bull crap"
	},
	{
		"ID": 507,
		"Text": "bull dike"
	},
	{
		"ID": 508,
		"Text": "bull dyke"
	},
	{
		"ID": 509,
		"Text": "bull shit"
	},
	{
		"ID": 510,
		"Text": "butchdike"
	},
	{
		"ID": 511,
		"Text": "butchdyke"
	},
	{
		"ID": 512,
		"Text": "butt bang"
	},
	{
		"ID": 513,
		"Text": "butt fuck"
	},
	{
		"ID": 514,
		"Text": "butt head"
	},
	{
		"ID": 515,
		"Text": "butt plug"
	},
	{
		"ID": 516,
		"Text": "butt-bang"
	},
	{
		"ID": 517,
		"Text": "butt-fuck"
	},
	{
		"ID": 518,
		"Text": "buttstain"
	},
	{
		"ID": 519,
		"Text": "camel toe"
	},
	{
		"ID": 520,
		"Text": "clamdiver"
	},
	{
		"ID": 521,
		"Text": "cock knob"
	},
	{
		"ID": 522,
		"Text": "cock tail"
	},
	{
		"ID": 523,
		"Text": "cockblock"
	},
	{
		"ID": 524,
		"Text": "cockfight"
	},
	{
		"ID": 525,
		"Text": "cocklover"
	},
	{
		"ID": 526,
		"Text": "cockqueen"
	},
	{
		"ID": 527,
		"Text": "cockrider"
	},
	{
		"ID": 528,
		"Text": "cocks man"
	},
	{
		"ID": 529,
		"Text": "cocksmith"
	},
	{
		"ID": 530,
		"Text": "cocksucer"
	},
	{
		"ID": 531,
		"Text": "cocktease"
	},
	{
		"ID": 532,
		"Text": "corn hole"
	},
	{
		"ID": 533,
		"Text": "crackpipe"
	},
	{
		"ID": 534,
		"Text": "crotchrot"
	},
	{
		"ID": 535,
		"Text": "cum queen"
	},
	{
		"ID": 536,
		"Text": "cumbubble"
	},
	{
		"ID": 537,
		"Text": "cumjockey"
	},
	{
		"ID": 538,
		"Text": "cunt fuck"
	},
	{
		"ID": 539,
		"Text": "cyber sex"
	},
	{
		"ID": 540,
		"Text": "dick fart"
	},
	{
		"ID": 541,
		"Text": "dick head"
	},
	{
		"ID": 542,
		"Text": "dick lick"
	},
	{
		"ID": 543,
		"Text": "dick weed"
	},
	{
		"ID": 544,
		"Text": "dickbrain"
	},
	{
		"ID": 545,
		"Text": "dip stick"
	},
	{
		"ID": 546,
		"Text": "dixiedike"
	},
	{
		"ID": 547,
		"Text": "dixiedyke"
	},
	{
		"ID": 548,
		"Text": "dragqueen"
	},
	{
		"ID": 549,
		"Text": "dragqween"
	},
	{
		"ID": 550,
		"Text": "drip dick"
	},
	{
		"ID": 551,
		"Text": "dumb fuck"
	},
	{
		"ID": 552,
		"Text": "dumbbitch"
	},
	{
		"ID": 553,
		"Text": "easy slut"
	},
	{
		"ID": 554,
		"Text": "eat pussy"
	},
	{
		"ID": 555,
		"Text": "ejaculate"
	},
	{
		"ID": 556,
		"Text": "excrement"
	},
	{
		"ID": 557,
		"Text": "fast fuck"
	},
	{
		"ID": 558,
		"Text": "fatfucker"
	},
	{
		"ID": 559,
		"Text": "fist fuck"
	},
	{
		"ID": 560,
		"Text": "foot fuck"
	},
	{
		"ID": 561,
		"Text": "fore skin"
	},
	{
		"ID": 562,
		"Text": "fornicate"
	},
	{
		"ID": 563,
		"Text": "freakfuck"
	},
	{
		"ID": 564,
		"Text": "free fuck"
	},
	{
		"ID": 565,
		"Text": "fuck face"
	},
	{
		"ID": 566,
		"Text": "fuck fest"
	},
	{
		"ID": 567,
		"Text": "fuck head"
	},
	{
		"ID": 568,
		"Text": "fuck knob"
	},
	{
		"ID": 569,
		"Text": "fuck them"
	},
	{
		"ID": 570,
		"Text": "fuckbuddy"
	},
	{
		"ID": 571,
		"Text": "fucked up"
	},
	{
		"ID": 572,
		"Text": "fuckfreak"
	},
	{
		"ID": 573,
		"Text": "fucking a"
	},
	{
		"ID": 574,
		"Text": "fuckwhore"
	},
	{
		"ID": 575,
		"Text": "gang bang"
	},
	{
		"ID": 576,
		"Text": "gay pride"
	},
	{
		"ID": 577,
		"Text": "give head"
	},
	{
		"ID": 578,
		"Text": "god damit"
	},
	{
		"ID": 579,
		"Text": "god manit"
	},
	{
		"ID": 580,
		"Text": "goddamned"
	},
	{
		"ID": 581,
		"Text": "goddamnes"
	},
	{
		"ID": 582,
		"Text": "goddamnit"
	},
	{
		"ID": 583,
		"Text": "got jesus"
	},
	{
		"ID": 584,
		"Text": "head fuck"
	},
	{
		"ID": 585,
		"Text": "horseshit"
	},
	{
		"ID": 586,
		"Text": "hot pussy"
	},
	{
		"ID": 587,
		"Text": "inthebuff"
	},
	{
		"ID": 588,
		"Text": "jiz juice"
	},
	{
		"ID": 589,
		"Text": "kumbubble"
	},
	{
		"ID": 590,
		"Text": "kumbullbe"
	},
	{
		"ID": 591,
		"Text": "lady boog"
	},
	{
		"ID": 592,
		"Text": "lap dance"
	},
	{
		"ID": 593,
		"Text": "limp dick"
	},
	{
		"ID": 594,
		"Text": "love bone"
	},
	{
		"ID": 595,
		"Text": "lovejuice"
	},
	{
		"ID": 596,
		"Text": "man hater"
	},
	{
		"ID": 597,
		"Text": "man paste"
	},
	{
		"ID": 598,
		"Text": "mastabate"
	},
	{
		"ID": 599,
		"Text": "moneyshot"
	},
	{
		"ID": 600,
		"Text": "muff dive"
	},
	{
		"ID": 601,
		"Text": "muffdiver"
	},
	{
		"ID": 602,
		"Text": "nastyslut"
	},
	{
		"ID": 603,
		"Text": "neon deon"
	},
	{
		"ID": 604,
		"Text": "nutfucker"
	},
	{
		"ID": 605,
		"Text": "peep show"
	},
	{
		"ID": 606,
		"Text": "penthouse"
	},
	{
		"ID": 607,
		"Text": "pimp simp"
	},
	{
		"ID": 608,
		"Text": "pimpjuice"
	},
	{
		"ID": 609,
		"Text": "piss head"
	},
	{
		"ID": 610,
		"Text": "play girl"
	},
	{
		"ID": 611,
		"Text": "poon tang"
	},
	{
		"ID": 612,
		"Text": "porn king"
	},
	{
		"ID": 613,
		"Text": "pornflick"
	},
	{
		"ID": 614,
		"Text": "premature"
	},
	{
		"ID": 615,
		"Text": "prickhead"
	},
	{
		"ID": 616,
		"Text": "primetime"
	},
	{
		"ID": 617,
		"Text": "pubiclice"
	},
	{
		"ID": 618,
		"Text": "pussy cat"
	},
	{
		"ID": 619,
		"Text": "pussylips"
	},
	{
		"ID": 620,
		"Text": "rearentry"
	},
	{
		"ID": 621,
		"Text": "red light"
	},
	{
		"ID": 622,
		"Text": "rentafuck"
	},
	{
		"ID": 623,
		"Text": "screw you"
	},
	{
		"ID": 624,
		"Text": "sex hound"
	},
	{
		"ID": 625,
		"Text": "sex house"
	},
	{
		"ID": 626,
		"Text": "sex slave"
	},
	{
		"ID": 627,
		"Text": "sex to go"
	},
	{
		"ID": 628,
		"Text": "sex whore"
	},
	{
		"ID": 629,
		"Text": "sexkitten"
	},
	{
		"ID": 630,
		"Text": "sexy moma"
	},
	{
		"ID": 631,
		"Text": "sexy slim"
	},
	{
		"ID": 632,
		"Text": "sexy-slim"
	},
	{
		"ID": 633,
		"Text": "shit dick"
	},
	{
		"ID": 634,
		"Text": "shit face"
	},
	{
		"ID": 635,
		"Text": "shit fuck"
	},
	{
		"ID": 636,
		"Text": "shit head"
	},
	{
		"ID": 637,
		"Text": "shiteater"
	},
	{
		"ID": 638,
		"Text": "shitstain"
	},
	{
		"ID": 639,
		"Text": "shortfuck"
	},
	{
		"ID": 640,
		"Text": "sixsixsix"
	},
	{
		"ID": 641,
		"Text": "sixtynine"
	},
	{
		"ID": 642,
		"Text": "skankfuck"
	},
	{
		"ID": 643,
		"Text": "skinflute"
	},
	{
		"ID": 644,
		"Text": "slant eye"
	},
	{
		"ID": 645,
		"Text": "sleezebag"
	},
	{
		"ID": 646,
		"Text": "slideitin"
	},
	{
		"ID": 647,
		"Text": "slimeball"
	},
	{
		"ID": 648,
		"Text": "slut wear"
	},
	{
		"ID": 649,
		"Text": "slutwhore"
	},
	{
		"ID": 650,
		"Text": "smart ass"
	},
	{
		"ID": 651,
		"Text": "sperm bag"
	},
	{
		"ID": 652,
		"Text": "splittail"
	},
	{
		"ID": 653,
		"Text": "stripclub"
	},
	{
		"ID": 654,
		"Text": "suck dick"
	},
	{
		"ID": 655,
		"Text": "suckmyass"
	},
	{
		"ID": 656,
		"Text": "suckmytit"
	},
	{
		"ID": 657,
		"Text": "swallower"
	},
	{
		"ID": 658,
		"Text": "sweetness"
	},
	{
		"ID": 659,
		"Text": "testicles"
	},
	{
		"ID": 660,
		"Text": "third eye"
	},
	{
		"ID": 661,
		"Text": "third leg"
	},
	{
		"ID": 662,
		"Text": "threesome"
	},
	{
		"ID": 663,
		"Text": "tit lover"
	},
	{
		"ID": 664,
		"Text": "titfucker"
	},
	{
		"ID": 665,
		"Text": "titfuckin"
	},
	{
		"ID": 666,
		"Text": "titlicker"
	},
	{
		"ID": 667,
		"Text": "trisexual"
	},
	{
		"ID": 668,
		"Text": "upthebutt"
	},
	{
		"ID": 669,
		"Text": "yellowman"
	},
	{
		"ID": 670,
		"Text": "gamemaster"
	},
	{
		"ID": 671,
		"Text": "anal annie"
	},
	{
		"ID": 672,
		"Text": "ass bagger"
	},
	{
		"ID": 673,
		"Text": "ass cowboy"
	},
	{
		"ID": 674,
		"Text": "ass fucker"
	},
	{
		"ID": 675,
		"Text": "ass jockey"
	},
	{
		"ID": 676,
		"Text": "ass kisser"
	},
	{
		"ID": 677,
		"Text": "ass licker"
	},
	{
		"ID": 678,
		"Text": "ass monkey"
	},
	{
		"ID": 679,
		"Text": "ass packer"
	},
	{
		"ID": 680,
		"Text": "ass pirate"
	},
	{
		"ID": 681,
		"Text": "ass ranger"
	},
	{
		"ID": 682,
		"Text": "assblaster"
	},
	{
		"ID": 683,
		"Text": "assmuncher"
	},
	{
		"ID": 684,
		"Text": "asspuppies"
	},
	{
		"ID": 685,
		"Text": "balllicker"
	},
	{
		"ID": 686,
		"Text": "beastality"
	},
	{
		"ID": 687,
		"Text": "bigbastard"
	},
	{
		"ID": 688,
		"Text": "breast job"
	},
	{
		"ID": 689,
		"Text": "breast man"
	},
	{
		"ID": 690,
		"Text": "bumblefuck"
	},
	{
		"ID": 691,
		"Text": "butch dike"
	},
	{
		"ID": 692,
		"Text": "butch dyke"
	},
	{
		"ID": 693,
		"Text": "butchbabes"
	},
	{
		"ID": 694,
		"Text": "butt stain"
	},
	{
		"ID": 695,
		"Text": "buttfucker"
	},
	{
		"ID": 696,
		"Text": "buttpirate"
	},
	{
		"ID": 697,
		"Text": "chickslick"
	},
	{
		"ID": 698,
		"Text": "clam diver"
	},
	{
		"ID": 699,
		"Text": "clamdigger"
	},
	{
		"ID": 700,
		"Text": "cock block"
	},
	{
		"ID": 701,
		"Text": "cock fight"
	},
	{
		"ID": 702,
		"Text": "cock lover"
	},
	{
		"ID": 703,
		"Text": "cock queen"
	},
	{
		"ID": 704,
		"Text": "cock rider"
	},
	{
		"ID": 705,
		"Text": "cock smith"
	},
	{
		"ID": 706,
		"Text": "cock tease"
	},
	{
		"ID": 707,
		"Text": "cockcowboy"
	},
	{
		"ID": 708,
		"Text": "cocklicker"
	},
	{
		"ID": 709,
		"Text": "cocksucker"
	},
	{
		"ID": 710,
		"Text": "crack pipe"
	},
	{
		"ID": 711,
		"Text": "crackwhore"
	},
	{
		"ID": 712,
		"Text": "crotch rot"
	},
	{
		"ID": 713,
		"Text": "cum bubble"
	},
	{
		"ID": 714,
		"Text": "cum jockey"
	},
	{
		"ID": 715,
		"Text": "cuntfucker"
	},
	{
		"ID": 716,
		"Text": "cuntlicker"
	},
	{
		"ID": 717,
		"Text": "deapthroat"
	},
	{
		"ID": 718,
		"Text": "deepthroat"
	},
	{
		"ID": 719,
		"Text": "dick brain"
	},
	{
		"ID": 720,
		"Text": "dicklicker"
	},
	{
		"ID": 721,
		"Text": "dixie dike"
	},
	{
		"ID": 722,
		"Text": "dixie dyke"
	},
	{
		"ID": 723,
		"Text": "doggystyle"
	},
	{
		"ID": 724,
		"Text": "drag queen"
	},
	{
		"ID": 725,
		"Text": "dumb bitch"
	},
	{
		"ID": 726,
		"Text": "facefucker"
	},
	{
		"ID": 727,
		"Text": "fat fucker"
	},
	{
		"ID": 728,
		"Text": "fingerfood"
	},
	{
		"ID": 729,
		"Text": "fingerfuck"
	},
	{
		"ID": 730,
		"Text": "fistfucker"
	},
	{
		"ID": 731,
		"Text": "footaction"
	},
	{
		"ID": 732,
		"Text": "footfucker"
	},
	{
		"ID": 733,
		"Text": "footlicker"
	},
	{
		"ID": 734,
		"Text": "freak fuck"
	},
	{
		"ID": 735,
		"Text": "fuck buddy"
	},
	{
		"ID": 736,
		"Text": "fuck freak"
	},
	{
		"ID": 737,
		"Text": "fuck whore"
	},
	{
		"ID": 738,
		"Text": "fuckfriend"
	},
	{
		"ID": 739,
		"Text": "fuckinnuts"
	},
	{
		"ID": 740,
		"Text": "fuckmehard"
	},
	{
		"ID": 741,
		"Text": "fuckmonkey"
	},
	{
		"ID": 742,
		"Text": "gangbanger"
	},
	{
		"ID": 743,
		"Text": "go to hell"
	},
	{
		"ID": 744,
		"Text": "god damned"
	},
	{
		"ID": 745,
		"Text": "gonorrehea"
	},
	{
		"ID": 746,
		"Text": "homosexual"
	},
	{
		"ID": 747,
		"Text": "in the ass"
	},
	{
		"ID": 748,
		"Text": "kum bubble"
	},
	{
		"ID": 749,
		"Text": "love juice"
	},
	{
		"ID": 750,
		"Text": "lovemuscle"
	},
	{
		"ID": 751,
		"Text": "lovepistol"
	},
	{
		"ID": 752,
		"Text": "loverocket"
	},
	{
		"ID": 753,
		"Text": "mastabater"
	},
	{
		"ID": 754,
		"Text": "masterbate"
	},
	{
		"ID": 755,
		"Text": "money shot"
	},
	{
		"ID": 756,
		"Text": "motherfuck"
	},
	{
		"ID": 757,
		"Text": "muff diver"
	},
	{
		"ID": 758,
		"Text": "mufflikcer"
	},
	{
		"ID": 759,
		"Text": "nasty slut"
	},
	{
		"ID": 760,
		"Text": "nastybitch"
	},
	{
		"ID": 761,
		"Text": "nastywhore"
	},
	{
		"ID": 762,
		"Text": "nipplering"
	},
	{
		"ID": 763,
		"Text": "nut fucker"
	},
	{
		"ID": 764,
		"Text": "on the rag"
	},
	{
		"ID": 765,
		"Text": "pocketpool"
	},
	{
		"ID": 766,
		"Text": "porn flick"
	},
	{
		"ID": 767,
		"Text": "prick head"
	},
	{
		"ID": 768,
		"Text": "prostitute"
	},
	{
		"ID": 769,
		"Text": "pubic lice"
	},
	{
		"ID": 770,
		"Text": "pussy lips"
	},
	{
		"ID": 771,
		"Text": "pussyeater"
	},
	{
		"ID": 772,
		"Text": "pussylover"
	},
	{
		"ID": 773,
		"Text": "rear entry"
	},
	{
		"ID": 774,
		"Text": "samckdaddy"
	},
	{
		"ID": 775,
		"Text": "sex kitten"
	},
	{
		"ID": 776,
		"Text": "sexy bitch"
	},
	{
		"ID": 777,
		"Text": "shawtypimp"
	},
	{
		"ID": 778,
		"Text": "shit eater"
	},
	{
		"ID": 779,
		"Text": "shit stain"
	},
	{
		"ID": 780,
		"Text": "shitfucker"
	},
	{
		"ID": 781,
		"Text": "shithapens"
	},
	{
		"ID": 782,
		"Text": "short fuck"
	},
	{
		"ID": 783,
		"Text": "sixty nine"
	},
	{
		"ID": 784,
		"Text": "skank fuck"
	},
	{
		"ID": 785,
		"Text": "skankbitch"
	},
	{
		"ID": 786,
		"Text": "skankwhore"
	},
	{
		"ID": 787,
		"Text": "skin flute"
	},
	{
		"ID": 788,
		"Text": "sleeze bag"
	},
	{
		"ID": 789,
		"Text": "sleezeball"
	},
	{
		"ID": 790,
		"Text": "slime ball"
	},
	{
		"ID": 791,
		"Text": "slut whore"
	},
	{
		"ID": 792,
		"Text": "sonofbitch"
	},
	{
		"ID": 793,
		"Text": "spermacide"
	},
	{
		"ID": 794,
		"Text": "split tail"
	},
	{
		"ID": 795,
		"Text": "split tial"
	},
	{
		"ID": 796,
		"Text": "strip club"
	},
	{
		"ID": 797,
		"Text": "stupidfuck"
	},
	{
		"ID": 798,
		"Text": "suckmydick"
	},
	{
		"ID": 799,
		"Text": "swign dixx"
	},
	{
		"ID": 800,
		"Text": "swing dixx"
	},
	{
		"ID": 801,
		"Text": "three some"
	},
	{
		"ID": 802,
		"Text": "tit fucker"
	},
	{
		"ID": 803,
		"Text": "tit fuckin"
	},
	{
		"ID": 804,
		"Text": "tit licker"
	},
	{
		"ID": 805,
		"Text": "tri sexual"
	},
	{
		"ID": 806,
		"Text": "two on one"
	},
	{
		"ID": 807,
		"Text": "unfuckable"
	},
	{
		"ID": 808,
		"Text": "up the ass"
	},
	{
		"ID": 809,
		"Text": "whiskydick"
	},
	{
		"ID": 810,
		"Text": "whitetrash"
	},
	{
		"ID": 811,
		"Text": "whorehouse"
	},
	{
		"ID": 812,
		"Text": "yellow man"
	},
	{
		"ID": 813,
		"Text": "gamemanager"
	},
	{
		"ID": 814,
		"Text": "ass blaster"
	},
	{
		"ID": 815,
		"Text": "ass muncher"
	},
	{
		"ID": 816,
		"Text": "ass puppies"
	},
	{
		"ID": 817,
		"Text": "backdoorman"
	},
	{
		"ID": 818,
		"Text": "ball licker"
	},
	{
		"ID": 819,
		"Text": "barelylegal"
	},
	{
		"ID": 820,
		"Text": "beastiality"
	},
	{
		"ID": 821,
		"Text": "breastlover"
	},
	{
		"ID": 822,
		"Text": "bumble fuck"
	},
	{
		"ID": 823,
		"Text": "butch babes"
	},
	{
		"ID": 824,
		"Text": "butt fucker"
	},
	{
		"ID": 825,
		"Text": "butt-fucker"
	},
	{
		"ID": 826,
		"Text": "buttfuckers"
	},
	{
		"ID": 827,
		"Text": "chick slick"
	},
	{
		"ID": 828,
		"Text": "clam digger"
	},
	{
		"ID": 829,
		"Text": "cock cowboy"
	},
	{
		"ID": 830,
		"Text": "cock licker"
	},
	{
		"ID": 831,
		"Text": "cock sucker"
	},
	{
		"ID": 832,
		"Text": "cockblocker"
	},
	{
		"ID": 833,
		"Text": "crack whore"
	},
	{
		"ID": 834,
		"Text": "crack-whore"
	},
	{
		"ID": 835,
		"Text": "cunnilingus"
	},
	{
		"ID": 836,
		"Text": "cunt fucker"
	},
	{
		"ID": 837,
		"Text": "cunt licker"
	},
	{
		"ID": 838,
		"Text": "cyberslimer"
	},
	{
		"ID": 839,
		"Text": "deap throat"
	},
	{
		"ID": 840,
		"Text": "deep throat"
	},
	{
		"ID": 841,
		"Text": "dick licker"
	},
	{
		"ID": 842,
		"Text": "dick likcer"
	},
	{
		"ID": 843,
		"Text": "doggiestyle"
	},
	{
		"ID": 844,
		"Text": "doggy stlye"
	},
	{
		"ID": 845,
		"Text": "face fucker"
	},
	{
		"ID": 846,
		"Text": "fannyfucker"
	},
	{
		"ID": 847,
		"Text": "finger food"
	},
	{
		"ID": 848,
		"Text": "finger fuck"
	},
	{
		"ID": 849,
		"Text": "fist fucker"
	},
	{
		"ID": 850,
		"Text": "foot fucker"
	},
	{
		"ID": 851,
		"Text": "foot licker"
	},
	{
		"ID": 852,
		"Text": "fuck friend"
	},
	{
		"ID": 853,
		"Text": "fuck monkey"
	},
	{
		"ID": 854,
		"Text": "fuckin nuts"
	},
	{
		"ID": 855,
		"Text": "fuckinright"
	},
	{
		"ID": 856,
		"Text": "gang banger"
	},
	{
		"ID": 857,
		"Text": "glazeddonut"
	},
	{
		"ID": 858,
		"Text": "holestuffer"
	},
	{
		"ID": 859,
		"Text": "homo sexual"
	},
	{
		"ID": 860,
		"Text": "homobangers"
	},
	{
		"ID": 861,
		"Text": "hot to trot"
	},
	{
		"ID": 862,
		"Text": "in the buff"
	},
	{
		"ID": 863,
		"Text": "intercourse"
	},
	{
		"ID": 864,
		"Text": "interracial"
	},
	{
		"ID": 865,
		"Text": "jesuschrist"
	},
	{
		"ID": 866,
		"Text": "love muscle"
	},
	{
		"ID": 867,
		"Text": "love pistol"
	},
	{
		"ID": 868,
		"Text": "love rocket"
	},
	{
		"ID": 869,
		"Text": "mastrabator"
	},
	{
		"ID": 870,
		"Text": "meatbeatter"
	},
	{
		"ID": 871,
		"Text": "muff licker"
	},
	{
		"ID": 872,
		"Text": "muffindiver"
	},
	{
		"ID": 873,
		"Text": "nasty bitch"
	},
	{
		"ID": 874,
		"Text": "nasty whore"
	},
	{
		"ID": 875,
		"Text": "nipple ring"
	},
	{
		"ID": 876,
		"Text": "penetration"
	},
	{
		"ID": 877,
		"Text": "pocket pool"
	},
	{
		"ID": 878,
		"Text": "porchmonkey"
	},
	{
		"ID": 879,
		"Text": "pussy eater"
	},
	{
		"ID": 880,
		"Text": "pussy lover"
	},
	{
		"ID": 881,
		"Text": "pussyfucker"
	},
	{
		"ID": 882,
		"Text": "pussylicker"
	},
	{
		"ID": 883,
		"Text": "putt pirate"
	},
	{
		"ID": 884,
		"Text": "rae carruth"
	},
	{
		"ID": 885,
		"Text": "rent a fuck"
	},
	{
		"ID": 886,
		"Text": "sexy biatch"
	},
	{
		"ID": 887,
		"Text": "shit fucker"
	},
	{
		"ID": 888,
		"Text": "shit4brains"
	},
	{
		"ID": 889,
		"Text": "shithappens"
	},
	{
		"ID": 890,
		"Text": "six six six"
	},
	{
		"ID": 891,
		"Text": "skank bitch"
	},
	{
		"ID": 892,
		"Text": "skank whore"
	},
	{
		"ID": 893,
		"Text": "skankybitch"
	},
	{
		"ID": 894,
		"Text": "skankywhore"
	},
	{
		"ID": 895,
		"Text": "slavedriver"
	},
	{
		"ID": 896,
		"Text": "sleeze ball"
	},
	{
		"ID": 897,
		"Text": "slide it in"
	},
	{
		"ID": 898,
		"Text": "slimebucket"
	},
	{
		"ID": 899,
		"Text": "smack daddy"
	},
	{
		"ID": 900,
		"Text": "snatchpatch"
	},
	{
		"ID": 901,
		"Text": "sonofabitch"
	},
	{
		"ID": 902,
		"Text": "spermherder"
	},
	{
		"ID": 903,
		"Text": "stupid fuck"
	},
	{
		"ID": 904,
		"Text": "suck my ass"
	},
	{
		"ID": 905,
		"Text": "suck my tit"
	},
	{
		"ID": 906,
		"Text": "toilet bowl"
	},
	{
		"ID": 907,
		"Text": "tonguetramp"
	},
	{
		"ID": 908,
		"Text": "twobitwhore"
	},
	{
		"ID": 909,
		"Text": "up the butt"
	},
	{
		"ID": 910,
		"Text": "whiskeydick"
	},
	{
		"ID": 911,
		"Text": "whisky dick"
	},
	{
		"ID": 912,
		"Text": "white trash"
	},
	{
		"ID": 913,
		"Text": "whore house"
	},
	{
		"ID": 914,
		"Text": "whorefucker"
	},
	{
		"ID": 915,
		"Text": "athletesfoot"
	},
	{
		"ID": 916,
		"Text": "barely legal"
	},
	{
		"ID": 917,
		"Text": "beatyourmeat"
	},
	{
		"ID": 918,
		"Text": "breast lover"
	},
	{
		"ID": 919,
		"Text": "butt fuckers"
	},
	{
		"ID": 920,
		"Text": "butt-fuckers"
	},
	{
		"ID": 921,
		"Text": "cherrypopper"
	},
	{
		"ID": 922,
		"Text": "cock blocker"
	},
	{
		"ID": 923,
		"Text": "crotchjockey"
	},
	{
		"ID": 924,
		"Text": "crotchmonkey"
	},
	{
		"ID": 925,
		"Text": "cyber slimer"
	},
	{
		"ID": 926,
		"Text": "doggie style"
	},
	{
		"ID": 927,
		"Text": "fanny fucker"
	},
	{
		"ID": 928,
		"Text": "fingerfucker"
	},
	{
		"ID": 929,
		"Text": "freakyfucker"
	},
	{
		"ID": 930,
		"Text": "fuck me hard"
	},
	{
		"ID": 931,
		"Text": "fuckin right"
	},
	{
		"ID": 932,
		"Text": "fucking nuts"
	},
	{
		"ID": 933,
		"Text": "fuckingbitch"
	},
	{
		"ID": 934,
		"Text": "glazed donut"
	},
	{
		"ID": 935,
		"Text": "hole stuffer"
	},
	{
		"ID": 936,
		"Text": "homo bangers"
	},
	{
		"ID": 937,
		"Text": "inter course"
	},
	{
		"ID": 938,
		"Text": "inter racial"
	},
	{
		"ID": 939,
		"Text": "jesus chirst"
	},
	{
		"ID": 940,
		"Text": "lezbefriends"
	},
	{
		"ID": 941,
		"Text": "meat beatter"
	},
	{
		"ID": 942,
		"Text": "motherfucker"
	},
	{
		"ID": 943,
		"Text": "muffin diver"
	},
	{
		"ID": 944,
		"Text": "mutha fucker"
	},
	{
		"ID": 945,
		"Text": "nofuckingway"
	},
	{
		"ID": 946,
		"Text": "porch monkey"
	},
	{
		"ID": 947,
		"Text": "pornprincess"
	},
	{
		"ID": 948,
		"Text": "pussy fucker"
	},
	{
		"ID": 949,
		"Text": "pussy licker"
	},
	{
		"ID": 950,
		"Text": "pussypounder"
	},
	{
		"ID": 951,
		"Text": "shit happens"
	},
	{
		"ID": 952,
		"Text": "skanky bitch"
	},
	{
		"ID": 953,
		"Text": "skanky whore"
	},
	{
		"ID": 954,
		"Text": "slave driver"
	},
	{
		"ID": 955,
		"Text": "slime bucket"
	},
	{
		"ID": 956,
		"Text": "snatch patch"
	},
	{
		"ID": 957,
		"Text": "sperm herder"
	},
	{
		"ID": 958,
		"Text": "spermhearder"
	},
	{
		"ID": 959,
		"Text": "stupidfucker"
	},
	{
		"ID": 960,
		"Text": "suck my dick"
	},
	{
		"ID": 961,
		"Text": "swingin dixx"
	},
	{
		"ID": 962,
		"Text": "titbitnipply"
	},
	{
		"ID": 963,
		"Text": "tongue tramp"
	},
	{
		"ID": 964,
		"Text": "tonguethrust"
	},
	{
		"ID": 965,
		"Text": "trailertrash"
	},
	{
		"ID": 966,
		"Text": "tunneloflove"
	},
	{
		"ID": 967,
		"Text": "whiskey dick"
	},
	{
		"ID": 968,
		"Text": "whore fucker"
	},
	{
		"ID": 969,
		"Text": "williewanker"
	},
	{
		"ID": 970,
		"Text": "athletes foot"
	},
	{
		"ID": 971,
		"Text": "back door man"
	},
	{
		"ID": 972,
		"Text": "carpetmuncher"
	},
	{
		"ID": 973,
		"Text": "cherry popper"
	},
	{
		"ID": 974,
		"Text": "crotch jockey"
	},
	{
		"ID": 975,
		"Text": "crotch monkey"
	},
	{
		"ID": 976,
		"Text": "dickforbrains"
	},
	{
		"ID": 977,
		"Text": "finger fucker"
	},
	{
		"ID": 978,
		"Text": "freaky fucker"
	},
	{
		"ID": 979,
		"Text": "fucking bitch"
	},
	{
		"ID": 980,
		"Text": "fudge pakcers"
	},
	{
		"ID": 981,
		"Text": "masterblaster"
	},
	{
		"ID": 982,
		"Text": "mother fucker"
	},
	{
		"ID": 983,
		"Text": "pearlnecklace"
	},
	{
		"ID": 984,
		"Text": "porn princess"
	},
	{
		"ID": 985,
		"Text": "pussy pounder"
	},
	{
		"ID": 986,
		"Text": "shitforbrains"
	},
	{
		"ID": 987,
		"Text": "shitoutofluck"
	},
	{
		"ID": 988,
		"Text": "sperm hearder"
	},
	{
		"ID": 989,
		"Text": "stupid fucker"
	},
	{
		"ID": 990,
		"Text": "tongethruster"
	},
	{
		"ID": 991,
		"Text": "tounge baller"
	},
	{
		"ID": 992,
		"Text": "tounge thrust"
	},
	{
		"ID": 993,
		"Text": "trailer trash"
	},
	{
		"ID": 994,
		"Text": "two bit whore"
	},
	{
		"ID": 995,
		"Text": "virginbreaker"
	},
	{
		"ID": 996,
		"Text": "willie wanker"
	},
	{
		"ID": 997,
		"Text": "beat your meat"
	},
	{
		"ID": 998,
		"Text": "carpet muncher"
	},
	{
		"ID": 999,
		"Text": "luckycammeltoe"
	},
	{
		"ID": 1000,
		"Text": "master blaster"
	},
	{
		"ID": 1001,
		"Text": "motherlovebone"
	},
	{
		"ID": 1002,
		"Text": "no fucking way"
	},
	{
		"ID": 1003,
		"Text": "pearl necklace"
	},
	{
		"ID": 1004,
		"Text": "poorwhitetrash"
	},
	{
		"ID": 1005,
		"Text": "purinapricness"
	},
	{
		"ID": 1006,
		"Text": "smackthemonkey"
	},
	{
		"ID": 1007,
		"Text": "son of a bitch"
	},
	{
		"ID": 1008,
		"Text": "spankthemonkey"
	},
	{
		"ID": 1009,
		"Text": "swinging dicks"
	},
	{
		"ID": 1010,
		"Text": "tit bit nipply"
	},
	{
		"ID": 1011,
		"Text": "toung thruster"
	},
	{
		"ID": 1012,
		"Text": "tunnel of love"
	},
	{
		"ID": 1013,
		"Text": "virgin breaker"
	},
	{
		"ID": 1014,
		"Text": "dick for brains"
	},
	{
		"ID": 1015,
		"Text": "lucky camel toe"
	},
	{
		"ID": 1016,
		"Text": "purina princess"
	},
	{
		"ID": 1017,
		"Text": "shit for brains"
	},
	{
		"ID": 1018,
		"Text": "tongue thruster"
	},
	{
		"ID": 1019,
		"Text": "axing the weasel"
	},
	{
		"ID": 1020,
		"Text": "mattressprincess"
	},
	{
		"ID": 1021,
		"Text": "mother love bone"
	},
	{
		"ID": 1022,
		"Text": "poor white trash"
	},
	{
		"ID": 1023,
		"Text": "shit out of luck"
	},
	{
		"ID": 1024,
		"Text": "smack the monkey"
	},
	{
		"ID": 1025,
		"Text": "spank the monkey"
	},
	{
		"ID": 1026,
		"Text": "mattress princess"
	},
	{
		"ID": 1027,
		"Text": "goddamnmuthafucker"
	},
	{
		"ID": 1028,
		"Text": "gaymuthafuckinwhore"
	},
	{
		"ID": 1029,
		"Text": "god damed mutha fucka"
	},
	{
		"ID": 1030,
		"Text": "gay mutha fuckin queer"
	},
	{
		"ID": 1031,
		"Text": "assbang"
	},
	{
		"ID": 1032,
		"Text": "assbanged"
	},
	{
		"ID": 1033,
		"Text": "assbangs"
	},
	{
		"ID": 1034,
		"Text": "asses"
	},
	{
		"ID": 1035,
		"Text": "assh0le"
	},
	{
		"ID": 1036,
		"Text": "asshat"
	},
	{
		"ID": 1037,
		"Text": "assho1e"
	},
	{
		"ID": 1038,
		"Text": "assmaster"
	},
	{
		"ID": 1039,
		"Text": "asswipes"
	},
	{
		"ID": 1040,
		"Text": "azazel"
	},
	{
		"ID": 1041,
		"Text": "b1tch"
	},
	{
		"ID": 1042,
		"Text": "banger"
	},
	{
		"ID": 1043,
		"Text": "bastards"
	},
	{
		"ID": 1044,
		"Text": "bawdy"
	},
	{
		"ID": 1045,
		"Text": "beaner"
	},
	{
		"ID": 1046,
		"Text": "beardedclam"
	},
	{
		"ID": 1047,
		"Text": "beatch"
	},
	{
		"ID": 1048,
		"Text": "beater"
	},
	{
		"ID": 1049,
		"Text": "beaver"
	},
	{
		"ID": 1050,
		"Text": "beeyotch"
	},
	{
		"ID": 1051,
		"Text": "beotch"
	},
	{
		"ID": 1052,
		"Text": "bigtits"
	},
	{
		"ID": 1053,
		"Text": "big tits"
	},
	{
		"ID": 1054,
		"Text": "bimbo"
	},
	{
		"ID": 1055,
		"Text": "bitched"
	},
	{
		"ID": 1056,
		"Text": "blowjobs"
	},
	{
		"ID": 1057,
		"Text": "boink"
	},
	{
		"ID": 1058,
		"Text": "bollock"
	},
	{
		"ID": 1059,
		"Text": "bollocks"
	},
	{
		"ID": 1060,
		"Text": "bollok"
	},
	{
		"ID": 1061,
		"Text": "boob"
	},
	{
		"ID": 1062,
		"Text": "booby"
	},
	{
		"ID": 1063,
		"Text": "booger"
	},
	{
		"ID": 1064,
		"Text": "bookie"
	},
	{
		"ID": 1065,
		"Text": "bootee"
	},
	{
		"ID": 1066,
		"Text": "bootie"
	},
	{
		"ID": 1067,
		"Text": "booty"
	},
	{
		"ID": 1068,
		"Text": "booze"
	},
	{
		"ID": 1069,
		"Text": "boozer"
	},
	{
		"ID": 1070,
		"Text": "boozy"
	},
	{
		"ID": 1071,
		"Text": "bosom"
	},
	{
		"ID": 1072,
		"Text": "bosomy"
	},
	{
		"ID": 1073,
		"Text": "bowel"
	},
	{
		"ID": 1074,
		"Text": "bowels"
	},
	{
		"ID": 1075,
		"Text": "brassiere"
	},
	{
		"ID": 1076,
		"Text": "breasts"
	},
	{
		"ID": 1077,
		"Text": "bugger"
	},
	{
		"ID": 1078,
		"Text": "bukkake"
	},
	{
		"ID": 1079,
		"Text": "bullshits"
	},
	{
		"ID": 1080,
		"Text": "bullshitted"
	},
	{
		"ID": 1081,
		"Text": "bullturds"
	},
	{
		"ID": 1082,
		"Text": "busty"
	},
	{
		"ID": 1083,
		"Text": "c.0.c.k"
	},
	{
		"ID": 1084,
		"Text": "c.o.c.k."
	},
	{
		"ID": 1085,
		"Text": "c.u.n.t"
	},
	{
		"ID": 1086,
		"Text": "c0ck"
	},
	{
		"ID": 1087,
		"Text": "c-0-c-k"
	},
	{
		"ID": 1088,
		"Text": "caca"
	},
	{
		"ID": 1089,
		"Text": "cahone"
	},
	{
		"ID": 1090,
		"Text": "cawk"
	},
	{
		"ID": 1091,
		"Text": "cervix"
	},
	{
		"ID": 1092,
		"Text": "chinc"
	},
	{
		"ID": 1093,
		"Text": "chincs"
	},
	{
		"ID": 1094,
		"Text": "chink"
	},
	{
		"ID": 1095,
		"Text": "chode"
	},
	{
		"ID": 1096,
		"Text": "chodes"
	},
	{
		"ID": 1097,
		"Text": "cl1t"
	},
	{
		"ID": 1098,
		"Text": "climax"
	},
	{
		"ID": 1099,
		"Text": "clitorus"
	},
	{
		"ID": 1100,
		"Text": "clits"
	},
	{
		"ID": 1101,
		"Text": "clitty"
	},
	{
		"ID": 1102,
		"Text": "cocain"
	},
	{
		"ID": 1103,
		"Text": "cocaine"
	},
	{
		"ID": 1104,
		"Text": "c-o-c-k"
	},
	{
		"ID": 1105,
		"Text": "cockholster"
	},
	{
		"ID": 1106,
		"Text": "cockknocker"
	},
	{
		"ID": 1107,
		"Text": "cocks"
	},
	{
		"ID": 1108,
		"Text": "cocksmoker"
	},
	{
		"ID": 1109,
		"Text": "coital"
	},
	{
		"ID": 1110,
		"Text": "commie"
	},
	{
		"ID": 1111,
		"Text": "coon"
	},
	{
		"ID": 1112,
		"Text": "coons"
	},
	{
		"ID": 1113,
		"Text": "corksucker"
	},
	{
		"ID": 1114,
		"Text": "cracker"
	},
	{
		"ID": 1115,
		"Text": "cummin"
	},
	{
		"ID": 1116,
		"Text": "cumshots"
	},
	{
		"ID": 1117,
		"Text": "cumslut"
	},
	{
		"ID": 1118,
		"Text": "cumstain"
	},
	{
		"ID": 1119,
		"Text": "cunilingus"
	},
	{
		"ID": 1120,
		"Text": "cunny"
	},
	{
		"ID": 1121,
		"Text": "c-u-n-t"
	},
	{
		"ID": 1122,
		"Text": "cuntface"
	},
	{
		"ID": 1123,
		"Text": "cunthunter"
	},
	{
		"ID": 1124,
		"Text": "cuntlick"
	},
	{
		"ID": 1125,
		"Text": "cunts"
	},
	{
		"ID": 1126,
		"Text": "d0ng"
	},
	{
		"ID": 1127,
		"Text": "d0uch3"
	},
	{
		"ID": 1128,
		"Text": "d0uche"
	},
	{
		"ID": 1129,
		"Text": "d1ck"
	},
	{
		"ID": 1130,
		"Text": "d1ld0"
	},
	{
		"ID": 1131,
		"Text": "d1ldo"
	},
	{
		"ID": 1132,
		"Text": "dago"
	},
	{
		"ID": 1133,
		"Text": "dagos"
	},
	{
		"ID": 1134,
		"Text": "dammit"
	},
	{
		"ID": 1135,
		"Text": "damned"
	},
	{
		"ID": 1136,
		"Text": "dawgie-style"
	},
	{
		"ID": 1137,
		"Text": "dick"
	},
	{
		"ID": 1138,
		"Text": "dickbag"
	},
	{
		"ID": 1139,
		"Text": "dickdipper"
	},
	{
		"ID": 1140,
		"Text": "dickface"
	},
	{
		"ID": 1141,
		"Text": "dickflipper"
	},
	{
		"ID": 1142,
		"Text": "dickheads"
	},
	{
		"ID": 1143,
		"Text": "dickish"
	},
	{
		"ID": 1144,
		"Text": "dick-ish"
	},
	{
		"ID": 1145,
		"Text": "dickripper"
	},
	{
		"ID": 1146,
		"Text": "dicksipper"
	},
	{
		"ID": 1147,
		"Text": "dickwhipper"
	},
	{
		"ID": 1148,
		"Text": "dickzipper"
	},
	{
		"ID": 1149,
		"Text": "diddle"
	},
	{
		"ID": 1150,
		"Text": "dildos"
	},
	{
		"ID": 1151,
		"Text": "diligaf"
	},
	{
		"ID": 1152,
		"Text": "dillweed"
	},
	{
		"ID": 1153,
		"Text": "dimwit"
	},
	{
		"ID": 1154,
		"Text": "dingle"
	},
	{
		"ID": 1155,
		"Text": "dipship"
	},
	{
		"ID": 1156,
		"Text": "doggie-style"
	},
	{
		"ID": 1157,
		"Text": "doggy-style"
	},
	{
		"ID": 1158,
		"Text": "doofus"
	},
	{
		"ID": 1159,
		"Text": "doosh"
	},
	{
		"ID": 1160,
		"Text": "dopey"
	},
	{
		"ID": 1161,
		"Text": "douch3"
	},
	{
		"ID": 1162,
		"Text": "douche"
	},
	{
		"ID": 1163,
		"Text": "douchebag"
	},
	{
		"ID": 1164,
		"Text": "douchebags"
	},
	{
		"ID": 1165,
		"Text": "douchey"
	},
	{
		"ID": 1166,
		"Text": "dumass"
	},
	{
		"ID": 1167,
		"Text": "dumbasses"
	},
	{
		"ID": 1168,
		"Text": "dyke"
	},
	{
		"ID": 1169,
		"Text": "dykes"
	},
	{
		"ID": 1170,
		"Text": "enlargement"
	},
	{
		"ID": 1171,
		"Text": "erect"
	},
	{
		"ID": 1172,
		"Text": "erotic"
	},
	{
		"ID": 1173,
		"Text": "essohbee"
	},
	{
		"ID": 1174,
		"Text": "extacy"
	},
	{
		"ID": 1175,
		"Text": "extasy"
	},
	{
		"ID": 1176,
		"Text": "f.u.c.k"
	},
	{
		"ID": 1177,
		"Text": "fack"
	},
	{
		"ID": 1178,
		"Text": "fagg"
	},
	{
		"ID": 1179,
		"Text": "fagged"
	},
	{
		"ID": 1180,
		"Text": "faggit"
	},
	{
		"ID": 1181,
		"Text": "fags"
	},
	{
		"ID": 1182,
		"Text": "faig"
	},
	{
		"ID": 1183,
		"Text": "faigt"
	},
	{
		"ID": 1184,
		"Text": "fannybandit"
	},
	{
		"ID": 1185,
		"Text": "fart"
	},
	{
		"ID": 1186,
		"Text": "fartknocker"
	},
	{
		"ID": 1187,
		"Text": "felch"
	},
	{
		"ID": 1188,
		"Text": "felcher"
	},
	{
		"ID": 1189,
		"Text": "felching"
	},
	{
		"ID": 1190,
		"Text": "fellate"
	},
	{
		"ID": 1191,
		"Text": "feltch"
	},
	{
		"ID": 1192,
		"Text": "feltcher"
	},
	{
		"ID": 1193,
		"Text": "fisted"
	},
	{
		"ID": 1194,
		"Text": "fisty"
	},
	{
		"ID": 1195,
		"Text": "floozy"
	},
	{
		"ID": 1196,
		"Text": "foad"
	},
	{
		"ID": 1197,
		"Text": "foobar"
	},
	{
		"ID": 1198,
		"Text": "freex"
	},
	{
		"ID": 1199,
		"Text": "frigg"
	},
	{
		"ID": 1200,
		"Text": "frigga"
	},
	{
		"ID": 1201,
		"Text": "fubar"
	},
	{
		"ID": 1202,
		"Text": "f-u-c-k"
	},
	{
		"ID": 1203,
		"Text": "fuckass"
	},
	{
		"ID": 1204,
		"Text": "fucknugget"
	},
	{
		"ID": 1205,
		"Text": "fucknut"
	},
	{
		"ID": 1206,
		"Text": "fucks"
	},
	{
		"ID": 1207,
		"Text": "fucktard"
	},
	{
		"ID": 1208,
		"Text": "fuck-tard"
	},
	{
		"ID": 1209,
		"Text": "fuckup"
	},
	{
		"ID": 1210,
		"Text": "fuckwad"
	},
	{
		"ID": 1211,
		"Text": "fuckwit"
	},
	{
		"ID": 1212,
		"Text": "fudgepacker"
	},
	{
		"ID": 1213,
		"Text": "fvck"
	},
	{
		"ID": 1214,
		"Text": "fxck"
	},
	{
		"ID": 1215,
		"Text": "ganja"
	},
	{
		"ID": 1216,
		"Text": "gays"
	},
	{
		"ID": 1217,
		"Text": "ghay"
	},
	{
		"ID": 1218,
		"Text": "ghey"
	},
	{
		"ID": 1219,
		"Text": "gigolo"
	},
	{
		"ID": 1220,
		"Text": "glans"
	},
	{
		"ID": 1221,
		"Text": "goatse"
	},
	{
		"ID": 1222,
		"Text": "godamn"
	},
	{
		"ID": 1223,
		"Text": "godamnit"
	},
	{
		"ID": 1224,
		"Text": "goddam"
	},
	{
		"ID": 1225,
		"Text": "goddammit"
	},
	{
		"ID": 1226,
		"Text": "goldenshower"
	},
	{
		"ID": 1227,
		"Text": "gonad"
	},
	{
		"ID": 1228,
		"Text": "gonads"
	},
	{
		"ID": 1229,
		"Text": "gooks"
	},
	{
		"ID": 1230,
		"Text": "gringo"
	},
	{
		"ID": 1231,
		"Text": "gspot"
	},
	{
		"ID": 1232,
		"Text": "g-spot"
	},
	{
		"ID": 1233,
		"Text": "gtfo"
	},
	{
		"ID": 1234,
		"Text": "guido"
	},
	{
		"ID": 1235,
		"Text": "h0m0"
	},
	{
		"ID": 1236,
		"Text": "h0mo"
	},
	{
		"ID": 1237,
		"Text": "he11"
	},
	{
		"ID": 1238,
		"Text": "hebe"
	},
	{
		"ID": 1239,
		"Text": "heeb"
	},
	{
		"ID": 1240,
		"Text": "hemp"
	},
	{
		"ID": 1241,
		"Text": "heroin"
	},
	{
		"ID": 1242,
		"Text": "herp"
	},
	{
		"ID": 1243,
		"Text": "herpy"
	},
	{
		"ID": 1244,
		"Text": "hitler"
	},
	{
		"ID": 1245,
		"Text": "hobag"
	},
	{
		"ID": 1246,
		"Text": "hom0"
	},
	{
		"ID": 1247,
		"Text": "homey"
	},
	{
		"ID": 1248,
		"Text": "homoey"
	},
	{
		"ID": 1249,
		"Text": "honky"
	},
	{
		"ID": 1250,
		"Text": "hooch"
	},
	{
		"ID": 1251,
		"Text": "hookah"
	},
	{
		"ID": 1252,
		"Text": "hoor"
	},
	{
		"ID": 1253,
		"Text": "hootch"
	},
	{
		"ID": 1254,
		"Text": "hooter"
	},
	{
		"ID": 1255,
		"Text": "hump"
	},
	{
		"ID": 1256,
		"Text": "humped"
	},
	{
		"ID": 1257,
		"Text": "humping"
	},
	{
		"ID": 1258,
		"Text": "hussy"
	},
	{
		"ID": 1259,
		"Text": "hymen"
	},
	{
		"ID": 1260,
		"Text": "inbred"
	},
	{
		"ID": 1261,
		"Text": "injun"
	},
	{
		"ID": 1262,
		"Text": "j3rk0ff"
	},
	{
		"ID": 1263,
		"Text": "jackass"
	},
	{
		"ID": 1264,
		"Text": "jackhole"
	},
	{
		"ID": 1265,
		"Text": "japs"
	},
	{
		"ID": 1266,
		"Text": "jerk"
	},
	{
		"ID": 1267,
		"Text": "jerk0ff"
	},
	{
		"ID": 1268,
		"Text": "jerked"
	},
	{
		"ID": 1269,
		"Text": "jizm"
	},
	{
		"ID": 1270,
		"Text": "jizzed"
	},
	{
		"ID": 1271,
		"Text": "junkie"
	},
	{
		"ID": 1272,
		"Text": "junky"
	},
	{
		"ID": 1273,
		"Text": "kike"
	},
	{
		"ID": 1274,
		"Text": "kikes"
	},
	{
		"ID": 1275,
		"Text": "kinky"
	},
	{
		"ID": 1276,
		"Text": "klan"
	},
	{
		"ID": 1277,
		"Text": "knobend"
	},
	{
		"ID": 1278,
		"Text": "kooch"
	},
	{
		"ID": 1279,
		"Text": "kooches"
	},
	{
		"ID": 1280,
		"Text": "kootch"
	},
	{
		"ID": 1281,
		"Text": "kraut"
	},
	{
		"ID": 1282,
		"Text": "kyke"
	},
	{
		"ID": 1283,
		"Text": "labia"
	},
	{
		"ID": 1284,
		"Text": "lech"
	},
	{
		"ID": 1285,
		"Text": "leper"
	},
	{
		"ID": 1286,
		"Text": "lesbians"
	},
	{
		"ID": 1287,
		"Text": "lesbos"
	},
	{
		"ID": 1288,
		"Text": "lezbian"
	},
	{
		"ID": 1289,
		"Text": "lezbians"
	},
	{
		"ID": 1290,
		"Text": "lezbos"
	},
	{
		"ID": 1291,
		"Text": "lezzie"
	},
	{
		"ID": 1292,
		"Text": "lezzies"
	},
	{
		"ID": 1293,
		"Text": "lezzy"
	},
	{
		"ID": 1294,
		"Text": "lmfao"
	},
	{
		"ID": 1295,
		"Text": "loin"
	},
	{
		"ID": 1296,
		"Text": "loins"
	},
	{
		"ID": 1297,
		"Text": "lube"
	},
	{
		"ID": 1298,
		"Text": "lusty"
	},
	{
		"ID": 1299,
		"Text": "massa"
	},
	{
		"ID": 1300,
		"Text": "masterbating"
	},
	{
		"ID": 1301,
		"Text": "masterbation"
	},
	{
		"ID": 1302,
		"Text": "masturbate"
	},
	{
		"ID": 1303,
		"Text": "masturbating"
	},
	{
		"ID": 1304,
		"Text": "masturbation"
	},
	{
		"ID": 1305,
		"Text": "maxi"
	},
	{
		"ID": 1306,
		"Text": "menses"
	},
	{
		"ID": 1307,
		"Text": "menstruate"
	},
	{
		"ID": 1308,
		"Text": "menstruation"
	},
	{
		"ID": 1309,
		"Text": "meth"
	},
	{
		"ID": 1310,
		"Text": "m-fucking"
	},
	{
		"ID": 1311,
		"Text": "mofo"
	},
	{
		"ID": 1312,
		"Text": "moolie"
	},
	{
		"ID": 1313,
		"Text": "moron"
	},
	{
		"ID": 1314,
		"Text": "motherfucka"
	},
	{
		"ID": 1315,
		"Text": "motherfucking"
	},
	{
		"ID": 1316,
		"Text": "mtherfucker"
	},
	{
		"ID": 1317,
		"Text": "mthrfucker"
	},
	{
		"ID": 1318,
		"Text": "mthrfucking"
	},
	{
		"ID": 1319,
		"Text": "muthafuckaz"
	},
	{
		"ID": 1320,
		"Text": "muthafucker"
	},
	{
		"ID": 1321,
		"Text": "mutherfucker"
	},
	{
		"ID": 1322,
		"Text": "mutherfucking"
	},
	{
		"ID": 1323,
		"Text": "muthrfucking"
	},
	{
		"ID": 1324,
		"Text": "nads"
	},
	{
		"ID": 1325,
		"Text": "napalm"
	},
	{
		"ID": 1326,
		"Text": "nappy"
	},
	{
		"ID": 1327,
		"Text": "nazi"
	},
	{
		"ID": 1328,
		"Text": "nazism"
	},
	{
		"ID": 1329,
		"Text": "negro"
	},
	{
		"ID": 1330,
		"Text": "niggah"
	},
	{
		"ID": 1331,
		"Text": "niggas"
	},
	{
		"ID": 1332,
		"Text": "niggaz"
	},
	{
		"ID": 1333,
		"Text": "niggers"
	},
	{
		"ID": 1334,
		"Text": "niggle"
	},
	{
		"ID": 1335,
		"Text": "niglet"
	},
	{
		"ID": 1336,
		"Text": "nimrod"
	},
	{
		"ID": 1337,
		"Text": "ninny"
	},
	{
		"ID": 1338,
		"Text": "nooky"
	},
	{
		"ID": 1339,
		"Text": "nympho"
	},
	{
		"ID": 1340,
		"Text": "opiate"
	},
	{
		"ID": 1341,
		"Text": "opium"
	},
	{
		"ID": 1342,
		"Text": "oral"
	},
	{
		"ID": 1343,
		"Text": "orally"
	},
	{
		"ID": 1344,
		"Text": "organ"
	},
	{
		"ID": 1345,
		"Text": "orgasmic"
	},
	{
		"ID": 1346,
		"Text": "orgies"
	},
	{
		"ID": 1347,
		"Text": "ovary"
	},
	{
		"ID": 1348,
		"Text": "ovum"
	},
	{
		"ID": 1349,
		"Text": "ovums"
	},
	{
		"ID": 1350,
		"Text": "p.u.s.s.y."
	},
	{
		"ID": 1351,
		"Text": "paddy"
	},
	{
		"ID": 1352,
		"Text": "paki"
	},
	{
		"ID": 1353,
		"Text": "pantie"
	},
	{
		"ID": 1354,
		"Text": "panties"
	},
	{
		"ID": 1355,
		"Text": "panty"
	},
	{
		"ID": 1356,
		"Text": "pastie"
	},
	{
		"ID": 1357,
		"Text": "pasty"
	},
	{
		"ID": 1358,
		"Text": "pedo"
	},
	{
		"ID": 1359,
		"Text": "pedophile"
	},
	{
		"ID": 1360,
		"Text": "pedophilia"
	},
	{
		"ID": 1361,
		"Text": "pedophiliac"
	},
	{
		"ID": 1362,
		"Text": "peepee"
	},
	{
		"ID": 1363,
		"Text": "penetrate"
	},
	{
		"ID": 1364,
		"Text": "penial"
	},
	{
		"ID": 1365,
		"Text": "penile"
	},
	{
		"ID": 1366,
		"Text": "perversion"
	},
	{
		"ID": 1367,
		"Text": "peyote"
	},
	{
		"ID": 1368,
		"Text": "phalli"
	},
	{
		"ID": 1369,
		"Text": "phallic"
	},
	{
		"ID": 1370,
		"Text": "phuck"
	},
	{
		"ID": 1371,
		"Text": "pillowbiter"
	},
	{
		"ID": 1372,
		"Text": "pinko"
	},
	{
		"ID": 1373,
		"Text": "pissoff"
	},
	{
		"ID": 1374,
		"Text": "piss-off"
	},
	{
		"ID": 1375,
		"Text": "pollock"
	},
	{
		"ID": 1376,
		"Text": "poon"
	},
	{
		"ID": 1377,
		"Text": "pornography"
	},
	{
		"ID": 1378,
		"Text": "potty"
	},
	{
		"ID": 1379,
		"Text": "prig"
	},
	{
		"ID": 1380,
		"Text": "prude"
	},
	{
		"ID": 1381,
		"Text": "pube"
	},
	{
		"ID": 1382,
		"Text": "pubis"
	},
	{
		"ID": 1383,
		"Text": "punkass"
	},
	{
		"ID": 1384,
		"Text": "punky"
	},
	{
		"ID": 1385,
		"Text": "puss"
	},
	{
		"ID": 1386,
		"Text": "pussies"
	},
	{
		"ID": 1387,
		"Text": "puto"
	},
	{
		"ID": 1388,
		"Text": "queaf"
	},
	{
		"ID": 1389,
		"Text": "queero"
	},
	{
		"ID": 1390,
		"Text": "queers"
	},
	{
		"ID": 1391,
		"Text": "quicky"
	},
	{
		"ID": 1392,
		"Text": "quim"
	},
	{
		"ID": 1393,
		"Text": "racy"
	},
	{
		"ID": 1394,
		"Text": "raped"
	},
	{
		"ID": 1395,
		"Text": "raper"
	},
	{
		"ID": 1396,
		"Text": "raunch"
	},
	{
		"ID": 1397,
		"Text": "rectal"
	},
	{
		"ID": 1398,
		"Text": "rectus"
	},
	{
		"ID": 1399,
		"Text": "reetard"
	},
	{
		"ID": 1400,
		"Text": "reich"
	},
	{
		"ID": 1401,
		"Text": "revue"
	},
	{
		"ID": 1402,
		"Text": "ritard"
	},
	{
		"ID": 1403,
		"Text": "rtard"
	},
	{
		"ID": 1404,
		"Text": "r-tard"
	},
	{
		"ID": 1405,
		"Text": "rump"
	},
	{
		"ID": 1406,
		"Text": "rumprammer"
	},
	{
		"ID": 1407,
		"Text": "ruski"
	},
	{
		"ID": 1408,
		"Text": "s.h.i.t."
	},
	{
		"ID": 1409,
		"Text": "s.o.b."
	},
	{
		"ID": 1410,
		"Text": "sadism"
	},
	{
		"ID": 1411,
		"Text": "sadist"
	},
	{
		"ID": 1412,
		"Text": "scag"
	},
	{
		"ID": 1413,
		"Text": "scantily"
	},
	{
		"ID": 1414,
		"Text": "schizo"
	},
	{
		"ID": 1415,
		"Text": "screwed"
	},
	{
		"ID": 1416,
		"Text": "scrog"
	},
	{
		"ID": 1417,
		"Text": "scrot"
	},
	{
		"ID": 1418,
		"Text": "scrote"
	},
	{
		"ID": 1419,
		"Text": "scrud"
	},
	{
		"ID": 1420,
		"Text": "scum"
	},
	{
		"ID": 1421,
		"Text": "seaman"
	},
	{
		"ID": 1422,
		"Text": "seamen"
	},
	{
		"ID": 1423,
		"Text": "seduce"
	},
	{
		"ID": 1424,
		"Text": "sh1t"
	},
	{
		"ID": 1425,
		"Text": "s-h-1-t"
	},
	{
		"ID": 1426,
		"Text": "shamedame"
	},
	{
		"ID": 1427,
		"Text": "s-h-i-t"
	},
	{
		"ID": 1428,
		"Text": "shite"
	},
	{
		"ID": 1429,
		"Text": "shithole"
	},
	{
		"ID": 1430,
		"Text": "shithouse"
	},
	{
		"ID": 1431,
		"Text": "shitt"
	},
	{
		"ID": 1432,
		"Text": "shitted"
	},
	{
		"ID": 1433,
		"Text": "shiz"
	},
	{
		"ID": 1434,
		"Text": "sissy"
	},
	{
		"ID": 1435,
		"Text": "skag"
	},
	{
		"ID": 1436,
		"Text": "sleaze"
	},
	{
		"ID": 1437,
		"Text": "sleazy"
	},
	{
		"ID": 1438,
		"Text": "slutdumper"
	},
	{
		"ID": 1439,
		"Text": "slutkiss"
	},
	{
		"ID": 1440,
		"Text": "smegma"
	},
	{
		"ID": 1441,
		"Text": "smut"
	},
	{
		"ID": 1442,
		"Text": "smutty"
	},
	{
		"ID": 1443,
		"Text": "snuff"
	},
	{
		"ID": 1444,
		"Text": "s-o-b"
	},
	{
		"ID": 1445,
		"Text": "sodom"
	},
	{
		"ID": 1446,
		"Text": "souse"
	},
	{
		"ID": 1447,
		"Text": "soused"
	},
	{
		"ID": 1448,
		"Text": "spik"
	},
	{
		"ID": 1449,
		"Text": "spiks"
	},
	{
		"ID": 1450,
		"Text": "spooge"
	},
	{
		"ID": 1451,
		"Text": "spunk"
	},
	{
		"ID": 1452,
		"Text": "steamy"
	},
	{
		"ID": 1453,
		"Text": "stfu"
	},
	{
		"ID": 1454,
		"Text": "stiffy"
	},
	{
		"ID": 1455,
		"Text": "stoned"
	},
	{
		"ID": 1456,
		"Text": "strip"
	},
	{
		"ID": 1457,
		"Text": "sucked"
	},
	{
		"ID": 1458,
		"Text": "sucking"
	},
	{
		"ID": 1459,
		"Text": "sumofabiatch"
	},
	{
		"ID": 1460,
		"Text": "tard"
	},
	{
		"ID": 1461,
		"Text": "tawdry"
	},
	{
		"ID": 1462,
		"Text": "teabagging"
	},
	{
		"ID": 1463,
		"Text": "teat"
	},
	{
		"ID": 1464,
		"Text": "terd"
	},
	{
		"ID": 1465,
		"Text": "teste"
	},
	{
		"ID": 1466,
		"Text": "testee"
	},
	{
		"ID": 1467,
		"Text": "testes"
	},
	{
		"ID": 1468,
		"Text": "testis"
	},
	{
		"ID": 1469,
		"Text": "thrust"
	},
	{
		"ID": 1470,
		"Text": "thug"
	},
	{
		"ID": 1471,
		"Text": "tinkle"
	},
	{
		"ID": 1472,
		"Text": "titi"
	},
	{
		"ID": 1473,
		"Text": "tittiefucker"
	},
	{
		"ID": 1474,
		"Text": "tittyfuck"
	},
	{
		"ID": 1475,
		"Text": "tittyfucker"
	},
	{
		"ID": 1476,
		"Text": "toke"
	},
	{
		"ID": 1477,
		"Text": "toots"
	},
	{
		"ID": 1478,
		"Text": "transsexual"
	},
	{
		"ID": 1479,
		"Text": "trashy"
	},
	{
		"ID": 1480,
		"Text": "tubgirl"
	},
	{
		"ID": 1481,
		"Text": "tush"
	},
	{
		"ID": 1482,
		"Text": "twat"
	},
	{
		"ID": 1483,
		"Text": "twats"
	},
	{
		"ID": 1484,
		"Text": "ugly"
	},
	{
		"ID": 1485,
		"Text": "undies"
	},
	{
		"ID": 1486,
		"Text": "unwed"
	},
	{
		"ID": 1487,
		"Text": "urinal"
	},
	{
		"ID": 1488,
		"Text": "valium"
	},
	{
		"ID": 1489,
		"Text": "viagra"
	},
	{
		"ID": 1490,
		"Text": "vixen"
	},
	{
		"ID": 1491,
		"Text": "vodka"
	},
	{
		"ID": 1492,
		"Text": "vomit"
	},
	{
		"ID": 1493,
		"Text": "voyeur"
	},
	{
		"ID": 1494,
		"Text": "vulgar"
	},
	{
		"ID": 1495,
		"Text": "wang"
	},
	{
		"ID": 1496,
		"Text": "wank"
	},
	{
		"ID": 1497,
		"Text": "wanker"
	},
	{
		"ID": 1498,
		"Text": "wazoo"
	},
	{
		"ID": 1499,
		"Text": "wedgie"
	},
	{
		"ID": 1500,
		"Text": "weed"
	},
	{
		"ID": 1501,
		"Text": "weewee"
	},
	{
		"ID": 1502,
		"Text": "weiner"
	},
	{
		"ID": 1503,
		"Text": "weirdo"
	},
	{
		"ID": 1504,
		"Text": "wench"
	},
	{
		"ID": 1505,
		"Text": "wetback"
	},
	{
		"ID": 1506,
		"Text": "wh0re"
	},
	{
		"ID": 1507,
		"Text": "wh0reface"
	},
	{
		"ID": 1508,
		"Text": "whitey"
	},
	{
		"ID": 1509,
		"Text": "whiz"
	},
	{
		"ID": 1510,
		"Text": "whoralicious"
	},
	{
		"ID": 1511,
		"Text": "whorealicious"
	},
	{
		"ID": 1512,
		"Text": "whored"
	},
	{
		"ID": 1513,
		"Text": "whoreface"
	},
	{
		"ID": 1514,
		"Text": "whorehopper"
	},
	{
		"ID": 1515,
		"Text": "whores"
	},
	{
		"ID": 1516,
		"Text": "whoring"
	},
	{
		"ID": 1517,
		"Text": "womb"
	},
	{
		"ID": 1518,
		"Text": "woody"
	},
	{
		"ID": 1519,
		"Text": "x-rated"
	},
	{
		"ID": 1520,
		"Text": "yeasty"
	},
	{
		"ID": 1521,
		"Text": "yobbo"
	},
	{
		"ID": 1522,
		"Text": "zoophile"
	}
]