[
	{
		"ID": 0,
		"Value": ""
	},
	{
		"ID": 1,
		"Value": "UI_Click"
	},
	{
		"ID": 2,
		"Value": "UI_Click"
	},
	{
		"ID": 3,
		"Value": "UI_Click"
	},
	{
		"ID": 4,
		"Value": "UI_Click"
	},
	{
		"ID": 5,
		"Value": "StartMusic_TouchScreen"
	},
	{
		"ID": 6,
		"Value": "BattleMusic_Win"
	},
	{
		"ID": 7,
		"Value": "BattleMusic_Win"
	},
	{
		"ID": 8,
		"Value": "StartMusic_GodnessQuestions"
	},
	{
		"ID": 9,
		"Value": "Battle_Footsteps"
	},
	{
		"ID": 10,
		"Value": "Battle_HorseWalks"
	},
	{
		"ID": 11,
		"Value": "Battle_Fly"
	},
	{
		"ID": 12,
		"Value": "MIMusic_HeroJobTransfer02"
	},
	{
		"ID": 13,
		"Value": "UI_SummonAni_Star_"
	},
	{
		"ID": 14,
		"Value": "Battle_HP0"
	},
	{
		"ID": 15,
		"Value": "Result_Point"
	},
	{
		"ID": 16,
		"Value": "Battle_DieQuick"
	},
	{
		"ID": 17,
		"Value": "Battle_DieQuick"
	},
	{
		"ID": 18,
		"Value": "Battle_HPMinusQuick"
	},
	{
		"ID": 19,
		"Value": "Battle_HPMinusQuick"
	},
	{
		"ID": 20,
		"Value": "UI_EnterFateInt"
	},
	{
		"ID": 21,
		"Value": "UI_FateRoll"
	},
	{
		"ID": 22,
		"Value": "UI_Click"
	}
]