[
	{
		"ID": 801,
		"Name": "Lana - Question",
		"NextWordID": 802,
		"FrameType": 0,
		"Animation": "idle_Normal",
		"Word": "{NAME}, right? I'm always afraid of getting your name wrong at times like this... It would be very awkward...",
		"Voice": ""
	},
	{
		"ID": 802,
		"Name": "Lana - Question",
		"NextWordID": 0,
		"FrameType": 0,
		"Animation": "idle_Shy",
		"Word": "Do you still remember? The days we... established our bond?",
		"Voice": ""
	},
	{
		"ID": 803,
		"Name": "Lana - Correct Response",
		"NextWordID": 804,
		"FrameType": 0,
		"Animation": "idle_Shy",
		"Word": "I was actually right? I lost to you! You...you feel the same way, right?",
		"Voice": ""
	},
	{
		"ID": 804,
		"Name": "Lana - Correct Response",
		"NextWordID": 0,
		"FrameType": 0,
		"Animation": "idle_Angry",
		"Word": "God, why do I have to take the initiative...? Here, open this letter.",
		"Voice": ""
	},
	{
		"ID": 805,
		"Name": "Lana - Wrong Response",
		"NextWordID": 806,
		"FrameType": 0,
		"Animation": "idle_Angry",
		"Word": "It was not that day. So...you scoundrel, you don't care about me!",
		"Voice": ""
	},
	{
		"ID": 806,
		"Name": "Lana - Wrong Response",
		"NextWordID": 0,
		"FrameType": 0,
		"Animation": "idle_Normal",
		"Word": "Humans are indeed animals that don't disappoint, as long as nothing is expected from them. This letter, please open it...",
		"Voice": ""
	},
	{
		"ID": 807,
		"Name": "Lana - Forgotten Response",
		"NextWordID": 808,
		"FrameType": 0,
		"Animation": "idle_Sad",
		"Word": "Do humans always forget? Like how our story will be forgotten by our descendants?",
		"Voice": ""
	},
	{
		"ID": 808,
		"Name": "Lana - Forgotten Response",
		"NextWordID": 0,
		"FrameType": 0,
		"Animation": "idle_Smile",
		"Word": "Heh, no worries, I'm fine with unrequited love...",
		"Voice": ""
	},
	{
		"ID": 809,
		"Name": "Lana - Confession",
		"NextWordID": 0,
		"FrameType": 0,
		"Animation": "",
		"Word": "I struggled in light and darkness to find my heart thinking that I would never be lost. Until, I met you... So, this heart of mine, {NAME}, is yours now.",
		"Voice": "Gaobai004_04"
	},
	{
		"ID": 1401,
		"Name": "Cherie - Question",
		"NextWordID": 1402,
		"FrameType": 0,
		"Animation": "idle_Normal",
		"Word": "Hey! I have something for you to look at, but...you have to answer my question!",
		"Voice": ""
	},
	{
		"ID": 1402,
		"Name": "Cherie Question",
		"NextWordID": 0,
		"FrameType": 0,
		"Animation": "idle_Shy",
		"Word": "Do you remember...when we began our bond?",
		"Voice": ""
	},
	{
		"ID": 1403,
		"Name": "Cherie - Correct Response",
		"NextWordID": 1404,
		"FrameType": 0,
		"Animation": "idle_Smile",
		"Word": "Oh, really? You must remember!",
		"Voice": ""
	},
	{
		"ID": 1404,
		"Name": "Cherie - Correct Response",
		"NextWordID": 0,
		"FrameType": 0,
		"Animation": "idle_Normal",
		"Word": "I wasn't wrong about you, {NAME}. You are the best partner imaginable!",
		"Voice": ""
	},
	{
		"ID": 1405,
		"Name": "Cherie - Wrong Response",
		"NextWordID": 1406,
		"FrameType": 0,
		"Animation": "idle_Smile",
		"Word": "Was it really that day...? Haha, are you asking me? How do you expect me to remember?",
		"Voice": ""
	},
	{
		"ID": 1406,
		"Name": "Cherie - Wrong Response",
		"NextWordID": 0,
		"FrameType": 0,
		"Animation": "idle_Normal",
		"Word": "Look at you, scratching your head -- you're so adorable! I'll pretend you got it right!",
		"Voice": ""
	},
	{
		"ID": 1407,
		"Name": "Cherie - Forgotten Response",
		"NextWordID": 1408,
		"FrameType": 0,
		"Animation": "idle_Smile",
		"Word": "Hah, you did forget, didn't you? You really are just like me...",
		"Voice": ""
	},
	{
		"ID": 1408,
		"Name": "Cherie - Forgotten Response",
		"NextWordID": 0,
		"FrameType": 0,
		"Animation": "idle_Shy",
		"Word": "Then...Do you still want to read this letter I wrote?",
		"Voice": ""
	},
	{
		"ID": 1409,
		"Name": "Cherie - Confession",
		"NextWordID": 0,
		"FrameType": 0,
		"Animation": "",
		"Word": "I naturally despise shackles and rules, but love freedom and adventure! You understand... Yeah...you understand me the most! So, take my hand {NAME}, let's run away together!",
		"Voice": "Gaobai013_04"
	},
	{
		"ID": 2601,
		"Name": "Luna - Question",
		"NextWordID": 2602,
		"FrameType": 0,
		"Animation": "idle_Normal",
		"Word": "Master {NAME}, I have been at your service for so long... I'm just wondering... Am I a good strategist?",
		"Voice": ""
	},
	{
		"ID": 2602,
		"Name": "Luna Question",
		"NextWordID": 0,
		"FrameType": 0,
		"Animation": "idle_Smile",
		"Word": "Can I ask you a question? The day we bonded...when was it?",
		"Voice": ""
	},
	{
		"ID": 2603,
		"Name": "Luna - Correct Response",
		"NextWordID": 2604,
		"FrameType": 0,
		"Animation": "idle_Smile",
		"Word": "You really are an esteemed leader. I am quite lucky to be your strategist!",
		"Voice": ""
	},
	{
		"ID": 2604,
		"Name": "Luna - Correct Response",
		"NextWordID": 0,
		"FrameType": 0,
		"Animation": "idle_Shy",
		"Word": "No, I wish I could receive even more happiness from you.",
		"Voice": ""
	},
	{
		"ID": 2605,
		"Name": "Luna - Wrong Response",
		"NextWordID": 2606,
		"FrameType": 0,
		"Animation": "idle_Normal",
		"Word": "Ah, you can't answer. Well, well...ah no, I'm not scolding you!",
		"Voice": ""
	},
	{
		"ID": 2606,
		"Name": "Luna - Wrong Response",
		"NextWordID": 0,
		"FrameType": 0,
		"Animation": "idle_Normal",
		"Word": "These trivial matters should naturally be recorded for you, Master {NAME}, by no one but me -- your strategist!",
		"Voice": ""
	},
	{
		"ID": 2607,
		"Name": "Luna - Forgotten Response",
		"NextWordID": 2608,
		"FrameType": 0,
		"Animation": "idle_Normal",
		"Word": "Well...no, maybe I shouldn't have bothered you with these trivial matters.",
		"Voice": ""
	},
	{
		"ID": 2608,
		"Name": "Luna - Forgotten Response",
		"NextWordID": 0,
		"FrameType": 0,
		"Animation": "idle_Normal",
		"Word": "But there's still a letter here, and Master {NAME} should read it...",
		"Voice": ""
	},
	{
		"ID": 2609,
		"Name": "Luna - Confession",
		"NextWordID": 0,
		"FrameType": 0,
		"Animation": "",
		"Word": "I am...your head strategist, Luna. I have developed a comprehensive battle plan for Master {NAME}. I really messed up...as the attacker, I was obliterated by your sheer skill...",
		"Voice": "Gaobai010_04"
	}
]