[
	{
		"ID": 1,
		"Name": "Friendship Summon Chance",
		"SSRCardProbability": "0%",
		"SRCardProbability": "1%",
		"RCardProbability": "34%"
	},
	{
		"ID": 2,
		"Name": "Hero Summon Chance",
		"SSRCardProbability": "2%",
		"SRCardProbability": "13%",
		"RCardProbability": "85%"
	},
	{
		"ID": 3,
		"Name": "Equipment Summon Chance",
		"SSRCardProbability": "5%",
		"SRCardProbability": "25%",
		"RCardProbability": "70%"
	},
	{
		"ID": 4,
		"Name": "Hero Summon Chance",
		"SSRCardProbability": "2%",
		"SRCardProbability": "13%",
		"RCardProbability": "85%"
	},
	{
		"ID": 5,
		"Name": "Hero Summon Chance",
		"SSRCardProbability": "2%",
		"SRCardProbability": "13%",
		"RCardProbability": "85%"
	}
]