[
	{
		"ID": 1,
		"DefaultName": "FX/Skill_ABS/8002_FireHell/Skill_Fireball.prefab",
		"FlipName": "FX/Skill_ABS/8002_FireHell/Skill_Fireball_reverse.prefab"
	},
	{
		"ID": 2,
		"DefaultName": "FX/Skill_ABS/8002_FireHell/Skill_Fireball_far.prefab",
		"FlipName": "FX/Skill_ABS/8002_FireHell/Skill_Fireball_far_reverse.prefab"
	},
	{
		"ID": 3,
		"DefaultName": "FX/Skill_ABS/Skill_WaterCrash/Skill_WaterCrash.prefab",
		"FlipName": "FX/Skill_ABS/Skill_WaterCrash/Skill_WaterCrash_reverse.prefab"
	}
]