[
	{
		"ID": 1,
		"AchievementID": 1
	},
	{
		"ID": 2,
		"AchievementID": 2
	},
	{
		"ID": 3,
		"AchievementID": 3
	},
	{
		"ID": 4,
		"AchievementID": 4
	},
	{
		"ID": 5,
		"AchievementID": 5
	},
	{
		"ID": 6,
		"AchievementID": 10
	},
	{
		"ID": 7,
		"AchievementID": 7
	},
	{
		"ID": 8,
		"AchievementID": 8
	},
	{
		"ID": 9,
		"AchievementID": 9
	},
	{
		"ID": 10,
		"AchievementID": 6
	},
	{
		"ID": 11,
		"AchievementID": 11
	},
	{
		"ID": 12,
		"AchievementID": 6
	},
	{
		"ID": 13,
		"AchievementID": 6
	},
	{
		"ID": 14,
		"AchievementID": 6
	},
	{
		"ID": 15,
		"AchievementID": 6
	},
	{
		"ID": 16,
		"AchievementID": 6
	},
	{
		"ID": 17,
		"AchievementID": 7
	},
	{
		"ID": 18,
		"AchievementID": 7
	},
	{
		"ID": 19,
		"AchievementID": 4
	},
	{
		"ID": 20,
		"AchievementID": 5
	},
	{
		"ID": 21,
		"AchievementID": 6
	},
	{
		"ID": 22,
		"AchievementID": 6
	},
	{
		"ID": 23,
		"AchievementID": 6
	},
	{
		"ID": 24,
		"AchievementID": 6
	},
	{
		"ID": 25,
		"AchievementID": 6
	},
	{
		"ID": 26,
		"AchievementID": 6
	},
	{
		"ID": 27,
		"AchievementID": 6
	},
	{
		"ID": 28,
		"AchievementID": 6
	},
	{
		"ID": 29,
		"AchievementID": 7
	},
	{
		"ID": 30,
		"AchievementID": 7
	},
	{
		"ID": 31,
		"AchievementID": 7
	},
	{
		"ID": 32,
		"AchievementID": 8
	},
	{
		"ID": 33,
		"AchievementID": 9
	},
	{
		"ID": 34,
		"AchievementID": 12
	},
	{
		"ID": 35,
		"AchievementID": 13
	},
	{
		"ID": 36,
		"AchievementID": 14
	},
	{
		"ID": 37,
		"AchievementID": 15
	},
	{
		"ID": 38,
		"AchievementID": 16
	},
	{
		"ID": 39,
		"AchievementID": 17
	},
	{
		"ID": 40,
		"AchievementID": 18
	},
	{
		"ID": 41,
		"AchievementID": 19
	},
	{
		"ID": 42,
		"AchievementID": 20
	},
	{
		"ID": 43,
		"AchievementID": 21
	},
	{
		"ID": 44,
		"AchievementID": 22
	},
	{
		"ID": 45,
		"AchievementID": 23
	},
	{
		"ID": 46,
		"AchievementID": 24
	},
	{
		"ID": 47,
		"AchievementID": 25
	},
	{
		"ID": 48,
		"AchievementID": 26
	},
	{
		"ID": 49,
		"AchievementID": 27
	},
	{
		"ID": 50,
		"AchievementID": 28
	},
	{
		"ID": 51,
		"AchievementID": 29
	},
	{
		"ID": 52,
		"AchievementID": 30
	},
	{
		"ID": 53,
		"AchievementID": 31
	},
	{
		"ID": 54,
		"AchievementID": 32
	},
	{
		"ID": 55,
		"AchievementID": 33
	},
	{
		"ID": 56,
		"AchievementID": 34
	},
	{
		"ID": 57,
		"AchievementID": 35
	},
	{
		"ID": 58,
		"AchievementID": 36
	},
	{
		"ID": 59,
		"AchievementID": 37
	},
	{
		"ID": 60,
		"AchievementID": 38
	},
	{
		"ID": 61,
		"AchievementID": 39
	},
	{
		"ID": 62,
		"AchievementID": 40
	},
	{
		"ID": 63,
		"AchievementID": 41
	},
	{
		"ID": 64,
		"AchievementID": 42
	},
	{
		"ID": 65,
		"AchievementID": 43
	},
	{
		"ID": 66,
		"AchievementID": 44
	},
	{
		"ID": 67,
		"AchievementID": 45
	},
	{
		"ID": 68,
		"AchievementID": 46
	},
	{
		"ID": 69,
		"AchievementID": 47
	},
	{
		"ID": 70,
		"AchievementID": 48
	},
	{
		"ID": 71,
		"AchievementID": 49
	},
	{
		"ID": 72,
		"AchievementID": 50
	},
	{
		"ID": 73,
		"AchievementID": 51
	},
	{
		"ID": 74,
		"AchievementID": 52
	},
	{
		"ID": 75,
		"AchievementID": 53
	},
	{
		"ID": 76,
		"AchievementID": 54
	},
	{
		"ID": 77,
		"AchievementID": 55
	},
	{
		"ID": 78,
		"AchievementID": 56
	},
	{
		"ID": 79,
		"AchievementID": 57
	},
	{
		"ID": 501,
		"AchievementID": 501
	},
	{
		"ID": 502,
		"AchievementID": 502
	},
	{
		"ID": 503,
		"AchievementID": 503
	},
	{
		"ID": 504,
		"AchievementID": 504
	},
	{
		"ID": 505,
		"AchievementID": 505
	},
	{
		"ID": 506,
		"AchievementID": 506
	},
	{
		"ID": 601,
		"AchievementID": 601
	},
	{
		"ID": 602,
		"AchievementID": 602
	},
	{
		"ID": 603,
		"AchievementID": 603
	},
	{
		"ID": 604,
		"AchievementID": 604
	},
	{
		"ID": 605,
		"AchievementID": 605
	},
	{
		"ID": 606,
		"AchievementID": 606
	},
	{
		"ID": 701,
		"AchievementID": 701
	},
	{
		"ID": 702,
		"AchievementID": 702
	},
	{
		"ID": 703,
		"AchievementID": 703
	},
	{
		"ID": 704,
		"AchievementID": 704
	},
	{
		"ID": 705,
		"AchievementID": 705
	},
	{
		"ID": 706,
		"AchievementID": 706
	},
	{
		"ID": 801,
		"AchievementID": 801
	},
	{
		"ID": 802,
		"AchievementID": 802
	},
	{
		"ID": 803,
		"AchievementID": 803
	},
	{
		"ID": 804,
		"AchievementID": 804
	},
	{
		"ID": 805,
		"AchievementID": 805
	},
	{
		"ID": 806,
		"AchievementID": 806
	},
	{
		"ID": 901,
		"AchievementID": 901
	},
	{
		"ID": 902,
		"AchievementID": 902
	},
	{
		"ID": 903,
		"AchievementID": 903
	},
	{
		"ID": 904,
		"AchievementID": 904
	},
	{
		"ID": 905,
		"AchievementID": 905
	},
	{
		"ID": 906,
		"AchievementID": 906
	},
	{
		"ID": 1004,
		"AchievementID": 1004
	},
	{
		"ID": 1005,
		"AchievementID": 1005
	},
	{
		"ID": 1006,
		"AchievementID": 1010
	},
	{
		"ID": 1007,
		"AchievementID": 1007
	},
	{
		"ID": 1008,
		"AchievementID": 1008
	},
	{
		"ID": 1009,
		"AchievementID": 1009
	},
	{
		"ID": 1010,
		"AchievementID": 1006
	},
	{
		"ID": 1011,
		"AchievementID": 1011
	},
	{
		"ID": 1012,
		"AchievementID": 1006
	},
	{
		"ID": 1013,
		"AchievementID": 1006
	},
	{
		"ID": 1014,
		"AchievementID": 1006
	},
	{
		"ID": 1015,
		"AchievementID": 1006
	},
	{
		"ID": 1016,
		"AchievementID": 1006
	},
	{
		"ID": 1017,
		"AchievementID": 1007
	},
	{
		"ID": 1018,
		"AchievementID": 1007
	},
	{
		"ID": 1019,
		"AchievementID": 1004
	},
	{
		"ID": 1020,
		"AchievementID": 1005
	},
	{
		"ID": 1021,
		"AchievementID": 1006
	},
	{
		"ID": 1022,
		"AchievementID": 1006
	},
	{
		"ID": 1023,
		"AchievementID": 1006
	},
	{
		"ID": 1024,
		"AchievementID": 1006
	},
	{
		"ID": 1025,
		"AchievementID": 1006
	},
	{
		"ID": 1026,
		"AchievementID": 1006
	},
	{
		"ID": 1027,
		"AchievementID": 1006
	},
	{
		"ID": 1028,
		"AchievementID": 1006
	},
	{
		"ID": 1029,
		"AchievementID": 1007
	},
	{
		"ID": 1030,
		"AchievementID": 1007
	},
	{
		"ID": 1031,
		"AchievementID": 1007
	},
	{
		"ID": 1032,
		"AchievementID": 1008
	},
	{
		"ID": 1033,
		"AchievementID": 1009
	},
	{
		"ID": 1034,
		"AchievementID": 1012
	},
	{
		"ID": 1035,
		"AchievementID": 1013
	},
	{
		"ID": 1036,
		"AchievementID": 1014
	},
	{
		"ID": 1037,
		"AchievementID": 1015
	},
	{
		"ID": 1038,
		"AchievementID": 1016
	},
	{
		"ID": 1039,
		"AchievementID": 1017
	},
	{
		"ID": 1040,
		"AchievementID": 1018
	},
	{
		"ID": 1041,
		"AchievementID": 1019
	},
	{
		"ID": 1042,
		"AchievementID": 1020
	},
	{
		"ID": 1043,
		"AchievementID": 1021
	},
	{
		"ID": 1044,
		"AchievementID": 1022
	},
	{
		"ID": 1045,
		"AchievementID": 1023
	},
	{
		"ID": 1046,
		"AchievementID": 1024
	},
	{
		"ID": 1047,
		"AchievementID": 1025
	},
	{
		"ID": 1048,
		"AchievementID": 1026
	},
	{
		"ID": 1049,
		"AchievementID": 1027
	},
	{
		"ID": 1050,
		"AchievementID": 1028
	},
	{
		"ID": 1051,
		"AchievementID": 1029
	},
	{
		"ID": 1052,
		"AchievementID": 1030
	},
	{
		"ID": 1053,
		"AchievementID": 1031
	},
	{
		"ID": 1054,
		"AchievementID": 1032
	},
	{
		"ID": 1055,
		"AchievementID": 1033
	},
	{
		"ID": 1056,
		"AchievementID": 1034
	},
	{
		"ID": 1057,
		"AchievementID": 1035
	},
	{
		"ID": 1058,
		"AchievementID": 1036
	},
	{
		"ID": 1059,
		"AchievementID": 1037
	},
	{
		"ID": 1060,
		"AchievementID": 1038
	},
	{
		"ID": 1061,
		"AchievementID": 1039
	},
	{
		"ID": 1062,
		"AchievementID": 1040
	},
	{
		"ID": 1063,
		"AchievementID": 1041
	},
	{
		"ID": 1064,
		"AchievementID": 1042
	},
	{
		"ID": 1065,
		"AchievementID": 1043
	},
	{
		"ID": 1066,
		"AchievementID": 1044
	},
	{
		"ID": 1067,
		"AchievementID": 1045
	},
	{
		"ID": 1068,
		"AchievementID": 1046
	},
	{
		"ID": 1069,
		"AchievementID": 1047
	},
	{
		"ID": 1070,
		"AchievementID": 1048
	},
	{
		"ID": 1071,
		"AchievementID": 1049
	},
	{
		"ID": 1072,
		"AchievementID": 1050
	},
	{
		"ID": 1073,
		"AchievementID": 1051
	},
	{
		"ID": 1074,
		"AchievementID": 1052
	},
	{
		"ID": 1075,
		"AchievementID": 1053
	},
	{
		"ID": 1076,
		"AchievementID": 1054
	},
	{
		"ID": 1077,
		"AchievementID": 1055
	},
	{
		"ID": 1078,
		"AchievementID": 1056
	},
	{
		"ID": 1079,
		"AchievementID": 1057
	},
	{
		"ID": 1100,
		"AchievementID": 1100
	},
	{
		"ID": 1101,
		"AchievementID": 1101
	},
	{
		"ID": 1102,
		"AchievementID": 1102
	},
	{
		"ID": 1103,
		"AchievementID": 1103
	},
	{
		"ID": 1104,
		"AchievementID": 1104
	},
	{
		"ID": 1105,
		"AchievementID": 1105
	},
	{
		"ID": 1106,
		"AchievementID": 1106
	},
	{
		"ID": 1107,
		"AchievementID": 1107
	},
	{
		"ID": 1108,
		"AchievementID": 1108
	},
	{
		"ID": 1109,
		"AchievementID": 1109
	},
	{
		"ID": 1110,
		"AchievementID": 1110
	},
	{
		"ID": 1111,
		"AchievementID": 1111
	},
	{
		"ID": 1112,
		"AchievementID": 1112
	},
	{
		"ID": 1113,
		"AchievementID": 1113
	},
	{
		"ID": 1114,
		"AchievementID": 1114
	},
	{
		"ID": 1115,
		"AchievementID": 1115
	},
	{
		"ID": 1116,
		"AchievementID": 1116
	},
	{
		"ID": 1117,
		"AchievementID": 1117
	},
	{
		"ID": 1118,
		"AchievementID": 1118
	},
	{
		"ID": 1119,
		"AchievementID": 1119
	},
	{
		"ID": 1120,
		"AchievementID": 1120
	},
	{
		"ID": 1121,
		"AchievementID": 1121
	},
	{
		"ID": 1122,
		"AchievementID": 1122
	},
	{
		"ID": 1123,
		"AchievementID": 1123
	},
	{
		"ID": 1124,
		"AchievementID": 1124
	},
	{
		"ID": 1125,
		"AchievementID": 1125
	},
	{
		"ID": 1126,
		"AchievementID": 1126
	},
	{
		"ID": 1127,
		"AchievementID": 1127
	},
	{
		"ID": 1128,
		"AchievementID": 1128
	},
	{
		"ID": 1129,
		"AchievementID": 1129
	},
	{
		"ID": 1130,
		"AchievementID": 1130
	},
	{
		"ID": 1131,
		"AchievementID": 1131
	},
	{
		"ID": 1132,
		"AchievementID": 1132
	},
	{
		"ID": 1133,
		"AchievementID": 1133
	},
	{
		"ID": 1134,
		"AchievementID": 1134
	},
	{
		"ID": 1135,
		"AchievementID": 1135
	},
	{
		"ID": 1136,
		"AchievementID": 1136
	},
	{
		"ID": 1137,
		"AchievementID": 1137
	},
	{
		"ID": 1138,
		"AchievementID": 1138
	},
	{
		"ID": 1139,
		"AchievementID": 1139
	},
	{
		"ID": 1140,
		"AchievementID": 1140
	},
	{
		"ID": 1141,
		"AchievementID": 1141
	},
	{
		"ID": 1142,
		"AchievementID": 1142
	},
	{
		"ID": 1143,
		"AchievementID": 1143
	},
	{
		"ID": 1144,
		"AchievementID": 1144
	},
	{
		"ID": 1145,
		"AchievementID": 1145
	},
	{
		"ID": 1146,
		"AchievementID": 1146
	},
	{
		"ID": 1147,
		"AchievementID": 1147
	},
	{
		"ID": 1148,
		"AchievementID": 1148
	},
	{
		"ID": 1149,
		"AchievementID": 1149
	},
	{
		"ID": 1150,
		"AchievementID": 1150
	},
	{
		"ID": 1151,
		"AchievementID": 1151
	},
	{
		"ID": 1152,
		"AchievementID": 1152
	},
	{
		"ID": 1153,
		"AchievementID": 1153
	},
	{
		"ID": 1154,
		"AchievementID": 1154
	},
	{
		"ID": 1155,
		"AchievementID": 1155
	},
	{
		"ID": 1156,
		"AchievementID": 1156
	},
	{
		"ID": 1157,
		"AchievementID": 1157
	},
	{
		"ID": 1158,
		"AchievementID": 1158
	},
	{
		"ID": 1159,
		"AchievementID": 1159
	},
	{
		"ID": 1160,
		"AchievementID": 1160
	},
	{
		"ID": 1161,
		"AchievementID": 1161
	},
	{
		"ID": 1162,
		"AchievementID": 1162
	},
	{
		"ID": 1163,
		"AchievementID": 1163
	},
	{
		"ID": 1164,
		"AchievementID": 1164
	},
	{
		"ID": 1165,
		"AchievementID": 1165
	},
	{
		"ID": 1166,
		"AchievementID": 1166
	},
	{
		"ID": 1167,
		"AchievementID": 1167
	},
	{
		"ID": 1168,
		"AchievementID": 1168
	},
	{
		"ID": 1169,
		"AchievementID": 1169
	},
	{
		"ID": 1170,
		"AchievementID": 1170
	},
	{
		"ID": 1171,
		"AchievementID": 1171
	},
	{
		"ID": 1172,
		"AchievementID": 1172
	},
	{
		"ID": 1173,
		"AchievementID": 1173
	},
	{
		"ID": 1174,
		"AchievementID": 1174
	},
	{
		"ID": 1175,
		"AchievementID": 1175
	},
	{
		"ID": 1176,
		"AchievementID": 1176
	},
	{
		"ID": 1177,
		"AchievementID": 1177
	},
	{
		"ID": 1178,
		"AchievementID": 1178
	},
	{
		"ID": 1179,
		"AchievementID": 1179
	},
	{
		"ID": 1180,
		"AchievementID": 1180
	},
	{
		"ID": 1181,
		"AchievementID": 1181
	},
	{
		"ID": 1182,
		"AchievementID": 1182
	},
	{
		"ID": 1183,
		"AchievementID": 1183
	},
	{
		"ID": 2100,
		"AchievementID": 2100
	},
	{
		"ID": 2101,
		"AchievementID": 2101
	},
	{
		"ID": 2102,
		"AchievementID": 2102
	},
	{
		"ID": 2103,
		"AchievementID": 2103
	},
	{
		"ID": 2104,
		"AchievementID": 2104
	},
	{
		"ID": 2105,
		"AchievementID": 2105
	},
	{
		"ID": 2106,
		"AchievementID": 2106
	},
	{
		"ID": 2107,
		"AchievementID": 2107
	},
	{
		"ID": 2108,
		"AchievementID": 2108
	},
	{
		"ID": 2109,
		"AchievementID": 2109
	},
	{
		"ID": 2110,
		"AchievementID": 2110
	},
	{
		"ID": 2111,
		"AchievementID": 2111
	},
	{
		"ID": 2112,
		"AchievementID": 2112
	},
	{
		"ID": 2113,
		"AchievementID": 2113
	},
	{
		"ID": 2114,
		"AchievementID": 2114
	},
	{
		"ID": 2115,
		"AchievementID": 2115
	},
	{
		"ID": 2116,
		"AchievementID": 2116
	},
	{
		"ID": 2117,
		"AchievementID": 2117
	},
	{
		"ID": 2118,
		"AchievementID": 2118
	},
	{
		"ID": 2119,
		"AchievementID": 2119
	},
	{
		"ID": 2120,
		"AchievementID": 2120
	},
	{
		"ID": 2121,
		"AchievementID": 2121
	},
	{
		"ID": 2122,
		"AchievementID": 2122
	},
	{
		"ID": 2123,
		"AchievementID": 2123
	},
	{
		"ID": 2124,
		"AchievementID": 2124
	},
	{
		"ID": 2125,
		"AchievementID": 2125
	},
	{
		"ID": 2126,
		"AchievementID": 2126
	},
	{
		"ID": 2127,
		"AchievementID": 2127
	},
	{
		"ID": 2128,
		"AchievementID": 2128
	},
	{
		"ID": 2129,
		"AchievementID": 2129
	},
	{
		"ID": 2130,
		"AchievementID": 2130
	},
	{
		"ID": 2131,
		"AchievementID": 2131
	},
	{
		"ID": 2132,
		"AchievementID": 2132
	},
	{
		"ID": 2133,
		"AchievementID": 2133
	},
	{
		"ID": 2134,
		"AchievementID": 2134
	},
	{
		"ID": 2135,
		"AchievementID": 2135
	},
	{
		"ID": 2136,
		"AchievementID": 2136
	},
	{
		"ID": 2137,
		"AchievementID": 2137
	},
	{
		"ID": 2138,
		"AchievementID": 2138
	},
	{
		"ID": 2139,
		"AchievementID": 2139
	},
	{
		"ID": 2140,
		"AchievementID": 2140
	},
	{
		"ID": 2141,
		"AchievementID": 2141
	},
	{
		"ID": 2142,
		"AchievementID": 2142
	},
	{
		"ID": 2143,
		"AchievementID": 2143
	},
	{
		"ID": 2144,
		"AchievementID": 2144
	},
	{
		"ID": 2145,
		"AchievementID": 2145
	},
	{
		"ID": 2146,
		"AchievementID": 2146
	},
	{
		"ID": 2147,
		"AchievementID": 2147
	},
	{
		"ID": 2148,
		"AchievementID": 2148
	},
	{
		"ID": 2149,
		"AchievementID": 2149
	},
	{
		"ID": 2150,
		"AchievementID": 2150
	},
	{
		"ID": 2151,
		"AchievementID": 2151
	},
	{
		"ID": 2152,
		"AchievementID": 2152
	},
	{
		"ID": 2153,
		"AchievementID": 2153
	},
	{
		"ID": 2154,
		"AchievementID": 2154
	},
	{
		"ID": 2155,
		"AchievementID": 2155
	},
	{
		"ID": 2156,
		"AchievementID": 2156
	},
	{
		"ID": 2157,
		"AchievementID": 2157
	},
	{
		"ID": 2158,
		"AchievementID": 2158
	},
	{
		"ID": 2159,
		"AchievementID": 2159
	},
	{
		"ID": 2160,
		"AchievementID": 2160
	},
	{
		"ID": 2161,
		"AchievementID": 2161
	},
	{
		"ID": 2162,
		"AchievementID": 2162
	},
	{
		"ID": 2163,
		"AchievementID": 2163
	},
	{
		"ID": 2164,
		"AchievementID": 2164
	},
	{
		"ID": 2165,
		"AchievementID": 2165
	},
	{
		"ID": 2166,
		"AchievementID": 2166
	},
	{
		"ID": 2167,
		"AchievementID": 2167
	},
	{
		"ID": 2168,
		"AchievementID": 2168
	},
	{
		"ID": 2169,
		"AchievementID": 2169
	},
	{
		"ID": 2170,
		"AchievementID": 2170
	},
	{
		"ID": 2171,
		"AchievementID": 2171
	},
	{
		"ID": 2172,
		"AchievementID": 2172
	},
	{
		"ID": 2173,
		"AchievementID": 2173
	},
	{
		"ID": 2174,
		"AchievementID": 2174
	},
	{
		"ID": 2180,
		"AchievementID": 2180
	},
	{
		"ID": 2181,
		"AchievementID": 2181
	},
	{
		"ID": 2182,
		"AchievementID": 2182
	},
	{
		"ID": 2183,
		"AchievementID": 2183
	},
	{
		"ID": 2184,
		"AchievementID": 2184
	},
	{
		"ID": 2185,
		"AchievementID": 2185
	},
	{
		"ID": 2190,
		"AchievementID": 2190
	},
	{
		"ID": 2191,
		"AchievementID": 2191
	},
	{
		"ID": 2192,
		"AchievementID": 2192
	},
	{
		"ID": 2193,
		"AchievementID": 2193
	},
	{
		"ID": 2194,
		"AchievementID": 2194
	},
	{
		"ID": 2195,
		"AchievementID": 2195
	},
	{
		"ID": 2196,
		"AchievementID": 2196
	},
	{
		"ID": 2197,
		"AchievementID": 2197
	},
	{
		"ID": 2198,
		"AchievementID": 2198
	},
	{
		"ID": 2199,
		"AchievementID": 2199
	},
	{
		"ID": 2200,
		"AchievementID": 2200
	},
	{
		"ID": 2201,
		"AchievementID": 2201
	},
	{
		"ID": 2202,
		"AchievementID": 2202
	},
	{
		"ID": 2203,
		"AchievementID": 2203
	},
	{
		"ID": 2204,
		"AchievementID": 2204
	},
	{
		"ID": 5000,
		"AchievementID": 5000
	},
	{
		"ID": 5001,
		"AchievementID": 5001
	},
	{
		"ID": 5002,
		"AchievementID": 5002
	},
	{
		"ID": 5003,
		"AchievementID": 5003
	},
	{
		"ID": 5004,
		"AchievementID": 5004
	},
	{
		"ID": 5005,
		"AchievementID": 5005
	},
	{
		"ID": 5006,
		"AchievementID": 5006
	},
	{
		"ID": 5007,
		"AchievementID": 5007
	},
	{
		"ID": 5008,
		"AchievementID": 5008
	},
	{
		"ID": 5009,
		"AchievementID": 5009
	},
	{
		"ID": 5010,
		"AchievementID": 5010
	},
	{
		"ID": 5011,
		"AchievementID": 5011
	},
	{
		"ID": 5012,
		"AchievementID": 5012
	},
	{
		"ID": 5013,
		"AchievementID": 5013
	},
	{
		"ID": 5014,
		"AchievementID": 5014
	},
	{
		"ID": 5015,
		"AchievementID": 5015
	},
	{
		"ID": 5016,
		"AchievementID": 5016
	},
	{
		"ID": 5017,
		"AchievementID": 5017
	},
	{
		"ID": 5018,
		"AchievementID": 5018
	},
	{
		"ID": 5019,
		"AchievementID": 5019
	},
	{
		"ID": 5020,
		"AchievementID": 5020
	},
	{
		"ID": 5021,
		"AchievementID": 5021
	},
	{
		"ID": 5022,
		"AchievementID": 5022
	},
	{
		"ID": 5023,
		"AchievementID": 5023
	},
	{
		"ID": 5024,
		"AchievementID": 5024
	},
	{
		"ID": 5025,
		"AchievementID": 5025
	},
	{
		"ID": 5026,
		"AchievementID": 5026
	},
	{
		"ID": 5027,
		"AchievementID": 5027
	},
	{
		"ID": 5028,
		"AchievementID": 5028
	},
	{
		"ID": 5029,
		"AchievementID": 5029
	},
	{
		"ID": 6000,
		"AchievementID": 6000
	},
	{
		"ID": 6001,
		"AchievementID": 6001
	},
	{
		"ID": 6002,
		"AchievementID": 6002
	},
	{
		"ID": 6003,
		"AchievementID": 6000
	},
	{
		"ID": 6004,
		"AchievementID": 6001
	},
	{
		"ID": 6005,
		"AchievementID": 6002
	},
	{
		"ID": 6006,
		"AchievementID": 6003
	},
	{
		"ID": 6007,
		"AchievementID": 6004
	},
	{
		"ID": 6008,
		"AchievementID": 6005
	},
	{
		"ID": 6009,
		"AchievementID": 6006
	},
	{
		"ID": 6010,
		"AchievementID": 6007
	},
	{
		"ID": 6011,
		"AchievementID": 6008
	},
	{
		"ID": 6012,
		"AchievementID": 6006
	},
	{
		"ID": 6013,
		"AchievementID": 6007
	},
	{
		"ID": 6014,
		"AchievementID": 6008
	},
	{
		"ID": 6015,
		"AchievementID": 6006
	},
	{
		"ID": 6016,
		"AchievementID": 6007
	},
	{
		"ID": 6017,
		"AchievementID": 6008
	},
	{
		"ID": 6018,
		"AchievementID": 6006
	},
	{
		"ID": 6019,
		"AchievementID": 6007
	},
	{
		"ID": 6020,
		"AchievementID": 6008
	},
	{
		"ID": 6021,
		"AchievementID": 6009
	},
	{
		"ID": 6022,
		"AchievementID": 6010
	},
	{
		"ID": 6023,
		"AchievementID": 6011
	},
	{
		"ID": 6024,
		"AchievementID": 6009
	},
	{
		"ID": 6025,
		"AchievementID": 6010
	},
	{
		"ID": 6026,
		"AchievementID": 6011
	},
	{
		"ID": 6027,
		"AchievementID": 6012
	},
	{
		"ID": 6028,
		"AchievementID": 6013
	},
	{
		"ID": 6029,
		"AchievementID": 6014
	},
	{
		"ID": 6030,
		"AchievementID": 6015
	},
	{
		"ID": 6031,
		"AchievementID": 6016
	},
	{
		"ID": 6032,
		"AchievementID": 6017
	},
	{
		"ID": 6033,
		"AchievementID": 6015
	},
	{
		"ID": 6034,
		"AchievementID": 6016
	},
	{
		"ID": 6035,
		"AchievementID": 6017
	},
	{
		"ID": 6036,
		"AchievementID": 6015
	},
	{
		"ID": 6037,
		"AchievementID": 6016
	},
	{
		"ID": 6038,
		"AchievementID": 6017
	},
	{
		"ID": 6039,
		"AchievementID": 6015
	},
	{
		"ID": 6040,
		"AchievementID": 6016
	},
	{
		"ID": 6041,
		"AchievementID": 6017
	},
	{
		"ID": 6050,
		"AchievementID": 6050
	},
	{
		"ID": 6051,
		"AchievementID": 6051
	},
	{
		"ID": 6052,
		"AchievementID": 6052
	},
	{
		"ID": 6053,
		"AchievementID": 6053
	},
	{
		"ID": 6054,
		"AchievementID": 6054
	},
	{
		"ID": 6055,
		"AchievementID": 6055
	},
	{
		"ID": 6056,
		"AchievementID": 6056
	},
	{
		"ID": 6057,
		"AchievementID": 6057
	},
	{
		"ID": 6058,
		"AchievementID": 6058
	},
	{
		"ID": 6059,
		"AchievementID": 6059
	},
	{
		"ID": 6060,
		"AchievementID": 6060
	},
	{
		"ID": 6061,
		"AchievementID": 6061
	},
	{
		"ID": 6080,
		"AchievementID": 6080
	},
	{
		"ID": 6081,
		"AchievementID": 6081
	},
	{
		"ID": 6082,
		"AchievementID": 6082
	},
	{
		"ID": 6083,
		"AchievementID": 6083
	},
	{
		"ID": 6084,
		"AchievementID": 6084
	},
	{
		"ID": 6085,
		"AchievementID": 6085
	},
	{
		"ID": 6086,
		"AchievementID": 6086
	},
	{
		"ID": 6087,
		"AchievementID": 6087
	},
	{
		"ID": 6088,
		"AchievementID": 6088
	},
	{
		"ID": 6089,
		"AchievementID": 6089
	},
	{
		"ID": 6090,
		"AchievementID": 6090
	},
	{
		"ID": 6091,
		"AchievementID": 6091
	},
	{
		"ID": 6092,
		"AchievementID": 6092
	},
	{
		"ID": 6093,
		"AchievementID": 6093
	},
	{
		"ID": 6094,
		"AchievementID": 6094
	},
	{
		"ID": 6095,
		"AchievementID": 6095
	},
	{
		"ID": 6096,
		"AchievementID": 6096
	},
	{
		"ID": 6097,
		"AchievementID": 6097
	},
	{
		"ID": 6098,
		"AchievementID": 6098
	},
	{
		"ID": 6099,
		"AchievementID": 6099
	},
	{
		"ID": 6100,
		"AchievementID": 6100
	},
	{
		"ID": 6101,
		"AchievementID": 6101
	},
	{
		"ID": 6102,
		"AchievementID": 6102
	},
	{
		"ID": 6103,
		"AchievementID": 6103
	},
	{
		"ID": 6104,
		"AchievementID": 6104
	},
	{
		"ID": 6105,
		"AchievementID": 6105
	},
	{
		"ID": 6106,
		"AchievementID": 6106
	},
	{
		"ID": 6107,
		"AchievementID": 6107
	},
	{
		"ID": 6108,
		"AchievementID": 6108
	},
	{
		"ID": 6109,
		"AchievementID": 6109
	},
	{
		"ID": 6110,
		"AchievementID": 6110
	},
	{
		"ID": 6111,
		"AchievementID": 6111
	},
	{
		"ID": 6112,
		"AchievementID": 6112
	},
	{
		"ID": 7000,
		"AchievementID": 7000
	},
	{
		"ID": 7001,
		"AchievementID": 7001
	},
	{
		"ID": 7010,
		"AchievementID": 7010
	},
	{
		"ID": 7011,
		"AchievementID": 7011
	},
	{
		"ID": 7020,
		"AchievementID": 7020
	},
	{
		"ID": 7021,
		"AchievementID": 7021
	},
	{
		"ID": 7030,
		"AchievementID": 7030
	},
	{
		"ID": 7031,
		"AchievementID": 7031
	},
	{
		"ID": 7040,
		"AchievementID": 7040
	},
	{
		"ID": 7041,
		"AchievementID": 7041
	},
	{
		"ID": 7050,
		"AchievementID": 7050
	},
	{
		"ID": 7051,
		"AchievementID": 7051
	},
	{
		"ID": 7060,
		"AchievementID": 7060
	},
	{
		"ID": 7061,
		"AchievementID": 7061
	},
	{
		"ID": 7100,
		"AchievementID": 7100
	},
	{
		"ID": 7101,
		"AchievementID": 7101
	},
	{
		"ID": 7110,
		"AchievementID": 7110
	},
	{
		"ID": 7111,
		"AchievementID": 7111
	},
	{
		"ID": 7120,
		"AchievementID": 7120
	},
	{
		"ID": 7121,
		"AchievementID": 7121
	},
	{
		"ID": 7130,
		"AchievementID": 7130
	},
	{
		"ID": 7131,
		"AchievementID": 7131
	},
	{
		"ID": 7140,
		"AchievementID": 7140
	},
	{
		"ID": 7141,
		"AchievementID": 7141
	},
	{
		"ID": 7150,
		"AchievementID": 7150
	},
	{
		"ID": 7151,
		"AchievementID": 7151
	},
	{
		"ID": 7160,
		"AchievementID": 7160
	},
	{
		"ID": 7161,
		"AchievementID": 7161
	},
	{
		"ID": 7162,
		"AchievementID": 7162
	},
	{
		"ID": 7200,
		"AchievementID": 7200
	},
	{
		"ID": 7201,
		"AchievementID": 7201
	},
	{
		"ID": 7210,
		"AchievementID": 7210
	},
	{
		"ID": 7211,
		"AchievementID": 7211
	},
	{
		"ID": 7220,
		"AchievementID": 7220
	},
	{
		"ID": 7230,
		"AchievementID": 7230
	},
	{
		"ID": 7231,
		"AchievementID": 7231
	},
	{
		"ID": 7240,
		"AchievementID": 7240
	},
	{
		"ID": 7241,
		"AchievementID": 7241
	},
	{
		"ID": 7250,
		"AchievementID": 7250
	},
	{
		"ID": 7251,
		"AchievementID": 7251
	},
	{
		"ID": 7260,
		"AchievementID": 7260
	},
	{
		"ID": 7261,
		"AchievementID": 7261
	},
	{
		"ID": 7300,
		"AchievementID": 7300
	},
	{
		"ID": 7310,
		"AchievementID": 7310
	},
	{
		"ID": 7311,
		"AchievementID": 7311
	},
	{
		"ID": 7320,
		"AchievementID": 7320
	},
	{
		"ID": 7321,
		"AchievementID": 7321
	},
	{
		"ID": 7330,
		"AchievementID": 7330
	},
	{
		"ID": 7331,
		"AchievementID": 7331
	},
	{
		"ID": 7340,
		"AchievementID": 7340
	},
	{
		"ID": 7341,
		"AchievementID": 7341
	},
	{
		"ID": 7400,
		"AchievementID": 7400
	},
	{
		"ID": 7401,
		"AchievementID": 7401
	},
	{
		"ID": 7410,
		"AchievementID": 7410
	},
	{
		"ID": 7411,
		"AchievementID": 7411
	},
	{
		"ID": 7420,
		"AchievementID": 7420
	},
	{
		"ID": 7421,
		"AchievementID": 7421
	},
	{
		"ID": 7430,
		"AchievementID": 7430
	},
	{
		"ID": 7431,
		"AchievementID": 7431
	},
	{
		"ID": 7440,
		"AchievementID": 7440
	},
	{
		"ID": 7441,
		"AchievementID": 7441
	},
	{
		"ID": 7500,
		"AchievementID": 7500
	},
	{
		"ID": 7501,
		"AchievementID": 7501
	},
	{
		"ID": 7510,
		"AchievementID": 7510
	},
	{
		"ID": 7511,
		"AchievementID": 7511
	},
	{
		"ID": 7520,
		"AchievementID": 7520
	},
	{
		"ID": 7521,
		"AchievementID": 7521
	},
	{
		"ID": 7530,
		"AchievementID": 7530
	},
	{
		"ID": 7531,
		"AchievementID": 7531
	},
	{
		"ID": 7540,
		"AchievementID": 7540
	},
	{
		"ID": 7541,
		"AchievementID": 7541
	},
	{
		"ID": 7600,
		"AchievementID": 7600
	},
	{
		"ID": 7601,
		"AchievementID": 7601
	},
	{
		"ID": 7610,
		"AchievementID": 7610
	},
	{
		"ID": 7611,
		"AchievementID": 7611
	},
	{
		"ID": 7620,
		"AchievementID": 7620
	},
	{
		"ID": 7621,
		"AchievementID": 7621
	},
	{
		"ID": 7630,
		"AchievementID": 7630
	},
	{
		"ID": 7631,
		"AchievementID": 7631
	},
	{
		"ID": 7640,
		"AchievementID": 7640
	},
	{
		"ID": 7641,
		"AchievementID": 7641
	},
	{
		"ID": 7642,
		"AchievementID": 7642
	},
	{
		"ID": 7770,
		"AchievementID": 7770
	},
	{
		"ID": 7771,
		"AchievementID": 7771
	},
	{
		"ID": 7772,
		"AchievementID": 7772
	},
	{
		"ID": 7773,
		"AchievementID": 7773
	},
	{
		"ID": 7774,
		"AchievementID": 7774
	},
	{
		"ID": 7775,
		"AchievementID": 7775
	},
	{
		"ID": 7776,
		"AchievementID": 7776
	},
	{
		"ID": 7777,
		"AchievementID": 7777
	},
	{
		"ID": 7778,
		"AchievementID": 7778
	},
	{
		"ID": 7779,
		"AchievementID": 7779
	},
	{
		"ID": 7780,
		"AchievementID": 7780
	},
	{
		"ID": 7781,
		"AchievementID": 7781
	},
	{
		"ID": 7782,
		"AchievementID": 7782
	},
	{
		"ID": 7783,
		"AchievementID": 7783
	},
	{
		"ID": 7800,
		"AchievementID": 7800
	},
	{
		"ID": 7801,
		"AchievementID": 7801
	},
	{
		"ID": 7810,
		"AchievementID": 7810
	},
	{
		"ID": 7811,
		"AchievementID": 7811
	},
	{
		"ID": 7820,
		"AchievementID": 7820
	},
	{
		"ID": 7821,
		"AchievementID": 7821
	},
	{
		"ID": 7830,
		"AchievementID": 7830
	},
	{
		"ID": 7831,
		"AchievementID": 7831
	},
	{
		"ID": 7840,
		"AchievementID": 7840
	},
	{
		"ID": 7841,
		"AchievementID": 7841
	},
	{
		"ID": 7850,
		"AchievementID": 7850
	},
	{
		"ID": 7851,
		"AchievementID": 7851
	},
	{
		"ID": 7852,
		"AchievementID": 7852
	},
	{
		"ID": 7860,
		"AchievementID": 7860
	},
	{
		"ID": 7861,
		"AchievementID": 7861
	},
	{
		"ID": 8000,
		"AchievementID": 8000
	},
	{
		"ID": 8001,
		"AchievementID": 8001
	},
	{
		"ID": 8002,
		"AchievementID": 8002
	},
	{
		"ID": 8003,
		"AchievementID": 8003
	},
	{
		"ID": 8004,
		"AchievementID": 8004
	},
	{
		"ID": 8005,
		"AchievementID": 8005
	},
	{
		"ID": 8006,
		"AchievementID": 8006
	},
	{
		"ID": 8007,
		"AchievementID": 8007
	},
	{
		"ID": 8008,
		"AchievementID": 8008
	},
	{
		"ID": 8009,
		"AchievementID": 8009
	},
	{
		"ID": 8010,
		"AchievementID": 8010
	},
	{
		"ID": 8011,
		"AchievementID": 8011
	},
	{
		"ID": 9000,
		"AchievementID": 9000
	},
	{
		"ID": 9001,
		"AchievementID": 9001
	},
	{
		"ID": 9002,
		"AchievementID": 9002
	},
	{
		"ID": 9003,
		"AchievementID": 9001
	},
	{
		"ID": 9004,
		"AchievementID": 9003
	},
	{
		"ID": 9005,
		"AchievementID": 9001
	},
	{
		"ID": 9006,
		"AchievementID": 9004
	},
	{
		"ID": 9007,
		"AchievementID": 9005
	},
	{
		"ID": 9008,
		"AchievementID": 9006
	},
	{
		"ID": 9009,
		"AchievementID": 9001
	},
	{
		"ID": 9010,
		"AchievementID": 9007
	},
	{
		"ID": 9011,
		"AchievementID": 9008
	},
	{
		"ID": 9012,
		"AchievementID": 9009
	},
	{
		"ID": 9013,
		"AchievementID": 9010
	},
	{
		"ID": 9014,
		"AchievementID": 9011
	},
	{
		"ID": 9015,
		"AchievementID": 9012
	},
	{
		"ID": 9016,
		"AchievementID": 9013
	},
	{
		"ID": 9017,
		"AchievementID": 9014
	},
	{
		"ID": 9018,
		"AchievementID": 9015
	},
	{
		"ID": 9019,
		"AchievementID": 9016
	},
	{
		"ID": 9020,
		"AchievementID": 9017
	},
	{
		"ID": 9021,
		"AchievementID": 9018
	},
	{
		"ID": 9022,
		"AchievementID": 9019
	},
	{
		"ID": 9023,
		"AchievementID": 9020
	},
	{
		"ID": 9024,
		"AchievementID": 9021
	},
	{
		"ID": 9025,
		"AchievementID": 9022
	},
	{
		"ID": 9026,
		"AchievementID": 9023
	},
	{
		"ID": 9027,
		"AchievementID": 9022
	},
	{
		"ID": 9028,
		"AchievementID": 9024
	},
	{
		"ID": 9029,
		"AchievementID": 9022
	},
	{
		"ID": 9030,
		"AchievementID": 9024
	},
	{
		"ID": 9031,
		"AchievementID": 9022
	},
	{
		"ID": 9032,
		"AchievementID": 9024
	},
	{
		"ID": 9033,
		"AchievementID": 9025
	},
	{
		"ID": 9034,
		"AchievementID": 9025
	},
	{
		"ID": 9035,
		"AchievementID": 9026
	},
	{
		"ID": 9036,
		"AchievementID": 9025
	},
	{
		"ID": 9037,
		"AchievementID": 9025
	},
	{
		"ID": 9038,
		"AchievementID": 9027
	},
	{
		"ID": 9039,
		"AchievementID": 9028
	},
	{
		"ID": 9040,
		"AchievementID": 9029
	},
	{
		"ID": 9041,
		"AchievementID": 9030
	},
	{
		"ID": 9042,
		"AchievementID": 9031
	},
	{
		"ID": 9043,
		"AchievementID": 9032
	},
	{
		"ID": 9044,
		"AchievementID": 9033
	},
	{
		"ID": 9045,
		"AchievementID": 9034
	},
	{
		"ID": 9046,
		"AchievementID": 9035
	},
	{
		"ID": 9047,
		"AchievementID": 9036
	},
	{
		"ID": 9048,
		"AchievementID": 9037
	},
	{
		"ID": 9049,
		"AchievementID": 9031
	},
	{
		"ID": 9050,
		"AchievementID": 9033
	},
	{
		"ID": 9051,
		"AchievementID": 9034
	},
	{
		"ID": 9052,
		"AchievementID": 9035
	},
	{
		"ID": 9053,
		"AchievementID": 9036
	},
	{
		"ID": 9054,
		"AchievementID": 9038
	},
	{
		"ID": 9055,
		"AchievementID": 9039
	},
	{
		"ID": 9056,
		"AchievementID": 9040
	},
	{
		"ID": 9057,
		"AchievementID": 9041
	},
	{
		"ID": 9058,
		"AchievementID": 9042
	},
	{
		"ID": 9059,
		"AchievementID": 9043
	},
	{
		"ID": 9060,
		"AchievementID": 9044
	},
	{
		"ID": 9061,
		"AchievementID": 9045
	},
	{
		"ID": 9062,
		"AchievementID": 9046
	},
	{
		"ID": 9063,
		"AchievementID": 9047
	},
	{
		"ID": 9064,
		"AchievementID": 9048
	},
	{
		"ID": 9065,
		"AchievementID": 9049
	},
	{
		"ID": 9066,
		"AchievementID": 9050
	},
	{
		"ID": 9067,
		"AchievementID": 9051
	},
	{
		"ID": 9068,
		"AchievementID": 9052
	},
	{
		"ID": 9069,
		"AchievementID": 9053
	},
	{
		"ID": 9070,
		"AchievementID": 9054
	},
	{
		"ID": 9071,
		"AchievementID": 9055
	},
	{
		"ID": 9072,
		"AchievementID": 9056
	},
	{
		"ID": 9073,
		"AchievementID": 9057
	},
	{
		"ID": 9074,
		"AchievementID": 9058
	},
	{
		"ID": 9075,
		"AchievementID": 9059
	},
	{
		"ID": 9076,
		"AchievementID": 9060
	},
	{
		"ID": 9077,
		"AchievementID": 9061
	},
	{
		"ID": 10771,
		"AchievementID": 10771
	},
	{
		"ID": 10772,
		"AchievementID": 10772
	},
	{
		"ID": 10773,
		"AchievementID": 10773
	},
	{
		"ID": 10774,
		"AchievementID": 10774
	},
	{
		"ID": 10781,
		"AchievementID": 10781
	},
	{
		"ID": 10782,
		"AchievementID": 10782
	},
	{
		"ID": 10783,
		"AchievementID": 10783
	},
	{
		"ID": 10784,
		"AchievementID": 10784
	},
	{
		"ID": 10791,
		"AchievementID": 10791
	},
	{
		"ID": 10792,
		"AchievementID": 10792
	},
	{
		"ID": 10793,
		"AchievementID": 10793
	},
	{
		"ID": 10794,
		"AchievementID": 10794
	},
	{
		"ID": 10801,
		"AchievementID": 73010
	},
	{
		"ID": 10802,
		"AchievementID": 74051
	},
	{
		"ID": 10803,
		"AchievementID": 1102
	},
	{
		"ID": 10811,
		"AchievementID": 73010
	},
	{
		"ID": 10812,
		"AchievementID": 10811
	},
	{
		"ID": 10813,
		"AchievementID": 74031
	},
	{
		"ID": 10821,
		"AchievementID": 73010
	},
	{
		"ID": 10822,
		"AchievementID": 10821
	},
	{
		"ID": 10823,
		"AchievementID": 74051
	},
	{
		"ID": 10831,
		"AchievementID": 10831
	},
	{
		"ID": 10832,
		"AchievementID": 10832
	},
	{
		"ID": 10841,
		"AchievementID": 10841
	},
	{
		"ID": 10842,
		"AchievementID": 10842
	},
	{
		"ID": 10851,
		"AchievementID": 10851
	},
	{
		"ID": 10852,
		"AchievementID": 10852
	},
	{
		"ID": 10881,
		"AchievementID": 10881
	},
	{
		"ID": 10882,
		"AchievementID": 10882
	},
	{
		"ID": 10883,
		"AchievementID": 10883
	},
	{
		"ID": 10891,
		"AchievementID": 10891
	},
	{
		"ID": 10892,
		"AchievementID": 10892
	},
	{
		"ID": 10893,
		"AchievementID": 10893
	},
	{
		"ID": 10901,
		"AchievementID": 10901
	},
	{
		"ID": 10902,
		"AchievementID": 10902
	},
	{
		"ID": 10903,
		"AchievementID": 10903
	},
	{
		"ID": 10911,
		"AchievementID": 10911
	},
	{
		"ID": 10912,
		"AchievementID": 10912
	},
	{
		"ID": 10913,
		"AchievementID": 10913
	},
	{
		"ID": 15801,
		"AchievementID": 73010
	},
	{
		"ID": 15802,
		"AchievementID": 74051
	},
	{
		"ID": 15803,
		"AchievementID": 1102
	},
	{
		"ID": 15811,
		"AchievementID": 73010
	},
	{
		"ID": 15812,
		"AchievementID": 10811
	},
	{
		"ID": 15813,
		"AchievementID": 74031
	},
	{
		"ID": 15821,
		"AchievementID": 73010
	},
	{
		"ID": 15823,
		"AchievementID": 74051
	},
	{
		"ID": 15831,
		"AchievementID": 15831
	},
	{
		"ID": 15832,
		"AchievementID": 15832
	},
	{
		"ID": 15833,
		"AchievementID": 15833
	},
	{
		"ID": 15841,
		"AchievementID": 15841
	},
	{
		"ID": 15842,
		"AchievementID": 15842
	},
	{
		"ID": 15851,
		"AchievementID": 15851
	},
	{
		"ID": 15852,
		"AchievementID": 15852
	},
	{
		"ID": 15881,
		"AchievementID": 15881
	},
	{
		"ID": 15882,
		"AchievementID": 15882
	},
	{
		"ID": 15883,
		"AchievementID": 15883
	},
	{
		"ID": 15891,
		"AchievementID": 15891
	},
	{
		"ID": 15892,
		"AchievementID": 15892
	},
	{
		"ID": 15893,
		"AchievementID": 15893
	},
	{
		"ID": 15901,
		"AchievementID": 15901
	},
	{
		"ID": 15902,
		"AchievementID": 15902
	},
	{
		"ID": 15903,
		"AchievementID": 15903
	},
	{
		"ID": 15911,
		"AchievementID": 15911
	},
	{
		"ID": 15912,
		"AchievementID": 15912
	},
	{
		"ID": 15913,
		"AchievementID": 15913
	},
	{
		"ID": 13000,
		"AchievementID": 13000
	},
	{
		"ID": 13001,
		"AchievementID": 13001
	},
	{
		"ID": 13010,
		"AchievementID": 13010
	},
	{
		"ID": 13011,
		"AchievementID": 13011
	},
	{
		"ID": 13020,
		"AchievementID": 13020
	},
	{
		"ID": 13021,
		"AchievementID": 13021
	},
	{
		"ID": 13030,
		"AchievementID": 13030
	},
	{
		"ID": 13031,
		"AchievementID": 13031
	},
	{
		"ID": 13040,
		"AchievementID": 13040
	},
	{
		"ID": 13041,
		"AchievementID": 13041
	},
	{
		"ID": 13050,
		"AchievementID": 13050
	},
	{
		"ID": 13051,
		"AchievementID": 13051
	},
	{
		"ID": 13052,
		"AchievementID": 13052
	},
	{
		"ID": 13061,
		"AchievementID": 13061
	},
	{
		"ID": 13062,
		"AchievementID": 13062
	},
	{
		"ID": 14000,
		"AchievementID": 14000
	},
	{
		"ID": 14001,
		"AchievementID": 14001
	},
	{
		"ID": 14010,
		"AchievementID": 14010
	},
	{
		"ID": 14011,
		"AchievementID": 14011
	},
	{
		"ID": 14020,
		"AchievementID": 14020
	},
	{
		"ID": 14030,
		"AchievementID": 14030
	},
	{
		"ID": 14031,
		"AchievementID": 14031
	},
	{
		"ID": 14040,
		"AchievementID": 14040
	},
	{
		"ID": 14041,
		"AchievementID": 14041
	},
	{
		"ID": 14050,
		"AchievementID": 14050
	},
	{
		"ID": 14051,
		"AchievementID": 14051
	},
	{
		"ID": 14060,
		"AchievementID": 14060
	},
	{
		"ID": 14061,
		"AchievementID": 14061
	},
	{
		"ID": 15000,
		"AchievementID": 15000
	},
	{
		"ID": 15001,
		"AchievementID": 15001
	},
	{
		"ID": 15010,
		"AchievementID": 15010
	},
	{
		"ID": 15011,
		"AchievementID": 15011
	},
	{
		"ID": 15020,
		"AchievementID": 15020
	},
	{
		"ID": 15030,
		"AchievementID": 15030
	},
	{
		"ID": 15031,
		"AchievementID": 15031
	},
	{
		"ID": 15040,
		"AchievementID": 15040
	},
	{
		"ID": 15041,
		"AchievementID": 15041
	},
	{
		"ID": 16001,
		"AchievementID": 16001
	},
	{
		"ID": 16002,
		"AchievementID": 16002
	},
	{
		"ID": 16003,
		"AchievementID": 16003
	},
	{
		"ID": 16004,
		"AchievementID": 16004
	},
	{
		"ID": 16005,
		"AchievementID": 16005
	},
	{
		"ID": 16006,
		"AchievementID": 16006
	},
	{
		"ID": 16007,
		"AchievementID": 16007
	},
	{
		"ID": 16008,
		"AchievementID": 16008
	},
	{
		"ID": 16009,
		"AchievementID": 16009
	},
	{
		"ID": 16010,
		"AchievementID": 16010
	},
	{
		"ID": 16015,
		"AchievementID": 16015
	},
	{
		"ID": 16016,
		"AchievementID": 16016
	},
	{
		"ID": 16017,
		"AchievementID": 16017
	},
	{
		"ID": 16018,
		"AchievementID": 16018
	},
	{
		"ID": 16019,
		"AchievementID": 16019
	},
	{
		"ID": 16020,
		"AchievementID": 16020
	},
	{
		"ID": 16021,
		"AchievementID": 16021
	},
	{
		"ID": 16022,
		"AchievementID": 16022
	},
	{
		"ID": 16023,
		"AchievementID": 16023
	},
	{
		"ID": 16024,
		"AchievementID": 16024
	},
	{
		"ID": 16025,
		"AchievementID": 16025
	},
	{
		"ID": 16026,
		"AchievementID": 16026
	},
	{
		"ID": 16027,
		"AchievementID": 16027
	},
	{
		"ID": 16028,
		"AchievementID": 16028
	},
	{
		"ID": 16030,
		"AchievementID": 16030
	},
	{
		"ID": 16031,
		"AchievementID": 16031
	},
	{
		"ID": 16032,
		"AchievementID": 16032
	},
	{
		"ID": 16033,
		"AchievementID": 16033
	},
	{
		"ID": 16034,
		"AchievementID": 16034
	},
	{
		"ID": 16035,
		"AchievementID": 16035
	},
	{
		"ID": 16036,
		"AchievementID": 16036
	},
	{
		"ID": 16037,
		"AchievementID": 16037
	},
	{
		"ID": 16038,
		"AchievementID": 16038
	},
	{
		"ID": 16039,
		"AchievementID": 16039
	},
	{
		"ID": 16040,
		"AchievementID": 16040
	},
	{
		"ID": 16041,
		"AchievementID": 16041
	},
	{
		"ID": 16042,
		"AchievementID": 16042
	},
	{
		"ID": 16043,
		"AchievementID": 16043
	},
	{
		"ID": 16045,
		"AchievementID": 16045
	},
	{
		"ID": 16046,
		"AchievementID": 16046
	},
	{
		"ID": 16047,
		"AchievementID": 16047
	},
	{
		"ID": 16048,
		"AchievementID": 16048
	},
	{
		"ID": 16049,
		"AchievementID": 16049
	},
	{
		"ID": 16050,
		"AchievementID": 16050
	},
	{
		"ID": 16051,
		"AchievementID": 16051
	},
	{
		"ID": 16052,
		"AchievementID": 16052
	},
	{
		"ID": 16053,
		"AchievementID": 16053
	},
	{
		"ID": 16054,
		"AchievementID": 16054
	},
	{
		"ID": 16060,
		"AchievementID": 16060
	},
	{
		"ID": 16061,
		"AchievementID": 16061
	},
	{
		"ID": 16062,
		"AchievementID": 16062
	},
	{
		"ID": 16063,
		"AchievementID": 16063
	},
	{
		"ID": 16064,
		"AchievementID": 16064
	},
	{
		"ID": 16065,
		"AchievementID": 16065
	},
	{
		"ID": 16066,
		"AchievementID": 16066
	},
	{
		"ID": 16067,
		"AchievementID": 16067
	},
	{
		"ID": 16068,
		"AchievementID": 16068
	},
	{
		"ID": 16069,
		"AchievementID": 16069
	},
	{
		"ID": 16075,
		"AchievementID": 16075
	},
	{
		"ID": 16076,
		"AchievementID": 16076
	},
	{
		"ID": 16077,
		"AchievementID": 16077
	},
	{
		"ID": 16078,
		"AchievementID": 16078
	},
	{
		"ID": 16079,
		"AchievementID": 16079
	},
	{
		"ID": 16080,
		"AchievementID": 16080
	},
	{
		"ID": 16081,
		"AchievementID": 16081
	},
	{
		"ID": 16082,
		"AchievementID": 16082
	},
	{
		"ID": 16083,
		"AchievementID": 16083
	},
	{
		"ID": 16084,
		"AchievementID": 16084
	},
	{
		"ID": 18010,
		"AchievementID": 18010
	},
	{
		"ID": 18011,
		"AchievementID": 18011
	},
	{
		"ID": 18020,
		"AchievementID": 18020
	},
	{
		"ID": 18021,
		"AchievementID": 18021
	},
	{
		"ID": 18030,
		"AchievementID": 18030
	},
	{
		"ID": 18031,
		"AchievementID": 18031
	},
	{
		"ID": 18040,
		"AchievementID": 18040
	},
	{
		"ID": 18041,
		"AchievementID": 18041
	},
	{
		"ID": 18050,
		"AchievementID": 18050
	},
	{
		"ID": 18051,
		"AchievementID": 18051
	},
	{
		"ID": 20711,
		"AchievementID": 20711
	},
	{
		"ID": 20712,
		"AchievementID": 20712
	},
	{
		"ID": 20731,
		"AchievementID": 20731
	},
	{
		"ID": 20732,
		"AchievementID": 20732
	},
	{
		"ID": 20751,
		"AchievementID": 20751
	},
	{
		"ID": 20752,
		"AchievementID": 20752
	},
	{
		"ID": 20753,
		"AchievementID": 20753
	},
	{
		"ID": 20701,
		"AchievementID": 20701
	},
	{
		"ID": 20702,
		"AchievementID": 20702
	},
	{
		"ID": 20721,
		"AchievementID": 20721
	},
	{
		"ID": 20722,
		"AchievementID": 20722
	},
	{
		"ID": 20741,
		"AchievementID": 20741
	},
	{
		"ID": 20742,
		"AchievementID": 20742
	},
	{
		"ID": 27010,
		"AchievementID": 27010
	},
	{
		"ID": 27011,
		"AchievementID": 27011
	},
	{
		"ID": 27020,
		"AchievementID": 27020
	},
	{
		"ID": 27021,
		"AchievementID": 27021
	},
	{
		"ID": 27030,
		"AchievementID": 27030
	},
	{
		"ID": 27040,
		"AchievementID": 27040
	},
	{
		"ID": 27041,
		"AchievementID": 27041
	},
	{
		"ID": 27050,
		"AchievementID": 27050
	},
	{
		"ID": 27051,
		"AchievementID": 27051
	},
	{
		"ID": 27060,
		"AchievementID": 27060
	},
	{
		"ID": 27061,
		"AchievementID": 27061
	},
	{
		"ID": 27070,
		"AchievementID": 27070
	},
	{
		"ID": 27071,
		"AchievementID": 27071
	},
	{
		"ID": 28010,
		"AchievementID": 28010
	},
	{
		"ID": 28020,
		"AchievementID": 28020
	},
	{
		"ID": 28021,
		"AchievementID": 28021
	},
	{
		"ID": 28030,
		"AchievementID": 28030
	},
	{
		"ID": 28031,
		"AchievementID": 28031
	},
	{
		"ID": 28040,
		"AchievementID": 28040
	},
	{
		"ID": 28041,
		"AchievementID": 28041
	},
	{
		"ID": 28050,
		"AchievementID": 28050
	},
	{
		"ID": 28051,
		"AchievementID": 28051
	},
	{
		"ID": 28052,
		"AchievementID": 28052
	},
	{
		"ID": 29011,
		"AchievementID": 29011
	},
	{
		"ID": 29012,
		"AchievementID": 29012
	},
	{
		"ID": 29013,
		"AchievementID": 29013
	},
	{
		"ID": 29014,
		"AchievementID": 29014
	},
	{
		"ID": 29015,
		"AchievementID": 29015
	},
	{
		"ID": 29016,
		"AchievementID": 29016
	},
	{
		"ID": 29017,
		"AchievementID": 29017
	},
	{
		"ID": 29018,
		"AchievementID": 29018
	},
	{
		"ID": 29019,
		"AchievementID": 29019
	},
	{
		"ID": 29020,
		"AchievementID": 29020
	},
	{
		"ID": 32010,
		"AchievementID": 32010
	},
	{
		"ID": 32011,
		"AchievementID": 32011
	},
	{
		"ID": 32020,
		"AchievementID": 32020
	},
	{
		"ID": 32021,
		"AchievementID": 32021
	},
	{
		"ID": 32030,
		"AchievementID": 32030
	},
	{
		"ID": 32031,
		"AchievementID": 32031
	},
	{
		"ID": 32040,
		"AchievementID": 32040
	},
	{
		"ID": 32041,
		"AchievementID": 32041
	},
	{
		"ID": 32050,
		"AchievementID": 32050
	},
	{
		"ID": 32051,
		"AchievementID": 32051
	},
	{
		"ID": 32052,
		"AchievementID": 32052
	},
	{
		"ID": 33010,
		"AchievementID": 33010
	},
	{
		"ID": 33020,
		"AchievementID": 33020
	},
	{
		"ID": 33021,
		"AchievementID": 33021
	},
	{
		"ID": 33030,
		"AchievementID": 33030
	},
	{
		"ID": 33031,
		"AchievementID": 33031
	},
	{
		"ID": 33040,
		"AchievementID": 33040
	},
	{
		"ID": 33041,
		"AchievementID": 33041
	},
	{
		"ID": 33050,
		"AchievementID": 33050
	},
	{
		"ID": 33051,
		"AchievementID": 33051
	},
	{
		"ID": 33052,
		"AchievementID": 33052
	},
	{
		"ID": 37010,
		"AchievementID": 37010
	},
	{
		"ID": 37011,
		"AchievementID": 37011
	},
	{
		"ID": 37020,
		"AchievementID": 37020
	},
	{
		"ID": 37021,
		"AchievementID": 37021
	},
	{
		"ID": 37030,
		"AchievementID": 37030
	},
	{
		"ID": 37031,
		"AchievementID": 37031
	},
	{
		"ID": 37040,
		"AchievementID": 37040
	},
	{
		"ID": 37050,
		"AchievementID": 37050
	},
	{
		"ID": 37051,
		"AchievementID": 37051
	},
	{
		"ID": 39010,
		"AchievementID": 39010
	},
	{
		"ID": 39011,
		"AchievementID": 39011
	},
	{
		"ID": 39020,
		"AchievementID": 39020
	},
	{
		"ID": 39021,
		"AchievementID": 39021
	},
	{
		"ID": 39030,
		"AchievementID": 39030
	},
	{
		"ID": 39031,
		"AchievementID": 39031
	},
	{
		"ID": 39040,
		"AchievementID": 39040
	},
	{
		"ID": 39041,
		"AchievementID": 39041
	},
	{
		"ID": 39050,
		"AchievementID": 39050
	},
	{
		"ID": 39051,
		"AchievementID": 39051
	},
	{
		"ID": 51010,
		"AchievementID": 51010
	},
	{
		"ID": 51011,
		"AchievementID": 51011
	},
	{
		"ID": 51020,
		"AchievementID": 51020
	},
	{
		"ID": 51021,
		"AchievementID": 51021
	},
	{
		"ID": 51030,
		"AchievementID": 51030
	},
	{
		"ID": 51031,
		"AchievementID": 51031
	},
	{
		"ID": 51040,
		"AchievementID": 51040
	},
	{
		"ID": 51041,
		"AchievementID": 51041
	},
	{
		"ID": 51050,
		"AchievementID": 51050
	},
	{
		"ID": 51051,
		"AchievementID": 51051
	},
	{
		"ID": 52010,
		"AchievementID": 52010
	},
	{
		"ID": 52011,
		"AchievementID": 52011
	},
	{
		"ID": 52020,
		"AchievementID": 52020
	},
	{
		"ID": 52021,
		"AchievementID": 52021
	},
	{
		"ID": 52030,
		"AchievementID": 52030
	},
	{
		"ID": 52031,
		"AchievementID": 52031
	},
	{
		"ID": 52040,
		"AchievementID": 52040
	},
	{
		"ID": 52041,
		"AchievementID": 52041
	},
	{
		"ID": 52050,
		"AchievementID": 52050
	},
	{
		"ID": 52051,
		"AchievementID": 52051
	},
	{
		"ID": 54010,
		"AchievementID": 54010
	},
	{
		"ID": 54011,
		"AchievementID": 54011
	},
	{
		"ID": 54020,
		"AchievementID": 54020
	},
	{
		"ID": 54021,
		"AchievementID": 54021
	},
	{
		"ID": 54030,
		"AchievementID": 54030
	},
	{
		"ID": 54031,
		"AchievementID": 54031
	},
	{
		"ID": 54040,
		"AchievementID": 54040
	},
	{
		"ID": 54041,
		"AchievementID": 54041
	},
	{
		"ID": 54050,
		"AchievementID": 54050
	},
	{
		"ID": 54051,
		"AchievementID": 54051
	},
	{
		"ID": 55010,
		"AchievementID": 55010
	},
	{
		"ID": 55011,
		"AchievementID": 55011
	},
	{
		"ID": 55020,
		"AchievementID": 55020
	},
	{
		"ID": 55021,
		"AchievementID": 55021
	},
	{
		"ID": 55030,
		"AchievementID": 55030
	},
	{
		"ID": 55031,
		"AchievementID": 55031
	},
	{
		"ID": 55040,
		"AchievementID": 55040
	},
	{
		"ID": 55041,
		"AchievementID": 55041
	},
	{
		"ID": 55050,
		"AchievementID": 55050
	},
	{
		"ID": 55051,
		"AchievementID": 55051
	},
	{
		"ID": 56010,
		"AchievementID": 56010
	},
	{
		"ID": 56011,
		"AchievementID": 56011
	},
	{
		"ID": 56020,
		"AchievementID": 56020
	},
	{
		"ID": 56021,
		"AchievementID": 56021
	},
	{
		"ID": 56030,
		"AchievementID": 56030
	},
	{
		"ID": 56031,
		"AchievementID": 56031
	},
	{
		"ID": 56040,
		"AchievementID": 56040
	},
	{
		"ID": 56041,
		"AchievementID": 56041
	},
	{
		"ID": 56050,
		"AchievementID": 56050
	},
	{
		"ID": 56051,
		"AchievementID": 56051
	},
	{
		"ID": 58011,
		"AchievementID": 58011
	},
	{
		"ID": 58012,
		"AchievementID": 58012
	},
	{
		"ID": 58021,
		"AchievementID": 58021
	},
	{
		"ID": 58022,
		"AchievementID": 58022
	},
	{
		"ID": 58031,
		"AchievementID": 58031
	},
	{
		"ID": 58032,
		"AchievementID": 58032
	},
	{
		"ID": 58041,
		"AchievementID": 58041
	},
	{
		"ID": 58042,
		"AchievementID": 58042
	},
	{
		"ID": 58051,
		"AchievementID": 58051
	},
	{
		"ID": 58052,
		"AchievementID": 58052
	},
	{
		"ID": 59010,
		"AchievementID": 59010
	},
	{
		"ID": 59011,
		"AchievementID": 59011
	},
	{
		"ID": 59020,
		"AchievementID": 59020
	},
	{
		"ID": 59021,
		"AchievementID": 59021
	},
	{
		"ID": 59030,
		"AchievementID": 59030
	},
	{
		"ID": 59031,
		"AchievementID": 59031
	},
	{
		"ID": 59040,
		"AchievementID": 59040
	},
	{
		"ID": 59041,
		"AchievementID": 59041
	},
	{
		"ID": 59050,
		"AchievementID": 59050
	},
	{
		"ID": 59051,
		"AchievementID": 59051
	},
	{
		"ID": 60010,
		"AchievementID": 60010
	},
	{
		"ID": 60011,
		"AchievementID": 60011
	},
	{
		"ID": 60020,
		"AchievementID": 60020
	},
	{
		"ID": 60021,
		"AchievementID": 60021
	},
	{
		"ID": 60030,
		"AchievementID": 60030
	},
	{
		"ID": 60031,
		"AchievementID": 60031
	},
	{
		"ID": 60040,
		"AchievementID": 60040
	},
	{
		"ID": 60041,
		"AchievementID": 60041
	},
	{
		"ID": 60050,
		"AchievementID": 60050
	},
	{
		"ID": 60051,
		"AchievementID": 60051
	},
	{
		"ID": 61010,
		"AchievementID": 61010
	},
	{
		"ID": 61011,
		"AchievementID": 61011
	},
	{
		"ID": 61020,
		"AchievementID": 61020
	},
	{
		"ID": 61021,
		"AchievementID": 61021
	},
	{
		"ID": 61030,
		"AchievementID": 61030
	},
	{
		"ID": 61031,
		"AchievementID": 61031
	},
	{
		"ID": 61040,
		"AchievementID": 61040
	},
	{
		"ID": 61041,
		"AchievementID": 61041
	},
	{
		"ID": 61050,
		"AchievementID": 61050
	},
	{
		"ID": 61051,
		"AchievementID": 61051
	},
	{
		"ID": 66030,
		"AchievementID": 66030
	},
	{
		"ID": 66031,
		"AchievementID": 66031
	},
	{
		"ID": 66040,
		"AchievementID": 66040
	},
	{
		"ID": 66041,
		"AchievementID": 66041
	},
	{
		"ID": 66050,
		"AchievementID": 66050
	},
	{
		"ID": 66051,
		"AchievementID": 66051
	},
	{
		"ID": 67010,
		"AchievementID": 67010
	},
	{
		"ID": 67011,
		"AchievementID": 67011
	},
	{
		"ID": 67020,
		"AchievementID": 67020
	},
	{
		"ID": 67021,
		"AchievementID": 67021
	},
	{
		"ID": 67030,
		"AchievementID": 67030
	},
	{
		"ID": 67031,
		"AchievementID": 67031
	},
	{
		"ID": 67040,
		"AchievementID": 67040
	},
	{
		"ID": 67041,
		"AchievementID": 67041
	},
	{
		"ID": 67050,
		"AchievementID": 67050
	},
	{
		"ID": 67051,
		"AchievementID": 67051
	},
	{
		"ID": 69010,
		"AchievementID": 69010
	},
	{
		"ID": 69011,
		"AchievementID": 69011
	},
	{
		"ID": 69030,
		"AchievementID": 69030
	},
	{
		"ID": 69031,
		"AchievementID": 69031
	},
	{
		"ID": 69050,
		"AchievementID": 69050
	},
	{
		"ID": 69051,
		"AchievementID": 69051
	},
	{
		"ID": 70010,
		"AchievementID": 70010
	},
	{
		"ID": 70011,
		"AchievementID": 70011
	},
	{
		"ID": 70030,
		"AchievementID": 70030
	},
	{
		"ID": 70031,
		"AchievementID": 70031
	},
	{
		"ID": 70050,
		"AchievementID": 70050
	},
	{
		"ID": 70051,
		"AchievementID": 70051
	},
	{
		"ID": 71010,
		"AchievementID": 71010
	},
	{
		"ID": 71011,
		"AchievementID": 71011
	},
	{
		"ID": 71030,
		"AchievementID": 71030
	},
	{
		"ID": 71031,
		"AchievementID": 71031
	},
	{
		"ID": 71050,
		"AchievementID": 71050
	},
	{
		"ID": 71051,
		"AchievementID": 71051
	},
	{
		"ID": 72010,
		"AchievementID": 72010
	},
	{
		"ID": 72011,
		"AchievementID": 72011
	},
	{
		"ID": 72030,
		"AchievementID": 72030
	},
	{
		"ID": 72031,
		"AchievementID": 72031
	},
	{
		"ID": 72050,
		"AchievementID": 72050
	},
	{
		"ID": 72051,
		"AchievementID": 72051
	},
	{
		"ID": 73010,
		"AchievementID": 73010
	},
	{
		"ID": 73011,
		"AchievementID": 73011
	},
	{
		"ID": 73012,
		"AchievementID": 73012
	},
	{
		"ID": 73013,
		"AchievementID": 73013
	},
	{
		"ID": 73014,
		"AchievementID": 73014
	},
	{
		"ID": 73015,
		"AchievementID": 73015
	},
	{
		"ID": 74010,
		"AchievementID": 74010
	},
	{
		"ID": 74011,
		"AchievementID": 74011
	},
	{
		"ID": 74030,
		"AchievementID": 74030
	},
	{
		"ID": 74031,
		"AchievementID": 74031
	},
	{
		"ID": 74050,
		"AchievementID": 74050
	},
	{
		"ID": 74051,
		"AchievementID": 74051
	},
	{
		"ID": 80010,
		"AchievementID": 80010
	},
	{
		"ID": 80011,
		"AchievementID": 80011
	},
	{
		"ID": 80020,
		"AchievementID": 80020
	},
	{
		"ID": 80021,
		"AchievementID": 80021
	},
	{
		"ID": 80030,
		"AchievementID": 80030
	},
	{
		"ID": 80031,
		"AchievementID": 80031
	},
	{
		"ID": 80040,
		"AchievementID": 80040
	},
	{
		"ID": 80041,
		"AchievementID": 80041
	},
	{
		"ID": 80051,
		"AchievementID": 80051
	},
	{
		"ID": 80052,
		"AchievementID": 80052
	},
	{
		"ID": 80061,
		"AchievementID": 80061
	},
	{
		"ID": 80062,
		"AchievementID": 80062
	},
	{
		"ID": 80071,
		"AchievementID": 80071
	},
	{
		"ID": 80072,
		"AchievementID": 80072
	},
	{
		"ID": 80081,
		"AchievementID": 80081
	},
	{
		"ID": 80082,
		"AchievementID": 80082
	},
	{
		"ID": 80091,
		"AchievementID": 80091
	},
	{
		"ID": 80092,
		"AchievementID": 80092
	},
	{
		"ID": 80101,
		"AchievementID": 80101
	},
	{
		"ID": 80102,
		"AchievementID": 80102
	},
	{
		"ID": 80111,
		"AchievementID": 80111
	},
	{
		"ID": 80112,
		"AchievementID": 80112
	},
	{
		"ID": 80121,
		"AchievementID": 80121
	},
	{
		"ID": 80122,
		"AchievementID": 80122
	},
	{
		"ID": 80131,
		"AchievementID": 80131
	},
	{
		"ID": 80132,
		"AchievementID": 80132
	},
	{
		"ID": 80141,
		"AchievementID": 80141
	},
	{
		"ID": 80142,
		"AchievementID": 80142
	},
	{
		"ID": 80151,
		"AchievementID": 80151
	},
	{
		"ID": 80152,
		"AchievementID": 80152
	},
	{
		"ID": 80161,
		"AchievementID": 80161
	},
	{
		"ID": 80162,
		"AchievementID": 80162
	},
	{
		"ID": 80191,
		"AchievementID": 80191
	},
	{
		"ID": 80192,
		"AchievementID": 80192
	},
	{
		"ID": 80171,
		"AchievementID": 80171
	},
	{
		"ID": 80172,
		"AchievementID": 80172
	},
	{
		"ID": 80181,
		"AchievementID": 80181
	},
	{
		"ID": 80182,
		"AchievementID": 80182
	},
	{
		"ID": 80201,
		"AchievementID": 80201
	},
	{
		"ID": 80202,
		"AchievementID": 80202
	},
	{
		"ID": 80211,
		"AchievementID": 80211
	},
	{
		"ID": 80212,
		"AchievementID": 80212
	},
	{
		"ID": 80221,
		"AchievementID": 80221
	},
	{
		"ID": 80222,
		"AchievementID": 80222
	},
	{
		"ID": 80231,
		"AchievementID": 80231
	},
	{
		"ID": 80232,
		"AchievementID": 80232
	},
	{
		"ID": 80241,
		"AchievementID": 80241
	},
	{
		"ID": 80242,
		"AchievementID": 80242
	},
	{
		"ID": 80251,
		"AchievementID": 80251
	},
	{
		"ID": 80252,
		"AchievementID": 80252
	},
	{
		"ID": 80261,
		"AchievementID": 80261
	},
	{
		"ID": 80262,
		"AchievementID": 80262
	},
	{
		"ID": 80271,
		"AchievementID": 80271
	},
	{
		"ID": 80272,
		"AchievementID": 80272
	},
	{
		"ID": 80281,
		"AchievementID": 80281
	},
	{
		"ID": 80282,
		"AchievementID": 80282
	},
	{
		"ID": 80311,
		"AchievementID": 80311
	},
	{
		"ID": 80312,
		"AchievementID": 80312
	},
	{
		"ID": 80331,
		"AchievementID": 80331
	},
	{
		"ID": 80332,
		"AchievementID": 80332
	},
	{
		"ID": 80351,
		"AchievementID": 80351
	},
	{
		"ID": 80352,
		"AchievementID": 80352
	},
	{
		"ID": 80411,
		"AchievementID": 80411
	},
	{
		"ID": 80412,
		"AchievementID": 80412
	},
	{
		"ID": 80431,
		"AchievementID": 80431
	},
	{
		"ID": 80432,
		"AchievementID": 80432
	},
	{
		"ID": 80451,
		"AchievementID": 80451
	},
	{
		"ID": 80452,
		"AchievementID": 80452
	},
	{
		"ID": 80511,
		"AchievementID": 80511
	},
	{
		"ID": 80512,
		"AchievementID": 80512
	},
	{
		"ID": 80521,
		"AchievementID": 80521
	},
	{
		"ID": 80522,
		"AchievementID": 80522
	},
	{
		"ID": 80531,
		"AchievementID": 80531
	},
	{
		"ID": 80532,
		"AchievementID": 80532
	},
	{
		"ID": 80541,
		"AchievementID": 80541
	},
	{
		"ID": 80542,
		"AchievementID": 80542
	},
	{
		"ID": 80551,
		"AchievementID": 80551
	},
	{
		"ID": 80552,
		"AchievementID": 80552
	},
	{
		"ID": 88010,
		"AchievementID": 88010
	},
	{
		"ID": 88011,
		"AchievementID": 88011
	},
	{
		"ID": 88020,
		"AchievementID": 88020
	},
	{
		"ID": 88021,
		"AchievementID": 88021
	},
	{
		"ID": 86010,
		"AchievementID": 86010
	},
	{
		"ID": 86011,
		"AchievementID": 86011
	},
	{
		"ID": 86030,
		"AchievementID": 86030
	},
	{
		"ID": 86031,
		"AchievementID": 86031
	},
	{
		"ID": 86050,
		"AchievementID": 86050
	},
	{
		"ID": 86051,
		"AchievementID": 86051
	},
	{
		"ID": 87010,
		"AchievementID": 87010
	},
	{
		"ID": 87011,
		"AchievementID": 87011
	},
	{
		"ID": 87020,
		"AchievementID": 87020
	},
	{
		"ID": 87021,
		"AchievementID": 87021
	},
	{
		"ID": 87030,
		"AchievementID": 87030
	},
	{
		"ID": 87031,
		"AchievementID": 87031
	},
	{
		"ID": 87040,
		"AchievementID": 87040
	},
	{
		"ID": 87041,
		"AchievementID": 87041
	},
	{
		"ID": 87050,
		"AchievementID": 87050
	},
	{
		"ID": 87051,
		"AchievementID": 87051
	},
	{
		"ID": 88030,
		"AchievementID": 88030
	},
	{
		"ID": 88031,
		"AchievementID": 88031
	},
	{
		"ID": 88040,
		"AchievementID": 88040
	},
	{
		"ID": 88041,
		"AchievementID": 88041
	},
	{
		"ID": 88050,
		"AchievementID": 88050
	},
	{
		"ID": 88051,
		"AchievementID": 88051
	},
	{
		"ID": 100010,
		"AchievementID": 100010
	},
	{
		"ID": 100011,
		"AchievementID": 100011
	},
	{
		"ID": 100030,
		"AchievementID": 100030
	},
	{
		"ID": 100031,
		"AchievementID": 100031
	},
	{
		"ID": 100050,
		"AchievementID": 100050
	},
	{
		"ID": 100051,
		"AchievementID": 100051
	},
	{
		"ID": 100055,
		"AchievementID": 100055
	},
	{
		"ID": 100056,
		"AchievementID": 100056
	},
	{
		"ID": 100057,
		"AchievementID": 100057
	},
	{
		"ID": 100058,
		"AchievementID": 100058
	},
	{
		"ID": 100059,
		"AchievementID": 100059
	},
	{
		"ID": 100060,
		"AchievementID": 100060
	},
	{
		"ID": 100061,
		"AchievementID": 100061
	},
	{
		"ID": 100062,
		"AchievementID": 100062
	},
	{
		"ID": 100063,
		"AchievementID": 100063
	},
	{
		"ID": 100064,
		"AchievementID": 100064
	},
	{
		"ID": 100065,
		"AchievementID": 100065
	},
	{
		"ID": 100066,
		"AchievementID": 100066
	},
	{
		"ID": 100067,
		"AchievementID": 100067
	},
	{
		"ID": 100068,
		"AchievementID": 100068
	},
	{
		"ID": 100069,
		"AchievementID": 100069
	},
	{
		"ID": 100070,
		"AchievementID": 100070
	},
	{
		"ID": 100071,
		"AchievementID": 100071
	},
	{
		"ID": 100072,
		"AchievementID": 100072
	}
]