[
	{
		"ID": 1,
		"Rewards": [
			{
				"GoodsType": "GoodsType_Crystal",
				"Id": 0,
				"Count": 20
			}
		]
	},
	{
		"ID": 2,
		"Rewards": [
			{
				"GoodsType": "GoodsType_Crystal",
				"Id": 0,
				"Count": 22
			}
		]
	}
]