v 0.8341865539550781 0.5040010213851929 0.47712600231170654
v 0.7485831379890442 0.43864768743515015 0.552036702632904
v 0.6924036145210266 0.5110944509506226 0.5666763782501221
v 0.7683089971542358 0.5900029540061951 0.4944685399532318
v 0.8871185183525085 0.40945300459861755 0.4593924582004547
v 0.7942744493484497 0.35874345898628235 0.5370185971260071
v 0.9255300164222717 0.30811548233032227 0.44123801589012146
v 0.8280054330825806 0.27268701791763306 0.5215896368026733
v 0.9480670094490051 0.20211951434612274 0.4226279854774475
v 0.8484463095664978 0.18215256929397583 0.5057086944580078
v 0.9536864757537842 0.09394802153110504 0.4035249948501587
v 0.8544914126396179 0.08917219191789627 0.4893326461315155
v 0.9417524337768555 -0.013613986782729626 0.38388702273368835
v 0.8453612923622131 -0.00389579008333385 0.47241488099098206
v 0.9121189713478088 -0.11754897981882095 0.3636689782142639
v 0.8206888437271118 -0.09442150592803955 0.4549048840999603
v 0.8652009963989258 -0.21469949185848236 0.3428175151348114
v 0.7806023955345154 -0.17958007752895355 0.4367457926273346
v 0.8020294904708862 -0.30187949538230896 0.321276992559433
v 0.7257893681526184 -0.25645342469215393 0.4178769588470459
v 0.7242814302444458 -0.3760024905204773 0.2989809811115265
v 0.6575446724891663 -0.3221481740474701 0.39822623133659363
v 0.6342829465866089 -0.4342164993286133 0.27585849165916443
v 0.577785849571228 -0.3739221394062042 0.3777153789997101
v 0.5349864959716797 -0.4740489423274994 0.25182798504829407
v 0.48904848098754883 -0.4093298614025116 0.35625120997428894
v 0.42991000413894653 -0.49343442916870117 0.22679099440574646
v 0.4044398367404938 -0.4255914092063904 0.33614856004714966
v 0.3236050307750702 -0.48690155148506165 0.20041200518608093
v 0.30732181668281555 -0.4200175404548645 0.3120546340942383
v 0.22151750326156616 -0.45804399251937866 0.17274802923202515
v 0.21331173181533813 -0.39339765906333923 0.2865750193595886
v 0.130110502243042 -0.4053185284137726 0.14345598220825195
v 0.1340014934539795 -0.34756672382354736 0.2611541152000427
v 0.05562300235033035 -0.3311704993247986 0.11228600144386292
v 0.06339208781719208 -0.277255654335022 0.23159845173358917
v 0.006123500410467386 -0.239500492811203 0.07874549925327301
v 0.017753399908542633 -0.191942498087883 0.20042231678962708
v -0.013312499038875103 -0.13827349245548248 0.04242200776934624
v -0.0011518477695062757 -0.09294094890356064 0.1648949235677719
v 0.01576305739581585 0.010950801894068718 0.12351633608341217
v 0.0028130006976425648 -0.03792199864983559 0.002496004104614258
v 0.33989155292510986 -0.553799033164978 0.08874683082103729
v 0.22972498834133148 -0.5227038860321045 0.05889718979597092
v 0.12621866166591644 -0.4630827307701111 0.025732511654496193
v 0.04785232990980148 -0.38509631156921387 -0.007050745189189911
v -0.005508789326995611 -0.28706827759742737 -0.04295632243156433
v -0.025475624948740005 -0.18361526727676392 -0.08007583767175674
v -0.010139696300029755 -0.08680476993322372 -0.11854900419712067
v 0.4553857743740082 -0.5612923502922058 0.11740944534540176
v 0.5809348821640015 -0.5387826561927795 0.1473812460899353
v 0.690791666507721 -0.4945231080055237 0.17398086190223694
v 0.7910311222076416 -0.4298672378063202 0.19971652328968048
v 0.8782820105552673 -0.34731295704841614 0.22466129064559937
v 0.949809730052948 -0.24982309341430664 0.24887804687023163
v 1.0035555362701416 -0.1406780630350113 0.27242666482925415
v 1.0381462574005127 -0.023332446813583374 0.2953566908836365
v 1.0528815984725952 0.09872385114431381 0.3177173435688019
v 1.0476871728897095 0.22208638489246368 0.33954763412475586
v 1.0230562686920166 0.3435445725917816 0.3608850836753845
v 0.9799683690071106 0.46016573905944824 0.38176143169403076
v 0.9198004603385925 0.569362461566925 0.4022060036659241
v 0.8442298769950867 0.6689276099205017 0.42224588990211487
vn 0.5511230826377869 0.20574988424777985 0.8086596131324768
vn 0.5501139760017395 0.20742172002792358 0.8089195489883423
vn 0.5268260836601257 0.24132420122623444 0.8149950504302979
vn 0.5277287364006042 0.24009019136428833 0.8147754669189453
vn 0.5929788947105408 0.13119448721408844 0.7944583296775818
vn 0.5919396877288818 0.13369442522525787 0.7948164939880371
vn 0.6253684759140015 0.045966342091560364 0.7789745926856995
vn 0.6245883107185364 0.049137718975543976 0.7794067859649658
vn 0.6455618143081665 -0.04906484857201576 0.7621302604675293
vn 0.645251452922821 -0.04546493664383888 0.7626162171363831
vn 0.6507819890975952 -0.15235742926597595 0.7438212037086487
vn 0.6510495543479919 -0.1486259400844574 0.7443418502807617
vn 0.6383588910102844 -0.26163041591644287 0.7239112854003906
vn 0.6391952633857727 -0.25808364152908325 0.724446177482605
vn 0.6059014201164246 -0.3738538324832916 0.7022227644920349
vn 0.6071770191192627 -0.37078890204429626 0.702745795249939
vn 0.5514975786209106 -0.48522794246673584 0.6785309910774231
vn 0.5529706478118896 -0.48287898302078247 0.6790076494216919
vn 0.4739285409450531 -0.5912317633628845 0.6525616645812988
vn 0.47526949644088745 -0.5897288918495178 0.6529461741447449
vn 0.3728926181793213 -0.6867290139198303 0.6239826083183289
vn 0.3737224340438843 -0.6860654950141907 0.6242161393165588
vn 0.2492484599351883 -0.7661105394363403 0.592410147190094
vn 0.24919167160987854 -0.7661209106445312 0.5924206972122192
vn 0.10554884374141693 -0.8246192932128906 0.5557539463043213
vn 0.10652603209018707 -0.8244000673294067 0.5558927059173584
vn -0.07273596525192261 -0.8547602891921997 0.5139010548591614
vn -0.0706876590847969 -0.8546340465545654 0.514396607875824
vn -0.26449257135391235 -0.8434516191482544 0.4675821363925934
vn -0.26384100317955017 -0.843549907207489 0.467772901058197
vn -0.45459073781967163 -0.7881619334220886 0.414907306432724
vn -0.4548009932041168 -0.7880721688270569 0.4148472845554352
vn -0.6460559964179993 -0.6766229271888733 0.3532605469226837
vn -0.646196722984314 -0.6765172481536865 0.35320547223091125
vn -0.8180704712867737 -0.5018986463546753 0.28081759810447693
vn -0.8185763955116272 -0.5012128353118896 0.2805679142475128
vn -0.9439785480499268 -0.26695698499679565 0.19400639832019806
vn -0.9443240761756897 -0.26599928736686707 0.19364003837108612
vn -0.9955658912658691 0.018598685041069984 0.09221013635396957
vn -0.9955770969390869 0.019283480942249298 0.09194739907979965
vn -0.9843150973320007 0.172997385263443 0.034578271210193634
vn -0.9844630360603333 0.17207878828048706 0.03494890406727791
vn -0.26514384150505066 -0.8433529138565063 0.4673911929130554
vn -0.45438048243522644 -0.788251519203186 0.4149673283100128
vn -0.6459152698516846 -0.6767285466194153 0.3533155620098114
vn -0.8175640106201172 -0.5025837421417236 0.2810669541358948
vn -0.9436318278312683 -0.2679145932197571 0.19437257945537567
vn -0.9955540299415588 0.017913931980729103 0.09247276932001114
vn -0.9846099615097046 0.1711600422859192 0.0353194996714592
vn -0.07478369772434235 -0.8548827767372131 0.5134031772613525
vn 0.10457127541303635 -0.8248377442359924 0.5556145310401917
vn 0.24930521845817566 -0.7661003470420837 0.592399537563324
vn 0.372062623500824 -0.6873916983604431 0.6237484812736511
vn 0.4725855588912964 -0.5927321314811707 0.6521744132041931
vn 0.550020158290863 -0.4875729978084564 0.6780490279197693
vn 0.6046190857887268 -0.3769143521785736 0.7016918063163757
vn 0.6375138163566589 -0.2651735842227936 0.7233664989471436
vn 0.650505006313324 -0.156086727976799 0.7432900667190552
vn 0.6458635926246643 -0.05266415327787399 0.7616342306137085
vn 0.6261417865753174 0.042794398963451385 0.778533935546875
vn 0.5940137505531311 0.12869346141815186 0.7940942645072937
vn 0.5521301031112671 0.20407718420028687 0.8083965182304382
vn 0.5286300182342529 0.23885563015937805 0.8145540356636047
vt 0.9499998092651367 0.5
vt 0.9499998092651367 0.0
vt 1.0 0.0
vt 0.9999999403953552 0.4999999403953552
vt 0.8999999761581421 0.5
vt 0.8999999761581421 0.0
vt 0.8499999046325684 0.5
vt 0.8499999046325684 0.0
vt 0.7999998927116394 0.5
vt 0.7999999523162842 0.0
vt 0.7499999403953552 0.4999999403953552
vt 0.7499999403953552 0.0
vt 0.6999999284744263 0.5
vt 0.6999999284744263 0.0
vt 0.6499999165534973 0.5
vt 0.6499999165534973 0.0
vt 0.5999999642372131 0.5
vt 0.5999999642372131 0.0
vt 0.5499999523162842 0.5
vt 0.5499999523162842 0.0
vt 0.4999999403953552 0.5
vt 0.4999999403953552 0.0
vt 0.44999992847442627 0.5
vt 0.44999992847442627 0.0
vt 0.3999999165534973 0.5
vt 0.3999999165534973 0.0
vt 0.3500000238418579 0.5
vt 0.3500000238418579 0.0
vt 0.2999999523162842 0.5
vt 0.2999999523162842 0.0
vt 0.24999994039535522 0.5
vt 0.2499999701976776 0.0
vt 0.19999994337558746 0.5
vt 0.19999994337558746 0.0
vt 0.14999991655349731 0.5000000596046448
vt 0.1499999314546585 0.0
vt 0.10000006854534149 0.5
vt 0.1000000610947609 0.0
vt 0.04999998211860657 0.5
vt 0.04999998211860657 0.0
vt 7.450580596923828e-09 0.0
vt 1.4901161193847656e-08 0.5
vt 0.2999999523162842 1.0
vt 0.24999991059303284 1.0
vt 0.19999995827674866 1.0
vt 0.14999988675117493 1.0
vt 0.10000008344650269 1.0
vt 0.04999998211860657 1.0
vt 2.756149619642656e-08 1.0
vt 0.3500000238418579 1.0
vt 0.3999999165534973 1.0
vt 0.44999992847442627 1.0
vt 0.49999991059303284 1.0
vt 0.5499999523162842 1.0
vt 0.5999999046325684 1.0
vt 0.6499999165534973 1.0
vt 0.6999999284744263 1.0
vt 0.7499998807907104 1.0
vt 0.7999998331069946 1.0
vt 0.8499999046325684 1.0
vt 0.8999998569488525 1.0
vt 0.9499998092651367 1.0
vt 0.9999999403953552 1.0

g Ilyina_Reclaim
s 1
usemtl Ilyina_Reclaim
f 3/3/3 2/2/2 1/1/1 
f 4/4/4 3/3/3 1/1/1 
f 1/1/1 2/2/2 5/5/5 
f 2/2/2 6/6/6 5/5/5 
f 5/5/5 6/6/6 7/7/7 
f 6/6/6 8/8/8 7/7/7 
f 7/7/7 8/8/8 9/9/9 
f 8/8/8 10/10/10 9/9/9 
f 9/9/9 10/10/10 11/11/11 
f 10/10/10 12/12/12 11/11/11 
f 11/11/11 12/12/12 13/13/13 
f 12/12/12 14/14/14 13/13/13 
f 13/13/13 14/14/14 15/15/15 
f 14/14/14 16/16/16 15/15/15 
f 15/15/15 16/16/16 17/17/17 
f 16/16/16 18/18/18 17/17/17 
f 17/17/17 18/18/18 19/19/19 
f 18/18/18 20/20/20 19/19/19 
f 19/19/19 20/20/20 21/21/21 
f 20/20/20 22/22/22 21/21/21 
f 21/21/21 22/22/22 23/23/23 
f 22/22/22 24/24/24 23/23/23 
f 23/23/23 24/24/24 25/25/25 
f 24/24/24 26/26/26 25/25/25 
f 25/25/25 26/26/26 27/27/27 
f 26/26/26 28/28/28 27/27/27 
f 27/27/27 28/28/28 29/29/29 
f 28/28/28 30/30/30 29/29/29 
f 29/29/29 30/30/30 31/31/31 
f 30/30/30 32/32/32 31/31/31 
f 31/31/31 32/32/32 33/33/33 
f 32/32/32 34/34/34 33/33/33 
f 33/33/33 34/34/34 35/35/35 
f 34/34/34 36/36/36 35/35/35 
f 35/35/35 36/36/36 37/37/37 
f 36/36/36 38/38/38 37/37/37 
f 37/37/37 38/38/38 39/39/39 
f 38/38/38 40/40/40 39/39/39 
f 39/39/39 40/40/40 41/41/41 
f 42/42/42 39/39/39 41/41/41 
f 29/29/29 43/43/43 27/27/27 
f 44/44/44 43/43/43 29/29/29 
f 31/31/31 44/44/44 29/29/29 
f 45/45/45 44/44/44 31/31/31 
f 33/33/33 45/45/45 31/31/31 
f 46/46/46 45/45/45 33/33/33 
f 35/35/35 46/46/46 33/33/33 
f 47/47/47 46/46/46 35/35/35 
f 37/37/37 47/47/47 35/35/35 
f 48/48/48 47/47/47 37/37/37 
f 39/39/39 48/48/48 37/37/37 
f 49/49/49 48/48/48 39/39/39 
f 42/42/42 49/49/49 39/39/39 
f 43/43/43 50/50/50 27/27/27 
f 27/27/27 50/50/50 25/25/25 
f 50/50/50 51/51/51 25/25/25 
f 25/25/25 51/51/51 23/23/23 
f 51/51/51 52/52/52 23/23/23 
f 23/23/23 52/52/52 21/21/21 
f 52/52/52 53/53/53 21/21/21 
f 21/21/21 53/53/53 19/19/19 
f 53/53/53 54/54/54 19/19/19 
f 19/19/19 54/54/54 17/17/17 
f 54/54/54 55/55/55 17/17/17 
f 17/17/17 55/55/55 15/15/15 
f 55/55/55 56/56/56 15/15/15 
f 15/15/15 56/56/56 13/13/13 
f 56/56/56 57/57/57 13/13/13 
f 13/13/13 57/57/57 11/11/11 
f 57/57/57 58/58/58 11/11/11 
f 11/11/11 58/58/58 9/9/9 
f 58/58/58 59/59/59 9/9/9 
f 9/9/9 59/59/59 7/7/7 
f 59/59/59 60/60/60 7/7/7 
f 7/7/7 60/60/60 5/5/5 
f 60/60/60 61/61/61 5/5/5 
f 5/5/5 61/61/61 1/1/1 
f 61/61/61 62/62/62 1/1/1 
f 1/1/1 62/62/62 63/63/63 
f 4/4/4 1/1/1 63/63/63 

