v 1.2213581800460815 0.026974333450198174 2.8914692862258562e-08
v 0.9487325549125671 0.04911205172538757 2.6802309704976324e-08
v 0.9521093368530273 0.012047309428453445 3.3304736746231356e-08
v 1.2221115827560425 0.0030314635951071978 3.4561267625576875e-08
v 0.6810952425003052 0.011352157220244408 3.1496895758209575e-08
v 0.6722420454025269 0.06348048895597458 2.4093830930382865e-08
v 0.414681613445282 0.009505576454102993 2.9186216110588248e-08
v 0.39832815527915955 0.07855960726737976 2.0860904115238554e-08
v 0.1587509661912918 0.010261650197207928 2.6670480934853913e-08
v 0.13653357326984406 0.09443763643503189 1.759208956286784e-08
v -0.08426861464977264 0.01591140776872635 2.4337557746889615e-08
v -0.1067700907588005 0.11061569303274155 1.4822936655889407e-08
v -0.338765412569046 0.02873561717569828 2.2593306781004685e-08
v -0.3629731237888336 0.12834221124649048 1.3019574751638174e-08
v -0.5822429656982422 0.04867469519376755 2.195465853560563e-08
v -0.6023755669593811 0.14615470170974731 1.27670327643159e-08
v -0.8160957098007202 0.0762525126338005 2.2702545621200443e-08
v -0.8292567133903503 0.1652631014585495 1.4324521124819967e-08
v -1.0458143949508667 0.11082862317562103 2.535741927545132e-08
v -1.052660584449768 0.18636418879032135 1.8121630418477253e-08
v -1.2766871452331543 0.15286345779895782 3.0582132382050986e-08
v -1.2792057991027832 0.20973052084445953 2.4829420297578508e-08
v -1.5119866132736206 0.20300254225730896 3.903148382278232e-08
v -1.5122207403182983 0.2347424477338791 3.51579991786366e-08
v 0.11084294319152832 0.17998965084552765 8.378568949751752e-09
v 0.37986433506011963 0.14931368827819824 1.235415503231252e-08
v 0.6625370383262634 0.11736796796321869 1.6490398380142324e-08
v 0.9450681805610657 0.08766696602106094 2.011640276577964e-08
v 1.2205387353897095 0.051811978220939636 2.3122053605106885e-08
v -1.059846043586731 0.2599065601825714 1.0972965647226829e-08
v -0.8435012102127075 0.2527328431606293 6.013847642094561e-09
v -0.6250390410423279 0.24285432696342468 3.6135214820376405e-09
v -0.39097052812576294 0.22807030379772186 3.4275455806920263e-09
v -0.13333895802497864 0.20613312721252441 5.232880351258018e-09
v 1.2196648120880127 0.07734619081020355 1.723705977951795e-08
v 0.9411861896514893 0.12716875970363617 1.3283565358790383e-08
v 0.6520341634750366 0.1727500557899475 8.707391252471552e-09
v 0.35917484760284424 0.22184403240680695 3.6678682313606714e-09
v 0.08128418773412704 0.2671056389808655 -9.764706820902802e-10
v -0.16473621129989624 0.30255457758903503 -4.437596956563539e-09
v -0.4230426549911499 0.3276847004890442 -6.174317057627832e-09
v -0.6501635313034058 0.338369756937027 -5.488226317851286e-09
v -0.8586533665657043 0.33847305178642273 -2.2212212069661064e-09
v -1.0672972202301025 0.3316485285758972 3.902999257121564e-09
v -1.2817959785461426 0.2647509276866913 1.9157434749672575e-08
v -1.5124562978744507 0.26648247241973877 3.128451453449088e-08
v -1.284446358680725 0.3183576464653015 1.354723888624676e-08
v -1.5126934051513672 0.2982223927974701 2.7411028113988323e-08
v 0.33611273765563965 0.2965282201766968 -5.16424991658937e-09
v 0.640728235244751 0.22981341183185577 8.013436580966982e-10
v 0.9371660351753235 0.16707858443260193 6.4012590783590895e-09
v 1.2187787294387817 0.10294608771800995 1.1337161431868026e-08
v -1.074923038482666 0.4015823006629944 -3.0879274692807712e-09
v -0.8744450211524963 0.4220145046710968 -1.0360181157409443e-08
v -0.6775163412094116 0.4319557845592499 -1.4505641132700475e-08
v -0.4594764709472656 0.42658549547195435 -1.5754297422176933e-08
v -0.20078808069229126 0.3996451199054718 -1.4161713579596835e-08
v 0.04736592248082161 0.3560083210468292 -1.0451702614489022e-08
v 0.3101043701171875 0.3753359019756317 -1.4278971782744065e-08
v 0.6282637715339661 0.2904648184776306 -7.350827502250468e-09
v 0.9328482747077942 0.20857703685760498 -5.894716936793998e-10
v 1.2179181575775146 0.12806880474090576 5.44908829169799e-09
v 0.008053588680922985 0.4478807747364044 -2.0130343614255253e-08
v -0.24216005206108093 0.49760663509368896 -2.3961437278785525e-08
v -0.5006216168403625 0.5241536498069763 -2.5287265614792886e-08
v -0.7065516710281372 0.5228316783905029 -2.3404588489484013e-08
v -0.890484094619751 0.5029319524765015 -1.838444418922336e-08
v -1.0826140642166138 0.46965089440345764 -9.997329186717252e-09
v -1.2871454954147339 0.370614618062973 7.996046491598463e-09
v -1.5129319429397583 0.3299623727798462 2.3537538140772085e-08
v -1.2898801565170288 0.4218793511390686 2.4882205185150497e-09
v -1.513171911239624 0.3617022931575775 1.9664062378410563e-08
v -0.037997208535671234 0.5438128709793091 -3.0069230660956237e-08
v 0.28070974349975586 0.4606011211872101 -2.3805634796758568e-08
v 0.6140282154083252 0.35797083377838135 -1.5960347710120004e-08
v 0.927888035774231 0.2540853023529053 -7.876995056221858e-09
v 1.2170308828353882 0.15348567068576813 -4.702473410667096e-10
v -1.2926362752914429 0.4722086489200592 -2.9787150523929995e-09
v -1.0902411937713623 0.5361728668212891 -1.6839118543998666e-08
v -0.9062182903289795 0.5816669464111328 -2.6313307088798865e-08
v -0.7360921502113342 0.6109553575515747 -3.2183237408389687e-08
v -0.5468685030937195 0.6200516223907471 -3.4760862632765566e-08
v -0.28964781761169434 0.596490740776062 -3.3842759705748904e-08
v 1.2159606218338013 0.18144303560256958 -6.605849645069384e-09
v 0.921718955039978 0.3075268566608429 -1.5684154419659535e-08
v 0.5976370573043823 0.4356188178062439 -2.5192044006416836e-08
v 0.24886897206306458 0.5541318655014038 -3.382470836754692e-08
v -0.09222041815519333 0.644334614276886 -4.028376920928167e-08
v -0.3440324366092682 0.6962661743164062 -4.379721119107671e-08
v -0.5985668897628784 0.7143250703811646 -4.417358212549516e-08
v -0.7636585235595703 0.697010338306427 -4.087145555331517e-08
v -0.9209033250808716 0.6596229672431946 -3.420811722776307e-08
v -1.0976554155349731 0.6033008098602295 -2.3707400487182895e-08
v -1.295398473739624 0.5230838656425476 -8.469514867215366e-09
v -1.5134131908416748 0.3934422731399536 1.5790583063335362e-08
v -1.5136560201644897 0.4251822233200073 1.1917101971903321e-08
v 0.21995848417282104 0.6568864583969116 -4.437017864233894e-08
v 0.5795478820800781 0.5262279510498047 -3.518906410704403e-08
v 0.9137718081474304 0.37311938405036926 -2.4246658014703826e-08
v 1.214425802230835 0.2159031480550766 -1.3183511171632745e-08
v -0.9335991740226746 0.7377986907958984 -4.211253568087159e-08
v -0.7843993306159973 0.781644344329834 -4.949756515770787e-08
v -0.655987560749054 0.807012677192688 -5.3522143161899294e-08
v -0.40598753094673157 0.7965845465660095 -5.37989919280335e-08
v -0.15598754584789276 0.7493411898612976 -5.07546467076736e-08
v -1.1046897172927856 0.6724010109901428 -3.066189080414006e-08
v -1.2981512546539307 0.5773611664772034 -1.4109024171204965e-08
v -1.513899803161621 0.45692217350006104 8.043616439579182e-09
vn -0.0 -1.98645295768074e-07 -1.0
vn -0.0 -1.7678115682429052e-07 -1.0
vn -0.0 -1.788768599908508e-07 -1.0
vn -0.0 -1.994941953853413e-07 -1.0
vn -0.0 -1.4320997365757648e-07 -1.0
vn -0.0 -1.4176373497321038e-07 -1.0
vn -0.0 -1.2121510906126787e-07 -1.0
vn -0.0 -1.2029721574435825e-07 -1.0
vn -0.0 -1.0786823878561336e-07 -1.0
vn -0.0 -1.0739790923253167e-07 -1.0
vn -0.0 -1.0061126687332944e-07 -1.0
vn -0.0 -1.0047181575600916e-07 -1.0
vn -0.0 0.0 -1.0
vn -0.0 0.0 -1.0
vn -0.0 0.0 -1.0
vn -0.0 0.0 -1.0
vn -0.0 0.0 -1.0
vn -0.0 0.0 -1.0
vn -0.0 0.0 -1.0
vn -0.0 -1.0031031649759825e-07 -1.0
vn -0.0 -1.0497182501012503e-07 -1.0
vn -0.0 -1.0649139170482158e-07 -1.0
vn -0.0 -1.1043550074418818e-07 -1.0
vn -0.0 -1.1117188591924787e-07 -1.0
vn -0.0 -1.0798823524282852e-07 -1.0
vn -0.0 -1.2087903655810806e-07 -1.0
vn -0.0 -1.4194266384492948e-07 -1.0
vn -0.0 -1.7602972945951478e-07 -1.0
vn -0.0 -1.973033079138986e-07 -1.0
vn -0.0 -1.0186357002339719e-07 -1.0
vn -0.0 0.0 -1.0
vn -0.0 0.0 -1.0
vn -0.0 0.0 -1.0
vn -0.0 -1.0099293490384298e-07 -1.0
vn -0.0 -1.9688999941536167e-07 -1.0
vn -0.0 -1.7580038047526614e-07 -1.0
vn -0.0 -1.418462147739774e-07 -1.0
vn -0.0 -1.2104062818707462e-07 -1.0
vn -0.0 -1.0842404662980698e-07 -1.0
vn -0.0 -1.0160611196852187e-07 -1.0
vn -0.0 0.0 -1.0
vn -0.0 0.0 -1.0
vn -0.0 -1.0083191170906503e-07 -1.0
vn -0.0 -1.0339193323716245e-07 -1.0
vn -0.0 -1.0792911808721328e-07 -1.0
vn -0.0 -1.1235058394731823e-07 -1.0
vn -0.0 -1.0922272508651076e-07 -1.0
vn -0.0 -1.1338146777006841e-07 -1.0
vn -0.0 -1.2015262029763107e-07 -1.0
vn -0.0 -1.400578497623428e-07 -1.0
vn -0.0 -1.7455607803640305e-07 -1.0
vn -0.0 -1.964131826071025e-07 -1.0
vn -0.0 -1.0497280555910038e-07 -1.0
vn -0.0 -1.0258681015784532e-07 -1.0
vn -0.0 -1.0089920010614151e-07 -1.0
vn -0.0 -1.0019905261060558e-07 -1.0
vn -0.0 -1.023002269562312e-07 -1.0
vn -0.0 -1.0849182530137114e-07 -1.0
vn -0.0 -1.1784377562662485e-07 -1.0
vn -0.0 -1.3573742307926295e-07 -1.0
vn -0.0 -1.6995693385979393e-07 -1.0
vn -0.0 -1.9308495780023804e-07 -1.0
vn -0.0 -1.0800987837455978e-07 -1.0
vn -0.0 -1.029899223681241e-07 -1.0
vn -0.0 -1.016188448943467e-07 -1.0
vn -0.0 -1.0274557382672356e-07 -1.0
vn -0.0 -1.0435032038458303e-07 -1.0
vn -0.0 -1.0643412906574667e-07 -1.0
vn -0.0 -1.1040542347018345e-07 -1.0
vn -0.0 -1.1427969326405218e-07 -1.0
vn -0.0 -1.1143625755494213e-07 -1.0
vn -0.0 -1.1501870034180683e-07 -1.0
vn -0.0 -1.0690035878724302e-07 -1.0
vn -0.0 -1.1407817623876326e-07 -1.0
vn -0.0 -1.2864001064372133e-07 -1.0
vn -0.0 -1.601162580300297e-07 -1.0
vn -0.0 -1.8370953114299482e-07 -1.0
vn -0.0 -1.1161719015717608e-07 -1.0
vn -0.0 -1.0685361928608472e-07 -1.0
vn -0.0 -1.0534917294080515e-07 -1.0
vn -0.0 -1.0428519203742326e-07 -1.0
vn -0.0 -1.0297920027824148e-07 -1.0
vn -0.0 -1.0352355417353465e-07 -1.0
vn -0.0 -1.6776982647570549e-07 -1.0
vn -0.0 -1.457475917732154e-07 -1.0
vn -0.0 -1.1993697057732788e-07 -1.0
vn -0.0 -1.0936062011523973e-07 -1.0
vn -0.0 -1.0525835847374765e-07 -1.0
vn -0.0 -1.0383482162978908e-07 -1.0
vn -0.0 -1.041231811882426e-07 -1.0
vn -0.0 -1.0517169357626699e-07 -1.0
vn -0.0 -1.0516428261553301e-07 -1.0
vn -0.0 -1.0555211105156559e-07 -1.0
vn -0.0 -1.0984118148371635e-07 -1.0
vn -0.0 -1.1523670906399275e-07 -1.0
vn -0.0 -1.1385520082285439e-07 -1.0
vn -0.0 -1.0647741532920918e-07 -1.0
vn -0.0 -1.13454937888946e-07 -1.0
vn -0.0 -1.3262116738133045e-07 -1.0
vn -0.0 -1.5511378137489373e-07 -1.0
vn -0.0 -1.0487582358109648e-07 -1.0
vn -0.0 -1.0541062067659368e-07 -1.0
vn -0.0 -1.0498363423039336e-07 -1.0
vn -0.0 -1.0391811855470223e-07 -1.0
vn -0.0 -1.045298247959181e-07 -1.0
vn -0.0 -1.0458873589413997e-07 -1.0
vn -0.0 -1.0740805578279833e-07 -1.0
vn -0.0 -1.1204485161897537e-07 -1.0
vt 0.0833333358168602 0.875
vt 0.1666666716337204 0.875
vt 0.1666666716337204 1.0
vt 0.0833333358168602 1.0
vt 0.25 1.0
vt 0.25 0.875
vt 0.3333333432674408 1.0
vt 0.3333333432674408 0.875
vt 0.4166666865348816 1.0
vt 0.4166666865348816 0.875
vt 0.5 1.0
vt 0.5 0.875
vt 0.5833333134651184 1.0
vt 0.5833333134651184 0.875
vt 0.6666666269302368 1.0
vt 0.6666666269302368 0.875
vt 0.7499999403953552 1.0
vt 0.7499999403953552 0.875
vt 0.8333332538604736 1.0
vt 0.8333332538604736 0.875
vt 0.916666567325592 1.0
vt 0.916666567325592 0.875
vt 0.9999998807907104 1.0
vt 0.9999998807907104 0.875
vt 0.4166666865348816 0.75
vt 0.3333333432674408 0.75
vt 0.25 0.75
vt 0.1666666716337204 0.75
vt 0.0833333358168602 0.75
vt 0.8333332538604736 0.75
vt 0.7499999403953552 0.75
vt 0.6666666269302368 0.75
vt 0.5833333134651184 0.75
vt 0.5 0.75
vt 0.0833333358168602 0.625
vt 0.1666666716337204 0.625
vt 0.25 0.625
vt 0.3333333432674408 0.625
vt 0.4166666865348816 0.625
vt 0.5 0.625
vt 0.5833333134651184 0.625
vt 0.6666666269302368 0.625
vt 0.7499999403953552 0.625
vt 0.8333332538604736 0.625
vt 0.916666567325592 0.75
vt 0.9999998807907104 0.75
vt 0.916666567325592 0.625
vt 0.9999998807907104 0.625
vt 0.3333333432674408 0.5
vt 0.25 0.5
vt 0.1666666716337204 0.5
vt 0.0833333358168602 0.5
vt 0.8333332538604736 0.5
vt 0.7499999403953552 0.5
vt 0.6666666269302368 0.5
vt 0.5833333134651184 0.5
vt 0.5 0.5
vt 0.4166666865348816 0.5
vt 0.3333333432674408 0.375
vt 0.25 0.375
vt 0.1666666716337204 0.375
vt 0.0833333358168602 0.375
vt 0.4166666865348816 0.375
vt 0.5 0.375
vt 0.5833333134651184 0.375
vt 0.6666666269302368 0.375
vt 0.7499999403953552 0.375
vt 0.8333332538604736 0.375
vt 0.916666567325592 0.5
vt 0.9999998807907104 0.5
vt 0.916666567325592 0.375
vt 0.9999998807907104 0.375
vt 0.4166666865348816 0.25
vt 0.3333333432674408 0.25
vt 0.25 0.25
vt 0.1666666716337204 0.25
vt 0.0833333358168602 0.25
vt 0.916666567325592 0.25
vt 0.8333332538604736 0.25
vt 0.7499999403953552 0.25
vt 0.6666666269302368 0.25
vt 0.5833333134651184 0.25
vt 0.5 0.25
vt 0.0833333358168602 0.125
vt 0.1666666716337204 0.125
vt 0.25 0.125
vt 0.3333333432674408 0.125
vt 0.4166666865348816 0.125
vt 0.5 0.125
vt 0.5833333134651184 0.125
vt 0.6666666269302368 0.125
vt 0.7499999403953552 0.125
vt 0.8333332538604736 0.125
vt 0.916666567325592 0.125
vt 0.9999998807907104 0.25
vt 0.9999998807907104 0.125
vt 0.3333333432674408 0.0
vt 0.25 0.0
vt 0.1666666716337204 0.0
vt 0.0833333358168602 0.0
vt 0.7499999403953552 0.0
vt 0.6666666269302368 0.0
vt 0.5833333134651184 0.0
vt 0.5 0.0
vt 0.4166666865348816 0.0
vt 0.8333332538604736 0.0
vt 0.916666567325592 0.0
vt 0.9999998807907104 0.0

g Mesh_FX_Smoke_01
s 1
usemtl Mesh_FX_Smoke_01
f 3/3/3 2/2/2 1/1/1 
f 4/4/4 3/3/3 1/1/1 
f 3/3/3 5/5/5 2/2/2 
f 5/5/5 6/6/6 2/2/2 
f 5/5/5 7/7/7 6/6/6 
f 7/7/7 8/8/8 6/6/6 
f 7/7/7 9/9/9 8/8/8 
f 9/9/9 10/10/10 8/8/8 
f 9/9/9 11/11/11 10/10/10 
f 11/11/11 12/12/12 10/10/10 
f 11/11/11 13/13/13 12/12/12 
f 13/13/13 14/14/14 12/12/12 
f 13/13/13 15/15/15 14/14/14 
f 15/15/15 16/16/16 14/14/14 
f 15/15/15 17/17/17 16/16/16 
f 17/17/17 18/18/18 16/16/16 
f 17/17/17 19/19/19 18/18/18 
f 19/19/19 20/20/20 18/18/18 
f 19/19/19 21/21/21 20/20/20 
f 21/21/21 22/22/22 20/20/20 
f 21/21/21 23/23/23 22/22/22 
f 23/23/23 24/24/24 22/22/22 
f 10/10/10 12/12/12 25/25/25 
f 10/10/10 25/25/25 26/26/26 
f 8/8/8 10/10/10 26/26/26 
f 8/8/8 26/26/26 27/27/27 
f 6/6/6 8/8/8 27/27/27 
f 6/6/6 27/27/27 28/28/28 
f 2/2/2 6/6/6 28/28/28 
f 2/2/2 28/28/28 29/29/29 
f 1/1/1 2/2/2 29/29/29 
f 20/20/20 22/22/22 30/30/30 
f 20/20/20 30/30/30 31/31/31 
f 18/18/18 20/20/20 31/31/31 
f 18/18/18 31/31/31 32/32/32 
f 16/16/16 18/18/18 32/32/32 
f 16/16/16 32/32/32 33/33/33 
f 14/14/14 16/16/16 33/33/33 
f 14/14/14 33/33/33 34/34/34 
f 12/12/12 14/14/14 34/34/34 
f 12/12/12 34/34/34 25/25/25 
f 29/29/29 28/28/28 35/35/35 
f 28/28/28 36/36/36 35/35/35 
f 28/28/28 27/27/27 36/36/36 
f 27/27/27 37/37/37 36/36/36 
f 27/27/27 26/26/26 37/37/37 
f 26/26/26 38/38/38 37/37/37 
f 26/26/26 25/25/25 38/38/38 
f 25/25/25 39/39/39 38/38/38 
f 25/25/25 34/34/34 39/39/39 
f 34/34/34 40/40/40 39/39/39 
f 34/34/34 33/33/33 40/40/40 
f 33/33/33 41/41/41 40/40/40 
f 33/33/33 32/32/32 41/41/41 
f 32/32/32 42/42/42 41/41/41 
f 32/32/32 31/31/31 42/42/42 
f 31/31/31 43/43/43 42/42/42 
f 31/31/31 30/30/30 43/43/43 
f 30/30/30 44/44/44 43/43/43 
f 30/30/30 45/45/45 44/44/44 
f 22/22/22 45/45/45 30/30/30 
f 22/22/22 24/24/24 45/45/45 
f 24/24/24 46/46/46 45/45/45 
f 45/45/45 47/47/47 44/44/44 
f 45/45/45 46/46/46 47/47/47 
f 46/46/46 48/48/48 47/47/47 
f 38/38/38 39/39/39 49/49/49 
f 38/38/38 49/49/49 50/50/50 
f 37/37/37 38/38/38 50/50/50 
f 37/37/37 50/50/50 51/51/51 
f 36/36/36 37/37/37 51/51/51 
f 36/36/36 51/51/51 52/52/52 
f 35/35/35 36/36/36 52/52/52 
f 44/44/44 47/47/47 53/53/53 
f 44/44/44 53/53/53 54/54/54 
f 43/43/43 44/44/44 54/54/54 
f 43/43/43 54/54/54 55/55/55 
f 42/42/42 43/43/43 55/55/55 
f 42/42/42 55/55/55 56/56/56 
f 41/41/41 42/42/42 56/56/56 
f 41/41/41 56/56/56 57/57/57 
f 40/40/40 41/41/41 57/57/57 
f 40/40/40 57/57/57 58/58/58 
f 39/39/39 40/40/40 58/58/58 
f 39/39/39 58/58/58 49/49/49 
f 49/49/49 58/58/58 59/59/59 
f 49/49/49 59/59/59 60/60/60 
f 50/50/50 49/49/49 60/60/60 
f 50/50/50 60/60/60 61/61/61 
f 51/51/51 50/50/50 61/61/61 
f 51/51/51 61/61/61 62/62/62 
f 52/52/52 51/51/51 62/62/62 
f 58/58/58 63/63/63 59/59/59 
f 58/58/58 57/57/57 63/63/63 
f 57/57/57 64/64/64 63/63/63 
f 57/57/57 56/56/56 64/64/64 
f 56/56/56 65/65/65 64/64/64 
f 56/56/56 55/55/55 65/65/65 
f 55/55/55 66/66/66 65/65/65 
f 55/55/55 54/54/54 66/66/66 
f 54/54/54 67/67/67 66/66/66 
f 54/54/54 53/53/53 67/67/67 
f 53/53/53 68/68/68 67/67/67 
f 53/53/53 69/69/69 68/68/68 
f 47/47/47 69/69/69 53/53/53 
f 47/47/47 48/48/48 69/69/69 
f 48/48/48 70/70/70 69/69/69 
f 69/69/69 71/71/71 68/68/68 
f 69/69/69 70/70/70 71/71/71 
f 70/70/70 72/72/72 71/71/71 
f 63/63/63 64/64/64 73/73/73 
f 63/63/63 73/73/73 74/74/74 
f 59/59/59 63/63/63 74/74/74 
f 59/59/59 74/74/74 75/75/75 
f 60/60/60 59/59/59 75/75/75 
f 60/60/60 75/75/75 76/76/76 
f 61/61/61 60/60/60 76/76/76 
f 61/61/61 76/76/76 77/77/77 
f 62/62/62 61/61/61 77/77/77 
f 71/71/71 72/72/72 78/78/78 
f 71/71/71 78/78/78 79/79/79 
f 68/68/68 71/71/71 79/79/79 
f 68/68/68 79/79/79 80/80/80 
f 67/67/67 68/68/68 80/80/80 
f 67/67/67 80/80/80 81/81/81 
f 66/66/66 67/67/67 81/81/81 
f 66/66/66 81/81/81 82/82/82 
f 65/65/65 66/66/66 82/82/82 
f 65/65/65 82/82/82 83/83/83 
f 64/64/64 65/65/65 83/83/83 
f 64/64/64 83/83/83 73/73/73 
f 77/77/77 76/76/76 84/84/84 
f 76/76/76 85/85/85 84/84/84 
f 76/76/76 75/75/75 85/85/85 
f 75/75/75 86/86/86 85/85/85 
f 75/75/75 74/74/74 86/86/86 
f 74/74/74 87/87/87 86/86/86 
f 74/74/74 73/73/73 87/87/87 
f 73/73/73 88/88/88 87/87/87 
f 73/73/73 83/83/83 88/88/88 
f 83/83/83 89/89/89 88/88/88 
f 83/83/83 82/82/82 89/89/89 
f 82/82/82 90/90/90 89/89/89 
f 82/82/82 81/81/81 90/90/90 
f 81/81/81 91/91/91 90/90/90 
f 81/81/81 80/80/80 91/91/91 
f 80/80/80 92/92/92 91/91/91 
f 80/80/80 79/79/79 92/92/92 
f 79/79/79 93/93/93 92/92/92 
f 79/79/79 78/78/78 93/93/93 
f 78/78/78 94/94/94 93/93/93 
f 78/78/78 95/95/95 94/94/94 
f 72/72/72 95/95/95 78/78/78 
f 95/95/95 96/96/96 94/94/94 
f 87/87/87 88/88/88 97/97/97 
f 87/87/87 97/97/97 98/98/98 
f 86/86/86 87/87/87 98/98/98 
f 86/86/86 98/98/98 99/99/99 
f 85/85/85 86/86/86 99/99/99 
f 85/85/85 99/99/99 100/100/100 
f 84/84/84 85/85/85 100/100/100 
f 92/92/92 93/93/93 101/101/101 
f 92/92/92 101/101/101 102/102/102 
f 91/91/91 92/92/92 102/102/102 
f 91/91/91 102/102/102 103/103/103 
f 90/90/90 91/91/91 103/103/103 
f 90/90/90 103/103/103 104/104/104 
f 89/89/89 90/90/90 104/104/104 
f 89/89/89 104/104/104 105/105/105 
f 88/88/88 89/89/89 105/105/105 
f 88/88/88 105/105/105 97/97/97 
f 93/93/93 106/106/106 101/101/101 
f 93/93/93 94/94/94 106/106/106 
f 94/94/94 107/107/107 106/106/106 
f 94/94/94 96/96/96 107/107/107 
f 96/96/96 108/108/108 107/107/107 

