v -1.0215888023376465 -0.39508169889450073 1.189157485961914
v 0.5295091271400452 -0.04023853316903114 1.0134191513061523
v -0.6492161750793457 -0.931731104850769 0.8004034757614136
v 0.5295091271400452 -0.04023853316903114 1.0134191513061523
v -1.0215888023376465 -0.39508169889450073 1.189157485961914
v -0.21810373663902283 1.0287846326828003 1.3432245254516602
v 1.232958436012268 0.5494780540466309 -0.4281342923641205
v 1.0824683904647827 -0.6428514719009399 -0.8589929342269897
v 0.6719376444816589 -1.1120285987854004 -0.19271546602249146
v 0.5295091271400452 -0.04023853316903114 1.0134191513061523
v -0.5607998967170715 -0.06736139208078384 -1.3432244062423706
v 1.232958436012268 0.5494780540466309 -0.4281342923641205
v -0.5953008532524109 1.4796757698059082 -0.26323091983795166
v -0.5607998967170715 -0.06736139208078384 -1.3432244062423706
v -0.5953008532524109 1.4796757698059082 -0.26323091983795166
v -1.3017957210540771 0.2307453155517578 0.1719363033771515
v -0.5607998967170715 -0.06736139208078384 -1.3432244062423706
v -1.3017957210540771 0.2307453155517578 0.1719363033771515
v -0.671110212802887 -1.1571959257125854 -0.023174554109573364
v 1.232958436012268 0.5494780540466309 -0.4281342923641205
v -0.21810373663902283 1.0287846326828003 1.3432245254516602
v -0.5953008532524109 1.4796757698059082 -0.26323091983795166
v -0.21810373663902283 1.0287846326828003 1.3432245254516602
v 1.232958436012268 0.5494780540466309 -0.4281342923641205
v 0.5295091271400452 -0.04023853316903114 1.0134191513061523
v -1.3017957210540771 0.2307453155517578 0.1719363033771515
v -0.21810373663902283 1.0287846326828003 1.3432245254516602
v -1.0215888023376465 -0.39508169889450073 1.189157485961914
v -0.21810373663902283 1.0287846326828003 1.3432245254516602
v -1.3017957210540771 0.2307453155517578 0.1719363033771515
v -0.5953008532524109 1.4796757698059082 -0.26323091983795166
v -0.6492161750793457 -0.931731104850769 0.8004034757614136
v -1.3017957210540771 0.2307453155517578 0.1719363033771515
v -1.0215888023376465 -0.39508169889450073 1.189157485961914
v -1.3017957210540771 0.2307453155517578 0.1719363033771515
v -0.6492161750793457 -0.931731104850769 0.8004034757614136
v -0.671110212802887 -1.1571959257125854 -0.023174554109573364
v -0.6492161750793457 -0.931731104850769 0.8004034757614136
v 0.6719376444816589 -1.1120285987854004 -0.19271546602249146
v -0.671110212802887 -1.1571959257125854 -0.023174554109573364
v 0.6719376444816589 -1.1120285987854004 -0.19271546602249146
v -0.6492161750793457 -0.931731104850769 0.8004034757614136
v 0.5295091271400452 -0.04023853316903114 1.0134191513061523
v 1.0824683904647827 -0.6428514719009399 -0.8589929342269897
v 0.14351992309093475 -1.5195353031158447 -0.905964195728302
v 0.6719376444816589 -1.1120285987854004 -0.19271546602249146
v 0.6719376444816589 -1.1120285987854004 -0.19271546602249146
v 0.14351992309093475 -1.5195353031158447 -0.905964195728302
v -0.671110212802887 -1.1571959257125854 -0.023174554109573364
v 0.14351992309093475 -1.5195353031158447 -0.905964195728302
v -0.5607998967170715 -0.06736139208078384 -1.3432244062423706
v -0.671110212802887 -1.1571959257125854 -0.023174554109573364
v 0.14351992309093475 -1.5195353031158447 -0.905964195728302
v 1.0824683904647827 -0.6428514719009399 -0.8589929342269897
v -0.5607998967170715 -0.06736139208078384 -1.3432244062423706
v 1.0824683904647827 -0.6428514719009399 -0.8589929342269897
v 1.232958436012268 0.5494780540466309 -0.4281342923641205
v -0.5607998967170715 -0.06736139208078384 -1.3432244062423706
vn 0.22668106853961945 -0.37940260767936707 0.8970336318016052
vn 0.22668099403381348 -0.37940335273742676 0.8970333337783813
vn 0.22668099403381348 -0.37940335273742676 0.8970333337783813
vn 0.16736970841884613 -0.1440832018852234 0.9753088355064392
vn 0.16736917197704315 -0.14408273994922638 0.9753090739250183
vn 0.16736970841884613 -0.1440832018852234 0.9753088355064392
vn 0.9245025515556335 -0.15268559753894806 0.34925955533981323
vn 0.9245022535324097 -0.15268555283546448 0.34926024079322815
vn 0.9245036840438843 -0.15268473327159882 0.3492567837238312
vn 0.9364393949508667 -0.15919601917266846 0.3126308023929596
vn 0.2716125547885895 0.46514901518821716 -0.8425336480140686
vn 0.2716061472892761 0.46514955163002014 -0.8425354361534119
vn 0.2716121971607208 0.46514835953712463 -0.8425341844558716
vn -0.8740521669387817 0.2005712389945984 -0.44249746203422546
vn -0.8740521669387817 0.2005680799484253 -0.442499041557312
vn -0.8740500807762146 0.20057223737239838 -0.44250115752220154
vn -0.9053435325622559 -0.2694285213947296 -0.32827019691467285
vn -0.9053428173065186 -0.2694285809993744 -0.3282721936702728
vn -0.9053447246551514 -0.26942700147628784 -0.3282683491706848
vn 0.6090055108070374 0.7777329087257385 0.15570427477359772
vn 0.6090124845504761 0.7777276039123535 0.15570339560508728
vn 0.6090081334114075 0.7777308225631714 0.15570403635501862
vn 0.8180407881736755 0.29325246810913086 0.4947851896286011
vn 0.8180368542671204 0.2932555675506592 0.49478963017463684
vn 0.8180387020111084 0.29325395822525024 0.49478772282600403
vn -0.8505110740661621 0.27383846044540405 0.44904717803001404
vn -0.8505139350891113 0.273835688829422 0.4490435719490051
vn -0.8505139350891113 0.273835688829422 0.4490435719490051
vn -0.8499487042427063 0.40467220544815063 0.33738332986831665
vn -0.8499487042427063 0.40467220544815063 0.33738332986831665
vn -0.8499487042427063 0.40467220544815063 0.33738332986831665
vn -0.9101813435554504 -0.40568575263023376 -0.08360010385513306
vn -0.9101796746253967 -0.4056890308856964 -0.08360269665718079
vn -0.9101788401603699 -0.4056910276412964 -0.08360104262828827
vn -0.93557208776474 -0.32860562205314636 0.1293182224035263
vn -0.935572624206543 -0.32860511541366577 0.12931588292121887
vn -0.93557208776474 -0.32860562205314636 0.1293182224035263
vn 0.055218905210494995 -0.9415044784545898 0.3324458599090576
vn 0.055219028145074844 -0.9415047764778137 0.3324447572231293
vn 0.05522625893354416 -0.9415040612220764 0.3324456810951233
vn 0.4551113247871399 -0.5509828329086304 0.6994938254356384
vn 0.4551113247871399 -0.5509828329086304 0.6994938254356384
vn 0.4551108777523041 -0.5509840250015259 0.6994931101799011
vn 0.8050975799560547 -0.5849220156669617 -0.0984078124165535
vn 0.8050968050956726 -0.5849231481552124 -0.09840771555900574
vn 0.8050991296768188 -0.5849199295043945 -0.09840717166662216
vn 0.08407726138830185 -0.8356530666351318 0.5427843928337097
vn 0.0840773954987526 -0.8356525897979736 0.5427851676940918
vn 0.08408448100090027 -0.8356513381004333 0.5427861213684082
vn -0.8021007776260376 -0.3899766206741333 -0.45227494835853577
vn -0.8020990490913391 -0.38997888565063477 -0.4522760212421417
vn -0.8020990490913391 -0.38997888565063477 -0.4522760212421417
vn 0.24002128839492798 -0.13468226790428162 -0.9613794684410095
vn 0.24002131819725037 -0.13468146324157715 -0.9613795876502991
vn 0.24002128839492798 -0.13468226790428162 -0.9613794684410095
vn 0.4087691903114319 0.22324112057685852 -0.8849130868911743
vn 0.4087691903114319 0.22324112057685852 -0.8849130868911743
vn 0.40877464413642883 0.22324053943157196 -0.8849106431007385
vt 0.4179990589618683 0.351368248462677
vt 0.47859519720077515 0.4689834713935852
vt 0.36736124753952026 0.4174647927284241
vt 0.47859519720077515 0.4689834713935852
vt 0.5961692929267883 0.4421226978302002
vt 0.6254108548164368 0.5217151045799255
vt 0.4830436706542969 0.741859495639801
vt 0.23987843096256256 0.7610642313957214
vt 0.23921886086463928 0.6148231625556946
vt 0.47859519720077515 0.4689834713935852
vt 0.631318986415863 0.8363710641860962
vt 0.4830436706542969 0.741859495639801
vt 0.6470223069190979 0.5917545855045319
vt 0.631318986415863 0.8363710641860962
vt 0.6470223069190979 0.5917545855045319
vt 0.6937867403030396 0.5993306934833527
vt 0.631318986415863 0.8363710641860962
vt 0.6937867403030396 0.5993306934833527
vt 0.6911393404006958 0.8206143826246262
vt 0.4830436706542969 0.741859495639801
vt 0.6254108548164368 0.5217151045799255
vt 0.6470223069190979 0.5917545855045319
vt 0.6254108548164368 0.5217151045799255
vt 0.4830436706542969 0.741859495639801
vt 0.47859519720077515 0.4689834713935852
vt 0.6937867403030396 0.5993306934833527
vt 0.6254108548164368 0.5217151045799255
vt 0.6925682425498962 0.5304618775844574
vt 0.6254108548164368 0.5217151045799255
vt 0.6937867403030396 0.5993306934833527
vt 0.6470223069190979 0.5917545855045319
vt 0.7508787512779236 0.409528911113739
vt 0.6937867403030396 0.5993306934833527
vt 0.6925682425498962 0.5304618775844574
vt 0.6937867403030396 0.5993306934833527
vt 0.7508787512779236 0.409528911113739
vt 0.7498723864555359 0.6326686441898346
vt 0.17647185921669006 0.34965771436691284
vt 0.23921886086463928 0.6148231625556946
vt 0.1814337521791458 0.6014293432235718
vt 0.23921886086463928 0.6148231625556946
vt 0.17647401988506317 0.34523046016693115
vt 0.47859519720077515 0.4689834713935852
vt 0.23987843096256256 0.7610642313957214
vt 0.09054642915725708 0.7157128751277924
vt 0.23921886086463928 0.6148231625556946
vt 0.23921886086463928 0.6148231625556946
vt 0.09054642915725708 0.7157128751277924
vt 0.10661318898200989 0.5907720923423767
vt 0.09054642915725708 0.7157128751277924
vt 0.16738396883010864 0.8933514058589935
vt 0.02158331871032715 0.7226794362068176
vt 0.09054642915725708 0.7157128751277924
vt 0.23987843096256256 0.7610642313957214
vt 0.16760902106761932 0.8850416839122772
vt 0.23987843096256256 0.7610642313957214
vt 0.4830436706542969 0.741859495639801
vt 0.36072200536727905 0.8182297199964523

g suibing
s 1
usemtl suibing
f 3/3/3 2/2/2 1/1/1 
f 6/6/6 5/5/5 4/4/4 
f 9/9/9 8/8/8 7/7/7 
f 10/10/10 9/9/9 7/7/7 
f 13/13/13 12/12/12 11/11/11 
f 16/16/16 15/15/15 14/14/14 
f 19/19/19 18/18/18 17/17/17 
f 22/22/22 21/21/21 20/20/20 
f 25/25/25 24/24/24 23/23/23 
f 28/28/28 27/27/27 26/26/26 
f 31/31/31 30/30/30 29/29/29 
f 34/34/34 33/33/33 32/32/32 
f 37/37/37 36/36/36 35/35/35 
f 40/40/40 39/39/39 38/38/38 
f 43/43/43 42/42/42 41/41/41 
f 46/46/46 45/45/45 44/44/44 
f 49/49/49 48/48/48 47/47/47 
f 52/52/52 51/51/51 50/50/50 
f 55/55/55 54/54/54 53/53/53 
f 58/58/58 57/57/57 56/56/56 

