v 5.084754943847656 5.942092418670654 2.5115110874176025
v -0.7294206023216248 -4.967774868011475 0.2730022370815277
v -0.9374609589576721 -4.856904029846191 0.2730022370815277
v 4.876714706420898 6.0529632568359375 2.5115110874176025
v 3.249790668487549 -4.045252323150635 3.8864693641662598
v -6.6113786697387695 3.622694730758667 5.228353977203369
v -6.46666955947876 3.808793067932129 5.228353977203369
v 3.394498586654663 -3.8591535091400146 3.8864688873291016
v 7.849789142608643 0.7909596562385559 7.568304538726807
v -3.5720717906951904 -3.3442888259887695 4.3618292808532715
v -3.6523234844207764 -3.1226296424865723 4.3618292808532715
v 7.769537925720215 1.0126185417175293 7.568304538726807
v 1.9206403493881226 5.894204616546631 4.608844757080078
v -7.417496204376221 -2.3283815383911133 2.8684403896331787
v -7.573515892028809 -2.1516737937927246 2.870699882507324
v 1.7646209001541138 6.070913314819336 4.6111040115356445
v 2.4968960285186768 6.531121253967285 3.8272953033447266
v 4.6237053871154785 -5.851019382476807 3.8272945880889893
v 4.391367435455322 -5.890927314758301 3.8272945880889893
v 2.264558792114258 6.491213798522949 3.8272950649261475
v 0.1571890413761139 7.639185428619385 3.188018560409546
v 1.0691945552825928 -4.891136169433594 3.1880178451538086
v 0.8340771794319153 -4.908249378204346 3.1880178451538086
v -0.07792876660823822 7.622072696685791 3.188018560409546
v 5.958402633666992 2.6118569374084473 3.6535730361938477
v -6.276921272277832 0.40041929483413696 1.8516005277633667
v -6.318850517272949 0.632400631904602 1.8516007661819458
v 5.916473865509033 2.8438377380371094 3.653573513031006
v -5.926476001739502 -2.166534662246704 1.9030333757400513
v 6.403255462646484 -0.35936129093170166 0.30536362528800964
v 6.437442779541016 -0.5926085114479065 0.3053635358810425
v -5.892289161682129 -2.3997819423675537 1.9030333757400513
v 6.992949962615967 0.8489319086074829 1.026065468788147
v -5.441714286804199 1.7114499807357788 2.5995705127716064
v -5.4254021644592285 1.9466241598129272 2.5995702743530273
v 7.009262561798096 1.0841064453125 1.026065468788147
v -6.1260175704956055 -1.7088826894760132 3.8170270919799805
v 4.982149124145508 3.482546329498291 1.0787023305892944
v 5.081960201263428 3.268979549407959 1.0787023305892944
v -6.0262064933776855 -1.9224493503570557 3.8170273303985596
v -2.9445207118988037 -5.709908962249756 2.3745694160461426
v -1.5748291015625 6.546968460083008 -0.01993415132164955
v -1.3405475616455078 6.520787715911865 -0.01993434503674507
v -2.7102391719818115 -5.736088752746582 2.3745694160461426
v -4.062246322631836 6.401005268096924 1.869840145111084
v -3.41855525970459 -5.724066734313965 -1.3564587831497192
v -3.6537249088287354 -5.738575458526611 -1.3488528728485107
v -4.297415733337402 6.386497497558594 1.877446174621582
vn -0.08379792422056198 -0.15724046528339386 0.9839986562728882
vn -0.08379793912172318 -0.15724046528339386 0.9839986562728882
vn -0.08379792422056198 -0.15724046528339386 0.9839986562728882
vn -0.08379793912172318 -0.15724046528339386 0.9839986562728882
vn 0.0843176320195198 -0.06556367874145508 0.9942796230316162
vn 0.0843176394701004 -0.06556367874145508 0.9942796230316162
vn 0.08431762456893921 -0.06556367129087448 0.9942796230316162
vn 0.0843176320195198 -0.06556367129087448 0.9942796230316162
vn -0.23997823894023895 -0.08688391000032425 0.9668824076652527
vn -0.23997822403907776 -0.08688391000032425 0.9668824076652527
vn -0.23997823894023895 -0.08688391745090485 0.9668824076652527
vn -0.23997826874256134 -0.08688391745090485 0.9668824076652527
vn -0.09756682813167572 -0.09880715608596802 0.9903119802474976
vn -0.09756682813167572 -0.09880715608596802 0.9903119802474976
vn -0.09756682813167572 -0.09880716353654861 0.9903119802474976
vn -0.09756682813167572 -0.09880716353654861 0.9903119802474976
vn -8.023375812626909e-07 0.0 1.0
vn -8.023375812626909e-07 0.0 1.0
vn -8.023375812626909e-07 0.0 1.0
vn -8.023375812626909e-07 0.0 1.0
vn -0.0 0.0 1.0
vn -0.0 0.0 1.0
vn -0.0 0.0 1.0
vn -0.0 0.0 1.0
vn -0.14114242792129517 -0.025511836633086205 0.9896605014801025
vn -0.14114242792129517 -0.025511838495731354 0.9896605014801025
vn -0.14114242792129517 -0.025511836633086205 0.9896605014801025
vn -0.14114245772361755 -0.025511838495731354 0.9896605014801025
vn 0.12582355737686157 0.01844164729118347 0.9918811917304993
vn 0.12582355737686157 0.01844164729118347 0.9918811917304993
vn 0.12582357227802277 0.01844164915382862 0.9918811917304993
vn 0.12582357227802277 0.01844164915382862 0.9918811917304993
vn 0.12494426220655441 -0.008666238747537136 0.9921258687973022
vn 0.12494426220655441 -0.008666238747537136 0.9921258687973022
vn 0.1249442771077156 -0.00866623967885971 0.9921258687973022
vn 0.12494426220655441 -0.008666238747537136 0.9921258687973022
vn 0.19745880365371704 0.09228361397981644 0.9759579300880432
vn 0.19745880365371704 0.09228361397981644 0.9759579300880432
vn 0.19745880365371704 0.09228361397981644 0.9759579300880432
vn 0.19745881855487823 0.09228360652923584 0.9759579300880432
vn 0.02116667851805687 0.18941360712051392 0.9816692471504211
vn 0.02116667851805687 0.18941359221935272 0.9816692471504211
vn 0.02116668038070202 0.1894136220216751 0.9816692471504211
vn 0.02116668038070202 0.18941359221935272 0.9816692471504211
vn 0.04694276675581932 -0.25452619791030884 0.9659258127212524
vn 0.04694276675581932 -0.25452616810798645 0.9659258127212524
vn 0.04694277048110962 -0.25452619791030884 0.9659258127212524
vn 0.04694276675581932 -0.25452616810798645 0.9659258127212524
vt 0.5004159212112427 0.4934491515159607
vt 0.5004159212112427 0.07972508668899536
vt 0.7504159212112427 0.07972508668899536
vt 0.7504159212112427 0.4934491515159607
vt 0.0 0.644538938999176
vt 0.0 0.2308148741722107
vt 0.25 0.2308148741722107
vt 0.25 0.644538938999176
vt 0.0 0.42384546995162964
vt 0.0 0.010121405124664307
vt 0.25 0.010121405124664307
vt 0.25 0.42384546995162964
vt 0.24897123873233795 0.9419320970773697
vt 0.24897123873233795 0.5282080173492432
vt 0.49897122383117676 0.5282080173492432
vt 0.49897122383117676 0.9419320970773697
vt 0.24945461750030518 0.6696973741054535
vt 0.24945461750030518 0.25597327947616577
vt 0.4994545876979828 0.25597327947616577
vt 0.4994545876979828 0.6696973741054535
vt 0.4997488558292389 0.943538598716259
vt 0.4997488558292389 0.5298145115375519
vt 0.7497488260269165 0.5298145115375519
vt 0.7497488260269165 0.943538598716259
vt 0.7504050135612488 0.8627894222736359
vt 0.7504050135612488 0.44906532764434814
vt 1.000404953956604 0.44906532764434814
vt 1.000404953956604 0.8627894222736359
vt 0.7509102821350098 0.7784809470176697
vt 0.7509102821350098 0.36475682258605957
vt 1.0009102821350098 0.36475682258605957
vt 1.0009102821350098 0.7784809470176697
vt 0.7504050135612488 0.9566783905029297
vt 0.7504050135612488 0.5429542660713196
vt 1.000404953956604 0.5429542660713196
vt 1.000404953956604 0.9566783905029297
vt 0.7509102821350098 0.6219993233680725
vt 0.7509102821350098 0.2082751989364624
vt 1.0009102821350098 0.2082751989364624
vt 1.0009102821350098 0.6219993233680725
vt 0.7504050135612488 0.5289620757102966
vt 0.7504050135612488 0.11523795127868652
vt 1.000404953956604 0.11523795127868652
vt 1.000404953956604 0.5289620757102966
vt 0.7509102821350098 0.42031198740005493
vt 0.7509102821350098 0.006587862968444824
vt 1.0009102821350098 0.006587862968444824
vt 1.0009102821350098 0.42031198740005493

g Mesh_FX_Fetters_Chain
s 1
usemtl Mesh_FX_Fetters_Chain
f 3/3/3 2/2/2 1/1/1 
f 4/4/4 3/3/3 1/1/1 
f 7/7/7 6/6/6 5/5/5 
f 8/8/8 7/7/7 5/5/5 
f 11/11/11 10/10/10 9/9/9 
f 12/12/12 11/11/11 9/9/9 
f 15/15/15 14/14/14 13/13/13 
f 16/16/16 15/15/15 13/13/13 
f 19/19/19 18/18/18 17/17/17 
f 20/20/20 19/19/19 17/17/17 
f 23/23/23 22/22/22 21/21/21 
f 24/24/24 23/23/23 21/21/21 
f 27/27/27 26/26/26 25/25/25 
f 28/28/28 27/27/27 25/25/25 
f 31/31/31 30/30/30 29/29/29 
f 32/32/32 31/31/31 29/29/29 
f 35/35/35 34/34/34 33/33/33 
f 36/36/36 35/35/35 33/33/33 
f 39/39/39 38/38/38 37/37/37 
f 40/40/40 39/39/39 37/37/37 
f 43/43/43 42/42/42 41/41/41 
f 44/44/44 43/43/43 41/41/41 
f 47/47/47 46/46/46 45/45/45 
f 48/48/48 47/47/47 45/45/45 

